<?xml version="1.0" encoding="utf-8"  standalone="no"?>
<svg 
 viewBox="0 0 1280 720"
 xmlns="http://www.w3.org/2000/svg"
 xmlns:xlink="http://www.w3.org/1999/xlink"
>

<title>Gnuplot</title>
<desc>Produced by GNUPLOT 5.2 patchlevel 2 </desc>

<g id="gnuplot_canvas">

<rect x="0" y="0" width="1280" height="720" fill="none"/>
<defs>

	<circle id='gpDot' r='0.5' stroke-width='0.5'/>
	<path id='gpPt0' stroke-width='0.222' stroke='currentColor' d='M-1,0 h2 M0,-1 v2'/>
	<path id='gpPt1' stroke-width='0.222' stroke='currentColor' d='M-1,-1 L1,1 M1,-1 L-1,1'/>
	<path id='gpPt2' stroke-width='0.222' stroke='currentColor' d='M-1,0 L1,0 M0,-1 L0,1 M-1,-1 L1,1 M-1,1 L1,-1'/>
	<rect id='gpPt3' stroke-width='0.222' stroke='currentColor' x='-1' y='-1' width='2' height='2'/>
	<rect id='gpPt4' stroke-width='0.222' stroke='currentColor' fill='currentColor' x='-1' y='-1' width='2' height='2'/>
	<circle id='gpPt5' stroke-width='0.222' stroke='currentColor' cx='0' cy='0' r='1'/>
	<use xlink:href='#gpPt5' id='gpPt6' fill='currentColor' stroke='none'/>
	<path id='gpPt7' stroke-width='0.222' stroke='currentColor' d='M0,-1.33 L-1.33,0.67 L1.33,0.67 z'/>
	<use xlink:href='#gpPt7' id='gpPt8' fill='currentColor' stroke='none'/>
	<use xlink:href='#gpPt7' id='gpPt9' stroke='currentColor' transform='rotate(180)'/>
	<use xlink:href='#gpPt9' id='gpPt10' fill='currentColor' stroke='none'/>
	<use xlink:href='#gpPt3' id='gpPt11' stroke='currentColor' transform='rotate(45)'/>
	<use xlink:href='#gpPt11' id='gpPt12' fill='currentColor' stroke='none'/>
	<path id='gpPt13' stroke-width='0.222' stroke='currentColor' d='M0,1.330 L1.265,0.411 L0.782,-1.067 L-0.782,-1.076 L-1.265,0.411 z'/>
	<use xlink:href='#gpPt13' id='gpPt14' fill='currentColor' stroke='none'/>
	<filter id='textbox' filterUnits='objectBoundingBox' x='0' y='0' height='1' width='1'>
	  <feFlood flood-color='white' flood-opacity='1' result='bgnd'/>
	  <feComposite in='SourceGraphic' in2='bgnd' operator='atop'/>
	</filter>
	<filter id='greybox' filterUnits='objectBoundingBox' x='0' y='0' height='1' width='1'>
	  <feFlood flood-color='lightgrey' flood-opacity='1' result='grey'/>
	  <feComposite in='SourceGraphic' in2='grey' operator='atop'/>
	</filter>
</defs>
<g fill="none" color="white" stroke="currentColor" stroke-width="1.00" stroke-linecap="butt" stroke-linejoin="miter">
</g>
<g fill="none" color="black" stroke="currentColor" stroke-width="1.00" stroke-linecap="butt" stroke-linejoin="miter">
	<path stroke='black'  d='M105.1,662.4 L114.1,662.4  '/>	<g transform="translate(96.8,666.3)" stroke="none" fill="black" font-family="Helvetica" font-size="12.00"  text-anchor="end">
		<text><tspan font-family="Helvetica" > 0</tspan></text>
	</g>
</g>
<g fill="none" color="black" stroke="currentColor" stroke-width="1.00" stroke-linecap="butt" stroke-linejoin="miter">
	<path stroke='black'  d='M105.1,561.0 L114.1,561.0  '/>	<g transform="translate(96.8,564.9)" stroke="none" fill="black" font-family="Helvetica" font-size="12.00"  text-anchor="end">
		<text><tspan font-family="Helvetica" > 5x10</tspan><tspan font-family="Helvetica"  font-size="9.6" dy="-6.00px">-8</tspan><tspan font-size="12.0" dy="6.00"></tspan></text>
	</g>
</g>
<g fill="none" color="black" stroke="currentColor" stroke-width="1.00" stroke-linecap="butt" stroke-linejoin="miter">
	<path stroke='black'  d='M105.1,459.6 L114.1,459.6  '/>	<g transform="translate(96.8,463.5)" stroke="none" fill="black" font-family="Helvetica" font-size="12.00"  text-anchor="end">
		<text><tspan font-family="Helvetica" > 1x10</tspan><tspan font-family="Helvetica"  font-size="9.6" dy="-6.00px">-7</tspan><tspan font-size="12.0" dy="6.00"></tspan></text>
	</g>
</g>
<g fill="none" color="black" stroke="currentColor" stroke-width="1.00" stroke-linecap="butt" stroke-linejoin="miter">
	<path stroke='black'  d='M105.1,358.2 L114.1,358.2  '/>	<g transform="translate(96.8,362.1)" stroke="none" fill="black" font-family="Helvetica" font-size="12.00"  text-anchor="end">
		<text><tspan font-family="Helvetica" > 1.5x10</tspan><tspan font-family="Helvetica"  font-size="9.6" dy="-6.00px">-7</tspan><tspan font-size="12.0" dy="6.00"></tspan></text>
	</g>
</g>
<g fill="none" color="black" stroke="currentColor" stroke-width="1.00" stroke-linecap="butt" stroke-linejoin="miter">
	<path stroke='black'  d='M105.1,256.9 L114.1,256.9  '/>	<g transform="translate(96.8,260.8)" stroke="none" fill="black" font-family="Helvetica" font-size="12.00"  text-anchor="end">
		<text><tspan font-family="Helvetica" > 2x10</tspan><tspan font-family="Helvetica"  font-size="9.6" dy="-6.00px">-7</tspan><tspan font-size="12.0" dy="6.00"></tspan></text>
	</g>
</g>
<g fill="none" color="black" stroke="currentColor" stroke-width="1.00" stroke-linecap="butt" stroke-linejoin="miter">
	<path stroke='black'  d='M105.1,155.5 L114.1,155.5  '/>	<g transform="translate(96.8,159.4)" stroke="none" fill="black" font-family="Helvetica" font-size="12.00"  text-anchor="end">
		<text><tspan font-family="Helvetica" > 2.5x10</tspan><tspan font-family="Helvetica"  font-size="9.6" dy="-6.00px">-7</tspan><tspan font-size="12.0" dy="6.00"></tspan></text>
	</g>
</g>
<g fill="none" color="black" stroke="currentColor" stroke-width="1.00" stroke-linecap="butt" stroke-linejoin="miter">
	<path stroke='black'  d='M105.1,54.1 L114.1,54.1  '/>	<g transform="translate(96.8,58.0)" stroke="none" fill="black" font-family="Helvetica" font-size="12.00"  text-anchor="end">
		<text><tspan font-family="Helvetica" > 3x10</tspan><tspan font-family="Helvetica"  font-size="9.6" dy="-6.00px">-7</tspan><tspan font-size="12.0" dy="6.00"></tspan></text>
	</g>
</g>
<g fill="none" color="black" stroke="currentColor" stroke-width="1.00" stroke-linecap="butt" stroke-linejoin="miter">
	<path stroke='black'  d='M223.7,662.4 L223.7,653.4  '/>	<g transform="translate(223.7,684.3)" stroke="none" fill="black" font-family="Helvetica" font-size="12.00"  text-anchor="middle">
		<text><tspan font-family="Helvetica" > 8x10</tspan><tspan font-family="Helvetica"  font-size="9.6" dy="-6.00px">7</tspan><tspan font-size="12.0" dy="6.00"></tspan></text>
	</g>
</g>
<g fill="none" color="black" stroke="currentColor" stroke-width="1.00" stroke-linecap="butt" stroke-linejoin="miter">
	<path stroke='black'  d='M360.7,662.4 L360.7,653.4  '/>	<g transform="translate(360.7,684.3)" stroke="none" fill="black" font-family="Helvetica" font-size="12.00"  text-anchor="middle">
		<text><tspan font-family="Helvetica" > 8.1x10</tspan><tspan font-family="Helvetica"  font-size="9.6" dy="-6.00px">7</tspan><tspan font-size="12.0" dy="6.00"></tspan></text>
	</g>
</g>
<g fill="none" color="black" stroke="currentColor" stroke-width="1.00" stroke-linecap="butt" stroke-linejoin="miter">
	<path stroke='black'  d='M497.7,662.4 L497.7,653.4  '/>	<g transform="translate(497.7,684.3)" stroke="none" fill="black" font-family="Helvetica" font-size="12.00"  text-anchor="middle">
		<text><tspan font-family="Helvetica" > 8.2x10</tspan><tspan font-family="Helvetica"  font-size="9.6" dy="-6.00px">7</tspan><tspan font-size="12.0" dy="6.00"></tspan></text>
	</g>
</g>
<g fill="none" color="black" stroke="currentColor" stroke-width="1.00" stroke-linecap="butt" stroke-linejoin="miter">
	<path stroke='black'  d='M634.6,662.4 L634.6,653.4  '/>	<g transform="translate(634.6,684.3)" stroke="none" fill="black" font-family="Helvetica" font-size="12.00"  text-anchor="middle">
		<text><tspan font-family="Helvetica" > 8.3x10</tspan><tspan font-family="Helvetica"  font-size="9.6" dy="-6.00px">7</tspan><tspan font-size="12.0" dy="6.00"></tspan></text>
	</g>
</g>
<g fill="none" color="black" stroke="currentColor" stroke-width="1.00" stroke-linecap="butt" stroke-linejoin="miter">
	<path stroke='black'  d='M771.6,662.4 L771.6,653.4  '/>	<g transform="translate(771.6,684.3)" stroke="none" fill="black" font-family="Helvetica" font-size="12.00"  text-anchor="middle">
		<text><tspan font-family="Helvetica" > 8.4x10</tspan><tspan font-family="Helvetica"  font-size="9.6" dy="-6.00px">7</tspan><tspan font-size="12.0" dy="6.00"></tspan></text>
	</g>
</g>
<g fill="none" color="black" stroke="currentColor" stroke-width="1.00" stroke-linecap="butt" stroke-linejoin="miter">
	<path stroke='black'  d='M908.6,662.4 L908.6,653.4  '/>	<g transform="translate(908.6,684.3)" stroke="none" fill="black" font-family="Helvetica" font-size="12.00"  text-anchor="middle">
		<text><tspan font-family="Helvetica" > 8.5x10</tspan><tspan font-family="Helvetica"  font-size="9.6" dy="-6.00px">7</tspan><tspan font-size="12.0" dy="6.00"></tspan></text>
	</g>
</g>
<g fill="none" color="black" stroke="currentColor" stroke-width="1.00" stroke-linecap="butt" stroke-linejoin="miter">
</g>
<g fill="none" color="black" stroke="currentColor" stroke-width="1.00" stroke-linecap="butt" stroke-linejoin="miter">
	<path stroke='black'  d='M105.1,54.1 L105.1,662.4 L1013.6,662.4 L1013.6,54.1 L105.1,54.1 Z  '/></g>
<g fill="none" color="black" stroke="currentColor" stroke-width="1.00" stroke-linecap="butt" stroke-linejoin="miter">
	<g transform="translate(16.3,358.3) rotate(270)" stroke="none" fill="black" font-family="Helvetica" font-size="12.00"  text-anchor="middle">
		<text><tspan font-family="Helvetica" >Density (a.u.)</tspan></text>
	</g>
</g>
<g fill="none" color="black" stroke="currentColor" stroke-width="1.00" stroke-linecap="butt" stroke-linejoin="miter">
	<g transform="translate(559.3,711.3)" stroke="none" fill="black" font-family="Helvetica" font-size="12.00"  text-anchor="middle">
		<text><tspan font-family="Helvetica" >Average time (cycles)</tspan></text>
	</g>
</g>
<g fill="none" color="black" stroke="currentColor" stroke-width="1.00" stroke-linecap="butt" stroke-linejoin="miter">
	<g transform="translate(559.3,31.0)" stroke="none" fill="black" font-family="Helvetica" font-size="12.00"  text-anchor="middle">
		<text><tspan font-family="Helvetica" >non_nested_compare/modified from scratch/18: slope</tspan></text>
	</g>
</g>
	<g id="gnuplot_plot_1" ><title>Bootstrap distribution</title>
<g fill="none" color="white" stroke="black" stroke-width="2.00" stroke-linecap="butt" stroke-linejoin="miter">
</g>
<g fill="none" color="black" stroke="currentColor" stroke-width="2.00" stroke-linecap="butt" stroke-linejoin="miter">
	<g transform="translate(1089.0,67.0)" stroke="none" fill="black" font-family="Helvetica" font-size="12.00"  text-anchor="start">
		<text><tspan font-family="Helvetica" >Bootstrap distribution</tspan></text>
	</g>
</g>
<g fill="none" color="black" stroke="currentColor" stroke-width="2.00" stroke-linecap="butt" stroke-linejoin="miter">
	<path stroke='rgb( 31, 120, 180)'  d='M1038.5,63.1 L1080.7,63.1 M105.1,627.7 L106.9,626.8 L108.7,625.9 L110.6,625.0 L112.4,624.1 L114.2,623.2
		L116.0,622.3 L117.8,621.4 L119.7,620.5 L121.5,619.7 L123.3,618.8 L125.1,617.9 L126.9,617.0 L128.8,616.2
		L130.6,615.3 L132.4,614.5 L134.2,613.6 L136.1,612.7 L137.9,611.9 L139.7,611.0 L141.5,610.1 L143.3,609.2
		L145.2,608.3 L147.0,607.4 L148.8,606.5 L150.6,605.5 L152.4,604.5 L154.3,603.5 L156.1,602.5 L157.9,601.4
		L159.7,600.3 L161.5,599.1 L163.4,598.0 L165.2,596.8 L167.0,595.5 L168.8,594.3 L170.6,593.0 L172.5,591.6
		L174.3,590.3 L176.1,588.9 L177.9,587.4 L179.7,586.0 L181.6,584.5 L183.4,582.9 L185.2,581.4 L187.0,579.8
		L188.8,578.2 L190.7,576.6 L192.5,574.9 L194.3,573.2 L196.1,571.5 L198.0,569.8 L199.8,568.1 L201.6,566.3
		L203.4,564.5 L205.2,562.7 L207.1,560.8 L208.9,559.0 L210.7,557.1 L212.5,555.3 L214.3,553.4 L216.2,551.5
		L218.0,549.5 L219.8,547.6 L221.6,545.7 L223.4,543.7 L225.3,541.8 L227.1,539.8 L228.9,537.9 L230.7,535.9
		L232.5,533.9 L234.4,531.9 L236.2,529.8 L238.0,527.8 L239.8,525.7 L241.6,523.6 L243.5,521.5 L245.3,519.4
		L247.1,517.3 L248.9,515.1 L250.8,512.9 L252.6,510.7 L254.4,508.5 L256.2,506.2 L258.0,503.9 L259.9,501.5
		L261.7,499.2 L263.5,496.7 L265.3,494.3 L267.1,491.8 L269.0,489.3 L270.8,486.8 L272.6,484.2 L274.4,481.5
		L276.2,478.9 L278.1,476.2 L279.9,473.5 L281.7,470.7 L283.5,467.9 L285.3,465.1 L287.2,462.3 L289.0,459.4
		L290.8,456.6 L292.6,453.7 L294.4,450.8 L296.3,447.9 L298.1,445.0 L299.9,442.1 L301.7,439.2 L303.5,436.3
		L305.4,433.3 L307.2,430.4 L309.0,427.5 L310.8,424.6 L312.7,421.7 L314.5,418.8 L316.3,415.8 L318.1,412.9
		L319.9,409.9 L321.8,407.0 L323.6,404.0 L325.4,401.0 L327.2,398.0 L329.0,395.0 L330.9,391.9 L332.7,388.9
		L334.5,385.8 L336.3,382.7 L338.1,379.6 L340.0,376.4 L341.8,373.2 L343.6,370.1 L345.4,366.8 L347.2,363.6
		L349.1,360.3 L350.9,357.1 L352.7,353.7 L354.5,350.4 L356.3,347.0 L358.2,343.7 L360.0,340.3 L361.8,336.9
		L363.6,333.4 L365.5,330.0 L367.3,326.6 L369.1,323.2 L370.9,319.8 L372.7,316.4 L374.6,313.0 L376.4,309.7
		L378.2,306.5 L380.0,303.3 L381.8,300.1 L383.7,297.0 L385.5,294.0 L387.3,291.1 L389.1,288.2 L390.9,285.4
		L392.8,282.7 L394.6,280.0 L396.4,277.5 L398.2,274.9 L400.0,272.4 L401.9,270.0 L403.7,267.6 L405.5,265.1
		L407.3,262.7 L409.1,260.3 L411.0,257.9 L412.8,255.4 L414.6,252.9 L416.4,250.4 L418.3,247.8 L420.1,245.1
		L421.9,242.3 L423.7,239.5 L425.5,236.6 L427.4,233.6 L429.2,230.5 L431.0,227.4 L432.8,224.2 L434.6,220.9
		L436.5,217.6 L438.3,214.2 L440.1,210.7 L441.9,207.3 L443.7,203.8 L445.6,200.3 L447.4,196.8 L449.2,193.4
		L451.0,189.9 L452.8,186.5 L454.7,183.1 L456.5,179.7 L458.3,176.4 L460.1,173.2 L461.9,170.0 L463.8,166.9
		L465.6,163.8 L467.4,160.8 L469.2,157.8 L471.0,154.9 L472.9,152.1 L474.7,149.3 L476.5,146.6 L478.3,143.9
		L480.2,141.2 L482.0,138.6 L483.8,136.1 L485.6,133.6 L487.4,131.2 L489.3,128.8 L491.1,126.5 L492.9,124.2
		L494.7,122.0 L496.5,119.8 L498.4,117.7 L500.2,115.7 L502.0,113.7 L503.8,111.8 L505.6,109.9 L507.5,108.1
		L509.3,106.4 L511.1,104.7 L512.9,103.0 L514.7,101.4 L516.6,99.9 L518.4,98.4 L520.2,97.0 L522.0,95.6
		L523.8,94.2 L525.7,92.9 L527.5,91.6 L529.3,90.4 L531.1,89.2 L533.0,88.1 L534.8,87.0 L536.6,86.0
		L538.4,85.0 L540.2,84.1 L542.1,83.3 L543.9,82.5 L545.7,81.9 L547.5,81.3 L549.3,80.8 L551.2,80.4
		L553.0,80.1 L554.8,79.9 L556.6,79.8 L558.4,79.7 L560.3,79.8 L562.1,79.9 L563.9,80.1 L565.7,80.4
		L567.5,80.7 L569.4,81.0 L571.2,81.4 L573.0,81.8 L574.8,82.3 L576.6,82.7 L578.5,83.1 L580.3,83.6
		L582.1,84.0 L583.9,84.5 L585.7,84.9 L587.6,85.3 L589.4,85.7 L591.2,86.1 L593.0,86.5 L594.9,87.0
		L596.7,87.4 L598.5,87.9 L600.3,88.3 L602.1,88.9 L604.0,89.5 L605.8,90.1 L607.6,90.8 L609.4,91.5
		L611.2,92.4 L613.1,93.3 L614.9,94.3 L616.7,95.3 L618.5,96.5 L620.3,97.7 L622.2,99.1 L624.0,100.5
		L625.8,102.0 L627.6,103.6 L629.4,105.3 L631.3,107.1 L633.1,108.9 L634.9,110.8 L636.7,112.8 L638.5,114.9
		L640.4,117.1 L642.2,119.3 L644.0,121.6 L645.8,123.9 L647.7,126.3 L649.5,128.8 L651.3,131.3 L653.1,133.9
		L654.9,136.5 L656.8,139.1 L658.6,141.8 L660.4,144.5 L662.2,147.2 L664.0,150.0 L665.9,152.7 L667.7,155.4
		L669.5,158.1 L671.3,160.9 L673.1,163.5 L675.0,166.2 L676.8,168.9 L678.6,171.5 L680.4,174.1 L682.2,176.6
		L684.1,179.2 L685.9,181.7 L687.7,184.3 L689.5,186.8 L691.3,189.3 L693.2,191.9 L695.0,194.5 L696.8,197.1
		L698.6,199.7 L700.4,202.3 L702.3,205.1 L704.1,207.8 L705.9,210.6 L707.7,213.5 L709.6,216.4 L711.4,219.4
		L713.2,222.4 L715.0,225.5 L716.8,228.6 L718.7,231.8 L720.5,235.1 L722.3,238.4 L724.1,241.8 L725.9,245.2
		L727.8,248.6 L729.6,252.1 L731.4,255.6 L733.2,259.1 L735.0,262.7 L736.9,266.2 L738.7,269.8 L740.5,273.4
		L742.3,277.0 L744.1,280.6 L746.0,284.2 L747.8,287.8 L749.6,291.4 L751.4,295.0 L753.2,298.6 L755.1,302.1
		L756.9,305.6 L758.7,309.2 L760.5,312.7 L762.4,316.1 L764.2,319.6 L766.0,323.1 L767.8,326.6 L769.6,330.0
		L771.5,333.5 L773.3,336.9 L775.1,340.4 L776.9,343.8 L778.7,347.3 L780.6,350.7 L782.4,354.2 L784.2,357.6
		L786.0,361.1 L787.8,364.5 L789.7,367.9 L791.5,371.4 L793.3,374.8 L795.1,378.2 L796.9,381.6 L798.8,385.0
		L800.6,388.3 L802.4,391.7 L804.2,395.0 L806.0,398.3 L807.9,401.6 L809.7,404.9 L811.5,408.2 L813.3,411.4
		L815.2,414.7 L817.0,417.9 L818.8,421.1 L820.6,424.2 L822.4,427.4 L824.3,430.5 L826.1,433.6 L827.9,436.7
		L829.7,439.8 L831.5,442.8 L833.4,445.9 L835.2,448.8 L837.0,451.8 L838.8,454.7 L840.6,457.7 L842.5,460.5
		L844.3,463.4 L846.1,466.2 L847.9,469.0 L849.7,471.7 L851.6,474.5 L853.4,477.2 L855.2,479.9 L857.0,482.5
		L858.8,485.2 L860.7,487.8 L862.5,490.3 L864.3,492.9 L866.1,495.4 L867.9,497.9 L869.8,500.4 L871.6,502.8
		L873.4,505.2 L875.2,507.6 L877.1,509.9 L878.9,512.2 L880.7,514.5 L882.5,516.8 L884.3,519.1 L886.2,521.3
		L888.0,523.5 L889.8,525.7 L891.6,527.9 L893.4,530.1 L895.3,532.2 L897.1,534.4 L898.9,536.5 L900.7,538.7
		L902.5,540.8 L904.4,543.0 L906.2,545.1 L908.0,547.3 L909.8,549.4 L911.6,551.5 L913.5,553.6 L915.3,555.7
		L917.1,557.8 L918.9,559.8 L920.7,561.9 L922.6,563.9 L924.4,565.8 L926.2,567.7 L928.0,569.6 L929.9,571.5
		L931.7,573.3 L933.5,575.1 L935.3,576.8 L937.1,578.5 L939.0,580.1 L940.8,581.7 L942.6,583.3 L944.4,584.8
		L946.2,586.3 L948.1,587.7 L949.9,589.2 L951.7,590.6 L953.5,592.0 L955.3,593.3 L957.2,594.6 L959.0,596.0
		L960.8,597.3 L962.6,598.5 L964.4,599.8 L966.3,601.0 L968.1,602.3 L969.9,603.5 L971.7,604.7 L973.5,605.9
		L975.4,607.1 L977.2,608.3 L979.0,609.4 L980.8,610.6 L982.6,611.7 L984.5,612.8 L986.3,613.9 L988.1,615.0
		L989.9,616.1 L991.8,617.1 L993.6,618.2 L995.4,619.2 L997.2,620.2 L999.0,621.1 L1000.9,622.1 L1002.7,623.0
		L1004.5,623.9 L1006.3,624.8 L1008.1,625.7 L1010.0,626.5 L1011.8,627.4 L1013.6,628.2  '/></g>
	</g>
	<g id="gnuplot_plot_2" ><title>Confidence interval</title>
<g fill="none" color="white" stroke="rgb( 31, 120, 180)" stroke-width="1.00" stroke-linecap="butt" stroke-linejoin="miter">
</g>
<g fill="none" color="black" stroke="currentColor" stroke-width="1.00" stroke-linecap="butt" stroke-linejoin="miter">
	<g transform="translate(1089.0,85.0)" stroke="none" fill="black" font-family="Helvetica" font-size="12.00"  text-anchor="start">
		<text><tspan font-family="Helvetica" >Confidence interval</tspan></text>
	</g>
</g>
<g fill="none" color="black" stroke="currentColor" stroke-width="1.00" stroke-linecap="butt" stroke-linejoin="miter">
	<g stroke='none' shape-rendering='crispEdges'>
		<polygon fill = 'rgb( 31, 120, 180)' fill-opacity = '0.250000' points = '1038.5,85.6 1080.7,85.6 1080.7,76.6 1038.5,76.6 '/>
		<polygon fill = 'rgb( 31, 120, 180)' fill-opacity = '0.250000' points = '188.8,578.2 190.7,576.6 192.5,574.9 194.3,573.2 196.1,571.5 198.0,569.8 199.8,568.1 201.6,566.3 203.4,564.5 205.2,562.7 207.1,560.8 208.9,559.0 210.7,557.1 212.5,555.3 214.3,553.4 216.2,551.5
218.0,549.5 219.8,547.6 221.6,545.7 223.4,543.7 225.3,541.8 227.1,539.8 228.9,537.9 230.7,535.9 232.5,533.9 234.4,531.9 236.2,529.8 238.0,527.8 239.8,525.7 241.6,523.6 243.5,521.5 245.3,519.4
247.1,517.3 248.9,515.1 250.8,512.9 252.6,510.7 254.4,508.5 256.2,506.2 258.0,503.9 259.9,501.5 261.7,499.2 263.5,496.7 265.3,494.3 267.1,491.8 269.0,489.3 270.8,486.8 272.6,484.2 274.4,481.5
276.2,478.9 278.1,476.2 279.9,473.5 281.7,470.7 283.5,467.9 285.3,465.1 287.2,462.3 289.0,459.4 290.8,456.6 292.6,453.7 294.4,450.8 296.3,447.9 298.1,445.0 299.9,442.1 301.7,439.2 303.5,436.3
305.4,433.3 307.2,430.4 309.0,427.5 310.8,424.6 312.7,421.7 314.5,418.8 316.3,415.8 318.1,412.9 319.9,409.9 321.8,407.0 323.6,404.0 325.4,401.0 327.2,398.0 329.0,395.0 330.9,391.9 332.7,388.9
334.5,385.8 336.3,382.7 338.1,379.6 340.0,376.4 341.8,373.2 343.6,370.1 345.4,366.8 347.2,363.6 349.1,360.3 350.9,357.1 352.7,353.7 354.5,350.4 356.3,347.0 358.2,343.7 360.0,340.3 361.8,336.9
363.6,333.4 365.5,330.0 367.3,326.6 369.1,323.2 370.9,319.8 372.7,316.4 374.6,313.0 376.4,309.7 378.2,306.5 380.0,303.3 381.8,300.1 383.7,297.0 385.5,294.0 387.3,291.1 389.1,288.2 390.9,285.4
392.8,282.7 394.6,280.0 396.4,277.5 398.2,274.9 400.0,272.4 401.9,270.0 403.7,267.6 405.5,265.1 407.3,262.7 409.1,260.3 411.0,257.9 412.8,255.4 414.6,252.9 416.4,250.4 418.3,247.8 420.1,245.1
421.9,242.3 423.7,239.5 425.5,236.6 427.4,233.6 429.2,230.5 431.0,227.4 432.8,224.2 434.6,220.9 436.5,217.6 438.3,214.2 440.1,210.7 441.9,207.3 443.7,203.8 445.6,200.3 447.4,196.8 449.2,193.4
451.0,189.9 452.8,186.5 454.7,183.1 456.5,179.7 458.3,176.4 460.1,173.2 461.9,170.0 463.8,166.9 465.6,163.8 467.4,160.8 469.2,157.8 471.0,154.9 472.9,152.1 474.7,149.3 476.5,146.6 478.3,143.9
480.2,141.2 482.0,138.6 483.8,136.1 485.6,133.6 487.4,131.2 489.3,128.8 491.1,126.5 492.9,124.2 494.7,122.0 496.5,119.8 498.4,117.7 500.2,115.7 502.0,113.7 503.8,111.8 505.6,109.9 507.5,108.1
509.3,106.4 511.1,104.7 512.9,103.0 514.7,101.4 516.6,99.9 518.4,98.4 520.2,97.0 522.0,95.6 523.8,94.2 525.7,92.9 527.5,91.6 529.3,90.4 531.1,89.2 533.0,88.1 534.8,87.0 536.6,86.0
538.4,85.0 540.2,84.1 542.1,83.3 543.9,82.5 545.7,81.9 547.5,81.3 549.3,80.8 551.2,80.4 553.0,80.1 554.8,79.9 556.6,79.8 558.4,79.7 560.3,79.8 562.1,79.9 563.9,80.1 565.7,80.4
567.5,80.7 569.4,81.0 571.2,81.4 573.0,81.8 574.8,82.3 576.6,82.7 578.5,83.1 580.3,83.6 582.1,84.0 583.9,84.5 585.7,84.9 587.6,85.3 589.4,85.7 591.2,86.1 593.0,86.5 594.9,87.0
596.7,87.4 598.5,87.9 600.3,88.3 602.1,88.9 604.0,89.5 605.8,90.1 607.6,90.8 609.4,91.5 611.2,92.4 613.1,93.3 614.9,94.3 616.7,95.3 618.5,96.5 620.3,97.7 622.2,99.1 624.0,100.5
625.8,102.0 627.6,103.6 629.4,105.3 631.3,107.1 633.1,108.9 634.9,110.8 636.7,112.8 638.5,114.9 640.4,117.1 642.2,119.3 644.0,121.6 645.8,123.9 647.7,126.3 649.5,128.8 651.3,131.3 653.1,133.9
654.9,136.5 656.8,139.1 658.6,141.8 660.4,144.5 662.2,147.2 664.0,150.0 665.9,152.7 667.7,155.4 669.5,158.1 671.3,160.9 673.1,163.5 675.0,166.2 676.8,168.9 678.6,171.5 680.4,174.1 682.2,176.6
684.1,179.2 685.9,181.7 687.7,184.3 689.5,186.8 691.3,189.3 693.2,191.9 695.0,194.5 696.8,197.1 698.6,199.7 700.4,202.3 702.3,205.1 704.1,207.8 705.9,210.6 707.7,213.5 709.6,216.4 711.4,219.4
713.2,222.4 715.0,225.5 716.8,228.6 718.7,231.8 720.5,235.1 722.3,238.4 724.1,241.8 725.9,245.2 727.8,248.6 729.6,252.1 731.4,255.6 733.2,259.1 735.0,262.7 736.9,266.2 738.7,269.8 740.5,273.4
742.3,277.0 744.1,280.6 746.0,284.2 747.8,287.8 749.6,291.4 751.4,295.0 753.2,298.6 755.1,302.1 756.9,305.6 758.7,309.2 760.5,312.7 762.4,316.1 764.2,319.6 766.0,323.1 767.8,326.6 769.6,330.0
771.5,333.5 773.3,336.9 775.1,340.4 776.9,343.8 778.7,347.3 780.6,350.7 782.4,354.2 784.2,357.6 786.0,361.1 787.8,364.5 789.7,367.9 791.5,371.4 793.3,374.8 795.1,378.2 796.9,381.6 798.8,385.0
800.6,388.3 802.4,391.7 804.2,395.0 806.0,398.3 807.9,401.6 809.7,404.9 811.5,408.2 813.3,411.4 815.2,414.7 817.0,417.9 818.8,421.1 820.6,424.2 822.4,427.4 824.3,430.5 826.1,433.6 827.9,436.7
829.7,439.8 831.5,442.8 833.4,445.9 835.2,448.8 837.0,451.8 838.8,454.7 840.6,457.7 842.5,460.5 844.3,463.4 846.1,466.2 847.9,469.0 849.7,471.7 851.6,474.5 853.4,477.2 855.2,479.9 857.0,482.5
858.8,485.2 860.7,487.8 862.5,490.3 864.3,492.9 866.1,495.4 867.9,497.9 869.8,500.4 871.6,502.8 873.4,505.2 875.2,507.6 877.1,509.9 878.9,512.2 880.7,514.5 882.5,516.8 884.3,519.1 886.2,521.3
888.0,523.5 889.8,525.7 891.6,527.9 893.4,530.1 895.3,532.2 897.1,534.4 898.9,536.5 900.7,538.7 902.5,540.8 904.4,543.0 906.2,545.1 908.0,547.3 909.8,549.4 911.6,551.5 913.5,553.6 915.3,555.7
917.1,557.8 918.9,559.8 920.7,561.9 922.6,563.9 924.4,565.8 926.2,567.7 928.0,569.6 928.0,662.4 926.2,662.4 924.4,662.4 922.6,662.4 920.7,662.4 918.9,662.4 917.1,662.4 915.3,662.4 913.5,662.4
911.6,662.4 909.8,662.4 908.0,662.4 906.2,662.4 904.4,662.4 902.5,662.4 900.7,662.4 898.9,662.4 897.1,662.4 895.3,662.4 893.4,662.4 891.6,662.4 889.8,662.4 888.0,662.4 886.2,662.4 884.3,662.4
882.5,662.4 880.7,662.4 878.9,662.4 877.1,662.4 875.2,662.4 873.4,662.4 871.6,662.4 869.8,662.4 867.9,662.4 866.1,662.4 864.3,662.4 862.5,662.4 860.7,662.4 858.8,662.4 857.0,662.4 855.2,662.4
853.4,662.4 851.6,662.4 849.7,662.4 847.9,662.4 846.1,662.4 844.3,662.4 842.5,662.4 840.6,662.4 838.8,662.4 837.0,662.4 835.2,662.4 833.4,662.4 831.5,662.4 829.7,662.4 827.9,662.4 826.1,662.4
824.3,662.4 822.4,662.4 820.6,662.4 818.8,662.4 817.0,662.4 815.2,662.4 813.3,662.4 811.5,662.4 809.7,662.4 807.9,662.4 806.0,662.4 804.2,662.4 802.4,662.4 800.6,662.4 798.8,662.4 796.9,662.4
795.1,662.4 793.3,662.4 791.5,662.4 789.7,662.4 787.8,662.4 786.0,662.4 784.2,662.4 782.4,662.4 780.6,662.4 778.7,662.4 776.9,662.4 775.1,662.4 773.3,662.4 771.5,662.4 769.6,662.4 767.8,662.4
766.0,662.4 764.2,662.4 762.4,662.4 760.5,662.4 758.7,662.4 756.9,662.4 755.1,662.4 753.2,662.4 751.4,662.4 749.6,662.4 747.8,662.4 746.0,662.4 744.1,662.4 742.3,662.4 740.5,662.4 738.7,662.4
736.9,662.4 735.0,662.4 733.2,662.4 731.4,662.4 729.6,662.4 727.8,662.4 725.9,662.4 724.1,662.4 722.3,662.4 720.5,662.4 718.7,662.4 716.8,662.4 715.0,662.4 713.2,662.4 711.4,662.4 709.6,662.4
707.7,662.4 705.9,662.4 704.1,662.4 702.3,662.4 700.4,662.4 698.6,662.4 696.8,662.4 695.0,662.4 693.2,662.4 691.3,662.4 689.5,662.4 687.7,662.4 685.9,662.4 684.1,662.4 682.2,662.4 680.4,662.4
678.6,662.4 676.8,662.4 675.0,662.4 673.1,662.4 671.3,662.4 669.5,662.4 667.7,662.4 665.9,662.4 664.0,662.4 662.2,662.4 660.4,662.4 658.6,662.4 656.8,662.4 654.9,662.4 653.1,662.4 651.3,662.4
649.5,662.4 647.7,662.4 645.8,662.4 644.0,662.4 642.2,662.4 640.4,662.4 638.5,662.4 636.7,662.4 634.9,662.4 633.1,662.4 631.3,662.4 629.4,662.4 627.6,662.4 625.8,662.4 624.0,662.4 622.2,662.4
620.3,662.4 618.5,662.4 616.7,662.4 614.9,662.4 613.1,662.4 611.2,662.4 609.4,662.4 607.6,662.4 605.8,662.4 604.0,662.4 602.1,662.4 600.3,662.4 598.5,662.4 596.7,662.4 594.9,662.4 593.0,662.4
591.2,662.4 589.4,662.4 587.6,662.4 585.7,662.4 583.9,662.4 582.1,662.4 580.3,662.4 578.5,662.4 576.6,662.4 574.8,662.4 573.0,662.4 571.2,662.4 569.4,662.4 567.5,662.4 565.7,662.4 563.9,662.4
562.1,662.4 560.3,662.4 558.4,662.4 556.6,662.4 554.8,662.4 553.0,662.4 551.2,662.4 549.3,662.4 547.5,662.4 545.7,662.4 543.9,662.4 542.1,662.4 540.2,662.4 538.4,662.4 536.6,662.4 534.8,662.4
533.0,662.4 531.1,662.4 529.3,662.4 527.5,662.4 525.7,662.4 523.8,662.4 522.0,662.4 520.2,662.4 518.4,662.4 516.6,662.4 514.7,662.4 512.9,662.4 511.1,662.4 509.3,662.4 507.5,662.4 505.6,662.4
503.8,662.4 502.0,662.4 500.2,662.4 498.4,662.4 496.5,662.4 494.7,662.4 492.9,662.4 491.1,662.4 489.3,662.4 487.4,662.4 485.6,662.4 483.8,662.4 482.0,662.4 480.2,662.4 478.3,662.4 476.5,662.4
474.7,662.4 472.9,662.4 471.0,662.4 469.2,662.4 467.4,662.4 465.6,662.4 463.8,662.4 461.9,662.4 460.1,662.4 458.3,662.4 456.5,662.4 454.7,662.4 452.8,662.4 451.0,662.4 449.2,662.4 447.4,662.4
445.6,662.4 443.7,662.4 441.9,662.4 440.1,662.4 438.3,662.4 436.5,662.4 434.6,662.4 432.8,662.4 431.0,662.4 429.2,662.4 427.4,662.4 425.5,662.4 423.7,662.4 421.9,662.4 420.1,662.4 418.3,662.4
416.4,662.4 414.6,662.4 412.8,662.4 411.0,662.4 409.1,662.4 407.3,662.4 405.5,662.4 403.7,662.4 401.9,662.4 400.0,662.4 398.2,662.4 396.4,662.4 394.6,662.4 392.8,662.4 390.9,662.4 389.1,662.4
387.3,662.4 385.5,662.4 383.7,662.4 381.8,662.4 380.0,662.4 378.2,662.4 376.4,662.4 374.6,662.4 372.7,662.4 370.9,662.4 369.1,662.4 367.3,662.4 365.5,662.4 363.6,662.4 361.8,662.4 360.0,662.4
358.2,662.4 356.3,662.4 354.5,662.4 352.7,662.4 350.9,662.4 349.1,662.4 347.2,662.4 345.4,662.4 343.6,662.4 341.8,662.4 340.0,662.4 338.1,662.4 336.3,662.4 334.5,662.4 332.7,662.4 330.9,662.4
329.0,662.4 327.2,662.4 325.4,662.4 323.6,662.4 321.8,662.4 319.9,662.4 318.1,662.4 316.3,662.4 314.5,662.4 312.7,662.4 310.8,662.4 309.0,662.4 307.2,662.4 305.4,662.4 303.5,662.4 301.7,662.4
299.9,662.4 298.1,662.4 296.3,662.4 294.4,662.4 292.6,662.4 290.8,662.4 289.0,662.4 287.2,662.4 285.3,662.4 283.5,662.4 281.7,662.4 279.9,662.4 278.1,662.4 276.2,662.4 274.4,662.4 272.6,662.4
270.8,662.4 269.0,662.4 267.1,662.4 265.3,662.4 263.5,662.4 261.7,662.4 259.9,662.4 258.0,662.4 256.2,662.4 254.4,662.4 252.6,662.4 250.8,662.4 248.9,662.4 247.1,662.4 245.3,662.4 243.5,662.4
241.6,662.4 239.8,662.4 238.0,662.4 236.2,662.4 234.4,662.4 232.5,662.4 230.7,662.4 228.9,662.4 227.1,662.4 225.3,662.4 223.4,662.4 221.6,662.4 219.8,662.4 218.0,662.4 216.2,662.4 214.3,662.4
212.5,662.4 210.7,662.4 208.9,662.4 207.1,662.4 205.2,662.4 203.4,662.4 201.6,662.4 199.8,662.4 198.0,662.4 196.1,662.4 194.3,662.4 192.5,662.4 190.7,662.4 188.8,662.4 '/>
	</g>
</g>
	</g>
	<g id="gnuplot_plot_3" ><title>Point estimate</title>
<g fill="none" color="white" stroke="rgb( 31, 120, 180)" stroke-width="2.00" stroke-linecap="butt" stroke-linejoin="miter">
</g>
<g fill="none" color="black" stroke="currentColor" stroke-width="2.00" stroke-linecap="butt" stroke-linejoin="miter">
	<g transform="translate(1089.0,103.0)" stroke="none" fill="black" font-family="Helvetica" font-size="12.00"  text-anchor="start">
		<text><tspan font-family="Helvetica" >Point estimate</tspan></text>
	</g>
</g>
<g fill="none" color="black" stroke="currentColor" stroke-width="2.00" stroke-linecap="butt" stroke-linejoin="miter">
	<path stroke='rgb( 31, 120, 180)'  d='M1038.5,99.1 L1080.7,99.1 M568.7,662.4 L568.7,80.9  '/></g>
	</g>
<g fill="none" color="black" stroke="currentColor" stroke-width="2.00" stroke-linecap="butt" stroke-linejoin="miter">
</g>
<g fill="none" color="black" stroke="black" stroke-width="1.00" stroke-linecap="butt" stroke-linejoin="miter">
</g>
<g fill="none" color="black" stroke="currentColor" stroke-width="1.00" stroke-linecap="butt" stroke-linejoin="miter">
	<path stroke='black'  d='M105.1,54.1 L105.1,662.4 L1013.6,662.4 L1013.6,54.1 L105.1,54.1 Z  '/></g>
<g fill="none" color="black" stroke="currentColor" stroke-width="1.00" stroke-linecap="butt" stroke-linejoin="miter">
</g>
</g>
</svg>

