<?xml version="1.0" encoding="utf-8"  standalone="no"?>
<svg 
 viewBox="0 0 1280 720"
 xmlns="http://www.w3.org/2000/svg"
 xmlns:xlink="http://www.w3.org/1999/xlink"
>

<title>Gnuplot</title>
<desc>Produced by GNUPLOT 5.2 patchlevel 2 </desc>

<g id="gnuplot_canvas">

<rect x="0" y="0" width="1280" height="720" fill="none"/>
<defs>

	<circle id='gpDot' r='0.5' stroke-width='0.5'/>
	<path id='gpPt0' stroke-width='0.222' stroke='currentColor' d='M-1,0 h2 M0,-1 v2'/>
	<path id='gpPt1' stroke-width='0.222' stroke='currentColor' d='M-1,-1 L1,1 M1,-1 L-1,1'/>
	<path id='gpPt2' stroke-width='0.222' stroke='currentColor' d='M-1,0 L1,0 M0,-1 L0,1 M-1,-1 L1,1 M-1,1 L1,-1'/>
	<rect id='gpPt3' stroke-width='0.222' stroke='currentColor' x='-1' y='-1' width='2' height='2'/>
	<rect id='gpPt4' stroke-width='0.222' stroke='currentColor' fill='currentColor' x='-1' y='-1' width='2' height='2'/>
	<circle id='gpPt5' stroke-width='0.222' stroke='currentColor' cx='0' cy='0' r='1'/>
	<use xlink:href='#gpPt5' id='gpPt6' fill='currentColor' stroke='none'/>
	<path id='gpPt7' stroke-width='0.222' stroke='currentColor' d='M0,-1.33 L-1.33,0.67 L1.33,0.67 z'/>
	<use xlink:href='#gpPt7' id='gpPt8' fill='currentColor' stroke='none'/>
	<use xlink:href='#gpPt7' id='gpPt9' stroke='currentColor' transform='rotate(180)'/>
	<use xlink:href='#gpPt9' id='gpPt10' fill='currentColor' stroke='none'/>
	<use xlink:href='#gpPt3' id='gpPt11' stroke='currentColor' transform='rotate(45)'/>
	<use xlink:href='#gpPt11' id='gpPt12' fill='currentColor' stroke='none'/>
	<path id='gpPt13' stroke-width='0.222' stroke='currentColor' d='M0,1.330 L1.265,0.411 L0.782,-1.067 L-0.782,-1.076 L-1.265,0.411 z'/>
	<use xlink:href='#gpPt13' id='gpPt14' fill='currentColor' stroke='none'/>
	<filter id='textbox' filterUnits='objectBoundingBox' x='0' y='0' height='1' width='1'>
	  <feFlood flood-color='white' flood-opacity='1' result='bgnd'/>
	  <feComposite in='SourceGraphic' in2='bgnd' operator='atop'/>
	</filter>
	<filter id='greybox' filterUnits='objectBoundingBox' x='0' y='0' height='1' width='1'>
	  <feFlood flood-color='lightgrey' flood-opacity='1' result='grey'/>
	  <feComposite in='SourceGraphic' in2='grey' operator='atop'/>
	</filter>
</defs>
<g fill="none" color="white" stroke="currentColor" stroke-width="1.00" stroke-linecap="butt" stroke-linejoin="miter">
</g>
<g fill="none" color="black" stroke="currentColor" stroke-width="1.00" stroke-linecap="butt" stroke-linejoin="miter">
	<path stroke='black'  d='M63.6,662.4 L72.6,662.4  '/>	<g transform="translate(55.3,666.3)" stroke="none" fill="black" font-family="Helvetica" font-size="12.00"  text-anchor="end">
		<text><tspan font-family="Helvetica" > 0</tspan></text>
	</g>
</g>
<g fill="none" color="black" stroke="currentColor" stroke-width="1.00" stroke-linecap="butt" stroke-linejoin="miter">
	<path stroke='black'  d='M63.6,577.0 L72.6,577.0  '/>	<g transform="translate(55.3,580.9)" stroke="none" fill="black" font-family="Helvetica" font-size="12.00"  text-anchor="end">
		<text><tspan font-family="Helvetica" > 5</tspan></text>
	</g>
</g>
<g fill="none" color="black" stroke="currentColor" stroke-width="1.00" stroke-linecap="butt" stroke-linejoin="miter">
	<path stroke='black'  d='M63.6,491.5 L72.6,491.5  '/>	<g transform="translate(55.3,495.4)" stroke="none" fill="black" font-family="Helvetica" font-size="12.00"  text-anchor="end">
		<text><tspan font-family="Helvetica" > 10</tspan></text>
	</g>
</g>
<g fill="none" color="black" stroke="currentColor" stroke-width="1.00" stroke-linecap="butt" stroke-linejoin="miter">
	<path stroke='black'  d='M63.6,406.1 L72.6,406.1  '/>	<g transform="translate(55.3,410.0)" stroke="none" fill="black" font-family="Helvetica" font-size="12.00"  text-anchor="end">
		<text><tspan font-family="Helvetica" > 15</tspan></text>
	</g>
</g>
<g fill="none" color="black" stroke="currentColor" stroke-width="1.00" stroke-linecap="butt" stroke-linejoin="miter">
	<path stroke='black'  d='M63.6,320.7 L72.6,320.7  '/>	<g transform="translate(55.3,324.6)" stroke="none" fill="black" font-family="Helvetica" font-size="12.00"  text-anchor="end">
		<text><tspan font-family="Helvetica" > 20</tspan></text>
	</g>
</g>
<g fill="none" color="black" stroke="currentColor" stroke-width="1.00" stroke-linecap="butt" stroke-linejoin="miter">
	<path stroke='black'  d='M63.6,235.2 L72.6,235.2  '/>	<g transform="translate(55.3,239.1)" stroke="none" fill="black" font-family="Helvetica" font-size="12.00"  text-anchor="end">
		<text><tspan font-family="Helvetica" > 25</tspan></text>
	</g>
</g>
<g fill="none" color="black" stroke="currentColor" stroke-width="1.00" stroke-linecap="butt" stroke-linejoin="miter">
	<path stroke='black'  d='M63.6,149.8 L72.6,149.8  '/>	<g transform="translate(55.3,153.7)" stroke="none" fill="black" font-family="Helvetica" font-size="12.00"  text-anchor="end">
		<text><tspan font-family="Helvetica" > 30</tspan></text>
	</g>
</g>
<g fill="none" color="black" stroke="currentColor" stroke-width="1.00" stroke-linecap="butt" stroke-linejoin="miter">
	<path stroke='black'  d='M63.6,64.4 L72.6,64.4  '/>	<g transform="translate(55.3,68.3)" stroke="none" fill="black" font-family="Helvetica" font-size="12.00"  text-anchor="end">
		<text><tspan font-family="Helvetica" > 35</tspan></text>
	</g>
</g>
<g fill="none" color="black" stroke="currentColor" stroke-width="1.00" stroke-linecap="butt" stroke-linejoin="miter">
	<path stroke='black'  d='M93.2,662.4 L93.2,653.4  '/>	<g transform="translate(93.2,684.3)" stroke="none" fill="black" font-family="Helvetica" font-size="12.00"  text-anchor="middle">
		<text><tspan font-family="Helvetica" > 0</tspan></text>
	</g>
</g>
<g fill="none" color="black" stroke="currentColor" stroke-width="1.00" stroke-linecap="butt" stroke-linejoin="miter">
	<path stroke='black'  d='M262.3,662.4 L262.3,653.4  '/>	<g transform="translate(262.3,684.3)" stroke="none" fill="black" font-family="Helvetica" font-size="12.00"  text-anchor="middle">
		<text><tspan font-family="Helvetica" > 2x10</tspan><tspan font-family="Helvetica"  font-size="9.6" dy="-6.00px">6</tspan><tspan font-size="12.0" dy="6.00"></tspan></text>
	</g>
</g>
<g fill="none" color="black" stroke="currentColor" stroke-width="1.00" stroke-linecap="butt" stroke-linejoin="miter">
	<path stroke='black'  d='M431.4,662.4 L431.4,653.4  '/>	<g transform="translate(431.4,684.3)" stroke="none" fill="black" font-family="Helvetica" font-size="12.00"  text-anchor="middle">
		<text><tspan font-family="Helvetica" > 4x10</tspan><tspan font-family="Helvetica"  font-size="9.6" dy="-6.00px">6</tspan><tspan font-size="12.0" dy="6.00"></tspan></text>
	</g>
</g>
<g fill="none" color="black" stroke="currentColor" stroke-width="1.00" stroke-linecap="butt" stroke-linejoin="miter">
	<path stroke='black'  d='M600.5,662.4 L600.5,653.4  '/>	<g transform="translate(600.5,684.3)" stroke="none" fill="black" font-family="Helvetica" font-size="12.00"  text-anchor="middle">
		<text><tspan font-family="Helvetica" > 6x10</tspan><tspan font-family="Helvetica"  font-size="9.6" dy="-6.00px">6</tspan><tspan font-size="12.0" dy="6.00"></tspan></text>
	</g>
</g>
<g fill="none" color="black" stroke="currentColor" stroke-width="1.00" stroke-linecap="butt" stroke-linejoin="miter">
	<path stroke='black'  d='M769.6,662.4 L769.6,653.4  '/>	<g transform="translate(769.6,684.3)" stroke="none" fill="black" font-family="Helvetica" font-size="12.00"  text-anchor="middle">
		<text><tspan font-family="Helvetica" > 8x10</tspan><tspan font-family="Helvetica"  font-size="9.6" dy="-6.00px">6</tspan><tspan font-size="12.0" dy="6.00"></tspan></text>
	</g>
</g>
<g fill="none" color="black" stroke="currentColor" stroke-width="1.00" stroke-linecap="butt" stroke-linejoin="miter">
	<path stroke='black'  d='M938.7,662.4 L938.7,653.4  '/>	<g transform="translate(938.7,684.3)" stroke="none" fill="black" font-family="Helvetica" font-size="12.00"  text-anchor="middle">
		<text><tspan font-family="Helvetica" > 1x10</tspan><tspan font-family="Helvetica"  font-size="9.6" dy="-6.00px">7</tspan><tspan font-size="12.0" dy="6.00"></tspan></text>
	</g>
</g>
<g fill="none" color="black" stroke="currentColor" stroke-width="1.00" stroke-linecap="butt" stroke-linejoin="miter">
	<path stroke='black'  d='M979.0,662.4 L970.0,662.4  '/>	<g transform="translate(987.3,666.3)" stroke="none" fill="black" font-family="Helvetica" font-size="12.00"  text-anchor="start">
		<text><tspan font-family="Helvetica" > 0</tspan></text>
	</g>
</g>
<g fill="none" color="black" stroke="currentColor" stroke-width="1.00" stroke-linecap="butt" stroke-linejoin="miter">
	<path stroke='black'  d='M979.0,561.0 L970.0,561.0  '/>	<g transform="translate(987.3,564.9)" stroke="none" fill="black" font-family="Helvetica" font-size="12.00"  text-anchor="start">
		<text><tspan font-family="Helvetica" > 5x10</tspan><tspan font-family="Helvetica"  font-size="9.6" dy="-6.00px">-8</tspan><tspan font-size="12.0" dy="6.00"></tspan></text>
	</g>
</g>
<g fill="none" color="black" stroke="currentColor" stroke-width="1.00" stroke-linecap="butt" stroke-linejoin="miter">
	<path stroke='black'  d='M979.0,459.6 L970.0,459.6  '/>	<g transform="translate(987.3,463.5)" stroke="none" fill="black" font-family="Helvetica" font-size="12.00"  text-anchor="start">
		<text><tspan font-family="Helvetica" > 1x10</tspan><tspan font-family="Helvetica"  font-size="9.6" dy="-6.00px">-7</tspan><tspan font-size="12.0" dy="6.00"></tspan></text>
	</g>
</g>
<g fill="none" color="black" stroke="currentColor" stroke-width="1.00" stroke-linecap="butt" stroke-linejoin="miter">
	<path stroke='black'  d='M979.0,358.2 L970.0,358.2  '/>	<g transform="translate(987.3,362.1)" stroke="none" fill="black" font-family="Helvetica" font-size="12.00"  text-anchor="start">
		<text><tspan font-family="Helvetica" > 1.5x10</tspan><tspan font-family="Helvetica"  font-size="9.6" dy="-6.00px">-7</tspan><tspan font-size="12.0" dy="6.00"></tspan></text>
	</g>
</g>
<g fill="none" color="black" stroke="currentColor" stroke-width="1.00" stroke-linecap="butt" stroke-linejoin="miter">
	<path stroke='black'  d='M979.0,256.9 L970.0,256.9  '/>	<g transform="translate(987.3,260.8)" stroke="none" fill="black" font-family="Helvetica" font-size="12.00"  text-anchor="start">
		<text><tspan font-family="Helvetica" > 2x10</tspan><tspan font-family="Helvetica"  font-size="9.6" dy="-6.00px">-7</tspan><tspan font-size="12.0" dy="6.00"></tspan></text>
	</g>
</g>
<g fill="none" color="black" stroke="currentColor" stroke-width="1.00" stroke-linecap="butt" stroke-linejoin="miter">
	<path stroke='black'  d='M979.0,155.5 L970.0,155.5  '/>	<g transform="translate(987.3,159.4)" stroke="none" fill="black" font-family="Helvetica" font-size="12.00"  text-anchor="start">
		<text><tspan font-family="Helvetica" > 2.5x10</tspan><tspan font-family="Helvetica"  font-size="9.6" dy="-6.00px">-7</tspan><tspan font-size="12.0" dy="6.00"></tspan></text>
	</g>
</g>
<g fill="none" color="black" stroke="currentColor" stroke-width="1.00" stroke-linecap="butt" stroke-linejoin="miter">
	<path stroke='black'  d='M979.0,54.1 L970.0,54.1  '/>	<g transform="translate(987.3,58.0)" stroke="none" fill="black" font-family="Helvetica" font-size="12.00"  text-anchor="start">
		<text><tspan font-family="Helvetica" > 3x10</tspan><tspan font-family="Helvetica"  font-size="9.6" dy="-6.00px">-7</tspan><tspan font-size="12.0" dy="6.00"></tspan></text>
	</g>
</g>
<g fill="none" color="black" stroke="currentColor" stroke-width="1.00" stroke-linecap="butt" stroke-linejoin="miter">
</g>
<g fill="none" color="black" stroke="currentColor" stroke-width="1.00" stroke-linecap="butt" stroke-linejoin="miter">
	<path stroke='black'  d='M63.6,54.1 L63.6,662.4 L979.0,662.4 L979.0,54.1 L63.6,54.1 Z  '/></g>
<g fill="none" color="black" stroke="currentColor" stroke-width="1.00" stroke-linecap="butt" stroke-linejoin="miter">
	<g transform="translate(16.3,358.3) rotate(270)" stroke="none" fill="black" font-family="Helvetica" font-size="12.00"  text-anchor="middle">
		<text><tspan font-family="Helvetica" >Iterations (x 10</tspan><tspan font-family="Helvetica"  font-size="9.6" dy="-6.00px">3</tspan><tspan font-family="Helvetica"  font-size="12.0" dy="6.00px">)</tspan></text>
	</g>
</g>
<g fill="none" color="black" stroke="currentColor" stroke-width="1.00" stroke-linecap="butt" stroke-linejoin="miter">
	<g transform="translate(1082.5,358.3) rotate(270)" stroke="none" fill="black" font-family="Helvetica" font-size="12.00"  text-anchor="middle">
		<text><tspan font-family="Helvetica" >Density (a.u.)</tspan></text>
	</g>
</g>
<g fill="none" color="black" stroke="currentColor" stroke-width="1.00" stroke-linecap="butt" stroke-linejoin="miter">
	<g transform="translate(521.3,711.3)" stroke="none" fill="black" font-family="Helvetica" font-size="12.00"  text-anchor="middle">
		<text><tspan font-family="Helvetica" >Average time (cycles)</tspan></text>
	</g>
</g>
<g fill="none" color="black" stroke="currentColor" stroke-width="1.00" stroke-linecap="butt" stroke-linejoin="miter">
	<g transform="translate(521.3,31.0)" stroke="none" fill="black" font-family="Helvetica" font-size="12.00"  text-anchor="middle">
		<text><tspan font-family="Helvetica" >non_nested_compare/modified from scratch/15</tspan></text>
	</g>
</g>
	<g id="gnuplot_plot_1" ><title>PDF</title>
<g fill="none" color="black" stroke="currentColor" stroke-width="1.00" stroke-linecap="butt" stroke-linejoin="miter">
	<g transform="translate(1155.4,67.0)" stroke="none" fill="black" font-family="Helvetica" font-size="12.00"  text-anchor="start">
		<text><tspan font-family="Helvetica" >PDF</tspan></text>
	</g>
</g>
<g fill="none" color="black" stroke="currentColor" stroke-width="1.00" stroke-linecap="butt" stroke-linejoin="miter">
	<g stroke='none' shape-rendering='crispEdges'>
		<polygon fill = 'rgb( 31, 120, 180)' fill-opacity = '0.250000' points = '1104.9,67.6 1147.1,67.6 1147.1,58.6 1104.9,58.6 '/>
		<polygon fill = 'rgb( 31, 120, 180)' fill-opacity = '0.250000' points = '63.6,661.0 65.4,660.9 67.3,660.7 69.1,660.6 70.9,660.4 72.8,660.2 74.6,660.0 76.4,659.8 78.3,659.6 80.1,659.4 81.9,659.1 83.8,658.8 85.6,658.5 87.4,658.2 89.3,657.8 91.1,657.5
93.0,657.1 94.8,656.6 96.6,656.2 98.5,655.7 100.3,655.2 102.1,654.6 104.0,654.0 105.8,653.4 107.6,652.7 109.5,652.0 111.3,651.2 113.1,650.4 115.0,649.5 116.8,648.6 118.6,647.6 120.5,646.5
122.3,645.4 124.1,644.2 126.0,643.0 127.8,641.7 129.6,640.3 131.5,638.8 133.3,637.3 135.1,635.6 137.0,633.9 138.8,632.1 140.6,630.2 142.5,628.2 144.3,626.1 146.2,623.9 148.0,621.5 149.8,619.1
151.7,616.6 153.5,613.9 155.3,611.1 157.2,608.2 159.0,605.1 160.8,602.0 162.7,598.6 164.5,595.2 166.3,591.6 168.2,587.9 170.0,584.0 171.8,580.0 173.7,575.8 175.5,571.4 177.3,567.0 179.2,562.3
181.0,557.5 182.8,552.5 184.7,547.4 186.5,542.1 188.3,536.7 190.2,531.1 192.0,525.3 193.8,519.4 195.7,513.3 197.5,507.0 199.4,500.6 201.2,494.0 203.0,487.3 204.9,480.5 206.7,473.4 208.5,466.3
210.4,459.0 212.2,451.5 214.0,443.9 215.9,436.2 217.7,428.4 219.5,420.5 221.4,412.4 223.2,404.3 225.0,396.0 226.9,387.7 228.7,379.3 230.5,370.8 232.4,362.3 234.2,353.7 236.0,345.0 237.9,336.3
239.7,327.6 241.5,318.9 243.4,310.2 245.2,301.5 247.0,292.8 248.9,284.2 250.7,275.5 252.6,267.0 254.4,258.5 256.2,250.1 258.1,241.7 259.9,233.5 261.7,225.4 263.6,217.4 265.4,209.6 267.2,201.9
269.1,194.3 270.9,187.0 272.7,179.8 274.6,172.8 276.4,166.0 278.2,159.5 280.1,153.2 281.9,147.1 283.7,141.2 285.6,135.6 287.4,130.3 289.2,125.3 291.1,120.5 292.9,116.1 294.7,111.9 296.6,108.1
298.4,104.5 300.2,101.3 302.1,98.4 303.9,95.8 305.7,93.5 307.6,91.6 309.4,90.0 311.3,88.7 313.1,87.8 314.9,87.2 316.8,86.9 318.6,87.0 320.4,87.4 322.3,88.1 324.1,89.2 325.9,90.6
327.8,92.3 329.6,94.3 331.4,96.6 333.3,99.3 335.1,102.2 336.9,105.4 338.8,108.9 340.6,112.7 342.4,116.7 344.3,121.0 346.1,125.5 347.9,130.3 349.8,135.3 351.6,140.5 353.4,145.9 355.3,151.5
357.1,157.3 358.9,163.3 360.8,169.5 362.6,175.8 364.5,182.2 366.3,188.8 368.1,195.4 370.0,202.2 371.8,209.1 373.6,216.1 375.5,223.1 377.3,230.2 379.1,237.3 381.0,244.5 382.8,251.7 384.6,259.0
386.5,266.2 388.3,273.4 390.1,280.7 392.0,287.9 393.8,295.0 395.6,302.2 397.5,309.3 399.3,316.3 401.1,323.3 403.0,330.2 404.8,337.0 406.6,343.8 408.5,350.4 410.3,357.0 412.1,363.4 414.0,369.8
415.8,376.0 417.7,382.2 419.5,388.2 421.3,394.1 423.2,399.8 425.0,405.5 426.8,411.0 428.7,416.3 430.5,421.6 432.3,426.7 434.2,431.6 436.0,436.5 437.8,441.1 439.7,445.7 441.5,450.1 443.3,454.3
445.2,458.5 447.0,462.5 448.8,466.3 450.7,470.0 452.5,473.6 454.3,477.0 456.2,480.3 458.0,483.5 459.8,486.5 461.7,489.4 463.5,492.2 465.3,494.9 467.2,497.4 469.0,499.8 470.9,502.1 472.7,504.3
474.5,506.3 476.4,508.3 478.2,510.1 480.0,511.8 481.9,513.4 483.7,515.0 485.5,516.4 487.4,517.7 489.2,518.9 491.0,520.0 492.9,521.1 494.7,522.0 496.5,522.9 498.4,523.7 500.2,524.4 502.0,525.0
503.9,525.5 505.7,526.0 507.5,526.3 509.4,526.7 511.2,526.9 513.0,527.1 514.9,527.2 516.7,527.2 518.5,527.2 520.4,527.1 522.2,527.0 524.1,526.8 525.9,526.6 527.7,526.3 529.6,525.9 531.4,525.5
533.2,525.1 535.1,524.6 536.9,524.0 538.7,523.4 540.6,522.8 542.4,522.1 544.2,521.4 546.1,520.7 547.9,519.9 549.7,519.0 551.6,518.2 553.4,517.3 555.2,516.4 557.1,515.4 558.9,514.5 560.7,513.4
562.6,512.4 564.4,511.4 566.2,510.3 568.1,509.2 569.9,508.1 571.7,506.9 573.6,505.8 575.4,504.6 577.3,503.4 579.1,502.2 580.9,501.0 582.8,499.7 584.6,498.5 586.4,497.3 588.3,496.0 590.1,494.7
591.9,493.5 593.8,492.2 595.6,490.9 597.4,489.7 599.3,488.4 601.1,487.1 602.9,485.9 604.8,484.6 606.6,483.3 608.4,482.1 610.3,480.8 612.1,479.6 613.9,478.4 615.8,477.2 617.6,476.0 619.4,474.8
621.3,473.6 623.1,472.5 624.9,471.3 626.8,470.2 628.6,469.1 630.5,468.0 632.3,467.0 634.1,466.0 636.0,465.0 637.8,464.0 639.6,463.0 641.5,462.1 643.3,461.2 645.1,460.3 647.0,459.5 648.8,458.7
650.6,457.9 652.5,457.2 654.3,456.5 656.1,455.8 658.0,455.2 659.8,454.6 661.6,454.1 663.5,453.6 665.3,453.1 667.1,452.7 669.0,452.4 670.8,452.0 672.6,451.8 674.5,451.5 676.3,451.3 678.1,451.2
680.0,451.1 681.8,451.1 683.7,451.1 685.5,451.2 687.3,451.3 689.2,451.5 691.0,451.7 692.8,452.0 694.7,452.3 696.5,452.7 698.3,453.2 700.2,453.7 702.0,454.3 703.8,454.9 705.7,455.6 707.5,456.3
709.3,457.1 711.2,458.0 713.0,458.9 714.8,459.9 716.7,461.0 718.5,462.1 720.3,463.2 722.2,464.5 724.0,465.7 725.8,467.1 727.7,468.5 729.5,469.9 731.3,471.5 733.2,473.0 735.0,474.7 736.9,476.3
738.7,478.1 740.5,479.9 742.4,481.7 744.2,483.6 746.0,485.6 747.9,487.5 749.7,489.6 751.5,491.7 753.4,493.8 755.2,496.0 757.0,498.2 758.9,500.4 760.7,502.7 762.5,505.1 764.4,507.4 766.2,509.8
768.0,512.2 769.9,514.7 771.7,517.2 773.5,519.7 775.4,522.2 777.2,524.7 779.0,527.3 780.9,529.9 782.7,532.4 784.5,535.0 786.4,537.7 788.2,540.3 790.0,542.9 791.9,545.5 793.7,548.1 795.6,550.7
797.4,553.3 799.2,555.9 801.1,558.5 802.9,561.1 804.7,563.7 806.6,566.2 808.4,568.8 810.2,571.3 812.1,573.8 813.9,576.3 815.7,578.7 817.6,581.1 819.4,583.5 821.2,585.9 823.1,588.2 824.9,590.5
826.7,592.8 828.6,595.0 830.4,597.2 832.2,599.4 834.1,601.5 835.9,603.6 837.7,605.7 839.6,607.7 841.4,609.6 843.2,611.6 845.1,613.4 846.9,615.3 848.8,617.1 850.6,618.8 852.4,620.5 854.3,622.2
856.1,623.8 857.9,625.4 859.8,626.9 861.6,628.4 863.4,629.9 865.3,631.3 867.1,632.6 868.9,633.9 870.8,635.2 872.6,636.4 874.4,637.6 876.3,638.8 878.1,639.9 879.9,641.0 881.8,642.0 883.6,643.0
885.4,643.9 887.3,644.9 889.1,645.7 890.9,646.6 892.8,647.4 894.6,648.2 896.4,648.9 898.3,649.7 900.1,650.3 902.0,651.0 903.8,651.6 905.6,652.2 907.5,652.8 909.3,653.3 911.1,653.9 913.0,654.4
914.8,654.8 916.6,655.3 918.5,655.7 920.3,656.1 922.1,656.5 924.0,656.9 925.8,657.2 927.6,657.5 929.5,657.8 931.3,658.1 933.1,658.4 935.0,658.7 936.8,658.9 938.6,659.1 940.5,659.3 942.3,659.6
944.1,659.7 946.0,659.9 947.8,660.1 949.6,660.3 951.5,660.4 953.3,660.5 955.2,660.7 957.0,660.8 958.8,660.9 960.7,661.0 962.5,661.1 964.3,661.2 966.2,661.3 968.0,661.4 969.8,661.5 971.7,661.5
973.5,661.6 975.3,661.7 977.2,661.7 979.0,661.8 979.0,662.4 977.2,662.4 975.3,662.4 973.5,662.4 971.7,662.4 969.8,662.4 968.0,662.4 966.2,662.4 964.3,662.4 962.5,662.4 960.7,662.4 958.8,662.4
957.0,662.4 955.2,662.4 953.3,662.4 951.5,662.4 949.6,662.4 947.8,662.4 946.0,662.4 944.1,662.4 942.3,662.4 940.5,662.4 938.6,662.4 936.8,662.4 935.0,662.4 933.1,662.4 931.3,662.4 929.5,662.4
927.6,662.4 925.8,662.4 924.0,662.4 922.1,662.4 920.3,662.4 918.5,662.4 916.6,662.4 914.8,662.4 913.0,662.4 911.1,662.4 909.3,662.4 907.5,662.4 905.6,662.4 903.8,662.4 902.0,662.4 900.1,662.4
898.3,662.4 896.4,662.4 894.6,662.4 892.8,662.4 890.9,662.4 889.1,662.4 887.3,662.4 885.4,662.4 883.6,662.4 881.8,662.4 879.9,662.4 878.1,662.4 876.3,662.4 874.4,662.4 872.6,662.4 870.8,662.4
868.9,662.4 867.1,662.4 865.3,662.4 863.4,662.4 861.6,662.4 859.8,662.4 857.9,662.4 856.1,662.4 854.3,662.4 852.4,662.4 850.6,662.4 848.8,662.4 846.9,662.4 845.1,662.4 843.2,662.4 841.4,662.4
839.6,662.4 837.7,662.4 835.9,662.4 834.1,662.4 832.2,662.4 830.4,662.4 828.6,662.4 826.7,662.4 824.9,662.4 823.1,662.4 821.2,662.4 819.4,662.4 817.6,662.4 815.7,662.4 813.9,662.4 812.1,662.4
810.2,662.4 808.4,662.4 806.6,662.4 804.7,662.4 802.9,662.4 801.1,662.4 799.2,662.4 797.4,662.4 795.6,662.4 793.7,662.4 791.9,662.4 790.0,662.4 788.2,662.4 786.4,662.4 784.5,662.4 782.7,662.4
780.9,662.4 779.0,662.4 777.2,662.4 775.4,662.4 773.5,662.4 771.7,662.4 769.9,662.4 768.0,662.4 766.2,662.4 764.4,662.4 762.5,662.4 760.7,662.4 758.9,662.4 757.0,662.4 755.2,662.4 753.4,662.4
751.5,662.4 749.7,662.4 747.9,662.4 746.0,662.4 744.2,662.4 742.4,662.4 740.5,662.4 738.7,662.4 736.9,662.4 735.0,662.4 733.2,662.4 731.3,662.4 729.5,662.4 727.7,662.4 725.8,662.4 724.0,662.4
722.2,662.4 720.3,662.4 718.5,662.4 716.7,662.4 714.8,662.4 713.0,662.4 711.2,662.4 709.3,662.4 707.5,662.4 705.7,662.4 703.8,662.4 702.0,662.4 700.2,662.4 698.3,662.4 696.5,662.4 694.7,662.4
692.8,662.4 691.0,662.4 689.2,662.4 687.3,662.4 685.5,662.4 683.7,662.4 681.8,662.4 680.0,662.4 678.1,662.4 676.3,662.4 674.5,662.4 672.6,662.4 670.8,662.4 669.0,662.4 667.1,662.4 665.3,662.4
663.5,662.4 661.6,662.4 659.8,662.4 658.0,662.4 656.1,662.4 654.3,662.4 652.5,662.4 650.6,662.4 648.8,662.4 647.0,662.4 645.1,662.4 643.3,662.4 641.5,662.4 639.6,662.4 637.8,662.4 636.0,662.4
634.1,662.4 632.3,662.4 630.5,662.4 628.6,662.4 626.8,662.4 624.9,662.4 623.1,662.4 621.3,662.4 619.4,662.4 617.6,662.4 615.8,662.4 613.9,662.4 612.1,662.4 610.3,662.4 608.4,662.4 606.6,662.4
604.8,662.4 602.9,662.4 601.1,662.4 599.3,662.4 597.4,662.4 595.6,662.4 593.8,662.4 591.9,662.4 590.1,662.4 588.3,662.4 586.4,662.4 584.6,662.4 582.8,662.4 580.9,662.4 579.1,662.4 577.3,662.4
575.4,662.4 573.6,662.4 571.7,662.4 569.9,662.4 568.1,662.4 566.2,662.4 564.4,662.4 562.6,662.4 560.7,662.4 558.9,662.4 557.1,662.4 555.2,662.4 553.4,662.4 551.6,662.4 549.7,662.4 547.9,662.4
546.1,662.4 544.2,662.4 542.4,662.4 540.6,662.4 538.7,662.4 536.9,662.4 535.1,662.4 533.2,662.4 531.4,662.4 529.6,662.4 527.7,662.4 525.9,662.4 524.1,662.4 522.2,662.4 520.4,662.4 518.5,662.4
516.7,662.4 514.9,662.4 513.0,662.4 511.2,662.4 509.4,662.4 507.5,662.4 505.7,662.4 503.9,662.4 502.0,662.4 500.2,662.4 498.4,662.4 496.5,662.4 494.7,662.4 492.9,662.4 491.0,662.4 489.2,662.4
487.4,662.4 485.5,662.4 483.7,662.4 481.9,662.4 480.0,662.4 478.2,662.4 476.4,662.4 474.5,662.4 472.7,662.4 470.9,662.4 469.0,662.4 467.2,662.4 465.3,662.4 463.5,662.4 461.7,662.4 459.8,662.4
458.0,662.4 456.2,662.4 454.3,662.4 452.5,662.4 450.7,662.4 448.8,662.4 447.0,662.4 445.2,662.4 443.3,662.4 441.5,662.4 439.7,662.4 437.8,662.4 436.0,662.4 434.2,662.4 432.3,662.4 430.5,662.4
428.7,662.4 426.8,662.4 425.0,662.4 423.2,662.4 421.3,662.4 419.5,662.4 417.7,662.4 415.8,662.4 414.0,662.4 412.1,662.4 410.3,662.4 408.5,662.4 406.6,662.4 404.8,662.4 403.0,662.4 401.1,662.4
399.3,662.4 397.5,662.4 395.6,662.4 393.8,662.4 392.0,662.4 390.1,662.4 388.3,662.4 386.5,662.4 384.6,662.4 382.8,662.4 381.0,662.4 379.1,662.4 377.3,662.4 375.5,662.4 373.6,662.4 371.8,662.4
370.0,662.4 368.1,662.4 366.3,662.4 364.5,662.4 362.6,662.4 360.8,662.4 358.9,662.4 357.1,662.4 355.3,662.4 353.4,662.4 351.6,662.4 349.8,662.4 347.9,662.4 346.1,662.4 344.3,662.4 342.4,662.4
340.6,662.4 338.8,662.4 336.9,662.4 335.1,662.4 333.3,662.4 331.4,662.4 329.6,662.4 327.8,662.4 325.9,662.4 324.1,662.4 322.3,662.4 320.4,662.4 318.6,662.4 316.8,662.4 314.9,662.4 313.1,662.4
311.3,662.4 309.4,662.4 307.6,662.4 305.7,662.4 303.9,662.4 302.1,662.4 300.2,662.4 298.4,662.4 296.6,662.4 294.7,662.4 292.9,662.4 291.1,662.4 289.2,662.4 287.4,662.4 285.6,662.4 283.7,662.4
281.9,662.4 280.1,662.4 278.2,662.4 276.4,662.4 274.6,662.4 272.7,662.4 270.9,662.4 269.1,662.4 267.2,662.4 265.4,662.4 263.6,662.4 261.7,662.4 259.9,662.4 258.1,662.4 256.2,662.4 254.4,662.4
252.6,662.4 250.7,662.4 248.9,662.4 247.0,662.4 245.2,662.4 243.4,662.4 241.5,662.4 239.7,662.4 237.9,662.4 236.0,662.4 234.2,662.4 232.4,662.4 230.5,662.4 228.7,662.4 226.9,662.4 225.0,662.4
223.2,662.4 221.4,662.4 219.5,662.4 217.7,662.4 215.9,662.4 214.0,662.4 212.2,662.4 210.4,662.4 208.5,662.4 206.7,662.4 204.9,662.4 203.0,662.4 201.2,662.4 199.4,662.4 197.5,662.4 195.7,662.4
193.8,662.4 192.0,662.4 190.2,662.4 188.3,662.4 186.5,662.4 184.7,662.4 182.8,662.4 181.0,662.4 179.2,662.4 177.3,662.4 175.5,662.4 173.7,662.4 171.8,662.4 170.0,662.4 168.2,662.4 166.3,662.4
164.5,662.4 162.7,662.4 160.8,662.4 159.0,662.4 157.2,662.4 155.3,662.4 153.5,662.4 151.7,662.4 149.8,662.4 148.0,662.4 146.2,662.4 144.3,662.4 142.5,662.4 140.6,662.4 138.8,662.4 137.0,662.4
135.1,662.4 133.3,662.4 131.5,662.4 129.6,662.4 127.8,662.4 126.0,662.4 124.1,662.4 122.3,662.4 120.5,662.4 118.6,662.4 116.8,662.4 115.0,662.4 113.1,662.4 111.3,662.4 109.5,662.4 107.6,662.4
105.8,662.4 104.0,662.4 102.1,662.4 100.3,662.4 98.5,662.4 96.6,662.4 94.8,662.4 93.0,662.4 91.1,662.4 89.3,662.4 87.4,662.4 85.6,662.4 83.8,662.4 81.9,662.4 80.1,662.4 78.3,662.4
76.4,662.4 74.6,662.4 72.8,662.4 70.9,662.4 69.1,662.4 67.3,662.4 65.4,662.4 63.6,662.4 '/>
	</g>
</g>
	</g>
	<g id="gnuplot_plot_2" ><title>Mean</title>
<g fill="none" color="white" stroke="rgb( 31, 120, 180)" stroke-width="2.00" stroke-linecap="butt" stroke-linejoin="miter">
</g>
<g fill="none" color="black" stroke="currentColor" stroke-width="2.00" stroke-linecap="butt" stroke-linejoin="miter">
	<g transform="translate(1155.4,85.0)" stroke="none" fill="black" font-family="Helvetica" font-size="12.00"  text-anchor="start">
		<text><tspan font-family="Helvetica" >Mean</tspan></text>
	</g>
</g>
<g fill="none" color="black" stroke="currentColor" stroke-width="2.00" stroke-linecap="butt" stroke-linejoin="miter">
	<path stroke='rgb( 31, 120, 180)'  d='M1104.9,81.1 L1147.1,81.1 M440.0,662.4 L440.0,54.1  '/></g>
	</g>
	<g id="gnuplot_plot_3" ><title>"Clean" sample</title>
<g fill="none" color="white" stroke="rgb( 31, 120, 180)" stroke-width="1.00" stroke-linecap="butt" stroke-linejoin="miter">
</g>
<g fill="none" color="black" stroke="currentColor" stroke-width="1.00" stroke-linecap="butt" stroke-linejoin="miter">
	<g transform="translate(1155.4,103.0)" stroke="none" fill="black" font-family="Helvetica" font-size="12.00"  text-anchor="start">
		<text><tspan font-family="Helvetica" >"Clean" sample</tspan></text>
	</g>
</g>
<g fill="none" color="black" stroke="currentColor" stroke-width="1.00" stroke-linecap="butt" stroke-linejoin="miter">
	<use xlink:href='#gpPt6' transform='translate(277.4,656.3) scale(3.38)' color='rgb( 31, 120, 180)'/>
	<use xlink:href='#gpPt6' transform='translate(285.3,650.2) scale(3.38)' color='rgb( 31, 120, 180)'/>
	<use xlink:href='#gpPt6' transform='translate(298.0,644.2) scale(3.38)' color='rgb( 31, 120, 180)'/>
	<use xlink:href='#gpPt6' transform='translate(302.1,638.1) scale(3.38)' color='rgb( 31, 120, 180)'/>
	<use xlink:href='#gpPt6' transform='translate(302.2,632.0) scale(3.38)' color='rgb( 31, 120, 180)'/>
	<use xlink:href='#gpPt6' transform='translate(358.4,625.9) scale(3.38)' color='rgb( 31, 120, 180)'/>
	<use xlink:href='#gpPt6' transform='translate(355.6,619.8) scale(3.38)' color='rgb( 31, 120, 180)'/>
	<use xlink:href='#gpPt6' transform='translate(356.3,613.7) scale(3.38)' color='rgb( 31, 120, 180)'/>
	<use xlink:href='#gpPt6' transform='translate(395.1,607.7) scale(3.38)' color='rgb( 31, 120, 180)'/>
	<use xlink:href='#gpPt6' transform='translate(397.5,601.6) scale(3.38)' color='rgb( 31, 120, 180)'/>
	<use xlink:href='#gpPt6' transform='translate(396.1,595.5) scale(3.38)' color='rgb( 31, 120, 180)'/>
	<use xlink:href='#gpPt6' transform='translate(410.9,589.4) scale(3.38)' color='rgb( 31, 120, 180)'/>
	<use xlink:href='#gpPt6' transform='translate(429.1,583.3) scale(3.38)' color='rgb( 31, 120, 180)'/>
	<use xlink:href='#gpPt6' transform='translate(453.4,577.2) scale(3.38)' color='rgb( 31, 120, 180)'/>
	<use xlink:href='#gpPt6' transform='translate(459.2,571.2) scale(3.38)' color='rgb( 31, 120, 180)'/>
	<use xlink:href='#gpPt6' transform='translate(468.0,565.1) scale(3.38)' color='rgb( 31, 120, 180)'/>
	<use xlink:href='#gpPt6' transform='translate(484.4,559.0) scale(3.38)' color='rgb( 31, 120, 180)'/>
	<use xlink:href='#gpPt6' transform='translate(509.6,552.9) scale(3.38)' color='rgb( 31, 120, 180)'/>
	<use xlink:href='#gpPt6' transform='translate(532.0,546.8) scale(3.38)' color='rgb( 31, 120, 180)'/>
	<use xlink:href='#gpPt6' transform='translate(540.0,540.7) scale(3.38)' color='rgb( 31, 120, 180)'/>
	<use xlink:href='#gpPt6' transform='translate(555.5,534.7) scale(3.38)' color='rgb( 31, 120, 180)'/>
	<use xlink:href='#gpPt6' transform='translate(581.2,528.6) scale(3.38)' color='rgb( 31, 120, 180)'/>
	<use xlink:href='#gpPt6' transform='translate(574.7,522.5) scale(3.38)' color='rgb( 31, 120, 180)'/>
	<use xlink:href='#gpPt6' transform='translate(598.6,516.4) scale(3.38)' color='rgb( 31, 120, 180)'/>
	<use xlink:href='#gpPt6' transform='translate(612.5,510.3) scale(3.38)' color='rgb( 31, 120, 180)'/>
	<use xlink:href='#gpPt6' transform='translate(608.8,504.2) scale(3.38)' color='rgb( 31, 120, 180)'/>
	<use xlink:href='#gpPt6' transform='translate(629.2,498.2) scale(3.38)' color='rgb( 31, 120, 180)'/>
	<use xlink:href='#gpPt6' transform='translate(644.7,492.1) scale(3.38)' color='rgb( 31, 120, 180)'/>
	<use xlink:href='#gpPt6' transform='translate(634.3,486.0) scale(3.38)' color='rgb( 31, 120, 180)'/>
	<use xlink:href='#gpPt6' transform='translate(648.0,479.9) scale(3.38)' color='rgb( 31, 120, 180)'/>
	<use xlink:href='#gpPt6' transform='translate(639.1,473.8) scale(3.38)' color='rgb( 31, 120, 180)'/>
	<use xlink:href='#gpPt6' transform='translate(655.2,467.7) scale(3.38)' color='rgb( 31, 120, 180)'/>
	<use xlink:href='#gpPt6' transform='translate(665.1,461.7) scale(3.38)' color='rgb( 31, 120, 180)'/>
	<use xlink:href='#gpPt6' transform='translate(655.4,455.6) scale(3.38)' color='rgb( 31, 120, 180)'/>
	<use xlink:href='#gpPt6' transform='translate(672.7,449.5) scale(3.38)' color='rgb( 31, 120, 180)'/>
	<use xlink:href='#gpPt6' transform='translate(696.1,443.4) scale(3.38)' color='rgb( 31, 120, 180)'/>
	<use xlink:href='#gpPt6' transform='translate(693.0,437.3) scale(3.38)' color='rgb( 31, 120, 180)'/>
	<use xlink:href='#gpPt6' transform='translate(707.6,431.2) scale(3.38)' color='rgb( 31, 120, 180)'/>
	<use xlink:href='#gpPt6' transform='translate(724.2,425.2) scale(3.38)' color='rgb( 31, 120, 180)'/>
	<use xlink:href='#gpPt6' transform='translate(717.0,419.1) scale(3.38)' color='rgb( 31, 120, 180)'/>
	<use xlink:href='#gpPt6' transform='translate(732.1,413.0) scale(3.38)' color='rgb( 31, 120, 180)'/>
	<use xlink:href='#gpPt6' transform='translate(745.0,406.9) scale(3.38)' color='rgb( 31, 120, 180)'/>
	<use xlink:href='#gpPt6' transform='translate(736.4,400.8) scale(3.38)' color='rgb( 31, 120, 180)'/>
	<use xlink:href='#gpPt6' transform='translate(749.6,394.7) scale(3.38)' color='rgb( 31, 120, 180)'/>
	<use xlink:href='#gpPt6' transform='translate(737.3,388.7) scale(3.38)' color='rgb( 31, 120, 180)'/>
	<use xlink:href='#gpPt6' transform='translate(750.7,382.6) scale(3.38)' color='rgb( 31, 120, 180)'/>
	<use xlink:href='#gpPt6' transform='translate(759.5,376.5) scale(3.38)' color='rgb( 31, 120, 180)'/>
	<use xlink:href='#gpPt6' transform='translate(749.0,370.4) scale(3.38)' color='rgb( 31, 120, 180)'/>
	<use xlink:href='#gpPt6' transform='translate(762.8,364.3) scale(3.38)' color='rgb( 31, 120, 180)'/>
	<use xlink:href='#gpPt6' transform='translate(765.2,358.2) scale(3.38)' color='rgb( 31, 120, 180)'/>
	<use xlink:href='#gpPt6' transform='translate(311.7,352.2) scale(3.38)' color='rgb( 31, 120, 180)'/>
	<use xlink:href='#gpPt6' transform='translate(312.0,346.1) scale(3.38)' color='rgb( 31, 120, 180)'/>
	<use xlink:href='#gpPt6' transform='translate(312.3,340.0) scale(3.38)' color='rgb( 31, 120, 180)'/>
	<use xlink:href='#gpPt6' transform='translate(311.8,333.9) scale(3.38)' color='rgb( 31, 120, 180)'/>
	<use xlink:href='#gpPt6' transform='translate(312.3,327.8) scale(3.38)' color='rgb( 31, 120, 180)'/>
	<use xlink:href='#gpPt6' transform='translate(311.7,321.8) scale(3.38)' color='rgb( 31, 120, 180)'/>
	<use xlink:href='#gpPt6' transform='translate(312.9,315.7) scale(3.38)' color='rgb( 31, 120, 180)'/>
	<use xlink:href='#gpPt6' transform='translate(312.2,309.6) scale(3.38)' color='rgb( 31, 120, 180)'/>
	<use xlink:href='#gpPt6' transform='translate(312.1,303.5) scale(3.38)' color='rgb( 31, 120, 180)'/>
	<use xlink:href='#gpPt6' transform='translate(311.2,297.4) scale(3.38)' color='rgb( 31, 120, 180)'/>
	<use xlink:href='#gpPt6' transform='translate(311.6,291.3) scale(3.38)' color='rgb( 31, 120, 180)'/>
	<use xlink:href='#gpPt6' transform='translate(312.3,285.3) scale(3.38)' color='rgb( 31, 120, 180)'/>
	<use xlink:href='#gpPt6' transform='translate(311.5,279.2) scale(3.38)' color='rgb( 31, 120, 180)'/>
	<use xlink:href='#gpPt6' transform='translate(311.8,273.1) scale(3.38)' color='rgb( 31, 120, 180)'/>
	<use xlink:href='#gpPt6' transform='translate(311.5,267.0) scale(3.38)' color='rgb( 31, 120, 180)'/>
	<use xlink:href='#gpPt6' transform='translate(311.9,260.9) scale(3.38)' color='rgb( 31, 120, 180)'/>
	<use xlink:href='#gpPt6' transform='translate(311.8,254.8) scale(3.38)' color='rgb( 31, 120, 180)'/>
	<use xlink:href='#gpPt6' transform='translate(311.7,248.8) scale(3.38)' color='rgb( 31, 120, 180)'/>
	<use xlink:href='#gpPt6' transform='translate(312.7,242.7) scale(3.38)' color='rgb( 31, 120, 180)'/>
	<use xlink:href='#gpPt6' transform='translate(315.7,236.6) scale(3.38)' color='rgb( 31, 120, 180)'/>
	<use xlink:href='#gpPt6' transform='translate(311.8,230.5) scale(3.38)' color='rgb( 31, 120, 180)'/>
	<use xlink:href='#gpPt6' transform='translate(312.5,224.4) scale(3.38)' color='rgb( 31, 120, 180)'/>
	<use xlink:href='#gpPt6' transform='translate(312.7,218.3) scale(3.38)' color='rgb( 31, 120, 180)'/>
	<use xlink:href='#gpPt6' transform='translate(311.4,212.3) scale(3.38)' color='rgb( 31, 120, 180)'/>
	<use xlink:href='#gpPt6' transform='translate(311.4,206.2) scale(3.38)' color='rgb( 31, 120, 180)'/>
	<use xlink:href='#gpPt6' transform='translate(311.3,200.1) scale(3.38)' color='rgb( 31, 120, 180)'/>
	<use xlink:href='#gpPt6' transform='translate(312.4,194.0) scale(3.38)' color='rgb( 31, 120, 180)'/>
	<use xlink:href='#gpPt6' transform='translate(312.3,187.9) scale(3.38)' color='rgb( 31, 120, 180)'/>
	<use xlink:href='#gpPt6' transform='translate(312.0,181.8) scale(3.38)' color='rgb( 31, 120, 180)'/>
	<use xlink:href='#gpPt6' transform='translate(311.5,175.8) scale(3.38)' color='rgb( 31, 120, 180)'/>
	<use xlink:href='#gpPt6' transform='translate(311.5,169.7) scale(3.38)' color='rgb( 31, 120, 180)'/>
	<use xlink:href='#gpPt6' transform='translate(311.7,163.6) scale(3.38)' color='rgb( 31, 120, 180)'/>
	<use xlink:href='#gpPt6' transform='translate(311.7,157.5) scale(3.38)' color='rgb( 31, 120, 180)'/>
	<use xlink:href='#gpPt6' transform='translate(311.8,151.4) scale(3.38)' color='rgb( 31, 120, 180)'/>
	<use xlink:href='#gpPt6' transform='translate(311.9,145.3) scale(3.38)' color='rgb( 31, 120, 180)'/>
	<use xlink:href='#gpPt6' transform='translate(311.9,139.3) scale(3.38)' color='rgb( 31, 120, 180)'/>
	<use xlink:href='#gpPt6' transform='translate(311.3,133.2) scale(3.38)' color='rgb( 31, 120, 180)'/>
	<use xlink:href='#gpPt6' transform='translate(312.0,127.1) scale(3.38)' color='rgb( 31, 120, 180)'/>
	<use xlink:href='#gpPt6' transform='translate(311.7,121.0) scale(3.38)' color='rgb( 31, 120, 180)'/>
	<use xlink:href='#gpPt6' transform='translate(311.5,114.9) scale(3.38)' color='rgb( 31, 120, 180)'/>
	<use xlink:href='#gpPt6' transform='translate(311.5,108.8) scale(3.38)' color='rgb( 31, 120, 180)'/>
	<use xlink:href='#gpPt6' transform='translate(311.5,102.8) scale(3.38)' color='rgb( 31, 120, 180)'/>
	<use xlink:href='#gpPt6' transform='translate(311.1,96.7) scale(3.38)' color='rgb( 31, 120, 180)'/>
	<use xlink:href='#gpPt6' transform='translate(311.7,90.6) scale(3.38)' color='rgb( 31, 120, 180)'/>
	<use xlink:href='#gpPt6' transform='translate(311.3,84.5) scale(3.38)' color='rgb( 31, 120, 180)'/>
	<use xlink:href='#gpPt6' transform='translate(311.9,78.4) scale(3.38)' color='rgb( 31, 120, 180)'/>
	<use xlink:href='#gpPt6' transform='translate(311.1,72.3) scale(3.38)' color='rgb( 31, 120, 180)'/>
	<use xlink:href='#gpPt6' transform='translate(311.1,66.3) scale(3.38)' color='rgb( 31, 120, 180)'/>
	<use xlink:href='#gpPt6' transform='translate(311.1,60.2) scale(3.38)' color='rgb( 31, 120, 180)'/>
	<use xlink:href='#gpPt6' transform='translate(311.1,54.1) scale(3.38)' color='rgb( 31, 120, 180)'/>
	<use xlink:href='#gpPt6' transform='translate(1126.0,99.1) scale(3.38)' color='rgb( 31, 120, 180)'/>
</g>
	</g>
	<g id="gnuplot_plot_4" ><title>gnuplot_plot_4</title>
<g fill="none" color="white" stroke="rgb( 31, 120, 180)" stroke-width="2.00" stroke-linecap="butt" stroke-linejoin="miter">
</g>
<g fill="none" color="black" stroke="currentColor" stroke-width="2.00" stroke-linecap="butt" stroke-linejoin="miter">
</g>
	</g>
	<g id="gnuplot_plot_5" ><title>gnuplot_plot_5</title>
<g fill="none" color="black" stroke="currentColor" stroke-width="2.00" stroke-linecap="butt" stroke-linejoin="miter">
</g>
	</g>
	<g id="gnuplot_plot_6" ><title>gnuplot_plot_6</title>
<g fill="none" color="black" stroke="currentColor" stroke-width="2.00" stroke-linecap="butt" stroke-linejoin="miter">
</g>
	</g>
	<g id="gnuplot_plot_7" ><title>gnuplot_plot_7</title>
<g fill="none" color="black" stroke="currentColor" stroke-width="2.00" stroke-linecap="butt" stroke-linejoin="miter">
</g>
	</g>
<g fill="none" color="black" stroke="currentColor" stroke-width="2.00" stroke-linecap="butt" stroke-linejoin="miter">
</g>
<g fill="none" color="black" stroke="black" stroke-width="1.00" stroke-linecap="butt" stroke-linejoin="miter">
</g>
<g fill="none" color="black" stroke="currentColor" stroke-width="1.00" stroke-linecap="butt" stroke-linejoin="miter">
	<path stroke='black'  d='M63.6,54.1 L63.6,662.4 L979.0,662.4 L979.0,54.1 L63.6,54.1 Z  '/></g>
<g fill="none" color="black" stroke="currentColor" stroke-width="1.00" stroke-linecap="butt" stroke-linejoin="miter">
</g>
</g>
</svg>

