<?xml version="1.0" encoding="utf-8"  standalone="no"?>
<svg 
 viewBox="0 0 450 300"
 xmlns="http://www.w3.org/2000/svg"
 xmlns:xlink="http://www.w3.org/1999/xlink"
>

<title>Gnuplot</title>
<desc>Produced by GNUPLOT 5.2 patchlevel 2 </desc>

<g id="gnuplot_canvas">

<rect x="0" y="0" width="450" height="300" fill="none"/>
<defs>

	<circle id='gpDot' r='0.5' stroke-width='0.5'/>
	<path id='gpPt0' stroke-width='0.222' stroke='currentColor' d='M-1,0 h2 M0,-1 v2'/>
	<path id='gpPt1' stroke-width='0.222' stroke='currentColor' d='M-1,-1 L1,1 M1,-1 L-1,1'/>
	<path id='gpPt2' stroke-width='0.222' stroke='currentColor' d='M-1,0 L1,0 M0,-1 L0,1 M-1,-1 L1,1 M-1,1 L1,-1'/>
	<rect id='gpPt3' stroke-width='0.222' stroke='currentColor' x='-1' y='-1' width='2' height='2'/>
	<rect id='gpPt4' stroke-width='0.222' stroke='currentColor' fill='currentColor' x='-1' y='-1' width='2' height='2'/>
	<circle id='gpPt5' stroke-width='0.222' stroke='currentColor' cx='0' cy='0' r='1'/>
	<use xlink:href='#gpPt5' id='gpPt6' fill='currentColor' stroke='none'/>
	<path id='gpPt7' stroke-width='0.222' stroke='currentColor' d='M0,-1.33 L-1.33,0.67 L1.33,0.67 z'/>
	<use xlink:href='#gpPt7' id='gpPt8' fill='currentColor' stroke='none'/>
	<use xlink:href='#gpPt7' id='gpPt9' stroke='currentColor' transform='rotate(180)'/>
	<use xlink:href='#gpPt9' id='gpPt10' fill='currentColor' stroke='none'/>
	<use xlink:href='#gpPt3' id='gpPt11' stroke='currentColor' transform='rotate(45)'/>
	<use xlink:href='#gpPt11' id='gpPt12' fill='currentColor' stroke='none'/>
	<path id='gpPt13' stroke-width='0.222' stroke='currentColor' d='M0,1.330 L1.265,0.411 L0.782,-1.067 L-0.782,-1.076 L-1.265,0.411 z'/>
	<use xlink:href='#gpPt13' id='gpPt14' fill='currentColor' stroke='none'/>
	<filter id='textbox' filterUnits='objectBoundingBox' x='0' y='0' height='1' width='1'>
	  <feFlood flood-color='white' flood-opacity='1' result='bgnd'/>
	  <feComposite in='SourceGraphic' in2='bgnd' operator='atop'/>
	</filter>
	<filter id='greybox' filterUnits='objectBoundingBox' x='0' y='0' height='1' width='1'>
	  <feFlood flood-color='lightgrey' flood-opacity='1' result='grey'/>
	  <feComposite in='SourceGraphic' in2='grey' operator='atop'/>
	</filter>
</defs>
<g fill="none" color="white" stroke="currentColor" stroke-width="1.00" stroke-linecap="butt" stroke-linejoin="miter">
</g>
<g fill="none" color="black" stroke="currentColor" stroke-width="1.00" stroke-linecap="butt" stroke-linejoin="miter">
	<path stroke='black'  d='M105.1,242.4 L114.1,242.4  '/>	<g transform="translate(96.8,246.3)" stroke="none" fill="black" font-family="Helvetica" font-size="12.00"  text-anchor="end">
		<text><tspan font-family="Helvetica" > 0</tspan></text>
	</g>
</g>
<g fill="none" color="black" stroke="currentColor" stroke-width="1.00" stroke-linecap="butt" stroke-linejoin="miter">
	<path stroke='black'  d='M105.1,206.5 L114.1,206.5  '/>	<g transform="translate(96.8,210.4)" stroke="none" fill="black" font-family="Helvetica" font-size="12.00"  text-anchor="end">
		<text><tspan font-family="Helvetica" > 5x10</tspan><tspan font-family="Helvetica"  font-size="9.6" dy="-6.00px">-8</tspan><tspan font-size="12.0" dy="6.00"></tspan></text>
	</g>
</g>
<g fill="none" color="black" stroke="currentColor" stroke-width="1.00" stroke-linecap="butt" stroke-linejoin="miter">
	<path stroke='black'  d='M105.1,170.6 L114.1,170.6  '/>	<g transform="translate(96.8,174.5)" stroke="none" fill="black" font-family="Helvetica" font-size="12.00"  text-anchor="end">
		<text><tspan font-family="Helvetica" > 1x10</tspan><tspan font-family="Helvetica"  font-size="9.6" dy="-6.00px">-7</tspan><tspan font-size="12.0" dy="6.00"></tspan></text>
	</g>
</g>
<g fill="none" color="black" stroke="currentColor" stroke-width="1.00" stroke-linecap="butt" stroke-linejoin="miter">
	<path stroke='black'  d='M105.1,134.6 L114.1,134.6  '/>	<g transform="translate(96.8,138.5)" stroke="none" fill="black" font-family="Helvetica" font-size="12.00"  text-anchor="end">
		<text><tspan font-family="Helvetica" > 1.5x10</tspan><tspan font-family="Helvetica"  font-size="9.6" dy="-6.00px">-7</tspan><tspan font-size="12.0" dy="6.00"></tspan></text>
	</g>
</g>
<g fill="none" color="black" stroke="currentColor" stroke-width="1.00" stroke-linecap="butt" stroke-linejoin="miter">
	<path stroke='black'  d='M105.1,98.7 L114.1,98.7  '/>	<g transform="translate(96.8,102.6)" stroke="none" fill="black" font-family="Helvetica" font-size="12.00"  text-anchor="end">
		<text><tspan font-family="Helvetica" > 2x10</tspan><tspan font-family="Helvetica"  font-size="9.6" dy="-6.00px">-7</tspan><tspan font-size="12.0" dy="6.00"></tspan></text>
	</g>
</g>
<g fill="none" color="black" stroke="currentColor" stroke-width="1.00" stroke-linecap="butt" stroke-linejoin="miter">
	<path stroke='black'  d='M105.1,62.8 L114.1,62.8  '/>	<g transform="translate(96.8,66.7)" stroke="none" fill="black" font-family="Helvetica" font-size="12.00"  text-anchor="end">
		<text><tspan font-family="Helvetica" > 2.5x10</tspan><tspan font-family="Helvetica"  font-size="9.6" dy="-6.00px">-7</tspan><tspan font-size="12.0" dy="6.00"></tspan></text>
	</g>
</g>
<g fill="none" color="black" stroke="currentColor" stroke-width="1.00" stroke-linecap="butt" stroke-linejoin="miter">
	<path stroke='black'  d='M105.1,26.9 L114.1,26.9  '/>	<g transform="translate(96.8,30.8)" stroke="none" fill="black" font-family="Helvetica" font-size="12.00"  text-anchor="end">
		<text><tspan font-family="Helvetica" > 3x10</tspan><tspan font-family="Helvetica"  font-size="9.6" dy="-6.00px">-7</tspan><tspan font-size="12.0" dy="6.00"></tspan></text>
	</g>
</g>
<g fill="none" color="black" stroke="currentColor" stroke-width="1.00" stroke-linecap="butt" stroke-linejoin="miter">
	<path stroke='black'  d='M115.4,242.4 L115.4,233.4  '/>	<g transform="translate(115.4,264.3)" stroke="none" fill="black" font-family="Helvetica" font-size="12.00"  text-anchor="middle">
		<text><tspan font-family="Helvetica" > 0</tspan></text>
	</g>
</g>
<g fill="none" color="black" stroke="currentColor" stroke-width="1.00" stroke-linecap="butt" stroke-linejoin="miter">
	<path stroke='black'  d='M174.5,242.4 L174.5,233.4  '/>	<g transform="translate(174.5,264.3)" stroke="none" fill="black" font-family="Helvetica" font-size="12.00"  text-anchor="middle">
		<text><tspan font-family="Helvetica" > 2x10</tspan><tspan font-family="Helvetica"  font-size="9.6" dy="-6.00px">6</tspan><tspan font-size="12.0" dy="6.00"></tspan></text>
	</g>
</g>
<g fill="none" color="black" stroke="currentColor" stroke-width="1.00" stroke-linecap="butt" stroke-linejoin="miter">
	<path stroke='black'  d='M233.6,242.4 L233.6,233.4  '/>	<g transform="translate(233.6,264.3)" stroke="none" fill="black" font-family="Helvetica" font-size="12.00"  text-anchor="middle">
		<text><tspan font-family="Helvetica" > 4x10</tspan><tspan font-family="Helvetica"  font-size="9.6" dy="-6.00px">6</tspan><tspan font-size="12.0" dy="6.00"></tspan></text>
	</g>
</g>
<g fill="none" color="black" stroke="currentColor" stroke-width="1.00" stroke-linecap="butt" stroke-linejoin="miter">
	<path stroke='black'  d='M292.7,242.4 L292.7,233.4  '/>	<g transform="translate(292.7,264.3)" stroke="none" fill="black" font-family="Helvetica" font-size="12.00"  text-anchor="middle">
		<text><tspan font-family="Helvetica" > 6x10</tspan><tspan font-family="Helvetica"  font-size="9.6" dy="-6.00px">6</tspan><tspan font-size="12.0" dy="6.00"></tspan></text>
	</g>
</g>
<g fill="none" color="black" stroke="currentColor" stroke-width="1.00" stroke-linecap="butt" stroke-linejoin="miter">
	<path stroke='black'  d='M351.8,242.4 L351.8,233.4  '/>	<g transform="translate(351.8,264.3)" stroke="none" fill="black" font-family="Helvetica" font-size="12.00"  text-anchor="middle">
		<text><tspan font-family="Helvetica" > 8x10</tspan><tspan font-family="Helvetica"  font-size="9.6" dy="-6.00px">6</tspan><tspan font-size="12.0" dy="6.00"></tspan></text>
	</g>
</g>
<g fill="none" color="black" stroke="currentColor" stroke-width="1.00" stroke-linecap="butt" stroke-linejoin="miter">
	<path stroke='black'  d='M410.9,242.4 L410.9,233.4  '/>	<g transform="translate(410.9,264.3)" stroke="none" fill="black" font-family="Helvetica" font-size="12.00"  text-anchor="middle">
		<text><tspan font-family="Helvetica" > 1x10</tspan><tspan font-family="Helvetica"  font-size="9.6" dy="-6.00px">7</tspan><tspan font-size="12.0" dy="6.00"></tspan></text>
	</g>
</g>
<g fill="none" color="black" stroke="currentColor" stroke-width="1.00" stroke-linecap="butt" stroke-linejoin="miter">
</g>
<g fill="none" color="black" stroke="currentColor" stroke-width="1.00" stroke-linecap="butt" stroke-linejoin="miter">
	<path stroke='black'  d='M105.1,18.1 L105.1,242.4 L425.0,242.4 L425.0,18.1 L105.1,18.1 Z  '/></g>
<g fill="none" color="black" stroke="currentColor" stroke-width="1.00" stroke-linecap="butt" stroke-linejoin="miter">
	<g transform="translate(16.3,130.3) rotate(270)" stroke="none" fill="black" font-family="Helvetica" font-size="12.00"  text-anchor="middle">
		<text><tspan font-family="Helvetica" >Density (a.u.)</tspan></text>
	</g>
</g>
<g fill="none" color="black" stroke="currentColor" stroke-width="1.00" stroke-linecap="butt" stroke-linejoin="miter">
	<g transform="translate(265.0,291.3)" stroke="none" fill="black" font-family="Helvetica" font-size="12.00"  text-anchor="middle">
		<text><tspan font-family="Helvetica" >Average time (cycles)</tspan></text>
	</g>
</g>
<g fill="none" color="black" stroke="currentColor" stroke-width="1.00" stroke-linecap="butt" stroke-linejoin="miter">
</g>
	<g id="gnuplot_plot_1" ><title>PDF</title>
<g fill="none" color="black" stroke="currentColor" stroke-width="1.00" stroke-linecap="butt" stroke-linejoin="miter">
	<g stroke='none' shape-rendering='crispEdges'>
		<polygon fill = 'rgb( 31, 120, 180)' fill-opacity = '0.250000' points = '105.1,241.8 105.7,241.8 106.4,241.7 107.0,241.7 107.7,241.6 108.3,241.5 108.9,241.5 109.6,241.4 110.2,241.3 110.9,241.2 111.5,241.1 112.2,241.0 112.8,240.9 113.4,240.8 114.1,240.6 114.7,240.5
115.4,240.3 116.0,240.2 116.6,240.0 117.3,239.8 117.9,239.6 118.6,239.4 119.2,239.1 119.8,238.9 120.5,238.6 121.1,238.3 121.8,238.0 122.4,237.7 123.1,237.4 123.7,237.0 124.3,236.6 125.0,236.2
125.6,235.8 126.3,235.3 126.9,234.8 127.5,234.3 128.2,233.8 128.8,233.2 129.5,232.6 130.1,232.0 130.7,231.3 131.4,230.6 132.0,229.8 132.7,229.1 133.3,228.2 133.9,227.4 134.6,226.5 135.2,225.5
135.9,224.5 136.5,223.5 137.2,222.4 137.8,221.3 138.4,220.1 139.1,218.8 139.7,217.6 140.4,216.2 141.0,214.8 141.6,213.4 142.3,211.8 142.9,210.3 143.6,208.6 144.2,207.0 144.8,205.2 145.5,203.4
146.1,201.5 146.8,199.6 147.4,197.6 148.1,195.5 148.7,193.4 149.3,191.2 150.0,189.0 150.6,186.7 151.3,184.3 151.9,181.8 152.5,179.3 153.2,176.8 153.8,174.2 154.5,171.5 155.1,168.7 155.7,166.0
156.4,163.1 157.0,160.2 157.7,157.3 158.3,154.3 159.0,151.2 159.6,148.1 160.2,145.0 160.9,141.8 161.5,138.6 162.2,135.3 162.8,132.1 163.4,128.7 164.1,125.4 164.7,122.1 165.4,118.7 166.0,115.3
166.6,111.9 167.3,108.5 167.9,105.1 168.6,101.7 169.2,98.3 169.8,95.0 170.5,91.6 171.1,88.3 171.8,85.0 172.4,81.7 173.1,78.4 173.7,75.2 174.3,72.1 175.0,69.0 175.6,65.9 176.3,62.9
176.9,60.0 177.5,57.1 178.2,54.3 178.8,51.6 179.5,48.9 180.1,46.4 180.7,43.9 181.4,41.5 182.0,39.3 182.7,37.1 183.3,35.0 184.0,33.1 184.6,31.2 185.2,29.5 185.9,27.8 186.5,26.3
187.2,25.0 187.8,23.7 188.4,22.6 189.1,21.5 189.7,20.7 190.4,19.9 191.0,19.3 191.6,18.8 192.3,18.4 192.9,18.2 193.6,18.1 194.2,18.1 194.9,18.3 195.5,18.6 196.1,19.0 196.8,19.5
197.4,20.2 198.1,21.0 198.7,21.9 199.3,22.9 200.0,24.0 200.6,25.3 201.3,26.7 201.9,28.1 202.5,29.7 203.2,31.4 203.8,33.1 204.5,35.0 205.1,36.9 205.7,39.0 206.4,41.1 207.0,43.3
207.7,45.5 208.3,47.9 209.0,50.3 209.6,52.7 210.2,55.2 210.9,57.8 211.5,60.4 212.2,63.0 212.8,65.7 213.4,68.4 214.1,71.2 214.7,73.9 215.4,76.7 216.0,79.5 216.6,82.3 217.3,85.2
217.9,88.0 218.6,90.8 219.2,93.6 219.9,96.4 220.5,99.2 221.1,102.0 221.8,104.8 222.4,107.5 223.1,110.2 223.7,112.9 224.3,115.6 225.0,118.2 225.6,120.8 226.3,123.4 226.9,125.9 227.5,128.4
228.2,130.8 228.8,133.2 229.5,135.5 230.1,137.8 230.8,140.1 231.4,142.3 232.0,144.4 232.7,146.5 233.3,148.5 234.0,150.5 234.6,152.5 235.2,154.3 235.9,156.2 236.5,157.9 237.2,159.6 237.8,161.3
238.4,162.9 239.1,164.5 239.7,166.0 240.4,167.4 241.0,168.8 241.7,170.1 242.3,171.4 242.9,172.7 243.6,173.8 244.2,175.0 244.9,176.1 245.5,177.1 246.1,178.1 246.8,179.0 247.4,179.9 248.1,180.8
248.7,181.6 249.3,182.3 250.0,183.0 250.6,183.7 251.3,184.3 251.9,184.9 252.5,185.5 253.2,186.0 253.8,186.5 254.5,186.9 255.1,187.3 255.8,187.7 256.4,188.0 257.0,188.3 257.7,188.6 258.3,188.8
259.0,189.0 259.6,189.2 260.2,189.4 260.9,189.5 261.5,189.6 262.2,189.7 262.8,189.7 263.4,189.7 264.1,189.7 264.7,189.7 265.4,189.6 266.0,189.6 266.7,189.5 267.3,189.3 267.9,189.2 268.6,189.0
269.2,188.9 269.9,188.7 270.5,188.5 271.1,188.2 271.8,188.0 272.4,187.7 273.1,187.4 273.7,187.2 274.3,186.8 275.0,186.5 275.6,186.2 276.3,185.8 276.9,185.5 277.6,185.1 278.2,184.7 278.8,184.3
279.5,183.9 280.1,183.5 280.8,183.1 281.4,182.7 282.0,182.2 282.7,181.8 283.3,181.3 284.0,180.9 284.6,180.4 285.2,180.0 285.9,179.5 286.5,179.0 287.2,178.5 287.8,178.0 288.4,177.5 289.1,177.1
289.7,176.6 290.4,176.1 291.0,175.6 291.7,175.1 292.3,174.6 292.9,174.1 293.6,173.6 294.2,173.1 294.9,172.6 295.5,172.1 296.1,171.6 296.8,171.2 297.4,170.7 298.1,170.2 298.7,169.7 299.3,169.3
300.0,168.8 300.6,168.4 301.3,167.9 301.9,167.5 302.6,167.1 303.2,166.6 303.8,166.2 304.5,165.8 305.1,165.4 305.8,165.1 306.4,164.7 307.0,164.3 307.7,164.0 308.3,163.6 309.0,163.3 309.6,163.0
310.2,162.7 310.9,162.4 311.5,162.1 312.2,161.9 312.8,161.6 313.5,161.4 314.1,161.2 314.7,161.0 315.4,160.8 316.0,160.7 316.7,160.5 317.3,160.4 317.9,160.3 318.6,160.2 319.2,160.1 319.9,160.1
320.5,160.0 321.1,160.0 321.8,160.0 322.4,160.1 323.1,160.1 323.7,160.2 324.4,160.3 325.0,160.4 325.6,160.5 326.3,160.7 326.9,160.9 327.6,161.1 328.2,161.3 328.8,161.5 329.5,161.8 330.1,162.1
330.8,162.4 331.4,162.7 332.0,163.1 332.7,163.5 333.3,163.9 334.0,164.3 334.6,164.8 335.2,165.2 335.9,165.7 336.5,166.3 337.2,166.8 337.8,167.4 338.5,168.0 339.1,168.6 339.7,169.2 340.4,169.9
341.0,170.6 341.7,171.3 342.3,172.0 342.9,172.7 343.6,173.5 344.2,174.2 344.9,175.0 345.5,175.9 346.1,176.7 346.8,177.5 347.4,178.4 348.1,179.3 348.7,180.2 349.4,181.1 350.0,182.0 350.6,182.9
351.3,183.9 351.9,184.8 352.6,185.8 353.2,186.8 353.8,187.7 354.5,188.7 355.1,189.7 355.8,190.7 356.4,191.7 357.0,192.8 357.7,193.8 358.3,194.8 359.0,195.8 359.6,196.8 360.3,197.9 360.9,198.9
361.5,199.9 362.2,200.9 362.8,201.9 363.5,202.9 364.1,203.9 364.7,204.9 365.4,205.9 366.0,206.9 366.7,207.9 367.3,208.8 367.9,209.8 368.6,210.7 369.2,211.7 369.9,212.6 370.5,213.5 371.1,214.4
371.8,215.3 372.4,216.1 373.1,217.0 373.7,217.8 374.4,218.7 375.0,219.5 375.6,220.3 376.3,221.1 376.9,221.8 377.6,222.6 378.2,223.3 378.8,224.0 379.5,224.7 380.1,225.4 380.8,226.1 381.4,226.7
382.0,227.4 382.7,228.0 383.3,228.6 384.0,229.1 384.6,229.7 385.3,230.3 385.9,230.8 386.5,231.3 387.2,231.8 387.8,232.3 388.5,232.7 389.1,233.2 389.7,233.6 390.4,234.0 391.0,234.4 391.7,234.8
392.3,235.2 392.9,235.6 393.6,235.9 394.2,236.2 394.9,236.6 395.5,236.9 396.2,237.2 396.8,237.4 397.4,237.7 398.1,238.0 398.7,238.2 399.4,238.4 400.0,238.7 400.6,238.9 401.3,239.1 401.9,239.3
402.6,239.4 403.2,239.6 403.8,239.8 404.5,239.9 405.1,240.1 405.8,240.2 406.4,240.4 407.0,240.5 407.7,240.6 408.3,240.7 409.0,240.8 409.6,240.9 410.3,241.0 410.9,241.1 411.5,241.2 412.2,241.3
412.8,241.4 413.5,241.4 414.1,241.5 414.7,241.6 415.4,241.6 416.0,241.7 416.7,241.7 417.3,241.8 417.9,241.8 418.6,241.9 419.2,241.9 419.9,241.9 420.5,242.0 421.2,242.0 421.8,242.0 422.4,242.1
423.1,242.1 423.7,242.1 424.4,242.1 425.0,242.2 425.0,242.4 424.4,242.4 423.7,242.4 423.1,242.4 422.4,242.4 421.8,242.4 421.2,242.4 420.5,242.4 419.9,242.4 419.2,242.4 418.6,242.4 417.9,242.4
417.3,242.4 416.7,242.4 416.0,242.4 415.4,242.4 414.7,242.4 414.1,242.4 413.5,242.4 412.8,242.4 412.2,242.4 411.5,242.4 410.9,242.4 410.3,242.4 409.6,242.4 409.0,242.4 408.3,242.4 407.7,242.4
407.0,242.4 406.4,242.4 405.8,242.4 405.1,242.4 404.5,242.4 403.8,242.4 403.2,242.4 402.6,242.4 401.9,242.4 401.3,242.4 400.6,242.4 400.0,242.4 399.4,242.4 398.7,242.4 398.1,242.4 397.4,242.4
396.8,242.4 396.2,242.4 395.5,242.4 394.9,242.4 394.2,242.4 393.6,242.4 392.9,242.4 392.3,242.4 391.7,242.4 391.0,242.4 390.4,242.4 389.7,242.4 389.1,242.4 388.5,242.4 387.8,242.4 387.2,242.4
386.5,242.4 385.9,242.4 385.3,242.4 384.6,242.4 384.0,242.4 383.3,242.4 382.7,242.4 382.0,242.4 381.4,242.4 380.8,242.4 380.1,242.4 379.5,242.4 378.8,242.4 378.2,242.4 377.6,242.4 376.9,242.4
376.3,242.4 375.6,242.4 375.0,242.4 374.4,242.4 373.7,242.4 373.1,242.4 372.4,242.4 371.8,242.4 371.1,242.4 370.5,242.4 369.9,242.4 369.2,242.4 368.6,242.4 367.9,242.4 367.3,242.4 366.7,242.4
366.0,242.4 365.4,242.4 364.7,242.4 364.1,242.4 363.5,242.4 362.8,242.4 362.2,242.4 361.5,242.4 360.9,242.4 360.3,242.4 359.6,242.4 359.0,242.4 358.3,242.4 357.7,242.4 357.0,242.4 356.4,242.4
355.8,242.4 355.1,242.4 354.5,242.4 353.8,242.4 353.2,242.4 352.6,242.4 351.9,242.4 351.3,242.4 350.6,242.4 350.0,242.4 349.4,242.4 348.7,242.4 348.1,242.4 347.4,242.4 346.8,242.4 346.1,242.4
345.5,242.4 344.9,242.4 344.2,242.4 343.6,242.4 342.9,242.4 342.3,242.4 341.7,242.4 341.0,242.4 340.4,242.4 339.7,242.4 339.1,242.4 338.5,242.4 337.8,242.4 337.2,242.4 336.5,242.4 335.9,242.4
335.2,242.4 334.6,242.4 334.0,242.4 333.3,242.4 332.7,242.4 332.0,242.4 331.4,242.4 330.8,242.4 330.1,242.4 329.5,242.4 328.8,242.4 328.2,242.4 327.6,242.4 326.9,242.4 326.3,242.4 325.6,242.4
325.0,242.4 324.4,242.4 323.7,242.4 323.1,242.4 322.4,242.4 321.8,242.4 321.1,242.4 320.5,242.4 319.9,242.4 319.2,242.4 318.6,242.4 317.9,242.4 317.3,242.4 316.7,242.4 316.0,242.4 315.4,242.4
314.7,242.4 314.1,242.4 313.5,242.4 312.8,242.4 312.2,242.4 311.5,242.4 310.9,242.4 310.2,242.4 309.6,242.4 309.0,242.4 308.3,242.4 307.7,242.4 307.0,242.4 306.4,242.4 305.8,242.4 305.1,242.4
304.5,242.4 303.8,242.4 303.2,242.4 302.6,242.4 301.9,242.4 301.3,242.4 300.6,242.4 300.0,242.4 299.3,242.4 298.7,242.4 298.1,242.4 297.4,242.4 296.8,242.4 296.1,242.4 295.5,242.4 294.9,242.4
294.2,242.4 293.6,242.4 292.9,242.4 292.3,242.4 291.7,242.4 291.0,242.4 290.4,242.4 289.7,242.4 289.1,242.4 288.4,242.4 287.8,242.4 287.2,242.4 286.5,242.4 285.9,242.4 285.2,242.4 284.6,242.4
284.0,242.4 283.3,242.4 282.7,242.4 282.0,242.4 281.4,242.4 280.8,242.4 280.1,242.4 279.5,242.4 278.8,242.4 278.2,242.4 277.6,242.4 276.9,242.4 276.3,242.4 275.6,242.4 275.0,242.4 274.3,242.4
273.7,242.4 273.1,242.4 272.4,242.4 271.8,242.4 271.1,242.4 270.5,242.4 269.9,242.4 269.2,242.4 268.6,242.4 267.9,242.4 267.3,242.4 266.7,242.4 266.0,242.4 265.4,242.4 264.7,242.4 264.1,242.4
263.4,242.4 262.8,242.4 262.2,242.4 261.5,242.4 260.9,242.4 260.2,242.4 259.6,242.4 259.0,242.4 258.3,242.4 257.7,242.4 257.0,242.4 256.4,242.4 255.8,242.4 255.1,242.4 254.5,242.4 253.8,242.4
253.2,242.4 252.5,242.4 251.9,242.4 251.3,242.4 250.6,242.4 250.0,242.4 249.3,242.4 248.7,242.4 248.1,242.4 247.4,242.4 246.8,242.4 246.1,242.4 245.5,242.4 244.9,242.4 244.2,242.4 243.6,242.4
242.9,242.4 242.3,242.4 241.7,242.4 241.0,242.4 240.4,242.4 239.7,242.4 239.1,242.4 238.4,242.4 237.8,242.4 237.2,242.4 236.5,242.4 235.9,242.4 235.2,242.4 234.6,242.4 234.0,242.4 233.3,242.4
232.7,242.4 232.0,242.4 231.4,242.4 230.8,242.4 230.1,242.4 229.5,242.4 228.8,242.4 228.2,242.4 227.5,242.4 226.9,242.4 226.3,242.4 225.6,242.4 225.0,242.4 224.3,242.4 223.7,242.4 223.1,242.4
222.4,242.4 221.8,242.4 221.1,242.4 220.5,242.4 219.9,242.4 219.2,242.4 218.6,242.4 217.9,242.4 217.3,242.4 216.6,242.4 216.0,242.4 215.4,242.4 214.7,242.4 214.1,242.4 213.4,242.4 212.8,242.4
212.2,242.4 211.5,242.4 210.9,242.4 210.2,242.4 209.6,242.4 209.0,242.4 208.3,242.4 207.7,242.4 207.0,242.4 206.4,242.4 205.7,242.4 205.1,242.4 204.5,242.4 203.8,242.4 203.2,242.4 202.5,242.4
201.9,242.4 201.3,242.4 200.6,242.4 200.0,242.4 199.3,242.4 198.7,242.4 198.1,242.4 197.4,242.4 196.8,242.4 196.1,242.4 195.5,242.4 194.9,242.4 194.2,242.4 193.6,242.4 192.9,242.4 192.3,242.4
191.6,242.4 191.0,242.4 190.4,242.4 189.7,242.4 189.1,242.4 188.4,242.4 187.8,242.4 187.2,242.4 186.5,242.4 185.9,242.4 185.2,242.4 184.6,242.4 184.0,242.4 183.3,242.4 182.7,242.4 182.0,242.4
181.4,242.4 180.7,242.4 180.1,242.4 179.5,242.4 178.8,242.4 178.2,242.4 177.5,242.4 176.9,242.4 176.3,242.4 175.6,242.4 175.0,242.4 174.3,242.4 173.7,242.4 173.1,242.4 172.4,242.4 171.8,242.4
171.1,242.4 170.5,242.4 169.8,242.4 169.2,242.4 168.6,242.4 167.9,242.4 167.3,242.4 166.6,242.4 166.0,242.4 165.4,242.4 164.7,242.4 164.1,242.4 163.4,242.4 162.8,242.4 162.2,242.4 161.5,242.4
160.9,242.4 160.2,242.4 159.6,242.4 159.0,242.4 158.3,242.4 157.7,242.4 157.0,242.4 156.4,242.4 155.7,242.4 155.1,242.4 154.5,242.4 153.8,242.4 153.2,242.4 152.5,242.4 151.9,242.4 151.3,242.4
150.6,242.4 150.0,242.4 149.3,242.4 148.7,242.4 148.1,242.4 147.4,242.4 146.8,242.4 146.1,242.4 145.5,242.4 144.8,242.4 144.2,242.4 143.6,242.4 142.9,242.4 142.3,242.4 141.6,242.4 141.0,242.4
140.4,242.4 139.7,242.4 139.1,242.4 138.4,242.4 137.8,242.4 137.2,242.4 136.5,242.4 135.9,242.4 135.2,242.4 134.6,242.4 133.9,242.4 133.3,242.4 132.7,242.4 132.0,242.4 131.4,242.4 130.7,242.4
130.1,242.4 129.5,242.4 128.8,242.4 128.2,242.4 127.5,242.4 126.9,242.4 126.3,242.4 125.6,242.4 125.0,242.4 124.3,242.4 123.7,242.4 123.1,242.4 122.4,242.4 121.8,242.4 121.1,242.4 120.5,242.4
119.8,242.4 119.2,242.4 118.6,242.4 117.9,242.4 117.3,242.4 116.6,242.4 116.0,242.4 115.4,242.4 114.7,242.4 114.1,242.4 113.4,242.4 112.8,242.4 112.2,242.4 111.5,242.4 110.9,242.4 110.2,242.4
109.6,242.4 108.9,242.4 108.3,242.4 107.7,242.4 107.0,242.4 106.4,242.4 105.7,242.4 105.1,242.4 '/>
	</g>
</g>
	</g>
	<g id="gnuplot_plot_2" ><title>Mean</title>
<g fill="none" color="white" stroke="rgb( 31, 120, 180)" stroke-width="2.00" stroke-linecap="butt" stroke-linejoin="miter">
</g>
<g fill="none" color="black" stroke="currentColor" stroke-width="2.00" stroke-linecap="butt" stroke-linejoin="miter">
	<path stroke='rgb( 31, 120, 180)'  d='M236.7,242.4 L236.7,165.9  '/></g>
	</g>
<g fill="none" color="black" stroke="currentColor" stroke-width="2.00" stroke-linecap="butt" stroke-linejoin="miter">
</g>
<g fill="none" color="black" stroke="black" stroke-width="1.00" stroke-linecap="butt" stroke-linejoin="miter">
</g>
<g fill="none" color="black" stroke="currentColor" stroke-width="1.00" stroke-linecap="butt" stroke-linejoin="miter">
	<path stroke='black'  d='M105.1,18.1 L105.1,242.4 L425.0,242.4 L425.0,18.1 L105.1,18.1 Z  '/></g>
<g fill="none" color="black" stroke="currentColor" stroke-width="1.00" stroke-linecap="butt" stroke-linejoin="miter">
</g>
</g>
</svg>

