group,function,value,throughput_num,throughput_type,sample_measured_value,unit,iteration_count
non_nested_compare,initial calculation,12,,,940969293.0,cycles,3552
non_nested_compare,initial calculation,12,,,1978130278.0,cycles,7104
non_nested_compare,initial calculation,12,,,3141944576.0,cycles,10656
non_nested_compare,initial calculation,12,,,4411581188.0,cycles,14208
non_nested_compare,initial calculation,12,,,5760534552.0,cycles,17760
non_nested_compare,initial calculation,12,,,5859113578.0,cycles,21312
non_nested_compare,initial calculation,12,,,7321511591.0,cycles,24864
non_nested_compare,initial calculation,12,,,9140994762.0,cycles,28416
non_nested_compare,initial calculation,12,,,11174149667.0,cycles,31968
non_nested_compare,initial calculation,12,,,13147909573.0,cycles,35520
non_nested_compare,initial calculation,12,,,14601324486.0,cycles,39072
non_nested_compare,initial calculation,12,,,16012132056.0,cycles,42624
non_nested_compare,initial calculation,12,,,17348437250.0,cycles,46176
non_nested_compare,initial calculation,12,,,18671902113.0,cycles,49728
non_nested_compare,initial calculation,12,,,19915607913.0,cycles,53280
non_nested_compare,initial calculation,12,,,21401346620.0,cycles,56832
non_nested_compare,initial calculation,12,,,22485107326.0,cycles,60384
non_nested_compare,initial calculation,12,,,24455063331.0,cycles,63936
non_nested_compare,initial calculation,12,,,24881243719.0,cycles,67488
non_nested_compare,initial calculation,12,,,26132596982.0,cycles,71040
non_nested_compare,initial calculation,12,,,27369205584.0,cycles,74592
non_nested_compare,initial calculation,12,,,28575385880.0,cycles,78144
non_nested_compare,initial calculation,12,,,29916705757.0,cycles,81696
non_nested_compare,initial calculation,12,,,31006888249.0,cycles,85248
non_nested_compare,initial calculation,12,,,32350541675.0,cycles,88800
non_nested_compare,initial calculation,12,,,33770408238.0,cycles,92352
non_nested_compare,initial calculation,12,,,35010339836.0,cycles,95904
non_nested_compare,initial calculation,12,,,36153423115.0,cycles,99456
non_nested_compare,initial calculation,12,,,37357433812.0,cycles,103008
non_nested_compare,initial calculation,12,,,38768126093.0,cycles,106560
non_nested_compare,initial calculation,12,,,39977922535.0,cycles,110112
non_nested_compare,initial calculation,12,,,41233521310.0,cycles,113664
non_nested_compare,initial calculation,12,,,42445030268.0,cycles,117216
non_nested_compare,initial calculation,12,,,43877228379.0,cycles,120768
non_nested_compare,initial calculation,12,,,45087160016.0,cycles,124320
non_nested_compare,initial calculation,12,,,49904029024.0,cycles,127872
non_nested_compare,initial calculation,12,,,49374375503.0,cycles,131424
non_nested_compare,initial calculation,12,,,48765644938.0,cycles,134976
non_nested_compare,initial calculation,12,,,49976026458.0,cycles,138528
non_nested_compare,initial calculation,12,,,51175524337.0,cycles,142080
non_nested_compare,initial calculation,12,,,52432528556.0,cycles,145632
non_nested_compare,initial calculation,12,,,53873836669.0,cycles,149184
non_nested_compare,initial calculation,12,,,55340251269.0,cycles,152736
non_nested_compare,initial calculation,12,,,56694524852.0,cycles,156288
non_nested_compare,initial calculation,12,,,58448448211.0,cycles,159840
non_nested_compare,initial calculation,12,,,60079837728.0,cycles,163392
non_nested_compare,initial calculation,12,,,62723799489.0,cycles,166944
non_nested_compare,initial calculation,12,,,64694655672.0,cycles,170496
non_nested_compare,initial calculation,12,,,70533935866.0,cycles,174048
non_nested_compare,initial calculation,12,,,71921848886.0,cycles,177600
non_nested_compare,initial calculation,12,,,71787561041.0,cycles,181152
non_nested_compare,initial calculation,12,,,73320387240.0,cycles,184704
non_nested_compare,initial calculation,12,,,73394775002.0,cycles,188256
non_nested_compare,initial calculation,12,,,74841450032.0,cycles,191808
non_nested_compare,initial calculation,12,,,74884050667.0,cycles,195360
non_nested_compare,initial calculation,12,,,76961846851.0,cycles,198912
non_nested_compare,initial calculation,12,,,78250061169.0,cycles,202464
non_nested_compare,initial calculation,12,,,78750660808.0,cycles,206016
non_nested_compare,initial calculation,12,,,80273512517.0,cycles,209568
non_nested_compare,initial calculation,12,,,81483880323.0,cycles,213120
non_nested_compare,initial calculation,12,,,82772353166.0,cycles,216672
non_nested_compare,initial calculation,12,,,83726256657.0,cycles,220224
non_nested_compare,initial calculation,12,,,86180365787.0,cycles,223776
non_nested_compare,initial calculation,12,,,87066601463.0,cycles,227328
non_nested_compare,initial calculation,12,,,88775536245.0,cycles,230880
non_nested_compare,initial calculation,12,,,89425856284.0,cycles,234432
non_nested_compare,initial calculation,12,,,90951022568.0,cycles,237984
non_nested_compare,initial calculation,12,,,95476382764.0,cycles,241536
non_nested_compare,initial calculation,12,,,105221653819.0,cycles,245088
non_nested_compare,initial calculation,12,,,107647192546.0,cycles,248640
non_nested_compare,initial calculation,12,,,108762835855.0,cycles,252192
non_nested_compare,initial calculation,12,,,110124364185.0,cycles,255744
non_nested_compare,initial calculation,12,,,111122455690.0,cycles,259296
non_nested_compare,initial calculation,12,,,113806145517.0,cycles,262848
non_nested_compare,initial calculation,12,,,115063753801.0,cycles,266400
non_nested_compare,initial calculation,12,,,116637578423.0,cycles,269952
non_nested_compare,initial calculation,12,,,117161333189.0,cycles,273504
non_nested_compare,initial calculation,12,,,118531000645.0,cycles,277056
non_nested_compare,initial calculation,12,,,119515902738.0,cycles,280608
non_nested_compare,initial calculation,12,,,123528159526.0,cycles,284160
non_nested_compare,initial calculation,12,,,123990475359.0,cycles,287712
non_nested_compare,initial calculation,12,,,125230677782.0,cycles,291264
non_nested_compare,initial calculation,12,,,126871031018.0,cycles,294816
non_nested_compare,initial calculation,12,,,133189484069.0,cycles,298368
non_nested_compare,initial calculation,12,,,130116188780.0,cycles,301920
non_nested_compare,initial calculation,12,,,132112990903.0,cycles,305472
non_nested_compare,initial calculation,12,,,135245083445.0,cycles,309024
non_nested_compare,initial calculation,12,,,138314751201.0,cycles,312576
non_nested_compare,initial calculation,12,,,138570040074.0,cycles,316128
non_nested_compare,initial calculation,12,,,138221779387.0,cycles,319680
non_nested_compare,initial calculation,12,,,139136805432.0,cycles,323232
non_nested_compare,initial calculation,12,,,141088311901.0,cycles,326784
non_nested_compare,initial calculation,12,,,143180884183.0,cycles,330336
non_nested_compare,initial calculation,12,,,144166095004.0,cycles,333888
non_nested_compare,initial calculation,12,,,145419856114.0,cycles,337440
non_nested_compare,initial calculation,12,,,147197170907.0,cycles,340992
non_nested_compare,initial calculation,12,,,153206772317.0,cycles,344544
non_nested_compare,initial calculation,12,,,150090846093.0,cycles,348096
non_nested_compare,initial calculation,12,,,152793637417.0,cycles,351648
non_nested_compare,initial calculation,12,,,155375401452.0,cycles,355200
