<?xml version="1.0" encoding="utf-8"  standalone="no"?>
<svg 
 viewBox="0 0 1280 720"
 xmlns="http://www.w3.org/2000/svg"
 xmlns:xlink="http://www.w3.org/1999/xlink"
>

<title>Gnuplot</title>
<desc>Produced by GNUPLOT 5.2 patchlevel 2 </desc>

<g id="gnuplot_canvas">

<rect x="0" y="0" width="1280" height="720" fill="none"/>
<defs>

	<circle id='gpDot' r='0.5' stroke-width='0.5'/>
	<path id='gpPt0' stroke-width='0.222' stroke='currentColor' d='M-1,0 h2 M0,-1 v2'/>
	<path id='gpPt1' stroke-width='0.222' stroke='currentColor' d='M-1,-1 L1,1 M1,-1 L-1,1'/>
	<path id='gpPt2' stroke-width='0.222' stroke='currentColor' d='M-1,0 L1,0 M0,-1 L0,1 M-1,-1 L1,1 M-1,1 L1,-1'/>
	<rect id='gpPt3' stroke-width='0.222' stroke='currentColor' x='-1' y='-1' width='2' height='2'/>
	<rect id='gpPt4' stroke-width='0.222' stroke='currentColor' fill='currentColor' x='-1' y='-1' width='2' height='2'/>
	<circle id='gpPt5' stroke-width='0.222' stroke='currentColor' cx='0' cy='0' r='1'/>
	<use xlink:href='#gpPt5' id='gpPt6' fill='currentColor' stroke='none'/>
	<path id='gpPt7' stroke-width='0.222' stroke='currentColor' d='M0,-1.33 L-1.33,0.67 L1.33,0.67 z'/>
	<use xlink:href='#gpPt7' id='gpPt8' fill='currentColor' stroke='none'/>
	<use xlink:href='#gpPt7' id='gpPt9' stroke='currentColor' transform='rotate(180)'/>
	<use xlink:href='#gpPt9' id='gpPt10' fill='currentColor' stroke='none'/>
	<use xlink:href='#gpPt3' id='gpPt11' stroke='currentColor' transform='rotate(45)'/>
	<use xlink:href='#gpPt11' id='gpPt12' fill='currentColor' stroke='none'/>
	<path id='gpPt13' stroke-width='0.222' stroke='currentColor' d='M0,1.330 L1.265,0.411 L0.782,-1.067 L-0.782,-1.076 L-1.265,0.411 z'/>
	<use xlink:href='#gpPt13' id='gpPt14' fill='currentColor' stroke='none'/>
	<filter id='textbox' filterUnits='objectBoundingBox' x='0' y='0' height='1' width='1'>
	  <feFlood flood-color='white' flood-opacity='1' result='bgnd'/>
	  <feComposite in='SourceGraphic' in2='bgnd' operator='atop'/>
	</filter>
	<filter id='greybox' filterUnits='objectBoundingBox' x='0' y='0' height='1' width='1'>
	  <feFlood flood-color='lightgrey' flood-opacity='1' result='grey'/>
	  <feComposite in='SourceGraphic' in2='grey' operator='atop'/>
	</filter>
</defs>
<g fill="none" color="white" stroke="currentColor" stroke-width="1.00" stroke-linecap="butt" stroke-linejoin="miter">
</g>
<g fill="none" color="black" stroke="currentColor" stroke-width="1.00" stroke-linecap="butt" stroke-linejoin="miter">
	<path stroke='black'  d='M88.5,662.4 L97.5,662.4  '/>	<g transform="translate(80.2,666.3)" stroke="none" fill="black" font-family="Helvetica" font-size="12.00"  text-anchor="end">
		<text><tspan font-family="Helvetica" > 0</tspan></text>
	</g>
</g>
<g fill="none" color="black" stroke="currentColor" stroke-width="1.00" stroke-linecap="butt" stroke-linejoin="miter">
	<path stroke='black'  d='M88.5,561.0 L97.5,561.0  '/>	<g transform="translate(80.2,564.9)" stroke="none" fill="black" font-family="Helvetica" font-size="12.00"  text-anchor="end">
		<text><tspan font-family="Helvetica" > 0.005</tspan></text>
	</g>
</g>
<g fill="none" color="black" stroke="currentColor" stroke-width="1.00" stroke-linecap="butt" stroke-linejoin="miter">
	<path stroke='black'  d='M88.5,459.6 L97.5,459.6  '/>	<g transform="translate(80.2,463.5)" stroke="none" fill="black" font-family="Helvetica" font-size="12.00"  text-anchor="end">
		<text><tspan font-family="Helvetica" > 0.01</tspan></text>
	</g>
</g>
<g fill="none" color="black" stroke="currentColor" stroke-width="1.00" stroke-linecap="butt" stroke-linejoin="miter">
	<path stroke='black'  d='M88.5,358.2 L97.5,358.2  '/>	<g transform="translate(80.2,362.1)" stroke="none" fill="black" font-family="Helvetica" font-size="12.00"  text-anchor="end">
		<text><tspan font-family="Helvetica" > 0.015</tspan></text>
	</g>
</g>
<g fill="none" color="black" stroke="currentColor" stroke-width="1.00" stroke-linecap="butt" stroke-linejoin="miter">
	<path stroke='black'  d='M88.5,256.9 L97.5,256.9  '/>	<g transform="translate(80.2,260.8)" stroke="none" fill="black" font-family="Helvetica" font-size="12.00"  text-anchor="end">
		<text><tspan font-family="Helvetica" > 0.02</tspan></text>
	</g>
</g>
<g fill="none" color="black" stroke="currentColor" stroke-width="1.00" stroke-linecap="butt" stroke-linejoin="miter">
	<path stroke='black'  d='M88.5,155.5 L97.5,155.5  '/>	<g transform="translate(80.2,159.4)" stroke="none" fill="black" font-family="Helvetica" font-size="12.00"  text-anchor="end">
		<text><tspan font-family="Helvetica" > 0.025</tspan></text>
	</g>
</g>
<g fill="none" color="black" stroke="currentColor" stroke-width="1.00" stroke-linecap="butt" stroke-linejoin="miter">
	<path stroke='black'  d='M88.5,54.1 L97.5,54.1  '/>	<g transform="translate(80.2,58.0)" stroke="none" fill="black" font-family="Helvetica" font-size="12.00"  text-anchor="end">
		<text><tspan font-family="Helvetica" > 0.03</tspan></text>
	</g>
</g>
<g fill="none" color="black" stroke="currentColor" stroke-width="1.00" stroke-linecap="butt" stroke-linejoin="miter">
	<path stroke='black'  d='M112.9,662.4 L112.9,653.4  '/>	<g transform="translate(112.9,684.3)" stroke="none" fill="black" font-family="Helvetica" font-size="12.00"  text-anchor="middle">
		<text><tspan font-family="Helvetica" > 14180</tspan></text>
	</g>
</g>
<g fill="none" color="black" stroke="currentColor" stroke-width="1.00" stroke-linecap="butt" stroke-linejoin="miter">
	<path stroke='black'  d='M213.4,662.4 L213.4,653.4  '/>	<g transform="translate(213.4,684.3)" stroke="none" fill="black" font-family="Helvetica" font-size="12.00"  text-anchor="middle">
		<text><tspan font-family="Helvetica" > 14200</tspan></text>
	</g>
</g>
<g fill="none" color="black" stroke="currentColor" stroke-width="1.00" stroke-linecap="butt" stroke-linejoin="miter">
	<path stroke='black'  d='M314.0,662.4 L314.0,653.4  '/>	<g transform="translate(314.0,684.3)" stroke="none" fill="black" font-family="Helvetica" font-size="12.00"  text-anchor="middle">
		<text><tspan font-family="Helvetica" > 14220</tspan></text>
	</g>
</g>
<g fill="none" color="black" stroke="currentColor" stroke-width="1.00" stroke-linecap="butt" stroke-linejoin="miter">
	<path stroke='black'  d='M414.5,662.4 L414.5,653.4  '/>	<g transform="translate(414.5,684.3)" stroke="none" fill="black" font-family="Helvetica" font-size="12.00"  text-anchor="middle">
		<text><tspan font-family="Helvetica" > 14240</tspan></text>
	</g>
</g>
<g fill="none" color="black" stroke="currentColor" stroke-width="1.00" stroke-linecap="butt" stroke-linejoin="miter">
	<path stroke='black'  d='M515.1,662.4 L515.1,653.4  '/>	<g transform="translate(515.1,684.3)" stroke="none" fill="black" font-family="Helvetica" font-size="12.00"  text-anchor="middle">
		<text><tspan font-family="Helvetica" > 14260</tspan></text>
	</g>
</g>
<g fill="none" color="black" stroke="currentColor" stroke-width="1.00" stroke-linecap="butt" stroke-linejoin="miter">
	<path stroke='black'  d='M615.6,662.4 L615.6,653.4  '/>	<g transform="translate(615.6,684.3)" stroke="none" fill="black" font-family="Helvetica" font-size="12.00"  text-anchor="middle">
		<text><tspan font-family="Helvetica" > 14280</tspan></text>
	</g>
</g>
<g fill="none" color="black" stroke="currentColor" stroke-width="1.00" stroke-linecap="butt" stroke-linejoin="miter">
	<path stroke='black'  d='M716.1,662.4 L716.1,653.4  '/>	<g transform="translate(716.1,684.3)" stroke="none" fill="black" font-family="Helvetica" font-size="12.00"  text-anchor="middle">
		<text><tspan font-family="Helvetica" > 14300</tspan></text>
	</g>
</g>
<g fill="none" color="black" stroke="currentColor" stroke-width="1.00" stroke-linecap="butt" stroke-linejoin="miter">
	<path stroke='black'  d='M816.7,662.4 L816.7,653.4  '/>	<g transform="translate(816.7,684.3)" stroke="none" fill="black" font-family="Helvetica" font-size="12.00"  text-anchor="middle">
		<text><tspan font-family="Helvetica" > 14320</tspan></text>
	</g>
</g>
<g fill="none" color="black" stroke="currentColor" stroke-width="1.00" stroke-linecap="butt" stroke-linejoin="miter">
	<path stroke='black'  d='M917.2,662.4 L917.2,653.4  '/>	<g transform="translate(917.2,684.3)" stroke="none" fill="black" font-family="Helvetica" font-size="12.00"  text-anchor="middle">
		<text><tspan font-family="Helvetica" > 14340</tspan></text>
	</g>
</g>
<g fill="none" color="black" stroke="currentColor" stroke-width="1.00" stroke-linecap="butt" stroke-linejoin="miter">
</g>
<g fill="none" color="black" stroke="currentColor" stroke-width="1.00" stroke-linecap="butt" stroke-linejoin="miter">
	<path stroke='black'  d='M88.5,54.1 L88.5,662.4 L1013.6,662.4 L1013.6,54.1 L88.5,54.1 Z  '/></g>
<g fill="none" color="black" stroke="currentColor" stroke-width="1.00" stroke-linecap="butt" stroke-linejoin="miter">
	<g transform="translate(16.3,358.3) rotate(270)" stroke="none" fill="black" font-family="Helvetica" font-size="12.00"  text-anchor="middle">
		<text><tspan font-family="Helvetica" >Density (a.u.)</tspan></text>
	</g>
</g>
<g fill="none" color="black" stroke="currentColor" stroke-width="1.00" stroke-linecap="butt" stroke-linejoin="miter">
	<g transform="translate(551.0,711.3)" stroke="none" fill="black" font-family="Helvetica" font-size="12.00"  text-anchor="middle">
		<text><tspan font-family="Helvetica" >Average time (cycles)</tspan></text>
	</g>
</g>
<g fill="none" color="black" stroke="currentColor" stroke-width="1.00" stroke-linecap="butt" stroke-linejoin="miter">
	<g transform="translate(551.0,31.0)" stroke="none" fill="black" font-family="Helvetica" font-size="12.00"  text-anchor="middle">
		<text><tspan font-family="Helvetica" >non_nested_compare/incremental calc/7: median</tspan></text>
	</g>
</g>
	<g id="gnuplot_plot_1" ><title>Bootstrap distribution</title>
<g fill="none" color="white" stroke="black" stroke-width="2.00" stroke-linecap="butt" stroke-linejoin="miter">
</g>
<g fill="none" color="black" stroke="currentColor" stroke-width="2.00" stroke-linecap="butt" stroke-linejoin="miter">
	<g transform="translate(1089.0,67.0)" stroke="none" fill="black" font-family="Helvetica" font-size="12.00"  text-anchor="start">
		<text><tspan font-family="Helvetica" >Bootstrap distribution</tspan></text>
	</g>
</g>
<g fill="none" color="black" stroke="currentColor" stroke-width="2.00" stroke-linecap="butt" stroke-linejoin="miter">
	<path stroke='rgb( 31, 120, 180)'  d='M1038.5,63.1 L1080.7,63.1 M88.5,646.5 L90.4,646.6 L92.2,646.7 L94.1,646.8 L95.9,647.0 L97.8,647.1
		L99.6,647.2 L101.5,647.2 L103.3,647.3 L105.2,647.3 L107.0,647.3 L108.9,647.3 L110.7,647.3 L112.6,647.3
		L114.5,647.2 L116.3,647.1 L118.2,647.0 L120.0,646.9 L121.9,646.8 L123.7,646.6 L125.6,646.5 L127.4,646.4
		L129.3,646.3 L131.1,646.1 L133.0,646.0 L134.8,645.9 L136.7,645.8 L138.6,645.7 L140.4,645.6 L142.3,645.5
		L144.1,645.3 L146.0,645.2 L147.8,645.0 L149.7,644.8 L151.5,644.6 L153.4,644.4 L155.2,644.2 L157.1,643.9
		L158.9,643.7 L160.8,643.4 L162.7,643.1 L164.5,642.8 L166.4,642.4 L168.2,642.1 L170.1,641.7 L171.9,641.2
		L173.8,640.7 L175.6,640.1 L177.5,639.4 L179.3,638.6 L181.2,637.7 L183.0,636.7 L184.9,635.6 L186.8,634.4
		L188.6,633.1 L190.5,631.7 L192.3,630.3 L194.2,628.9 L196.0,627.5 L197.9,626.1 L199.7,624.9 L201.6,623.8
		L203.4,622.9 L205.3,622.3 L207.2,621.9 L209.0,621.8 L210.9,621.9 L212.7,622.4 L214.6,623.2 L216.4,624.2
		L218.3,625.5 L220.1,627.0 L222.0,628.7 L223.8,630.5 L225.7,632.5 L227.5,634.4 L229.4,636.4 L231.3,638.3
		L233.1,640.2 L235.0,641.9 L236.8,643.4 L238.7,644.8 L240.5,645.9 L242.4,646.9 L244.2,647.5 L246.1,647.9
		L247.9,648.0 L249.8,647.9 L251.6,647.5 L253.5,646.8 L255.4,645.9 L257.2,644.8 L259.1,643.4 L260.9,641.9
		L262.8,640.1 L264.6,638.3 L266.5,636.4 L268.3,634.4 L270.2,632.5 L272.0,630.6 L273.9,628.8 L275.7,627.1
		L277.6,625.6 L279.5,624.4 L281.3,623.4 L283.2,622.7 L285.0,622.3 L286.9,622.2 L288.7,622.4 L290.6,623.0
		L292.4,623.8 L294.3,624.9 L296.1,626.3 L298.0,627.8 L299.8,629.5 L301.7,631.3 L303.6,633.2 L305.4,635.0
		L307.3,636.8 L309.1,638.5 L311.0,640.0 L312.8,641.2 L314.7,642.2 L316.5,642.8 L318.4,643.1 L320.2,642.9
		L322.1,642.2 L323.9,641.1 L325.8,639.3 L327.7,637.0 L329.5,634.0 L331.4,630.4 L333.2,626.0 L335.1,620.9
		L336.9,615.1 L338.8,608.4 L340.6,601.0 L342.5,592.7 L344.3,583.6 L346.2,573.7 L348.0,563.0 L349.9,551.6
		L351.8,539.4 L353.6,526.6 L355.5,513.2 L357.3,499.4 L359.2,485.2 L361.0,470.8 L362.9,456.4 L364.7,442.1
		L366.6,428.1 L368.4,414.7 L370.3,402.0 L372.1,390.2 L374.0,379.5 L375.9,370.2 L377.7,362.4 L379.6,356.2
		L381.4,351.8 L383.3,349.3 L385.1,348.6 L387.0,349.9 L388.8,353.1 L390.7,358.1 L392.5,364.8 L394.4,373.0
		L396.2,382.5 L398.1,393.1 L400.0,404.6 L401.8,416.7 L403.7,429.2 L405.5,441.7 L407.4,453.9 L409.2,465.8
		L411.1,477.0 L412.9,487.3 L414.8,496.6 L416.6,504.8 L418.5,511.8 L420.3,517.5 L422.2,522.1 L424.1,525.4
		L425.9,527.6 L427.8,528.9 L429.6,529.3 L431.5,529.0 L433.3,528.2 L435.2,527.0 L437.0,525.6 L438.9,524.1
		L440.7,522.7 L442.6,521.5 L444.5,520.5 L446.3,519.8 L448.2,519.4 L450.0,519.3 L451.9,519.4 L453.7,519.7
		L455.6,520.1 L457.4,520.4 L459.3,520.5 L461.1,520.3 L463.0,519.6 L464.8,518.3 L466.7,516.2 L468.6,513.2
		L470.4,509.3 L472.3,504.3 L474.1,498.1 L476.0,490.7 L477.8,482.1 L479.7,472.3 L481.5,461.2 L483.4,448.8
		L485.2,435.3 L487.1,420.6 L488.9,404.8 L490.8,388.0 L492.7,370.4 L494.5,351.9 L496.4,332.7 L498.2,313.0
		L500.1,292.9 L501.9,272.6 L503.8,252.3 L505.6,232.1 L507.5,212.2 L509.3,192.9 L511.2,174.4 L513.0,156.8
		L514.9,140.4 L516.8,125.4 L518.6,111.9 L520.5,100.2 L522.3,90.3 L524.2,82.4 L526.0,76.5 L527.9,72.7
		L529.7,71.0 L531.6,71.5 L533.4,73.9 L535.3,78.4 L537.1,84.7 L539.0,92.8 L540.9,102.5 L542.7,113.8
		L544.6,126.4 L546.4,140.3 L548.3,155.3 L550.1,171.4 L552.0,188.3 L553.8,206.1 L555.7,224.6 L557.5,243.7
		L559.4,263.3 L561.2,283.4 L563.1,303.9 L565.0,324.7 L566.8,345.5 L568.7,366.5 L570.5,387.3 L572.4,407.8
		L574.2,428.0 L576.1,447.6 L577.9,466.5 L579.8,484.5 L581.6,501.6 L583.5,517.5 L585.3,532.1 L587.2,545.4
		L589.1,557.3 L590.9,567.7 L592.8,576.7 L594.6,584.1 L596.5,590.1 L598.3,594.8 L600.2,598.1 L602.0,600.2
		L603.9,601.2 L605.7,601.2 L607.6,600.5 L609.4,599.1 L611.3,597.2 L613.2,594.9 L615.0,592.5 L616.9,590.1
		L618.7,587.7 L620.6,585.7 L622.4,583.9 L624.3,582.6 L626.1,581.8 L628.0,581.6 L629.8,581.9 L631.7,582.8
		L633.5,584.3 L635.4,586.2 L637.3,588.5 L639.1,591.2 L641.0,594.0 L642.8,597.0 L644.7,600.0 L646.5,602.9
		L648.4,605.5 L650.2,607.9 L652.1,609.9 L653.9,611.4 L655.8,612.4 L657.6,612.9 L659.5,612.8 L661.4,612.3
		L663.2,611.2 L665.1,609.6 L666.9,607.7 L668.8,605.5 L670.6,603.0 L672.5,600.5 L674.3,597.9 L676.2,595.3
		L678.0,593.0 L679.9,590.9 L681.8,589.2 L683.6,587.9 L685.5,587.0 L687.3,586.7 L689.2,586.9 L691.0,587.6
		L692.9,588.8 L694.7,590.4 L696.6,592.4 L698.4,594.8 L700.3,597.4 L702.1,600.2 L704.0,603.0 L705.9,605.8
		L707.7,608.4 L709.6,610.8 L711.4,612.9 L713.3,614.7 L715.1,616.0 L717.0,617.0 L718.8,617.5 L720.7,617.5
		L722.5,617.1 L724.4,616.4 L726.2,615.3 L728.1,614.0 L730.0,612.4 L731.8,610.8 L733.7,609.2 L735.5,607.6
		L737.4,606.1 L739.2,604.8 L741.1,603.8 L742.9,603.0 L744.8,602.6 L746.6,602.4 L748.5,602.5 L750.3,602.9
		L752.2,603.6 L754.1,604.3 L755.9,605.2 L757.8,606.1 L759.6,606.9 L761.5,607.6 L763.3,608.1 L765.2,608.4
		L767.0,608.3 L768.9,607.8 L770.7,606.9 L772.6,605.5 L774.4,603.8 L776.3,601.6 L778.2,599.0 L780.0,596.1
		L781.9,592.9 L783.7,589.4 L785.6,585.9 L787.4,582.2 L789.3,578.5 L791.1,574.9 L793.0,571.5 L794.8,568.3
		L796.7,565.4 L798.5,562.8 L800.4,560.5 L802.3,558.7 L804.1,557.2 L806.0,556.2 L807.8,555.5 L809.7,555.2
		L811.5,555.3 L813.4,555.6 L815.2,556.3 L817.1,557.1 L818.9,558.2 L820.8,559.3 L822.6,560.6 L824.5,561.9
		L826.4,563.3 L828.2,564.6 L830.1,566.0 L831.9,567.2 L833.8,568.4 L835.6,569.5 L837.5,570.5 L839.3,571.4
		L841.2,572.2 L843.0,573.0 L844.9,573.6 L846.7,574.3 L848.6,574.9 L850.5,575.5 L852.3,576.2 L854.2,576.9
		L856.0,577.7 L857.9,578.6 L859.7,579.6 L861.6,580.7 L863.4,582.1 L865.3,583.5 L867.1,585.1 L869.0,586.9
		L870.8,588.8 L872.7,590.8 L874.6,592.9 L876.4,595.1 L878.3,597.3 L880.1,599.4 L882.0,601.6 L883.8,603.7
		L885.7,605.7 L887.5,607.6 L889.4,609.4 L891.2,611.0 L893.1,612.5 L894.9,613.9 L896.8,615.1 L898.7,616.1
		L900.5,617.1 L902.4,617.8 L904.2,618.5 L906.1,619.0 L907.9,619.4 L909.8,619.7 L911.6,619.8 L913.5,619.9
		L915.3,619.9 L917.2,619.8 L919.1,619.6 L920.9,619.4 L922.8,619.1 L924.6,618.9 L926.5,618.6 L928.3,618.4
		L930.2,618.2 L932.0,618.1 L933.9,618.1 L935.7,618.2 L937.6,618.4 L939.4,618.8 L941.3,619.2 L943.2,619.8
		L945.0,620.6 L946.9,621.4 L948.7,622.4 L950.6,623.4 L952.4,624.5 L954.3,625.7 L956.1,627.0 L958.0,628.2
		L959.8,629.5 L961.7,630.8 L963.5,632.2 L965.4,633.5 L967.3,634.8 L969.1,636.1 L971.0,637.4 L972.8,638.6
		L974.7,639.8 L976.5,641.1 L978.4,642.2 L980.2,643.4 L982.1,644.5 L983.9,645.6 L985.8,646.7 L987.6,647.7
		L989.5,648.7 L991.4,649.6 L993.2,650.5 L995.1,651.3 L996.9,652.1 L998.8,652.8 L1000.6,653.5 L1002.5,654.1
		L1004.3,654.7 L1006.2,655.2 L1008.0,655.6 L1009.9,656.0 L1011.7,656.4 L1013.6,656.7  '/></g>
	</g>
	<g id="gnuplot_plot_2" ><title>Confidence interval</title>
<g fill="none" color="white" stroke="rgb( 31, 120, 180)" stroke-width="1.00" stroke-linecap="butt" stroke-linejoin="miter">
</g>
<g fill="none" color="black" stroke="currentColor" stroke-width="1.00" stroke-linecap="butt" stroke-linejoin="miter">
	<g transform="translate(1089.0,85.0)" stroke="none" fill="black" font-family="Helvetica" font-size="12.00"  text-anchor="start">
		<text><tspan font-family="Helvetica" >Confidence interval</tspan></text>
	</g>
</g>
<g fill="none" color="black" stroke="currentColor" stroke-width="1.00" stroke-linecap="butt" stroke-linejoin="miter">
	<g stroke='none' shape-rendering='crispEdges'>
		<polygon fill = 'rgb( 31, 120, 180)' fill-opacity = '0.250000' points = '1038.5,85.6 1080.7,85.6 1080.7,76.6 1038.5,76.6 '/>
		<polygon fill = 'rgb( 31, 120, 180)' fill-opacity = '0.250000' points = '173.8,640.7 175.6,640.1 177.5,639.4 179.3,638.6 181.2,637.7 183.0,636.7 184.9,635.6 186.8,634.4 188.6,633.1 190.5,631.7 192.3,630.3 194.2,628.9 196.0,627.5 197.9,626.1 199.7,624.9 201.6,623.8
203.4,622.9 205.3,622.3 207.2,621.9 209.0,621.8 210.9,621.9 212.7,622.4 214.6,623.2 216.4,624.2 218.3,625.5 220.1,627.0 222.0,628.7 223.8,630.5 225.7,632.5 227.5,634.4 229.4,636.4 231.3,638.3
233.1,640.2 235.0,641.9 236.8,643.4 238.7,644.8 240.5,645.9 242.4,646.9 244.2,647.5 246.1,647.9 247.9,648.0 249.8,647.9 251.6,647.5 253.5,646.8 255.4,645.9 257.2,644.8 259.1,643.4 260.9,641.9
262.8,640.1 264.6,638.3 266.5,636.4 268.3,634.4 270.2,632.5 272.0,630.6 273.9,628.8 275.7,627.1 277.6,625.6 279.5,624.4 281.3,623.4 283.2,622.7 285.0,622.3 286.9,622.2 288.7,622.4 290.6,623.0
292.4,623.8 294.3,624.9 296.1,626.3 298.0,627.8 299.8,629.5 301.7,631.3 303.6,633.2 305.4,635.0 307.3,636.8 309.1,638.5 311.0,640.0 312.8,641.2 314.7,642.2 316.5,642.8 318.4,643.1 320.2,642.9
322.1,642.2 323.9,641.1 325.8,639.3 327.7,637.0 329.5,634.0 331.4,630.4 333.2,626.0 335.1,620.9 336.9,615.1 338.8,608.4 340.6,601.0 342.5,592.7 344.3,583.6 346.2,573.7 348.0,563.0 349.9,551.6
351.8,539.4 353.6,526.6 355.5,513.2 357.3,499.4 359.2,485.2 361.0,470.8 362.9,456.4 364.7,442.1 366.6,428.1 368.4,414.7 370.3,402.0 372.1,390.2 374.0,379.5 375.9,370.2 377.7,362.4 379.6,356.2
381.4,351.8 383.3,349.3 385.1,348.6 387.0,349.9 388.8,353.1 390.7,358.1 392.5,364.8 394.4,373.0 396.2,382.5 398.1,393.1 400.0,404.6 401.8,416.7 403.7,429.2 405.5,441.7 407.4,453.9 409.2,465.8
411.1,477.0 412.9,487.3 414.8,496.6 416.6,504.8 418.5,511.8 420.3,517.5 422.2,522.1 424.1,525.4 425.9,527.6 427.8,528.9 429.6,529.3 431.5,529.0 433.3,528.2 435.2,527.0 437.0,525.6 438.9,524.1
440.7,522.7 442.6,521.5 444.5,520.5 446.3,519.8 448.2,519.4 450.0,519.3 451.9,519.4 453.7,519.7 455.6,520.1 457.4,520.4 459.3,520.5 461.1,520.3 463.0,519.6 464.8,518.3 466.7,516.2 468.6,513.2
470.4,509.3 472.3,504.3 474.1,498.1 476.0,490.7 477.8,482.1 479.7,472.3 481.5,461.2 483.4,448.8 485.2,435.3 487.1,420.6 488.9,404.8 490.8,388.0 492.7,370.4 494.5,351.9 496.4,332.7 498.2,313.0
500.1,292.9 501.9,272.6 503.8,252.3 505.6,232.1 507.5,212.2 509.3,192.9 511.2,174.4 513.0,156.8 514.9,140.4 516.8,125.4 518.6,111.9 520.5,100.2 522.3,90.3 524.2,82.4 526.0,76.5 527.9,72.7
529.7,71.0 531.6,71.5 533.4,73.9 535.3,78.4 537.1,84.7 539.0,92.8 540.9,102.5 542.7,113.8 544.6,126.4 546.4,140.3 548.3,155.3 550.1,171.4 552.0,188.3 553.8,206.1 555.7,224.6 557.5,243.7
559.4,263.3 561.2,283.4 563.1,303.9 565.0,324.7 566.8,345.5 568.7,366.5 570.5,387.3 572.4,407.8 574.2,428.0 576.1,447.6 577.9,466.5 579.8,484.5 581.6,501.6 583.5,517.5 585.3,532.1 587.2,545.4
589.1,557.3 590.9,567.7 592.8,576.7 594.6,584.1 596.5,590.1 598.3,594.8 600.2,598.1 602.0,600.2 603.9,601.2 605.7,601.2 607.6,600.5 609.4,599.1 611.3,597.2 613.2,594.9 615.0,592.5 616.9,590.1
618.7,587.7 620.6,585.7 622.4,583.9 624.3,582.6 626.1,581.8 628.0,581.6 629.8,581.9 631.7,582.8 633.5,584.3 635.4,586.2 637.3,588.5 639.1,591.2 641.0,594.0 642.8,597.0 644.7,600.0 646.5,602.9
648.4,605.5 650.2,607.9 652.1,609.9 653.9,611.4 655.8,612.4 657.6,612.9 659.5,612.8 661.4,612.3 663.2,611.2 665.1,609.6 666.9,607.7 668.8,605.5 670.6,603.0 672.5,600.5 674.3,597.9 676.2,595.3
678.0,593.0 679.9,590.9 681.8,589.2 683.6,587.9 685.5,587.0 687.3,586.7 689.2,586.9 691.0,587.6 692.9,588.8 694.7,590.4 696.6,592.4 698.4,594.8 700.3,597.4 702.1,600.2 704.0,603.0 705.9,605.8
707.7,608.4 709.6,610.8 711.4,612.9 713.3,614.7 715.1,616.0 717.0,617.0 718.8,617.5 720.7,617.5 722.5,617.1 724.4,616.4 726.2,615.3 728.1,614.0 730.0,612.4 731.8,610.8 733.7,609.2 735.5,607.6
737.4,606.1 739.2,604.8 741.1,603.8 742.9,603.0 744.8,602.6 746.6,602.4 748.5,602.5 750.3,602.9 752.2,603.6 754.1,604.3 755.9,605.2 757.8,606.1 759.6,606.9 761.5,607.6 763.3,608.1 765.2,608.4
767.0,608.3 768.9,607.8 770.7,606.9 772.6,605.5 774.4,603.8 776.3,601.6 778.2,599.0 780.0,596.1 781.9,592.9 783.7,589.4 785.6,585.9 787.4,582.2 789.3,578.5 791.1,574.9 793.0,571.5 794.8,568.3
796.7,565.4 798.5,562.8 800.4,560.5 802.3,558.7 804.1,557.2 806.0,556.2 807.8,555.5 809.7,555.2 811.5,555.3 813.4,555.6 815.2,556.3 817.1,557.1 818.9,558.2 820.8,559.3 822.6,560.6 824.5,561.9
826.4,563.3 828.2,564.6 830.1,566.0 831.9,567.2 833.8,568.4 835.6,569.5 837.5,570.5 839.3,571.4 841.2,572.2 843.0,573.0 844.9,573.6 846.7,574.3 848.6,574.9 850.5,575.5 852.3,576.2 854.2,576.9
856.0,577.7 857.9,578.6 859.7,579.6 861.6,580.7 863.4,582.1 865.3,583.5 867.1,585.1 869.0,586.9 870.8,588.8 872.7,590.8 874.6,592.9 876.4,595.1 878.3,597.3 880.1,599.4 882.0,601.6 883.8,603.7
885.7,605.7 887.5,607.6 889.4,609.4 891.2,611.0 893.1,612.5 894.9,613.9 896.8,615.1 898.7,616.1 900.5,617.1 902.4,617.8 904.2,618.5 906.1,619.0 907.9,619.4 909.8,619.7 911.6,619.8 913.5,619.9
915.3,619.9 917.2,619.8 919.1,619.6 920.9,619.4 922.8,619.1 924.6,618.9 926.5,618.6 926.5,662.4 924.6,662.4 922.8,662.4 920.9,662.4 919.1,662.4 917.2,662.4 915.3,662.4 913.5,662.4 911.6,662.4
909.8,662.4 907.9,662.4 906.1,662.4 904.2,662.4 902.4,662.4 900.5,662.4 898.7,662.4 896.8,662.4 894.9,662.4 893.1,662.4 891.2,662.4 889.4,662.4 887.5,662.4 885.7,662.4 883.8,662.4 882.0,662.4
880.1,662.4 878.3,662.4 876.4,662.4 874.6,662.4 872.7,662.4 870.8,662.4 869.0,662.4 867.1,662.4 865.3,662.4 863.4,662.4 861.6,662.4 859.7,662.4 857.9,662.4 856.0,662.4 854.2,662.4 852.3,662.4
850.5,662.4 848.6,662.4 846.7,662.4 844.9,662.4 843.0,662.4 841.2,662.4 839.3,662.4 837.5,662.4 835.6,662.4 833.8,662.4 831.9,662.4 830.1,662.4 828.2,662.4 826.4,662.4 824.5,662.4 822.6,662.4
820.8,662.4 818.9,662.4 817.1,662.4 815.2,662.4 813.4,662.4 811.5,662.4 809.7,662.4 807.8,662.4 806.0,662.4 804.1,662.4 802.3,662.4 800.4,662.4 798.5,662.4 796.7,662.4 794.8,662.4 793.0,662.4
791.1,662.4 789.3,662.4 787.4,662.4 785.6,662.4 783.7,662.4 781.9,662.4 780.0,662.4 778.2,662.4 776.3,662.4 774.4,662.4 772.6,662.4 770.7,662.4 768.9,662.4 767.0,662.4 765.2,662.4 763.3,662.4
761.5,662.4 759.6,662.4 757.8,662.4 755.9,662.4 754.1,662.4 752.2,662.4 750.3,662.4 748.5,662.4 746.6,662.4 744.8,662.4 742.9,662.4 741.1,662.4 739.2,662.4 737.4,662.4 735.5,662.4 733.7,662.4
731.8,662.4 730.0,662.4 728.1,662.4 726.2,662.4 724.4,662.4 722.5,662.4 720.7,662.4 718.8,662.4 717.0,662.4 715.1,662.4 713.3,662.4 711.4,662.4 709.6,662.4 707.7,662.4 705.9,662.4 704.0,662.4
702.1,662.4 700.3,662.4 698.4,662.4 696.6,662.4 694.7,662.4 692.9,662.4 691.0,662.4 689.2,662.4 687.3,662.4 685.5,662.4 683.6,662.4 681.8,662.4 679.9,662.4 678.0,662.4 676.2,662.4 674.3,662.4
672.5,662.4 670.6,662.4 668.8,662.4 666.9,662.4 665.1,662.4 663.2,662.4 661.4,662.4 659.5,662.4 657.6,662.4 655.8,662.4 653.9,662.4 652.1,662.4 650.2,662.4 648.4,662.4 646.5,662.4 644.7,662.4
642.8,662.4 641.0,662.4 639.1,662.4 637.3,662.4 635.4,662.4 633.5,662.4 631.7,662.4 629.8,662.4 628.0,662.4 626.1,662.4 624.3,662.4 622.4,662.4 620.6,662.4 618.7,662.4 616.9,662.4 615.0,662.4
613.2,662.4 611.3,662.4 609.4,662.4 607.6,662.4 605.7,662.4 603.9,662.4 602.0,662.4 600.2,662.4 598.3,662.4 596.5,662.4 594.6,662.4 592.8,662.4 590.9,662.4 589.1,662.4 587.2,662.4 585.3,662.4
583.5,662.4 581.6,662.4 579.8,662.4 577.9,662.4 576.1,662.4 574.2,662.4 572.4,662.4 570.5,662.4 568.7,662.4 566.8,662.4 565.0,662.4 563.1,662.4 561.2,662.4 559.4,662.4 557.5,662.4 555.7,662.4
553.8,662.4 552.0,662.4 550.1,662.4 548.3,662.4 546.4,662.4 544.6,662.4 542.7,662.4 540.9,662.4 539.0,662.4 537.1,662.4 535.3,662.4 533.4,662.4 531.6,662.4 529.7,662.4 527.9,662.4 526.0,662.4
524.2,662.4 522.3,662.4 520.5,662.4 518.6,662.4 516.8,662.4 514.9,662.4 513.0,662.4 511.2,662.4 509.3,662.4 507.5,662.4 505.6,662.4 503.8,662.4 501.9,662.4 500.1,662.4 498.2,662.4 496.4,662.4
494.5,662.4 492.7,662.4 490.8,662.4 488.9,662.4 487.1,662.4 485.2,662.4 483.4,662.4 481.5,662.4 479.7,662.4 477.8,662.4 476.0,662.4 474.1,662.4 472.3,662.4 470.4,662.4 468.6,662.4 466.7,662.4
464.8,662.4 463.0,662.4 461.1,662.4 459.3,662.4 457.4,662.4 455.6,662.4 453.7,662.4 451.9,662.4 450.0,662.4 448.2,662.4 446.3,662.4 444.5,662.4 442.6,662.4 440.7,662.4 438.9,662.4 437.0,662.4
435.2,662.4 433.3,662.4 431.5,662.4 429.6,662.4 427.8,662.4 425.9,662.4 424.1,662.4 422.2,662.4 420.3,662.4 418.5,662.4 416.6,662.4 414.8,662.4 412.9,662.4 411.1,662.4 409.2,662.4 407.4,662.4
405.5,662.4 403.7,662.4 401.8,662.4 400.0,662.4 398.1,662.4 396.2,662.4 394.4,662.4 392.5,662.4 390.7,662.4 388.8,662.4 387.0,662.4 385.1,662.4 383.3,662.4 381.4,662.4 379.6,662.4 377.7,662.4
375.9,662.4 374.0,662.4 372.1,662.4 370.3,662.4 368.4,662.4 366.6,662.4 364.7,662.4 362.9,662.4 361.0,662.4 359.2,662.4 357.3,662.4 355.5,662.4 353.6,662.4 351.8,662.4 349.9,662.4 348.0,662.4
346.2,662.4 344.3,662.4 342.5,662.4 340.6,662.4 338.8,662.4 336.9,662.4 335.1,662.4 333.2,662.4 331.4,662.4 329.5,662.4 327.7,662.4 325.8,662.4 323.9,662.4 322.1,662.4 320.2,662.4 318.4,662.4
316.5,662.4 314.7,662.4 312.8,662.4 311.0,662.4 309.1,662.4 307.3,662.4 305.4,662.4 303.6,662.4 301.7,662.4 299.8,662.4 298.0,662.4 296.1,662.4 294.3,662.4 292.4,662.4 290.6,662.4 288.7,662.4
286.9,662.4 285.0,662.4 283.2,662.4 281.3,662.4 279.5,662.4 277.6,662.4 275.7,662.4 273.9,662.4 272.0,662.4 270.2,662.4 268.3,662.4 266.5,662.4 264.6,662.4 262.8,662.4 260.9,662.4 259.1,662.4
257.2,662.4 255.4,662.4 253.5,662.4 251.6,662.4 249.8,662.4 247.9,662.4 246.1,662.4 244.2,662.4 242.4,662.4 240.5,662.4 238.7,662.4 236.8,662.4 235.0,662.4 233.1,662.4 231.3,662.4 229.4,662.4
227.5,662.4 225.7,662.4 223.8,662.4 222.0,662.4 220.1,662.4 218.3,662.4 216.4,662.4 214.6,662.4 212.7,662.4 210.9,662.4 209.0,662.4 207.2,662.4 205.3,662.4 203.4,662.4 201.6,662.4 199.7,662.4
197.9,662.4 196.0,662.4 194.2,662.4 192.3,662.4 190.5,662.4 188.6,662.4 186.8,662.4 184.9,662.4 183.0,662.4 181.2,662.4 179.3,662.4 177.5,662.4 175.6,662.4 173.8,662.4 '/>
	</g>
</g>
	</g>
	<g id="gnuplot_plot_3" ><title>Point estimate</title>
<g fill="none" color="white" stroke="rgb( 31, 120, 180)" stroke-width="2.00" stroke-linecap="butt" stroke-linejoin="miter">
</g>
<g fill="none" color="black" stroke="currentColor" stroke-width="2.00" stroke-linecap="butt" stroke-linejoin="miter">
	<g transform="translate(1089.0,103.0)" stroke="none" fill="black" font-family="Helvetica" font-size="12.00"  text-anchor="start">
		<text><tspan font-family="Helvetica" >Point estimate</tspan></text>
	</g>
</g>
<g fill="none" color="black" stroke="currentColor" stroke-width="2.00" stroke-linecap="butt" stroke-linejoin="miter">
	<path stroke='rgb( 31, 120, 180)'  d='M1038.5,99.1 L1080.7,99.1 M526.3,662.4 L526.3,75.9  '/></g>
	</g>
<g fill="none" color="black" stroke="currentColor" stroke-width="2.00" stroke-linecap="butt" stroke-linejoin="miter">
</g>
<g fill="none" color="black" stroke="black" stroke-width="1.00" stroke-linecap="butt" stroke-linejoin="miter">
</g>
<g fill="none" color="black" stroke="currentColor" stroke-width="1.00" stroke-linecap="butt" stroke-linejoin="miter">
	<path stroke='black'  d='M88.5,54.1 L88.5,662.4 L1013.6,662.4 L1013.6,54.1 L88.5,54.1 Z  '/></g>
<g fill="none" color="black" stroke="currentColor" stroke-width="1.00" stroke-linecap="butt" stroke-linejoin="miter">
</g>
</g>
</svg>

