<?xml version="1.0" encoding="utf-8"  standalone="no"?>
<svg 
 viewBox="0 0 450 300"
 xmlns="http://www.w3.org/2000/svg"
 xmlns:xlink="http://www.w3.org/1999/xlink"
>

<title>Gnuplot</title>
<desc>Produced by GNUPLOT 5.2 patchlevel 2 </desc>

<g id="gnuplot_canvas">

<rect x="0" y="0" width="450" height="300" fill="none"/>
<defs>

	<circle id='gpDot' r='0.5' stroke-width='0.5'/>
	<path id='gpPt0' stroke-width='0.222' stroke='currentColor' d='M-1,0 h2 M0,-1 v2'/>
	<path id='gpPt1' stroke-width='0.222' stroke='currentColor' d='M-1,-1 L1,1 M1,-1 L-1,1'/>
	<path id='gpPt2' stroke-width='0.222' stroke='currentColor' d='M-1,0 L1,0 M0,-1 L0,1 M-1,-1 L1,1 M-1,1 L1,-1'/>
	<rect id='gpPt3' stroke-width='0.222' stroke='currentColor' x='-1' y='-1' width='2' height='2'/>
	<rect id='gpPt4' stroke-width='0.222' stroke='currentColor' fill='currentColor' x='-1' y='-1' width='2' height='2'/>
	<circle id='gpPt5' stroke-width='0.222' stroke='currentColor' cx='0' cy='0' r='1'/>
	<use xlink:href='#gpPt5' id='gpPt6' fill='currentColor' stroke='none'/>
	<path id='gpPt7' stroke-width='0.222' stroke='currentColor' d='M0,-1.33 L-1.33,0.67 L1.33,0.67 z'/>
	<use xlink:href='#gpPt7' id='gpPt8' fill='currentColor' stroke='none'/>
	<use xlink:href='#gpPt7' id='gpPt9' stroke='currentColor' transform='rotate(180)'/>
	<use xlink:href='#gpPt9' id='gpPt10' fill='currentColor' stroke='none'/>
	<use xlink:href='#gpPt3' id='gpPt11' stroke='currentColor' transform='rotate(45)'/>
	<use xlink:href='#gpPt11' id='gpPt12' fill='currentColor' stroke='none'/>
	<path id='gpPt13' stroke-width='0.222' stroke='currentColor' d='M0,1.330 L1.265,0.411 L0.782,-1.067 L-0.782,-1.076 L-1.265,0.411 z'/>
	<use xlink:href='#gpPt13' id='gpPt14' fill='currentColor' stroke='none'/>
	<filter id='textbox' filterUnits='objectBoundingBox' x='0' y='0' height='1' width='1'>
	  <feFlood flood-color='white' flood-opacity='1' result='bgnd'/>
	  <feComposite in='SourceGraphic' in2='bgnd' operator='atop'/>
	</filter>
	<filter id='greybox' filterUnits='objectBoundingBox' x='0' y='0' height='1' width='1'>
	  <feFlood flood-color='lightgrey' flood-opacity='1' result='grey'/>
	  <feComposite in='SourceGraphic' in2='grey' operator='atop'/>
	</filter>
</defs>
<g fill="none" color="white" stroke="currentColor" stroke-width="1.00" stroke-linecap="butt" stroke-linejoin="miter">
</g>
<g fill="none" color="black" stroke="currentColor" stroke-width="1.00" stroke-linecap="butt" stroke-linejoin="miter">
	<path stroke='black'  d='M105.1,242.4 L114.1,242.4  '/>	<g transform="translate(96.8,246.3)" stroke="none" fill="black" font-family="Helvetica" font-size="12.00"  text-anchor="end">
		<text><tspan font-family="Helvetica" > 0</tspan></text>
	</g>
</g>
<g fill="none" color="black" stroke="currentColor" stroke-width="1.00" stroke-linecap="butt" stroke-linejoin="miter">
	<path stroke='black'  d='M105.1,205.7 L114.1,205.7  '/>	<g transform="translate(96.8,209.6)" stroke="none" fill="black" font-family="Helvetica" font-size="12.00"  text-anchor="end">
		<text><tspan font-family="Helvetica" > 5x10</tspan><tspan font-family="Helvetica"  font-size="9.6" dy="-6.00px">-5</tspan><tspan font-size="12.0" dy="6.00"></tspan></text>
	</g>
</g>
<g fill="none" color="black" stroke="currentColor" stroke-width="1.00" stroke-linecap="butt" stroke-linejoin="miter">
	<path stroke='black'  d='M105.1,169.0 L114.1,169.0  '/>	<g transform="translate(96.8,172.9)" stroke="none" fill="black" font-family="Helvetica" font-size="12.00"  text-anchor="end">
		<text><tspan font-family="Helvetica" > 0.0001</tspan></text>
	</g>
</g>
<g fill="none" color="black" stroke="currentColor" stroke-width="1.00" stroke-linecap="butt" stroke-linejoin="miter">
	<path stroke='black'  d='M105.1,132.3 L114.1,132.3  '/>	<g transform="translate(96.8,136.2)" stroke="none" fill="black" font-family="Helvetica" font-size="12.00"  text-anchor="end">
		<text><tspan font-family="Helvetica" > 0.00015</tspan></text>
	</g>
</g>
<g fill="none" color="black" stroke="currentColor" stroke-width="1.00" stroke-linecap="butt" stroke-linejoin="miter">
	<path stroke='black'  d='M105.1,95.6 L114.1,95.6  '/>	<g transform="translate(96.8,99.5)" stroke="none" fill="black" font-family="Helvetica" font-size="12.00"  text-anchor="end">
		<text><tspan font-family="Helvetica" > 0.0002</tspan></text>
	</g>
</g>
<g fill="none" color="black" stroke="currentColor" stroke-width="1.00" stroke-linecap="butt" stroke-linejoin="miter">
	<path stroke='black'  d='M105.1,58.9 L114.1,58.9  '/>	<g transform="translate(96.8,62.8)" stroke="none" fill="black" font-family="Helvetica" font-size="12.00"  text-anchor="end">
		<text><tspan font-family="Helvetica" > 0.00025</tspan></text>
	</g>
</g>
<g fill="none" color="black" stroke="currentColor" stroke-width="1.00" stroke-linecap="butt" stroke-linejoin="miter">
	<path stroke='black'  d='M105.1,22.2 L114.1,22.2  '/>	<g transform="translate(96.8,26.1)" stroke="none" fill="black" font-family="Helvetica" font-size="12.00"  text-anchor="end">
		<text><tspan font-family="Helvetica" > 0.0003</tspan></text>
	</g>
</g>
<g fill="none" color="black" stroke="currentColor" stroke-width="1.00" stroke-linecap="butt" stroke-linejoin="miter">
	<path stroke='black'  d='M109.2,242.4 L109.2,233.4  '/>	<g transform="translate(109.2,264.3)" stroke="none" fill="black" font-family="Helvetica" font-size="12.00"  text-anchor="middle">
		<text><tspan font-family="Helvetica" > 0</tspan></text>
	</g>
</g>
<g fill="none" color="black" stroke="currentColor" stroke-width="1.00" stroke-linecap="butt" stroke-linejoin="miter">
	<path stroke='black'  d='M142.3,242.4 L142.3,233.4  '/>	<g transform="translate(142.3,264.3)" stroke="none" fill="black" font-family="Helvetica" font-size="12.00"  text-anchor="middle">
		<text><tspan font-family="Helvetica" > 2000</tspan></text>
	</g>
</g>
<g fill="none" color="black" stroke="currentColor" stroke-width="1.00" stroke-linecap="butt" stroke-linejoin="miter">
	<path stroke='black'  d='M175.4,242.4 L175.4,233.4  '/>	<g transform="translate(175.4,264.3)" stroke="none" fill="black" font-family="Helvetica" font-size="12.00"  text-anchor="middle">
		<text><tspan font-family="Helvetica" > 4000</tspan></text>
	</g>
</g>
<g fill="none" color="black" stroke="currentColor" stroke-width="1.00" stroke-linecap="butt" stroke-linejoin="miter">
	<path stroke='black'  d='M208.5,242.4 L208.5,233.4  '/>	<g transform="translate(208.5,264.3)" stroke="none" fill="black" font-family="Helvetica" font-size="12.00"  text-anchor="middle">
		<text><tspan font-family="Helvetica" > 6000</tspan></text>
	</g>
</g>
<g fill="none" color="black" stroke="currentColor" stroke-width="1.00" stroke-linecap="butt" stroke-linejoin="miter">
	<path stroke='black'  d='M241.6,242.4 L241.6,233.4  '/>	<g transform="translate(241.6,264.3)" stroke="none" fill="black" font-family="Helvetica" font-size="12.00"  text-anchor="middle">
		<text><tspan font-family="Helvetica" > 8000</tspan></text>
	</g>
</g>
<g fill="none" color="black" stroke="currentColor" stroke-width="1.00" stroke-linecap="butt" stroke-linejoin="miter">
	<path stroke='black'  d='M274.7,242.4 L274.7,233.4  '/>	<g transform="translate(274.7,264.3)" stroke="none" fill="black" font-family="Helvetica" font-size="12.00"  text-anchor="middle">
		<text><tspan font-family="Helvetica" > 10000</tspan></text>
	</g>
</g>
<g fill="none" color="black" stroke="currentColor" stroke-width="1.00" stroke-linecap="butt" stroke-linejoin="miter">
	<path stroke='black'  d='M307.8,242.4 L307.8,233.4  '/>	<g transform="translate(307.8,264.3)" stroke="none" fill="black" font-family="Helvetica" font-size="12.00"  text-anchor="middle">
		<text><tspan font-family="Helvetica" > 12000</tspan></text>
	</g>
</g>
<g fill="none" color="black" stroke="currentColor" stroke-width="1.00" stroke-linecap="butt" stroke-linejoin="miter">
	<path stroke='black'  d='M340.9,242.4 L340.9,233.4  '/>	<g transform="translate(340.9,264.3)" stroke="none" fill="black" font-family="Helvetica" font-size="12.00"  text-anchor="middle">
		<text><tspan font-family="Helvetica" > 14000</tspan></text>
	</g>
</g>
<g fill="none" color="black" stroke="currentColor" stroke-width="1.00" stroke-linecap="butt" stroke-linejoin="miter">
	<path stroke='black'  d='M374.0,242.4 L374.0,233.4  '/>	<g transform="translate(374.0,264.3)" stroke="none" fill="black" font-family="Helvetica" font-size="12.00"  text-anchor="middle">
		<text><tspan font-family="Helvetica" > 16000</tspan></text>
	</g>
</g>
<g fill="none" color="black" stroke="currentColor" stroke-width="1.00" stroke-linecap="butt" stroke-linejoin="miter">
	<path stroke='black'  d='M407.1,242.4 L407.1,233.4  '/>	<g transform="translate(407.1,264.3)" stroke="none" fill="black" font-family="Helvetica" font-size="12.00"  text-anchor="middle">
		<text><tspan font-family="Helvetica" > 18000</tspan></text>
	</g>
</g>
<g fill="none" color="black" stroke="currentColor" stroke-width="1.00" stroke-linecap="butt" stroke-linejoin="miter">
</g>
<g fill="none" color="black" stroke="currentColor" stroke-width="1.00" stroke-linecap="butt" stroke-linejoin="miter">
	<path stroke='black'  d='M105.1,18.1 L105.1,242.4 L425.0,242.4 L425.0,18.1 L105.1,18.1 Z  '/></g>
<g fill="none" color="black" stroke="currentColor" stroke-width="1.00" stroke-linecap="butt" stroke-linejoin="miter">
	<g transform="translate(16.3,130.3) rotate(270)" stroke="none" fill="black" font-family="Helvetica" font-size="12.00"  text-anchor="middle">
		<text><tspan font-family="Helvetica" >Density (a.u.)</tspan></text>
	</g>
</g>
<g fill="none" color="black" stroke="currentColor" stroke-width="1.00" stroke-linecap="butt" stroke-linejoin="miter">
	<g transform="translate(265.0,291.3)" stroke="none" fill="black" font-family="Helvetica" font-size="12.00"  text-anchor="middle">
		<text><tspan font-family="Helvetica" >Average time (cycles)</tspan></text>
	</g>
</g>
<g fill="none" color="black" stroke="currentColor" stroke-width="1.00" stroke-linecap="butt" stroke-linejoin="miter">
</g>
	<g id="gnuplot_plot_1" ><title>PDF</title>
<g fill="none" color="black" stroke="currentColor" stroke-width="1.00" stroke-linecap="butt" stroke-linejoin="miter">
	<g stroke='none' shape-rendering='crispEdges'>
		<polygon fill = 'rgb( 31, 120, 180)' fill-opacity = '0.250000' points = '105.1,242.2 105.7,242.2 106.4,242.2 107.0,242.2 107.7,242.2 108.3,242.1 108.9,242.1 109.6,242.1 110.2,242.1 110.9,242.0 111.5,242.0 112.2,242.0 112.8,241.9 113.4,241.9 114.1,241.8 114.7,241.8
115.4,241.7 116.0,241.7 116.6,241.6 117.3,241.5 117.9,241.5 118.6,241.4 119.2,241.3 119.8,241.2 120.5,241.1 121.1,241.0 121.8,240.9 122.4,240.8 123.1,240.7 123.7,240.6 124.3,240.4 125.0,240.3
125.6,240.2 126.3,240.0 126.9,239.9 127.5,239.7 128.2,239.5 128.8,239.3 129.5,239.1 130.1,238.9 130.7,238.7 131.4,238.5 132.0,238.3 132.7,238.1 133.3,237.8 133.9,237.6 134.6,237.3 135.2,237.1
135.9,236.8 136.5,236.5 137.2,236.2 137.8,235.9 138.4,235.6 139.1,235.3 139.7,235.0 140.4,234.7 141.0,234.3 141.6,234.0 142.3,233.7 142.9,233.3 143.6,233.0 144.2,232.6 144.8,232.3 145.5,231.9
146.1,231.6 146.8,231.2 147.4,230.9 148.1,230.5 148.7,230.2 149.3,229.8 150.0,229.5 150.6,229.1 151.3,228.8 151.9,228.4 152.5,228.1 153.2,227.8 153.8,227.5 154.5,227.2 155.1,226.9 155.7,226.6
156.4,226.4 157.0,226.1 157.7,225.8 158.3,225.6 159.0,225.4 159.6,225.2 160.2,225.0 160.9,224.8 161.5,224.7 162.2,224.5 162.8,224.4 163.4,224.3 164.1,224.2 164.7,224.1 165.4,224.1 166.0,224.1
166.6,224.0 167.3,224.0 167.9,224.1 168.6,224.1 169.2,224.2 169.8,224.2 170.5,224.3 171.1,224.4 171.8,224.6 172.4,224.7 173.1,224.9 173.7,225.0 174.3,225.2 175.0,225.4 175.6,225.7 176.3,225.9
176.9,226.1 177.5,226.4 178.2,226.7 178.8,226.9 179.5,227.2 180.1,227.5 180.7,227.8 181.4,228.1 182.0,228.5 182.7,228.8 183.3,229.1 184.0,229.5 184.6,229.8 185.2,230.1 185.9,230.5 186.5,230.8
187.2,231.2 187.8,231.5 188.4,231.9 189.1,232.2 189.7,232.6 190.4,232.9 191.0,233.2 191.6,233.6 192.3,233.9 192.9,234.2 193.6,234.5 194.2,234.9 194.9,235.2 195.5,235.5 196.1,235.8 196.8,236.1
197.4,236.3 198.1,236.6 198.7,236.9 199.3,237.1 200.0,237.4 200.6,237.6 201.3,237.9 201.9,238.1 202.5,238.3 203.2,238.5 203.8,238.8 204.5,239.0 205.1,239.1 205.7,239.3 206.4,239.5 207.0,239.7
207.7,239.8 208.3,240.0 209.0,240.1 209.6,240.3 210.2,240.4 210.9,240.5 211.5,240.6 212.2,240.8 212.8,240.9 213.4,241.0 214.1,241.1 214.7,241.2 215.4,241.2 216.0,241.3 216.6,241.4 217.3,241.5
217.9,241.5 218.6,241.6 219.2,241.7 219.9,241.7 220.5,241.8 221.1,241.8 221.8,241.9 222.4,241.9 223.1,241.9 223.7,242.0 224.3,242.0 225.0,242.0 225.6,242.1 226.3,242.1 226.9,242.1 227.5,242.1
228.2,242.2 228.8,242.2 229.5,242.2 230.1,242.2 230.8,242.2 231.4,242.2 232.0,242.2 232.7,242.3 233.3,242.3 234.0,242.3 234.6,242.3 235.2,242.3 235.9,242.3 236.5,242.3 237.2,242.3 237.8,242.3
238.4,242.3 239.1,242.3 239.7,242.3 240.4,242.3 241.0,242.3 241.7,242.3 242.3,242.3 242.9,242.3 243.6,242.2 244.2,242.2 244.9,242.2 245.5,242.2 246.1,242.2 246.8,242.2 247.4,242.2 248.1,242.1
248.7,242.1 249.3,242.1 250.0,242.1 250.6,242.0 251.3,242.0 251.9,242.0 252.5,241.9 253.2,241.9 253.8,241.9 254.5,241.8 255.1,241.8 255.8,241.7 256.4,241.7 257.0,241.6 257.7,241.5 258.3,241.5
259.0,241.4 259.6,241.3 260.2,241.2 260.9,241.2 261.5,241.1 262.2,241.0 262.8,240.9 263.4,240.8 264.1,240.6 264.7,240.5 265.4,240.4 266.0,240.2 266.7,240.1 267.3,239.9 267.9,239.8 268.6,239.6
269.2,239.4 269.9,239.2 270.5,239.0 271.1,238.8 271.8,238.6 272.4,238.4 273.1,238.1 273.7,237.9 274.3,237.6 275.0,237.3 275.6,237.0 276.3,236.7 276.9,236.4 277.6,236.0 278.2,235.6 278.8,235.3
279.5,234.9 280.1,234.5 280.8,234.0 281.4,233.6 282.0,233.1 282.7,232.6 283.3,232.1 284.0,231.5 284.6,231.0 285.2,230.4 285.9,229.8 286.5,229.1 287.2,228.4 287.8,227.7 288.4,227.0 289.1,226.2
289.7,225.4 290.4,224.6 291.0,223.7 291.7,222.8 292.3,221.8 292.9,220.8 293.6,219.8 294.2,218.7 294.9,217.6 295.5,216.4 296.1,215.2 296.8,213.9 297.4,212.6 298.1,211.2 298.7,209.8 299.3,208.3
300.0,206.8 300.6,205.2 301.3,203.5 301.9,201.8 302.6,200.0 303.2,198.1 303.8,196.2 304.5,194.1 305.1,192.1 305.8,189.9 306.4,187.7 307.0,185.4 307.7,183.0 308.3,180.6 309.0,178.1 309.6,175.5
310.2,172.8 310.9,170.1 311.5,167.2 312.2,164.3 312.8,161.4 313.5,158.3 314.1,155.2 314.7,152.0 315.4,148.8 316.0,145.5 316.7,142.1 317.3,138.6 317.9,135.2 318.6,131.6 319.2,128.0 319.9,124.4
320.5,120.7 321.1,117.0 321.8,113.3 322.4,109.5 323.1,105.7 323.7,101.9 324.4,98.1 325.0,94.3 325.6,90.5 326.3,86.7 326.9,83.0 327.6,79.3 328.2,75.6 328.8,71.9 329.5,68.4 330.1,64.8
330.8,61.4 331.4,58.0 332.0,54.7 332.7,51.5 333.3,48.4 334.0,45.4 334.6,42.6 335.2,39.8 335.9,37.2 336.5,34.8 337.2,32.4 337.8,30.3 338.5,28.3 339.1,26.4 339.7,24.8 340.4,23.3
341.0,22.0 341.7,20.8 342.3,19.9 342.9,19.2 343.6,18.6 344.2,18.3 344.9,18.1 345.5,18.1 346.1,18.4 346.8,18.8 347.4,19.5 348.1,20.3 348.7,21.4 349.4,22.6 350.0,24.1 350.6,25.7
351.3,27.5 351.9,29.5 352.6,31.6 353.2,34.0 353.8,36.5 354.5,39.1 355.1,41.9 355.8,44.9 356.4,47.9 357.0,51.1 357.7,54.5 358.3,57.9 359.0,61.5 359.6,65.1 360.3,68.9 360.9,72.7
361.5,76.6 362.2,80.5 362.8,84.5 363.5,88.6 364.1,92.7 364.7,96.8 365.4,100.9 366.0,105.0 366.7,109.2 367.3,113.3 367.9,117.5 368.6,121.6 369.2,125.7 369.9,129.7 370.5,133.7 371.1,137.7
371.8,141.6 372.4,145.5 373.1,149.3 373.7,153.0 374.4,156.7 375.0,160.3 375.6,163.8 376.3,167.2 376.9,170.6 377.6,173.9 378.2,177.0 378.8,180.1 379.5,183.1 380.1,186.1 380.8,188.9 381.4,191.6
382.0,194.2 382.7,196.8 383.3,199.2 384.0,201.6 384.6,203.8 385.3,206.0 385.9,208.1 386.5,210.0 387.2,211.9 387.8,213.8 388.5,215.5 389.1,217.2 389.7,218.7 390.4,220.2 391.0,221.6 391.7,223.0
392.3,224.3 392.9,225.5 393.6,226.6 394.2,227.7 394.9,228.7 395.5,229.7 396.2,230.6 396.8,231.4 397.4,232.2 398.1,233.0 398.7,233.7 399.4,234.3 400.0,234.9 400.6,235.5 401.3,236.1 401.9,236.6
402.6,237.0 403.2,237.5 403.8,237.9 404.5,238.2 405.1,238.6 405.8,238.9 406.4,239.2 407.0,239.5 407.7,239.7 408.3,240.0 409.0,240.2 409.6,240.4 410.3,240.5 410.9,240.7 411.5,240.9 412.2,241.0
412.8,241.1 413.5,241.3 414.1,241.4 414.7,241.5 415.4,241.6 416.0,241.6 416.7,241.7 417.3,241.8 417.9,241.8 418.6,241.9 419.2,241.9 419.9,242.0 420.5,242.0 421.2,242.1 421.8,242.1 422.4,242.1
423.1,242.2 423.7,242.2 424.4,242.2 425.0,242.2 425.0,242.4 424.4,242.4 423.7,242.4 423.1,242.4 422.4,242.4 421.8,242.4 421.2,242.4 420.5,242.4 419.9,242.4 419.2,242.4 418.6,242.4 417.9,242.4
417.3,242.4 416.7,242.4 416.0,242.4 415.4,242.4 414.7,242.4 414.1,242.4 413.5,242.4 412.8,242.4 412.2,242.4 411.5,242.4 410.9,242.4 410.3,242.4 409.6,242.4 409.0,242.4 408.3,242.4 407.7,242.4
407.0,242.4 406.4,242.4 405.8,242.4 405.1,242.4 404.5,242.4 403.8,242.4 403.2,242.4 402.6,242.4 401.9,242.4 401.3,242.4 400.6,242.4 400.0,242.4 399.4,242.4 398.7,242.4 398.1,242.4 397.4,242.4
396.8,242.4 396.2,242.4 395.5,242.4 394.9,242.4 394.2,242.4 393.6,242.4 392.9,242.4 392.3,242.4 391.7,242.4 391.0,242.4 390.4,242.4 389.7,242.4 389.1,242.4 388.5,242.4 387.8,242.4 387.2,242.4
386.5,242.4 385.9,242.4 385.3,242.4 384.6,242.4 384.0,242.4 383.3,242.4 382.7,242.4 382.0,242.4 381.4,242.4 380.8,242.4 380.1,242.4 379.5,242.4 378.8,242.4 378.2,242.4 377.6,242.4 376.9,242.4
376.3,242.4 375.6,242.4 375.0,242.4 374.4,242.4 373.7,242.4 373.1,242.4 372.4,242.4 371.8,242.4 371.1,242.4 370.5,242.4 369.9,242.4 369.2,242.4 368.6,242.4 367.9,242.4 367.3,242.4 366.7,242.4
366.0,242.4 365.4,242.4 364.7,242.4 364.1,242.4 363.5,242.4 362.8,242.4 362.2,242.4 361.5,242.4 360.9,242.4 360.3,242.4 359.6,242.4 359.0,242.4 358.3,242.4 357.7,242.4 357.0,242.4 356.4,242.4
355.8,242.4 355.1,242.4 354.5,242.4 353.8,242.4 353.2,242.4 352.6,242.4 351.9,242.4 351.3,242.4 350.6,242.4 350.0,242.4 349.4,242.4 348.7,242.4 348.1,242.4 347.4,242.4 346.8,242.4 346.1,242.4
345.5,242.4 344.9,242.4 344.2,242.4 343.6,242.4 342.9,242.4 342.3,242.4 341.7,242.4 341.0,242.4 340.4,242.4 339.7,242.4 339.1,242.4 338.5,242.4 337.8,242.4 337.2,242.4 336.5,242.4 335.9,242.4
335.2,242.4 334.6,242.4 334.0,242.4 333.3,242.4 332.7,242.4 332.0,242.4 331.4,242.4 330.8,242.4 330.1,242.4 329.5,242.4 328.8,242.4 328.2,242.4 327.6,242.4 326.9,242.4 326.3,242.4 325.6,242.4
325.0,242.4 324.4,242.4 323.7,242.4 323.1,242.4 322.4,242.4 321.8,242.4 321.1,242.4 320.5,242.4 319.9,242.4 319.2,242.4 318.6,242.4 317.9,242.4 317.3,242.4 316.7,242.4 316.0,242.4 315.4,242.4
314.7,242.4 314.1,242.4 313.5,242.4 312.8,242.4 312.2,242.4 311.5,242.4 310.9,242.4 310.2,242.4 309.6,242.4 309.0,242.4 308.3,242.4 307.7,242.4 307.0,242.4 306.4,242.4 305.8,242.4 305.1,242.4
304.5,242.4 303.8,242.4 303.2,242.4 302.6,242.4 301.9,242.4 301.3,242.4 300.6,242.4 300.0,242.4 299.3,242.4 298.7,242.4 298.1,242.4 297.4,242.4 296.8,242.4 296.1,242.4 295.5,242.4 294.9,242.4
294.2,242.4 293.6,242.4 292.9,242.4 292.3,242.4 291.7,242.4 291.0,242.4 290.4,242.4 289.7,242.4 289.1,242.4 288.4,242.4 287.8,242.4 287.2,242.4 286.5,242.4 285.9,242.4 285.2,242.4 284.6,242.4
284.0,242.4 283.3,242.4 282.7,242.4 282.0,242.4 281.4,242.4 280.8,242.4 280.1,242.4 279.5,242.4 278.8,242.4 278.2,242.4 277.6,242.4 276.9,242.4 276.3,242.4 275.6,242.4 275.0,242.4 274.3,242.4
273.7,242.4 273.1,242.4 272.4,242.4 271.8,242.4 271.1,242.4 270.5,242.4 269.9,242.4 269.2,242.4 268.6,242.4 267.9,242.4 267.3,242.4 266.7,242.4 266.0,242.4 265.4,242.4 264.7,242.4 264.1,242.4
263.4,242.4 262.8,242.4 262.2,242.4 261.5,242.4 260.9,242.4 260.2,242.4 259.6,242.4 259.0,242.4 258.3,242.4 257.7,242.4 257.0,242.4 256.4,242.4 255.8,242.4 255.1,242.4 254.5,242.4 253.8,242.4
253.2,242.4 252.5,242.4 251.9,242.4 251.3,242.4 250.6,242.4 250.0,242.4 249.3,242.4 248.7,242.4 248.1,242.4 247.4,242.4 246.8,242.4 246.1,242.4 245.5,242.4 244.9,242.4 244.2,242.4 243.6,242.4
242.9,242.4 242.3,242.4 241.7,242.4 241.0,242.4 240.4,242.4 239.7,242.4 239.1,242.4 238.4,242.4 237.8,242.4 237.2,242.4 236.5,242.4 235.9,242.4 235.2,242.4 234.6,242.4 234.0,242.4 233.3,242.4
232.7,242.4 232.0,242.4 231.4,242.4 230.8,242.4 230.1,242.4 229.5,242.4 228.8,242.4 228.2,242.4 227.5,242.4 226.9,242.4 226.3,242.4 225.6,242.4 225.0,242.4 224.3,242.4 223.7,242.4 223.1,242.4
222.4,242.4 221.8,242.4 221.1,242.4 220.5,242.4 219.9,242.4 219.2,242.4 218.6,242.4 217.9,242.4 217.3,242.4 216.6,242.4 216.0,242.4 215.4,242.4 214.7,242.4 214.1,242.4 213.4,242.4 212.8,242.4
212.2,242.4 211.5,242.4 210.9,242.4 210.2,242.4 209.6,242.4 209.0,242.4 208.3,242.4 207.7,242.4 207.0,242.4 206.4,242.4 205.7,242.4 205.1,242.4 204.5,242.4 203.8,242.4 203.2,242.4 202.5,242.4
201.9,242.4 201.3,242.4 200.6,242.4 200.0,242.4 199.3,242.4 198.7,242.4 198.1,242.4 197.4,242.4 196.8,242.4 196.1,242.4 195.5,242.4 194.9,242.4 194.2,242.4 193.6,242.4 192.9,242.4 192.3,242.4
191.6,242.4 191.0,242.4 190.4,242.4 189.7,242.4 189.1,242.4 188.4,242.4 187.8,242.4 187.2,242.4 186.5,242.4 185.9,242.4 185.2,242.4 184.6,242.4 184.0,242.4 183.3,242.4 182.7,242.4 182.0,242.4
181.4,242.4 180.7,242.4 180.1,242.4 179.5,242.4 178.8,242.4 178.2,242.4 177.5,242.4 176.9,242.4 176.3,242.4 175.6,242.4 175.0,242.4 174.3,242.4 173.7,242.4 173.1,242.4 172.4,242.4 171.8,242.4
171.1,242.4 170.5,242.4 169.8,242.4 169.2,242.4 168.6,242.4 167.9,242.4 167.3,242.4 166.6,242.4 166.0,242.4 165.4,242.4 164.7,242.4 164.1,242.4 163.4,242.4 162.8,242.4 162.2,242.4 161.5,242.4
160.9,242.4 160.2,242.4 159.6,242.4 159.0,242.4 158.3,242.4 157.7,242.4 157.0,242.4 156.4,242.4 155.7,242.4 155.1,242.4 154.5,242.4 153.8,242.4 153.2,242.4 152.5,242.4 151.9,242.4 151.3,242.4
150.6,242.4 150.0,242.4 149.3,242.4 148.7,242.4 148.1,242.4 147.4,242.4 146.8,242.4 146.1,242.4 145.5,242.4 144.8,242.4 144.2,242.4 143.6,242.4 142.9,242.4 142.3,242.4 141.6,242.4 141.0,242.4
140.4,242.4 139.7,242.4 139.1,242.4 138.4,242.4 137.8,242.4 137.2,242.4 136.5,242.4 135.9,242.4 135.2,242.4 134.6,242.4 133.9,242.4 133.3,242.4 132.7,242.4 132.0,242.4 131.4,242.4 130.7,242.4
130.1,242.4 129.5,242.4 128.8,242.4 128.2,242.4 127.5,242.4 126.9,242.4 126.3,242.4 125.6,242.4 125.0,242.4 124.3,242.4 123.7,242.4 123.1,242.4 122.4,242.4 121.8,242.4 121.1,242.4 120.5,242.4
119.8,242.4 119.2,242.4 118.6,242.4 117.9,242.4 117.3,242.4 116.6,242.4 116.0,242.4 115.4,242.4 114.7,242.4 114.1,242.4 113.4,242.4 112.8,242.4 112.2,242.4 111.5,242.4 110.9,242.4 110.2,242.4
109.6,242.4 108.9,242.4 108.3,242.4 107.7,242.4 107.0,242.4 106.4,242.4 105.7,242.4 105.1,242.4 '/>
	</g>
</g>
	</g>
	<g id="gnuplot_plot_2" ><title>Mean</title>
<g fill="none" color="white" stroke="rgb( 31, 120, 180)" stroke-width="2.00" stroke-linecap="butt" stroke-linejoin="miter">
</g>
<g fill="none" color="black" stroke="currentColor" stroke-width="2.00" stroke-linecap="butt" stroke-linejoin="miter">
	<path stroke='rgb( 31, 120, 180)'  d='M330.7,242.4 L330.7,78.0  '/></g>
	</g>
<g fill="none" color="black" stroke="currentColor" stroke-width="2.00" stroke-linecap="butt" stroke-linejoin="miter">
</g>
<g fill="none" color="black" stroke="black" stroke-width="1.00" stroke-linecap="butt" stroke-linejoin="miter">
</g>
<g fill="none" color="black" stroke="currentColor" stroke-width="1.00" stroke-linecap="butt" stroke-linejoin="miter">
	<path stroke='black'  d='M105.1,18.1 L105.1,242.4 L425.0,242.4 L425.0,18.1 L105.1,18.1 Z  '/></g>
<g fill="none" color="black" stroke="currentColor" stroke-width="1.00" stroke-linecap="butt" stroke-linejoin="miter">
</g>
</g>
</svg>

