<?xml version="1.0" encoding="utf-8"  standalone="no"?>
<svg 
 viewBox="0 0 450 300"
 xmlns="http://www.w3.org/2000/svg"
 xmlns:xlink="http://www.w3.org/1999/xlink"
>

<title>Gnuplot</title>
<desc>Produced by GNUPLOT 5.2 patchlevel 2 </desc>

<g id="gnuplot_canvas">

<rect x="0" y="0" width="450" height="300" fill="none"/>
<defs>

	<circle id='gpDot' r='0.5' stroke-width='0.5'/>
	<path id='gpPt0' stroke-width='0.222' stroke='currentColor' d='M-1,0 h2 M0,-1 v2'/>
	<path id='gpPt1' stroke-width='0.222' stroke='currentColor' d='M-1,-1 L1,1 M1,-1 L-1,1'/>
	<path id='gpPt2' stroke-width='0.222' stroke='currentColor' d='M-1,0 L1,0 M0,-1 L0,1 M-1,-1 L1,1 M-1,1 L1,-1'/>
	<rect id='gpPt3' stroke-width='0.222' stroke='currentColor' x='-1' y='-1' width='2' height='2'/>
	<rect id='gpPt4' stroke-width='0.222' stroke='currentColor' fill='currentColor' x='-1' y='-1' width='2' height='2'/>
	<circle id='gpPt5' stroke-width='0.222' stroke='currentColor' cx='0' cy='0' r='1'/>
	<use xlink:href='#gpPt5' id='gpPt6' fill='currentColor' stroke='none'/>
	<path id='gpPt7' stroke-width='0.222' stroke='currentColor' d='M0,-1.33 L-1.33,0.67 L1.33,0.67 z'/>
	<use xlink:href='#gpPt7' id='gpPt8' fill='currentColor' stroke='none'/>
	<use xlink:href='#gpPt7' id='gpPt9' stroke='currentColor' transform='rotate(180)'/>
	<use xlink:href='#gpPt9' id='gpPt10' fill='currentColor' stroke='none'/>
	<use xlink:href='#gpPt3' id='gpPt11' stroke='currentColor' transform='rotate(45)'/>
	<use xlink:href='#gpPt11' id='gpPt12' fill='currentColor' stroke='none'/>
	<path id='gpPt13' stroke-width='0.222' stroke='currentColor' d='M0,1.330 L1.265,0.411 L0.782,-1.067 L-0.782,-1.076 L-1.265,0.411 z'/>
	<use xlink:href='#gpPt13' id='gpPt14' fill='currentColor' stroke='none'/>
	<filter id='textbox' filterUnits='objectBoundingBox' x='0' y='0' height='1' width='1'>
	  <feFlood flood-color='white' flood-opacity='1' result='bgnd'/>
	  <feComposite in='SourceGraphic' in2='bgnd' operator='atop'/>
	</filter>
	<filter id='greybox' filterUnits='objectBoundingBox' x='0' y='0' height='1' width='1'>
	  <feFlood flood-color='lightgrey' flood-opacity='1' result='grey'/>
	  <feComposite in='SourceGraphic' in2='grey' operator='atop'/>
	</filter>
</defs>
<g fill="none" color="white" stroke="currentColor" stroke-width="1.00" stroke-linecap="butt" stroke-linejoin="miter">
</g>
<g fill="none" color="black" stroke="currentColor" stroke-width="1.00" stroke-linecap="butt" stroke-linejoin="miter">
	<path stroke='black'  d='M88.5,242.4 L97.5,242.4  '/>	<g transform="translate(80.2,246.3)" stroke="none" fill="black" font-family="Helvetica" font-size="12.00"  text-anchor="end">
		<text><tspan font-family="Helvetica" > 0</tspan></text>
	</g>
</g>
<g fill="none" color="black" stroke="currentColor" stroke-width="1.00" stroke-linecap="butt" stroke-linejoin="miter">
	<path stroke='black'  d='M88.5,202.0 L97.5,202.0  '/>	<g transform="translate(80.2,205.9)" stroke="none" fill="black" font-family="Helvetica" font-size="12.00"  text-anchor="end">
		<text><tspan font-family="Helvetica" > 1x10</tspan><tspan font-family="Helvetica"  font-size="9.6" dy="-6.00px">-8</tspan><tspan font-size="12.0" dy="6.00"></tspan></text>
	</g>
</g>
<g fill="none" color="black" stroke="currentColor" stroke-width="1.00" stroke-linecap="butt" stroke-linejoin="miter">
	<path stroke='black'  d='M88.5,161.5 L97.5,161.5  '/>	<g transform="translate(80.2,165.4)" stroke="none" fill="black" font-family="Helvetica" font-size="12.00"  text-anchor="end">
		<text><tspan font-family="Helvetica" > 2x10</tspan><tspan font-family="Helvetica"  font-size="9.6" dy="-6.00px">-8</tspan><tspan font-size="12.0" dy="6.00"></tspan></text>
	</g>
</g>
<g fill="none" color="black" stroke="currentColor" stroke-width="1.00" stroke-linecap="butt" stroke-linejoin="miter">
	<path stroke='black'  d='M88.5,121.1 L97.5,121.1  '/>	<g transform="translate(80.2,125.0)" stroke="none" fill="black" font-family="Helvetica" font-size="12.00"  text-anchor="end">
		<text><tspan font-family="Helvetica" > 3x10</tspan><tspan font-family="Helvetica"  font-size="9.6" dy="-6.00px">-8</tspan><tspan font-size="12.0" dy="6.00"></tspan></text>
	</g>
</g>
<g fill="none" color="black" stroke="currentColor" stroke-width="1.00" stroke-linecap="butt" stroke-linejoin="miter">
	<path stroke='black'  d='M88.5,80.7 L97.5,80.7  '/>	<g transform="translate(80.2,84.6)" stroke="none" fill="black" font-family="Helvetica" font-size="12.00"  text-anchor="end">
		<text><tspan font-family="Helvetica" > 4x10</tspan><tspan font-family="Helvetica"  font-size="9.6" dy="-6.00px">-8</tspan><tspan font-size="12.0" dy="6.00"></tspan></text>
	</g>
</g>
<g fill="none" color="black" stroke="currentColor" stroke-width="1.00" stroke-linecap="butt" stroke-linejoin="miter">
	<path stroke='black'  d='M88.5,40.3 L97.5,40.3  '/>	<g transform="translate(80.2,44.2)" stroke="none" fill="black" font-family="Helvetica" font-size="12.00"  text-anchor="end">
		<text><tspan font-family="Helvetica" > 5x10</tspan><tspan font-family="Helvetica"  font-size="9.6" dy="-6.00px">-8</tspan><tspan font-size="12.0" dy="6.00"></tspan></text>
	</g>
</g>
<g fill="none" color="black" stroke="currentColor" stroke-width="1.00" stroke-linecap="butt" stroke-linejoin="miter">
	<path stroke='black'  d='M118.8,242.4 L118.8,233.4  '/>	<g transform="translate(118.8,264.3)" stroke="none" fill="black" font-family="Helvetica" font-size="12.00"  text-anchor="middle">
		<text><tspan font-family="Helvetica" > 8x10</tspan><tspan font-family="Helvetica"  font-size="9.6" dy="-6.00px">7</tspan><tspan font-size="12.0" dy="6.00"></tspan></text>
	</g>
</g>
<g fill="none" color="black" stroke="currentColor" stroke-width="1.00" stroke-linecap="butt" stroke-linejoin="miter">
	<path stroke='black'  d='M155.8,242.4 L155.8,233.4  '/>	<g transform="translate(155.8,264.3)" stroke="none" fill="black" font-family="Helvetica" font-size="12.00"  text-anchor="middle">
		<text><tspan font-family="Helvetica" > 9x10</tspan><tspan font-family="Helvetica"  font-size="9.6" dy="-6.00px">7</tspan><tspan font-size="12.0" dy="6.00"></tspan></text>
	</g>
</g>
<g fill="none" color="black" stroke="currentColor" stroke-width="1.00" stroke-linecap="butt" stroke-linejoin="miter">
	<path stroke='black'  d='M192.9,242.4 L192.9,233.4  '/>	<g transform="translate(192.9,264.3)" stroke="none" fill="black" font-family="Helvetica" font-size="12.00"  text-anchor="middle">
		<text><tspan font-family="Helvetica" > 1x10</tspan><tspan font-family="Helvetica"  font-size="9.6" dy="-6.00px">8</tspan><tspan font-size="12.0" dy="6.00"></tspan></text>
	</g>
</g>
<g fill="none" color="black" stroke="currentColor" stroke-width="1.00" stroke-linecap="butt" stroke-linejoin="miter">
	<path stroke='black'  d='M229.9,242.4 L229.9,233.4  '/>	<g transform="translate(229.9,264.3)" stroke="none" fill="black" font-family="Helvetica" font-size="12.00"  text-anchor="middle">
		<text><tspan font-family="Helvetica" > 1.1x10</tspan><tspan font-family="Helvetica"  font-size="9.6" dy="-6.00px">8</tspan><tspan font-size="12.0" dy="6.00"></tspan></text>
	</g>
</g>
<g fill="none" color="black" stroke="currentColor" stroke-width="1.00" stroke-linecap="butt" stroke-linejoin="miter">
	<path stroke='black'  d='M266.9,242.4 L266.9,233.4  '/>	<g transform="translate(266.9,264.3)" stroke="none" fill="black" font-family="Helvetica" font-size="12.00"  text-anchor="middle">
		<text><tspan font-family="Helvetica" > 1.2x10</tspan><tspan font-family="Helvetica"  font-size="9.6" dy="-6.00px">8</tspan><tspan font-size="12.0" dy="6.00"></tspan></text>
	</g>
</g>
<g fill="none" color="black" stroke="currentColor" stroke-width="1.00" stroke-linecap="butt" stroke-linejoin="miter">
	<path stroke='black'  d='M304.0,242.4 L304.0,233.4  '/>	<g transform="translate(304.0,264.3)" stroke="none" fill="black" font-family="Helvetica" font-size="12.00"  text-anchor="middle">
		<text><tspan font-family="Helvetica" > 1.3x10</tspan><tspan font-family="Helvetica"  font-size="9.6" dy="-6.00px">8</tspan><tspan font-size="12.0" dy="6.00"></tspan></text>
	</g>
</g>
<g fill="none" color="black" stroke="currentColor" stroke-width="1.00" stroke-linecap="butt" stroke-linejoin="miter">
	<path stroke='black'  d='M341.0,242.4 L341.0,233.4  '/>	<g transform="translate(341.0,264.3)" stroke="none" fill="black" font-family="Helvetica" font-size="12.00"  text-anchor="middle">
		<text><tspan font-family="Helvetica" > 1.4x10</tspan><tspan font-family="Helvetica"  font-size="9.6" dy="-6.00px">8</tspan><tspan font-size="12.0" dy="6.00"></tspan></text>
	</g>
</g>
<g fill="none" color="black" stroke="currentColor" stroke-width="1.00" stroke-linecap="butt" stroke-linejoin="miter">
	<path stroke='black'  d='M378.1,242.4 L378.1,233.4  '/>	<g transform="translate(378.1,264.3)" stroke="none" fill="black" font-family="Helvetica" font-size="12.00"  text-anchor="middle">
		<text><tspan font-family="Helvetica" > 1.5x10</tspan><tspan font-family="Helvetica"  font-size="9.6" dy="-6.00px">8</tspan><tspan font-size="12.0" dy="6.00"></tspan></text>
	</g>
</g>
<g fill="none" color="black" stroke="currentColor" stroke-width="1.00" stroke-linecap="butt" stroke-linejoin="miter">
	<path stroke='black'  d='M415.1,242.4 L415.1,233.4  '/>	<g transform="translate(415.1,264.3)" stroke="none" fill="black" font-family="Helvetica" font-size="12.00"  text-anchor="middle">
		<text><tspan font-family="Helvetica" > 1.6x10</tspan><tspan font-family="Helvetica"  font-size="9.6" dy="-6.00px">8</tspan><tspan font-size="12.0" dy="6.00"></tspan></text>
	</g>
</g>
<g fill="none" color="black" stroke="currentColor" stroke-width="1.00" stroke-linecap="butt" stroke-linejoin="miter">
</g>
<g fill="none" color="black" stroke="currentColor" stroke-width="1.00" stroke-linecap="butt" stroke-linejoin="miter">
	<path stroke='black'  d='M88.5,18.1 L88.5,242.4 L425.0,242.4 L425.0,18.1 L88.5,18.1 Z  '/></g>
<g fill="none" color="black" stroke="currentColor" stroke-width="1.00" stroke-linecap="butt" stroke-linejoin="miter">
	<g transform="translate(16.3,130.3) rotate(270)" stroke="none" fill="black" font-family="Helvetica" font-size="12.00"  text-anchor="middle">
		<text><tspan font-family="Helvetica" >Density (a.u.)</tspan></text>
	</g>
</g>
<g fill="none" color="black" stroke="currentColor" stroke-width="1.00" stroke-linecap="butt" stroke-linejoin="miter">
	<g transform="translate(256.7,291.3)" stroke="none" fill="black" font-family="Helvetica" font-size="12.00"  text-anchor="middle">
		<text><tspan font-family="Helvetica" >Average time (cycles)</tspan></text>
	</g>
</g>
<g fill="none" color="black" stroke="currentColor" stroke-width="1.00" stroke-linecap="butt" stroke-linejoin="miter">
</g>
	<g id="gnuplot_plot_1" ><title>PDF</title>
<g fill="none" color="black" stroke="currentColor" stroke-width="1.00" stroke-linecap="butt" stroke-linejoin="miter">
	<g stroke='none' shape-rendering='crispEdges'>
		<polygon fill = 'rgb( 31, 120, 180)' fill-opacity = '0.250000' points = '88.5,242.3 89.2,242.3 89.8,242.3 90.5,242.3 91.2,242.3 91.9,242.3 92.5,242.3 93.2,242.2 93.9,242.2 94.6,242.2 95.2,242.2 95.9,242.1 96.6,242.1 97.3,242.1 97.9,242.0 98.6,242.0
99.3,241.9 100.0,241.8 100.6,241.8 101.3,241.7 102.0,241.6 102.7,241.5 103.3,241.4 104.0,241.3 104.7,241.2 105.4,241.1 106.0,240.9 106.7,240.8 107.4,240.6 108.1,240.4 108.7,240.2 109.4,240.0
110.1,239.8 110.8,239.6 111.4,239.3 112.1,239.0 112.8,238.7 113.5,238.4 114.1,238.0 114.8,237.6 115.5,237.2 116.1,236.8 116.8,236.3 117.5,235.8 118.2,235.2 118.8,234.6 119.5,234.0 120.2,233.3
120.9,232.6 121.5,231.8 122.2,230.9 122.9,230.0 123.6,229.0 124.2,228.0 124.9,226.8 125.6,225.6 126.3,224.4 126.9,223.0 127.6,221.5 128.3,220.0 129.0,218.3 129.6,216.6 130.3,214.7 131.0,212.7
131.7,210.6 132.3,208.4 133.0,206.1 133.7,203.6 134.4,201.1 135.0,198.4 135.7,195.6 136.4,192.6 137.1,189.6 137.7,186.4 138.4,183.1 139.1,179.7 139.8,176.2 140.4,172.5 141.1,168.8 141.8,165.0
142.4,161.1 143.1,157.1 143.8,153.1 144.5,149.0 145.1,144.9 145.8,140.7 146.5,136.6 147.2,132.4 147.8,128.2 148.5,124.0 149.2,119.8 149.9,115.7 150.5,111.6 151.2,107.6 151.9,103.7 152.6,99.8
153.2,96.1 153.9,92.4 154.6,88.8 155.3,85.4 155.9,82.1 156.6,78.9 157.3,75.8 158.0,72.9 158.6,70.1 159.3,67.4 160.0,64.9 160.7,62.5 161.3,60.3 162.0,58.1 162.7,56.1 163.4,54.2
164.0,52.5 164.7,50.8 165.4,49.2 166.1,47.7 166.7,46.3 167.4,45.0 168.1,43.7 168.7,42.5 169.4,41.4 170.1,40.2 170.8,39.2 171.4,38.1 172.1,37.1 172.8,36.1 173.5,35.1 174.1,34.1
174.8,33.2 175.5,32.2 176.2,31.2 176.8,30.3 177.5,29.4 178.2,28.4 178.9,27.5 179.5,26.6 180.2,25.7 180.9,24.8 181.6,24.0 182.2,23.2 182.9,22.4 183.6,21.7 184.3,21.0 184.9,20.4
185.6,19.8 186.3,19.3 187.0,18.9 187.6,18.6 188.3,18.3 189.0,18.2 189.7,18.1 190.3,18.1 191.0,18.3 191.7,18.5 192.3,18.9 193.0,19.4 193.7,20.0 194.4,20.7 195.0,21.6 195.7,22.6
196.4,23.7 197.1,24.9 197.7,26.3 198.4,27.8 199.1,29.5 199.8,31.2 200.4,33.2 201.1,35.2 201.8,37.4 202.5,39.7 203.1,42.2 203.8,44.8 204.5,47.5 205.2,50.3 205.8,53.3 206.5,56.4
207.2,59.7 207.9,63.0 208.5,66.5 209.2,70.1 209.9,73.8 210.6,77.6 211.2,81.5 211.9,85.5 212.6,89.6 213.3,93.7 213.9,97.9 214.6,102.2 215.3,106.6 216.0,110.9 216.6,115.4 217.3,119.8
218.0,124.2 218.6,128.7 219.3,133.1 220.0,137.5 220.7,141.9 221.3,146.3 222.0,150.5 222.7,154.8 223.4,158.9 224.0,163.0 224.7,167.0 225.4,170.8 226.1,174.6 226.7,178.3 227.4,181.8 228.1,185.2
228.8,188.5 229.4,191.7 230.1,194.7 230.8,197.6 231.5,200.4 232.1,203.0 232.8,205.5 233.5,207.9 234.2,210.1 234.8,212.3 235.5,214.2 236.2,216.1 236.9,217.8 237.5,219.5 238.2,221.0 238.9,222.4
239.6,223.7 240.2,225.0 240.9,226.1 241.6,227.2 242.3,228.2 242.9,229.1 243.6,229.9 244.3,230.7 244.9,231.4 245.6,232.1 246.3,232.7 247.0,233.3 247.6,233.9 248.3,234.4 249.0,234.8 249.7,235.3
250.3,235.7 251.0,236.1 251.7,236.5 252.4,236.8 253.0,237.1 253.7,237.4 254.4,237.7 255.1,238.0 255.7,238.2 256.4,238.5 257.1,238.7 257.8,238.9 258.4,239.1 259.1,239.3 259.8,239.5 260.5,239.7
261.1,239.8 261.8,239.9 262.5,240.1 263.2,240.2 263.8,240.3 264.5,240.4 265.2,240.5 265.9,240.5 266.5,240.6 267.2,240.6 267.9,240.6 268.6,240.7 269.2,240.7 269.9,240.7 270.6,240.6 271.2,240.6
271.9,240.6 272.6,240.5 273.3,240.4 273.9,240.4 274.6,240.3 275.3,240.2 276.0,240.1 276.6,240.0 277.3,239.9 278.0,239.8 278.7,239.6 279.3,239.5 280.0,239.4 280.7,239.3 281.4,239.1 282.0,239.0
282.7,238.8 283.4,238.7 284.1,238.6 284.7,238.5 285.4,238.3 286.1,238.2 286.8,238.1 287.4,238.0 288.1,237.9 288.8,237.8 289.5,237.7 290.1,237.7 290.8,237.6 291.5,237.6 292.2,237.5 292.8,237.5
293.5,237.5 294.2,237.5 294.9,237.5 295.5,237.5 296.2,237.6 296.9,237.6 297.5,237.7 298.2,237.7 298.9,237.8 299.6,237.9 300.2,238.0 300.9,238.1 301.6,238.3 302.3,238.4 302.9,238.5 303.6,238.6
304.3,238.8 305.0,238.9 305.6,239.1 306.3,239.2 307.0,239.4 307.7,239.5 308.3,239.7 309.0,239.8 309.7,240.0 310.4,240.1 311.0,240.3 311.7,240.4 312.4,240.5 313.1,240.7 313.7,240.8 314.4,240.9
315.1,241.0 315.8,241.1 316.4,241.2 317.1,241.3 317.8,241.4 318.5,241.5 319.1,241.6 319.8,241.7 320.5,241.7 321.2,241.8 321.8,241.9 322.5,241.9 323.2,242.0 323.8,242.0 324.5,242.0 325.2,242.1
325.9,242.1 326.5,242.2 327.2,242.2 327.9,242.2 328.6,242.2 329.2,242.3 329.9,242.3 330.6,242.3 331.3,242.3 331.9,242.3 332.6,242.3 333.3,242.3 334.0,242.3 334.6,242.3 335.3,242.4 336.0,242.4
336.7,242.4 337.3,242.4 338.0,242.4 338.7,242.4 339.4,242.4 340.0,242.4 340.7,242.4 341.4,242.4 342.1,242.4 342.7,242.4 343.4,242.4 344.1,242.3 344.8,242.3 345.4,242.3 346.1,242.3 346.8,242.3
347.4,242.3 348.1,242.3 348.8,242.3 349.5,242.3 350.1,242.2 350.8,242.2 351.5,242.2 352.2,242.2 352.8,242.1 353.5,242.1 354.2,242.0 354.9,242.0 355.5,242.0 356.2,241.9 356.9,241.8 357.6,241.8
358.2,241.7 358.9,241.7 359.6,241.6 360.3,241.5 360.9,241.4 361.6,241.3 362.3,241.2 363.0,241.1 363.6,241.0 364.3,240.9 365.0,240.8 365.7,240.6 366.3,240.5 367.0,240.4 367.7,240.2 368.4,240.1
369.0,240.0 369.7,239.8 370.4,239.7 371.1,239.5 371.7,239.4 372.4,239.2 373.1,239.1 373.7,238.9 374.4,238.8 375.1,238.6 375.8,238.5 376.4,238.4 377.1,238.2 377.8,238.1 378.5,238.0 379.1,237.9
379.8,237.8 380.5,237.7 381.2,237.7 381.8,237.6 382.5,237.6 383.2,237.5 383.9,237.5 384.5,237.5 385.2,237.5 385.9,237.5 386.6,237.5 387.2,237.6 387.9,237.6 388.6,237.7 389.3,237.7 389.9,237.8
390.6,237.9 391.3,238.0 392.0,238.1 392.6,238.2 393.3,238.4 394.0,238.5 394.7,238.6 395.3,238.8 396.0,238.9 396.7,239.1 397.4,239.2 398.0,239.4 398.7,239.5 399.4,239.7 400.0,239.8 400.7,240.0
401.4,240.1 402.1,240.3 402.7,240.4 403.4,240.5 404.1,240.7 404.8,240.8 405.4,240.9 406.1,241.0 406.8,241.1 407.5,241.2 408.1,241.3 408.8,241.4 409.5,241.5 410.2,241.6 410.8,241.7 411.5,241.7
412.2,241.8 412.9,241.9 413.5,241.9 414.2,242.0 414.9,242.0 415.6,242.0 416.2,242.1 416.9,242.1 417.6,242.2 418.3,242.2 418.9,242.2 419.6,242.2 420.3,242.3 421.0,242.3 421.6,242.3 422.3,242.3
423.0,242.3 423.7,242.3 424.3,242.3 425.0,242.3 425.0,242.4 424.3,242.4 423.7,242.4 423.0,242.4 422.3,242.4 421.6,242.4 421.0,242.4 420.3,242.4 419.6,242.4 418.9,242.4 418.3,242.4 417.6,242.4
416.9,242.4 416.2,242.4 415.6,242.4 414.9,242.4 414.2,242.4 413.5,242.4 412.9,242.4 412.2,242.4 411.5,242.4 410.8,242.4 410.2,242.4 409.5,242.4 408.8,242.4 408.1,242.4 407.5,242.4 406.8,242.4
406.1,242.4 405.4,242.4 404.8,242.4 404.1,242.4 403.4,242.4 402.7,242.4 402.1,242.4 401.4,242.4 400.7,242.4 400.0,242.4 399.4,242.4 398.7,242.4 398.0,242.4 397.4,242.4 396.7,242.4 396.0,242.4
395.3,242.4 394.7,242.4 394.0,242.4 393.3,242.4 392.6,242.4 392.0,242.4 391.3,242.4 390.6,242.4 389.9,242.4 389.3,242.4 388.6,242.4 387.9,242.4 387.2,242.4 386.6,242.4 385.9,242.4 385.2,242.4
384.5,242.4 383.9,242.4 383.2,242.4 382.5,242.4 381.8,242.4 381.2,242.4 380.5,242.4 379.8,242.4 379.1,242.4 378.5,242.4 377.8,242.4 377.1,242.4 376.4,242.4 375.8,242.4 375.1,242.4 374.4,242.4
373.7,242.4 373.1,242.4 372.4,242.4 371.7,242.4 371.1,242.4 370.4,242.4 369.7,242.4 369.0,242.4 368.4,242.4 367.7,242.4 367.0,242.4 366.3,242.4 365.7,242.4 365.0,242.4 364.3,242.4 363.6,242.4
363.0,242.4 362.3,242.4 361.6,242.4 360.9,242.4 360.3,242.4 359.6,242.4 358.9,242.4 358.2,242.4 357.6,242.4 356.9,242.4 356.2,242.4 355.5,242.4 354.9,242.4 354.2,242.4 353.5,242.4 352.8,242.4
352.2,242.4 351.5,242.4 350.8,242.4 350.1,242.4 349.5,242.4 348.8,242.4 348.1,242.4 347.4,242.4 346.8,242.4 346.1,242.4 345.4,242.4 344.8,242.4 344.1,242.4 343.4,242.4 342.7,242.4 342.1,242.4
341.4,242.4 340.7,242.4 340.0,242.4 339.4,242.4 338.7,242.4 338.0,242.4 337.3,242.4 336.7,242.4 336.0,242.4 335.3,242.4 334.6,242.4 334.0,242.4 333.3,242.4 332.6,242.4 331.9,242.4 331.3,242.4
330.6,242.4 329.9,242.4 329.2,242.4 328.6,242.4 327.9,242.4 327.2,242.4 326.5,242.4 325.9,242.4 325.2,242.4 324.5,242.4 323.8,242.4 323.2,242.4 322.5,242.4 321.8,242.4 321.2,242.4 320.5,242.4
319.8,242.4 319.1,242.4 318.5,242.4 317.8,242.4 317.1,242.4 316.4,242.4 315.8,242.4 315.1,242.4 314.4,242.4 313.7,242.4 313.1,242.4 312.4,242.4 311.7,242.4 311.0,242.4 310.4,242.4 309.7,242.4
309.0,242.4 308.3,242.4 307.7,242.4 307.0,242.4 306.3,242.4 305.6,242.4 305.0,242.4 304.3,242.4 303.6,242.4 302.9,242.4 302.3,242.4 301.6,242.4 300.9,242.4 300.2,242.4 299.6,242.4 298.9,242.4
298.2,242.4 297.5,242.4 296.9,242.4 296.2,242.4 295.5,242.4 294.9,242.4 294.2,242.4 293.5,242.4 292.8,242.4 292.2,242.4 291.5,242.4 290.8,242.4 290.1,242.4 289.5,242.4 288.8,242.4 288.1,242.4
287.4,242.4 286.8,242.4 286.1,242.4 285.4,242.4 284.7,242.4 284.1,242.4 283.4,242.4 282.7,242.4 282.0,242.4 281.4,242.4 280.7,242.4 280.0,242.4 279.3,242.4 278.7,242.4 278.0,242.4 277.3,242.4
276.6,242.4 276.0,242.4 275.3,242.4 274.6,242.4 273.9,242.4 273.3,242.4 272.6,242.4 271.9,242.4 271.2,242.4 270.6,242.4 269.9,242.4 269.2,242.4 268.6,242.4 267.9,242.4 267.2,242.4 266.5,242.4
265.9,242.4 265.2,242.4 264.5,242.4 263.8,242.4 263.2,242.4 262.5,242.4 261.8,242.4 261.1,242.4 260.5,242.4 259.8,242.4 259.1,242.4 258.4,242.4 257.8,242.4 257.1,242.4 256.4,242.4 255.7,242.4
255.1,242.4 254.4,242.4 253.7,242.4 253.0,242.4 252.4,242.4 251.7,242.4 251.0,242.4 250.3,242.4 249.7,242.4 249.0,242.4 248.3,242.4 247.6,242.4 247.0,242.4 246.3,242.4 245.6,242.4 244.9,242.4
244.3,242.4 243.6,242.4 242.9,242.4 242.3,242.4 241.6,242.4 240.9,242.4 240.2,242.4 239.6,242.4 238.9,242.4 238.2,242.4 237.5,242.4 236.9,242.4 236.2,242.4 235.5,242.4 234.8,242.4 234.2,242.4
233.5,242.4 232.8,242.4 232.1,242.4 231.5,242.4 230.8,242.4 230.1,242.4 229.4,242.4 228.8,242.4 228.1,242.4 227.4,242.4 226.7,242.4 226.1,242.4 225.4,242.4 224.7,242.4 224.0,242.4 223.4,242.4
222.7,242.4 222.0,242.4 221.3,242.4 220.7,242.4 220.0,242.4 219.3,242.4 218.6,242.4 218.0,242.4 217.3,242.4 216.6,242.4 216.0,242.4 215.3,242.4 214.6,242.4 213.9,242.4 213.3,242.4 212.6,242.4
211.9,242.4 211.2,242.4 210.6,242.4 209.9,242.4 209.2,242.4 208.5,242.4 207.9,242.4 207.2,242.4 206.5,242.4 205.8,242.4 205.2,242.4 204.5,242.4 203.8,242.4 203.1,242.4 202.5,242.4 201.8,242.4
201.1,242.4 200.4,242.4 199.8,242.4 199.1,242.4 198.4,242.4 197.7,242.4 197.1,242.4 196.4,242.4 195.7,242.4 195.0,242.4 194.4,242.4 193.7,242.4 193.0,242.4 192.3,242.4 191.7,242.4 191.0,242.4
190.3,242.4 189.7,242.4 189.0,242.4 188.3,242.4 187.6,242.4 187.0,242.4 186.3,242.4 185.6,242.4 184.9,242.4 184.3,242.4 183.6,242.4 182.9,242.4 182.2,242.4 181.6,242.4 180.9,242.4 180.2,242.4
179.5,242.4 178.9,242.4 178.2,242.4 177.5,242.4 176.8,242.4 176.2,242.4 175.5,242.4 174.8,242.4 174.1,242.4 173.5,242.4 172.8,242.4 172.1,242.4 171.4,242.4 170.8,242.4 170.1,242.4 169.4,242.4
168.7,242.4 168.1,242.4 167.4,242.4 166.7,242.4 166.1,242.4 165.4,242.4 164.7,242.4 164.0,242.4 163.4,242.4 162.7,242.4 162.0,242.4 161.3,242.4 160.7,242.4 160.0,242.4 159.3,242.4 158.6,242.4
158.0,242.4 157.3,242.4 156.6,242.4 155.9,242.4 155.3,242.4 154.6,242.4 153.9,242.4 153.2,242.4 152.6,242.4 151.9,242.4 151.2,242.4 150.5,242.4 149.9,242.4 149.2,242.4 148.5,242.4 147.8,242.4
147.2,242.4 146.5,242.4 145.8,242.4 145.1,242.4 144.5,242.4 143.8,242.4 143.1,242.4 142.4,242.4 141.8,242.4 141.1,242.4 140.4,242.4 139.8,242.4 139.1,242.4 138.4,242.4 137.7,242.4 137.1,242.4
136.4,242.4 135.7,242.4 135.0,242.4 134.4,242.4 133.7,242.4 133.0,242.4 132.3,242.4 131.7,242.4 131.0,242.4 130.3,242.4 129.6,242.4 129.0,242.4 128.3,242.4 127.6,242.4 126.9,242.4 126.3,242.4
125.6,242.4 124.9,242.4 124.2,242.4 123.6,242.4 122.9,242.4 122.2,242.4 121.5,242.4 120.9,242.4 120.2,242.4 119.5,242.4 118.8,242.4 118.2,242.4 117.5,242.4 116.8,242.4 116.1,242.4 115.5,242.4
114.8,242.4 114.1,242.4 113.5,242.4 112.8,242.4 112.1,242.4 111.4,242.4 110.8,242.4 110.1,242.4 109.4,242.4 108.7,242.4 108.1,242.4 107.4,242.4 106.7,242.4 106.0,242.4 105.4,242.4 104.7,242.4
104.0,242.4 103.3,242.4 102.7,242.4 102.0,242.4 101.3,242.4 100.6,242.4 100.0,242.4 99.3,242.4 98.6,242.4 97.9,242.4 97.3,242.4 96.6,242.4 95.9,242.4 95.2,242.4 94.6,242.4 93.9,242.4
93.2,242.4 92.5,242.4 91.9,242.4 91.2,242.4 90.5,242.4 89.8,242.4 89.2,242.4 88.5,242.4 '/>
	</g>
</g>
	</g>
	<g id="gnuplot_plot_2" ><title>Mean</title>
<g fill="none" color="white" stroke="rgb( 31, 120, 180)" stroke-width="2.00" stroke-linecap="butt" stroke-linejoin="miter">
</g>
<g fill="none" color="black" stroke="currentColor" stroke-width="2.00" stroke-linecap="butt" stroke-linejoin="miter">
	<path stroke='rgb( 31, 120, 180)'  d='M186.7,242.4 L186.7,39.4  '/></g>
	</g>
<g fill="none" color="black" stroke="currentColor" stroke-width="2.00" stroke-linecap="butt" stroke-linejoin="miter">
</g>
<g fill="none" color="black" stroke="black" stroke-width="1.00" stroke-linecap="butt" stroke-linejoin="miter">
</g>
<g fill="none" color="black" stroke="currentColor" stroke-width="1.00" stroke-linecap="butt" stroke-linejoin="miter">
	<path stroke='black'  d='M88.5,18.1 L88.5,242.4 L425.0,242.4 L425.0,18.1 L88.5,18.1 Z  '/></g>
<g fill="none" color="black" stroke="currentColor" stroke-width="1.00" stroke-linecap="butt" stroke-linejoin="miter">
</g>
</g>
</svg>

