<?xml version="1.0" encoding="utf-8"  standalone="no"?>
<svg 
 viewBox="0 0 450 300"
 xmlns="http://www.w3.org/2000/svg"
 xmlns:xlink="http://www.w3.org/1999/xlink"
>

<title>Gnuplot</title>
<desc>Produced by GNUPLOT 5.2 patchlevel 2 </desc>

<g id="gnuplot_canvas">

<rect x="0" y="0" width="450" height="300" fill="none"/>
<defs>

	<circle id='gpDot' r='0.5' stroke-width='0.5'/>
	<path id='gpPt0' stroke-width='0.222' stroke='currentColor' d='M-1,0 h2 M0,-1 v2'/>
	<path id='gpPt1' stroke-width='0.222' stroke='currentColor' d='M-1,-1 L1,1 M1,-1 L-1,1'/>
	<path id='gpPt2' stroke-width='0.222' stroke='currentColor' d='M-1,0 L1,0 M0,-1 L0,1 M-1,-1 L1,1 M-1,1 L1,-1'/>
	<rect id='gpPt3' stroke-width='0.222' stroke='currentColor' x='-1' y='-1' width='2' height='2'/>
	<rect id='gpPt4' stroke-width='0.222' stroke='currentColor' fill='currentColor' x='-1' y='-1' width='2' height='2'/>
	<circle id='gpPt5' stroke-width='0.222' stroke='currentColor' cx='0' cy='0' r='1'/>
	<use xlink:href='#gpPt5' id='gpPt6' fill='currentColor' stroke='none'/>
	<path id='gpPt7' stroke-width='0.222' stroke='currentColor' d='M0,-1.33 L-1.33,0.67 L1.33,0.67 z'/>
	<use xlink:href='#gpPt7' id='gpPt8' fill='currentColor' stroke='none'/>
	<use xlink:href='#gpPt7' id='gpPt9' stroke='currentColor' transform='rotate(180)'/>
	<use xlink:href='#gpPt9' id='gpPt10' fill='currentColor' stroke='none'/>
	<use xlink:href='#gpPt3' id='gpPt11' stroke='currentColor' transform='rotate(45)'/>
	<use xlink:href='#gpPt11' id='gpPt12' fill='currentColor' stroke='none'/>
	<path id='gpPt13' stroke-width='0.222' stroke='currentColor' d='M0,1.330 L1.265,0.411 L0.782,-1.067 L-0.782,-1.076 L-1.265,0.411 z'/>
	<use xlink:href='#gpPt13' id='gpPt14' fill='currentColor' stroke='none'/>
	<filter id='textbox' filterUnits='objectBoundingBox' x='0' y='0' height='1' width='1'>
	  <feFlood flood-color='white' flood-opacity='1' result='bgnd'/>
	  <feComposite in='SourceGraphic' in2='bgnd' operator='atop'/>
	</filter>
	<filter id='greybox' filterUnits='objectBoundingBox' x='0' y='0' height='1' width='1'>
	  <feFlood flood-color='lightgrey' flood-opacity='1' result='grey'/>
	  <feComposite in='SourceGraphic' in2='grey' operator='atop'/>
	</filter>
</defs>
<g fill="none" color="white" stroke="currentColor" stroke-width="1.00" stroke-linecap="butt" stroke-linejoin="miter">
</g>
<g fill="none" color="black" stroke="currentColor" stroke-width="1.00" stroke-linecap="butt" stroke-linejoin="miter">
	<path stroke='black'  d='M105.1,242.4 L114.1,242.4  '/>	<g transform="translate(96.8,246.3)" stroke="none" fill="black" font-family="Helvetica" font-size="12.00"  text-anchor="end">
		<text><tspan font-family="Helvetica" > 0</tspan></text>
	</g>
</g>
<g fill="none" color="black" stroke="currentColor" stroke-width="1.00" stroke-linecap="butt" stroke-linejoin="miter">
	<path stroke='black'  d='M105.1,212.3 L114.1,212.3  '/>	<g transform="translate(96.8,216.2)" stroke="none" fill="black" font-family="Helvetica" font-size="12.00"  text-anchor="end">
		<text><tspan font-family="Helvetica" > 5x10</tspan><tspan font-family="Helvetica"  font-size="9.6" dy="-6.00px">-6</tspan><tspan font-size="12.0" dy="6.00"></tspan></text>
	</g>
</g>
<g fill="none" color="black" stroke="currentColor" stroke-width="1.00" stroke-linecap="butt" stroke-linejoin="miter">
	<path stroke='black'  d='M105.1,182.2 L114.1,182.2  '/>	<g transform="translate(96.8,186.1)" stroke="none" fill="black" font-family="Helvetica" font-size="12.00"  text-anchor="end">
		<text><tspan font-family="Helvetica" > 1x10</tspan><tspan font-family="Helvetica"  font-size="9.6" dy="-6.00px">-5</tspan><tspan font-size="12.0" dy="6.00"></tspan></text>
	</g>
</g>
<g fill="none" color="black" stroke="currentColor" stroke-width="1.00" stroke-linecap="butt" stroke-linejoin="miter">
	<path stroke='black'  d='M105.1,152.1 L114.1,152.1  '/>	<g transform="translate(96.8,156.0)" stroke="none" fill="black" font-family="Helvetica" font-size="12.00"  text-anchor="end">
		<text><tspan font-family="Helvetica" > 1.5x10</tspan><tspan font-family="Helvetica"  font-size="9.6" dy="-6.00px">-5</tspan><tspan font-size="12.0" dy="6.00"></tspan></text>
	</g>
</g>
<g fill="none" color="black" stroke="currentColor" stroke-width="1.00" stroke-linecap="butt" stroke-linejoin="miter">
	<path stroke='black'  d='M105.1,122.0 L114.1,122.0  '/>	<g transform="translate(96.8,125.9)" stroke="none" fill="black" font-family="Helvetica" font-size="12.00"  text-anchor="end">
		<text><tspan font-family="Helvetica" > 2x10</tspan><tspan font-family="Helvetica"  font-size="9.6" dy="-6.00px">-5</tspan><tspan font-size="12.0" dy="6.00"></tspan></text>
	</g>
</g>
<g fill="none" color="black" stroke="currentColor" stroke-width="1.00" stroke-linecap="butt" stroke-linejoin="miter">
	<path stroke='black'  d='M105.1,91.9 L114.1,91.9  '/>	<g transform="translate(96.8,95.8)" stroke="none" fill="black" font-family="Helvetica" font-size="12.00"  text-anchor="end">
		<text><tspan font-family="Helvetica" > 2.5x10</tspan><tspan font-family="Helvetica"  font-size="9.6" dy="-6.00px">-5</tspan><tspan font-size="12.0" dy="6.00"></tspan></text>
	</g>
</g>
<g fill="none" color="black" stroke="currentColor" stroke-width="1.00" stroke-linecap="butt" stroke-linejoin="miter">
	<path stroke='black'  d='M105.1,61.8 L114.1,61.8  '/>	<g transform="translate(96.8,65.7)" stroke="none" fill="black" font-family="Helvetica" font-size="12.00"  text-anchor="end">
		<text><tspan font-family="Helvetica" > 3x10</tspan><tspan font-family="Helvetica"  font-size="9.6" dy="-6.00px">-5</tspan><tspan font-size="12.0" dy="6.00"></tspan></text>
	</g>
</g>
<g fill="none" color="black" stroke="currentColor" stroke-width="1.00" stroke-linecap="butt" stroke-linejoin="miter">
	<path stroke='black'  d='M105.1,31.7 L114.1,31.7  '/>	<g transform="translate(96.8,35.6)" stroke="none" fill="black" font-family="Helvetica" font-size="12.00"  text-anchor="end">
		<text><tspan font-family="Helvetica" > 3.5x10</tspan><tspan font-family="Helvetica"  font-size="9.6" dy="-6.00px">-5</tspan><tspan font-size="12.0" dy="6.00"></tspan></text>
	</g>
</g>
<g fill="none" color="black" stroke="currentColor" stroke-width="1.00" stroke-linecap="butt" stroke-linejoin="miter">
	<path stroke='black'  d='M122.1,242.4 L122.1,233.4  '/>	<g transform="translate(122.1,264.3)" stroke="none" fill="black" font-family="Helvetica" font-size="12.00"  text-anchor="middle">
		<text><tspan font-family="Helvetica" > 10000</tspan></text>
	</g>
</g>
<g fill="none" color="black" stroke="currentColor" stroke-width="1.00" stroke-linecap="butt" stroke-linejoin="miter">
	<path stroke='black'  d='M159.1,242.4 L159.1,233.4  '/>	<g transform="translate(159.1,264.3)" stroke="none" fill="black" font-family="Helvetica" font-size="12.00"  text-anchor="middle">
		<text><tspan font-family="Helvetica" > 20000</tspan></text>
	</g>
</g>
<g fill="none" color="black" stroke="currentColor" stroke-width="1.00" stroke-linecap="butt" stroke-linejoin="miter">
	<path stroke='black'  d='M196.2,242.4 L196.2,233.4  '/>	<g transform="translate(196.2,264.3)" stroke="none" fill="black" font-family="Helvetica" font-size="12.00"  text-anchor="middle">
		<text><tspan font-family="Helvetica" > 30000</tspan></text>
	</g>
</g>
<g fill="none" color="black" stroke="currentColor" stroke-width="1.00" stroke-linecap="butt" stroke-linejoin="miter">
	<path stroke='black'  d='M233.3,242.4 L233.3,233.4  '/>	<g transform="translate(233.3,264.3)" stroke="none" fill="black" font-family="Helvetica" font-size="12.00"  text-anchor="middle">
		<text><tspan font-family="Helvetica" > 40000</tspan></text>
	</g>
</g>
<g fill="none" color="black" stroke="currentColor" stroke-width="1.00" stroke-linecap="butt" stroke-linejoin="miter">
	<path stroke='black'  d='M270.3,242.4 L270.3,233.4  '/>	<g transform="translate(270.3,264.3)" stroke="none" fill="black" font-family="Helvetica" font-size="12.00"  text-anchor="middle">
		<text><tspan font-family="Helvetica" > 50000</tspan></text>
	</g>
</g>
<g fill="none" color="black" stroke="currentColor" stroke-width="1.00" stroke-linecap="butt" stroke-linejoin="miter">
	<path stroke='black'  d='M307.4,242.4 L307.4,233.4  '/>	<g transform="translate(307.4,264.3)" stroke="none" fill="black" font-family="Helvetica" font-size="12.00"  text-anchor="middle">
		<text><tspan font-family="Helvetica" > 60000</tspan></text>
	</g>
</g>
<g fill="none" color="black" stroke="currentColor" stroke-width="1.00" stroke-linecap="butt" stroke-linejoin="miter">
	<path stroke='black'  d='M344.5,242.4 L344.5,233.4  '/>	<g transform="translate(344.5,264.3)" stroke="none" fill="black" font-family="Helvetica" font-size="12.00"  text-anchor="middle">
		<text><tspan font-family="Helvetica" > 70000</tspan></text>
	</g>
</g>
<g fill="none" color="black" stroke="currentColor" stroke-width="1.00" stroke-linecap="butt" stroke-linejoin="miter">
	<path stroke='black'  d='M381.6,242.4 L381.6,233.4  '/>	<g transform="translate(381.6,264.3)" stroke="none" fill="black" font-family="Helvetica" font-size="12.00"  text-anchor="middle">
		<text><tspan font-family="Helvetica" > 80000</tspan></text>
	</g>
</g>
<g fill="none" color="black" stroke="currentColor" stroke-width="1.00" stroke-linecap="butt" stroke-linejoin="miter">
	<path stroke='black'  d='M418.6,242.4 L418.6,233.4  '/>	<g transform="translate(418.6,264.3)" stroke="none" fill="black" font-family="Helvetica" font-size="12.00"  text-anchor="middle">
		<text><tspan font-family="Helvetica" > 90000</tspan></text>
	</g>
</g>
<g fill="none" color="black" stroke="currentColor" stroke-width="1.00" stroke-linecap="butt" stroke-linejoin="miter">
</g>
<g fill="none" color="black" stroke="currentColor" stroke-width="1.00" stroke-linecap="butt" stroke-linejoin="miter">
	<path stroke='black'  d='M105.1,18.1 L105.1,242.4 L425.0,242.4 L425.0,18.1 L105.1,18.1 Z  '/></g>
<g fill="none" color="black" stroke="currentColor" stroke-width="1.00" stroke-linecap="butt" stroke-linejoin="miter">
	<g transform="translate(16.3,130.3) rotate(270)" stroke="none" fill="black" font-family="Helvetica" font-size="12.00"  text-anchor="middle">
		<text><tspan font-family="Helvetica" >Density (a.u.)</tspan></text>
	</g>
</g>
<g fill="none" color="black" stroke="currentColor" stroke-width="1.00" stroke-linecap="butt" stroke-linejoin="miter">
	<g transform="translate(265.0,291.3)" stroke="none" fill="black" font-family="Helvetica" font-size="12.00"  text-anchor="middle">
		<text><tspan font-family="Helvetica" >Average time (cycles)</tspan></text>
	</g>
</g>
<g fill="none" color="black" stroke="currentColor" stroke-width="1.00" stroke-linecap="butt" stroke-linejoin="miter">
</g>
	<g id="gnuplot_plot_1" ><title>PDF</title>
<g fill="none" color="black" stroke="currentColor" stroke-width="1.00" stroke-linecap="butt" stroke-linejoin="miter">
	<g stroke='none' shape-rendering='crispEdges'>
		<polygon fill = 'rgb( 31, 120, 180)' fill-opacity = '0.250000' points = '105.1,242.2 105.7,242.2 106.4,242.2 107.0,242.2 107.7,242.2 108.3,242.2 108.9,242.1 109.6,242.1 110.2,242.1 110.9,242.1 111.5,242.1 112.2,242.0 112.8,242.0 113.4,242.0 114.1,241.9 114.7,241.9
115.4,241.9 116.0,241.8 116.6,241.8 117.3,241.8 117.9,241.7 118.6,241.7 119.2,241.6 119.8,241.6 120.5,241.5 121.1,241.5 121.8,241.4 122.4,241.3 123.1,241.3 123.7,241.2 124.3,241.1 125.0,241.0
125.6,240.9 126.3,240.9 126.9,240.8 127.5,240.7 128.2,240.6 128.8,240.5 129.5,240.4 130.1,240.2 130.7,240.1 131.4,240.0 132.0,239.9 132.7,239.7 133.3,239.6 133.9,239.4 134.6,239.3 135.2,239.1
135.9,238.9 136.5,238.8 137.2,238.6 137.8,238.4 138.4,238.2 139.1,238.0 139.7,237.8 140.4,237.5 141.0,237.3 141.6,237.1 142.3,236.8 142.9,236.6 143.6,236.3 144.2,236.0 144.8,235.7 145.5,235.5
146.1,235.1 146.8,234.8 147.4,234.5 148.1,234.2 148.7,233.8 149.3,233.5 150.0,233.1 150.6,232.7 151.3,232.4 151.9,232.0 152.5,231.5 153.2,231.1 153.8,230.7 154.5,230.2 155.1,229.8 155.7,229.3
156.4,228.8 157.0,228.3 157.7,227.8 158.3,227.3 159.0,226.8 159.6,226.2 160.2,225.6 160.9,225.1 161.5,224.5 162.2,223.9 162.8,223.2 163.4,222.6 164.1,221.9 164.7,221.3 165.4,220.6 166.0,219.9
166.6,219.1 167.3,218.4 167.9,217.6 168.6,216.9 169.2,216.1 169.8,215.3 170.5,214.4 171.1,213.6 171.8,212.7 172.4,211.8 173.1,210.9 173.7,210.0 174.3,209.0 175.0,208.0 175.6,207.1 176.3,206.0
176.9,205.0 177.5,203.9 178.2,202.9 178.8,201.8 179.5,200.6 180.1,199.5 180.7,198.3 181.4,197.1 182.0,195.9 182.7,194.6 183.3,193.4 184.0,192.1 184.6,190.8 185.2,189.4 185.9,188.1 186.5,186.7
187.2,185.3 187.8,183.8 188.4,182.4 189.1,180.9 189.7,179.4 190.4,177.9 191.0,176.3 191.6,174.8 192.3,173.2 192.9,171.6 193.6,170.0 194.2,168.4 194.9,166.7 195.5,165.1 196.1,163.4 196.8,161.7
197.4,160.0 198.1,158.3 198.7,156.6 199.3,154.8 200.0,153.1 200.6,151.4 201.3,149.6 201.9,147.9 202.5,146.2 203.2,144.4 203.8,142.7 204.5,141.0 205.1,139.3 205.7,137.6 206.4,135.9 207.0,134.2
207.7,132.6 208.3,131.0 209.0,129.4 209.6,127.8 210.2,126.2 210.9,124.7 211.5,123.2 212.2,121.8 212.8,120.4 213.4,119.0 214.1,117.7 214.7,116.4 215.4,115.1 216.0,113.9 216.6,112.8 217.3,111.7
217.9,110.7 218.6,109.7 219.2,108.8 219.9,107.9 220.5,107.1 221.1,106.4 221.8,105.7 222.4,105.1 223.1,104.6 223.7,104.2 224.3,103.8 225.0,103.5 225.6,103.2 226.3,103.0 226.9,103.0 227.5,102.9
228.2,103.0 228.8,103.1 229.5,103.3 230.1,103.6 230.8,104.0 231.4,104.4 232.0,105.0 232.7,105.5 233.3,106.2 234.0,106.9 234.6,107.7 235.2,108.6 235.9,109.6 236.5,110.6 237.2,111.7 237.8,112.8
238.4,114.0 239.1,115.3 239.7,116.6 240.4,118.0 241.0,119.5 241.7,121.0 242.3,122.5 242.9,124.1 243.6,125.8 244.2,127.5 244.9,129.2 245.5,131.0 246.1,132.8 246.8,134.6 247.4,136.5 248.1,138.4
248.7,140.3 249.3,142.2 250.0,144.2 250.6,146.1 251.3,148.1 251.9,150.1 252.5,152.1 253.2,154.2 253.8,156.2 254.5,158.2 255.1,160.2 255.8,162.2 256.4,164.2 257.0,166.2 257.7,168.1 258.3,170.1
259.0,172.0 259.6,174.0 260.2,175.8 260.9,177.7 261.5,179.6 262.2,181.4 262.8,183.1 263.4,184.9 264.1,186.6 264.7,188.3 265.4,189.9 266.0,191.5 266.7,193.1 267.3,194.6 267.9,196.0 268.6,197.4
269.2,198.8 269.9,200.1 270.5,201.4 271.1,202.6 271.8,203.8 272.4,204.9 273.1,205.9 273.7,206.9 274.3,207.9 275.0,208.7 275.6,209.6 276.3,210.3 276.9,211.0 277.6,211.6 278.2,212.2 278.8,212.7
279.5,213.2 280.1,213.6 280.8,213.9 281.4,214.1 282.0,214.3 282.7,214.4 283.3,214.5 284.0,214.4 284.6,214.3 285.2,214.2 285.9,213.9 286.5,213.6 287.2,213.3 287.8,212.8 288.4,212.3 289.1,211.7
289.7,211.0 290.4,210.3 291.0,209.5 291.7,208.6 292.3,207.6 292.9,206.5 293.6,205.4 294.2,204.2 294.9,203.0 295.5,201.6 296.1,200.2 296.8,198.7 297.4,197.1 298.1,195.4 298.7,193.7 299.3,191.9
300.0,190.0 300.6,188.1 301.3,186.0 301.9,183.9 302.6,181.8 303.2,179.5 303.8,177.2 304.5,174.8 305.1,172.3 305.8,169.8 306.4,167.2 307.0,164.6 307.7,161.9 308.3,159.1 309.0,156.3 309.6,153.4
310.2,150.4 310.9,147.5 311.5,144.4 312.2,141.3 312.8,138.2 313.5,135.0 314.1,131.8 314.7,128.6 315.4,125.3 316.0,122.1 316.7,118.7 317.3,115.4 317.9,112.1 318.6,108.7 319.2,105.4 319.9,102.0
320.5,98.7 321.1,95.3 321.8,92.0 322.4,88.7 323.1,85.4 323.7,82.1 324.4,78.9 325.0,75.6 325.6,72.5 326.3,69.4 326.9,66.3 327.6,63.3 328.2,60.3 328.8,57.5 329.5,54.6 330.1,51.9
330.8,49.2 331.4,46.6 332.0,44.2 332.7,41.8 333.3,39.4 334.0,37.2 334.6,35.1 335.2,33.1 335.9,31.3 336.5,29.5 337.2,27.8 337.8,26.3 338.5,24.9 339.1,23.6 339.7,22.5 340.4,21.5
341.0,20.6 341.7,19.8 342.3,19.2 342.9,18.7 343.6,18.4 344.2,18.2 344.9,18.1 345.5,18.2 346.1,18.4 346.8,18.7 347.4,19.2 348.1,19.8 348.7,20.6 349.4,21.5 350.0,22.5 350.6,23.7
351.3,25.0 351.9,26.4 352.6,27.9 353.2,29.6 353.8,31.3 354.5,33.2 355.1,35.2 355.8,37.3 356.4,39.5 357.0,41.9 357.7,44.3 358.3,46.8 359.0,49.4 359.6,52.0 360.3,54.8 360.9,57.6
361.5,60.5 362.2,63.5 362.8,66.5 363.5,69.6 364.1,72.7 364.7,75.9 365.4,79.1 366.0,82.3 366.7,85.6 367.3,88.9 367.9,92.3 368.6,95.6 369.2,99.0 369.9,102.4 370.5,105.8 371.1,109.2
371.8,112.5 372.4,115.9 373.1,119.3 373.7,122.6 374.4,126.0 375.0,129.3 375.6,132.5 376.3,135.8 376.9,139.0 377.6,142.2 378.2,145.3 378.8,148.4 379.5,151.5 380.1,154.5 380.8,157.5 381.4,160.4
382.0,163.3 382.7,166.1 383.3,168.9 384.0,171.6 384.6,174.2 385.3,176.8 385.9,179.3 386.5,181.8 387.2,184.2 387.8,186.6 388.5,188.8 389.1,191.1 389.7,193.2 390.4,195.3 391.0,197.4 391.7,199.4
392.3,201.3 392.9,203.1 393.6,204.9 394.2,206.7 394.9,208.3 395.5,209.9 396.2,211.5 396.8,213.0 397.4,214.5 398.1,215.8 398.7,217.2 399.4,218.5 400.0,219.7 400.6,220.9 401.3,222.0 401.9,223.1
402.6,224.2 403.2,225.1 403.8,226.1 404.5,227.0 405.1,227.9 405.8,228.7 406.4,229.5 407.0,230.2 407.7,230.9 408.3,231.6 409.0,232.3 409.6,232.9 410.3,233.5 410.9,234.0 411.5,234.5 412.2,235.0
412.8,235.5 413.5,235.9 414.1,236.4 414.7,236.7 415.4,237.1 416.0,237.5 416.7,237.8 417.3,238.1 417.9,238.4 418.6,238.7 419.2,238.9 419.9,239.2 420.5,239.4 421.2,239.6 421.8,239.8 422.4,240.0
423.1,240.2 423.7,240.3 424.4,240.5 425.0,240.6 425.0,242.4 424.4,242.4 423.7,242.4 423.1,242.4 422.4,242.4 421.8,242.4 421.2,242.4 420.5,242.4 419.9,242.4 419.2,242.4 418.6,242.4 417.9,242.4
417.3,242.4 416.7,242.4 416.0,242.4 415.4,242.4 414.7,242.4 414.1,242.4 413.5,242.4 412.8,242.4 412.2,242.4 411.5,242.4 410.9,242.4 410.3,242.4 409.6,242.4 409.0,242.4 408.3,242.4 407.7,242.4
407.0,242.4 406.4,242.4 405.8,242.4 405.1,242.4 404.5,242.4 403.8,242.4 403.2,242.4 402.6,242.4 401.9,242.4 401.3,242.4 400.6,242.4 400.0,242.4 399.4,242.4 398.7,242.4 398.1,242.4 397.4,242.4
396.8,242.4 396.2,242.4 395.5,242.4 394.9,242.4 394.2,242.4 393.6,242.4 392.9,242.4 392.3,242.4 391.7,242.4 391.0,242.4 390.4,242.4 389.7,242.4 389.1,242.4 388.5,242.4 387.8,242.4 387.2,242.4
386.5,242.4 385.9,242.4 385.3,242.4 384.6,242.4 384.0,242.4 383.3,242.4 382.7,242.4 382.0,242.4 381.4,242.4 380.8,242.4 380.1,242.4 379.5,242.4 378.8,242.4 378.2,242.4 377.6,242.4 376.9,242.4
376.3,242.4 375.6,242.4 375.0,242.4 374.4,242.4 373.7,242.4 373.1,242.4 372.4,242.4 371.8,242.4 371.1,242.4 370.5,242.4 369.9,242.4 369.2,242.4 368.6,242.4 367.9,242.4 367.3,242.4 366.7,242.4
366.0,242.4 365.4,242.4 364.7,242.4 364.1,242.4 363.5,242.4 362.8,242.4 362.2,242.4 361.5,242.4 360.9,242.4 360.3,242.4 359.6,242.4 359.0,242.4 358.3,242.4 357.7,242.4 357.0,242.4 356.4,242.4
355.8,242.4 355.1,242.4 354.5,242.4 353.8,242.4 353.2,242.4 352.6,242.4 351.9,242.4 351.3,242.4 350.6,242.4 350.0,242.4 349.4,242.4 348.7,242.4 348.1,242.4 347.4,242.4 346.8,242.4 346.1,242.4
345.5,242.4 344.9,242.4 344.2,242.4 343.6,242.4 342.9,242.4 342.3,242.4 341.7,242.4 341.0,242.4 340.4,242.4 339.7,242.4 339.1,242.4 338.5,242.4 337.8,242.4 337.2,242.4 336.5,242.4 335.9,242.4
335.2,242.4 334.6,242.4 334.0,242.4 333.3,242.4 332.7,242.4 332.0,242.4 331.4,242.4 330.8,242.4 330.1,242.4 329.5,242.4 328.8,242.4 328.2,242.4 327.6,242.4 326.9,242.4 326.3,242.4 325.6,242.4
325.0,242.4 324.4,242.4 323.7,242.4 323.1,242.4 322.4,242.4 321.8,242.4 321.1,242.4 320.5,242.4 319.9,242.4 319.2,242.4 318.6,242.4 317.9,242.4 317.3,242.4 316.7,242.4 316.0,242.4 315.4,242.4
314.7,242.4 314.1,242.4 313.5,242.4 312.8,242.4 312.2,242.4 311.5,242.4 310.9,242.4 310.2,242.4 309.6,242.4 309.0,242.4 308.3,242.4 307.7,242.4 307.0,242.4 306.4,242.4 305.8,242.4 305.1,242.4
304.5,242.4 303.8,242.4 303.2,242.4 302.6,242.4 301.9,242.4 301.3,242.4 300.6,242.4 300.0,242.4 299.3,242.4 298.7,242.4 298.1,242.4 297.4,242.4 296.8,242.4 296.1,242.4 295.5,242.4 294.9,242.4
294.2,242.4 293.6,242.4 292.9,242.4 292.3,242.4 291.7,242.4 291.0,242.4 290.4,242.4 289.7,242.4 289.1,242.4 288.4,242.4 287.8,242.4 287.2,242.4 286.5,242.4 285.9,242.4 285.2,242.4 284.6,242.4
284.0,242.4 283.3,242.4 282.7,242.4 282.0,242.4 281.4,242.4 280.8,242.4 280.1,242.4 279.5,242.4 278.8,242.4 278.2,242.4 277.6,242.4 276.9,242.4 276.3,242.4 275.6,242.4 275.0,242.4 274.3,242.4
273.7,242.4 273.1,242.4 272.4,242.4 271.8,242.4 271.1,242.4 270.5,242.4 269.9,242.4 269.2,242.4 268.6,242.4 267.9,242.4 267.3,242.4 266.7,242.4 266.0,242.4 265.4,242.4 264.7,242.4 264.1,242.4
263.4,242.4 262.8,242.4 262.2,242.4 261.5,242.4 260.9,242.4 260.2,242.4 259.6,242.4 259.0,242.4 258.3,242.4 257.7,242.4 257.0,242.4 256.4,242.4 255.8,242.4 255.1,242.4 254.5,242.4 253.8,242.4
253.2,242.4 252.5,242.4 251.9,242.4 251.3,242.4 250.6,242.4 250.0,242.4 249.3,242.4 248.7,242.4 248.1,242.4 247.4,242.4 246.8,242.4 246.1,242.4 245.5,242.4 244.9,242.4 244.2,242.4 243.6,242.4
242.9,242.4 242.3,242.4 241.7,242.4 241.0,242.4 240.4,242.4 239.7,242.4 239.1,242.4 238.4,242.4 237.8,242.4 237.2,242.4 236.5,242.4 235.9,242.4 235.2,242.4 234.6,242.4 234.0,242.4 233.3,242.4
232.7,242.4 232.0,242.4 231.4,242.4 230.8,242.4 230.1,242.4 229.5,242.4 228.8,242.4 228.2,242.4 227.5,242.4 226.9,242.4 226.3,242.4 225.6,242.4 225.0,242.4 224.3,242.4 223.7,242.4 223.1,242.4
222.4,242.4 221.8,242.4 221.1,242.4 220.5,242.4 219.9,242.4 219.2,242.4 218.6,242.4 217.9,242.4 217.3,242.4 216.6,242.4 216.0,242.4 215.4,242.4 214.7,242.4 214.1,242.4 213.4,242.4 212.8,242.4
212.2,242.4 211.5,242.4 210.9,242.4 210.2,242.4 209.6,242.4 209.0,242.4 208.3,242.4 207.7,242.4 207.0,242.4 206.4,242.4 205.7,242.4 205.1,242.4 204.5,242.4 203.8,242.4 203.2,242.4 202.5,242.4
201.9,242.4 201.3,242.4 200.6,242.4 200.0,242.4 199.3,242.4 198.7,242.4 198.1,242.4 197.4,242.4 196.8,242.4 196.1,242.4 195.5,242.4 194.9,242.4 194.2,242.4 193.6,242.4 192.9,242.4 192.3,242.4
191.6,242.4 191.0,242.4 190.4,242.4 189.7,242.4 189.1,242.4 188.4,242.4 187.8,242.4 187.2,242.4 186.5,242.4 185.9,242.4 185.2,242.4 184.6,242.4 184.0,242.4 183.3,242.4 182.7,242.4 182.0,242.4
181.4,242.4 180.7,242.4 180.1,242.4 179.5,242.4 178.8,242.4 178.2,242.4 177.5,242.4 176.9,242.4 176.3,242.4 175.6,242.4 175.0,242.4 174.3,242.4 173.7,242.4 173.1,242.4 172.4,242.4 171.8,242.4
171.1,242.4 170.5,242.4 169.8,242.4 169.2,242.4 168.6,242.4 167.9,242.4 167.3,242.4 166.6,242.4 166.0,242.4 165.4,242.4 164.7,242.4 164.1,242.4 163.4,242.4 162.8,242.4 162.2,242.4 161.5,242.4
160.9,242.4 160.2,242.4 159.6,242.4 159.0,242.4 158.3,242.4 157.7,242.4 157.0,242.4 156.4,242.4 155.7,242.4 155.1,242.4 154.5,242.4 153.8,242.4 153.2,242.4 152.5,242.4 151.9,242.4 151.3,242.4
150.6,242.4 150.0,242.4 149.3,242.4 148.7,242.4 148.1,242.4 147.4,242.4 146.8,242.4 146.1,242.4 145.5,242.4 144.8,242.4 144.2,242.4 143.6,242.4 142.9,242.4 142.3,242.4 141.6,242.4 141.0,242.4
140.4,242.4 139.7,242.4 139.1,242.4 138.4,242.4 137.8,242.4 137.2,242.4 136.5,242.4 135.9,242.4 135.2,242.4 134.6,242.4 133.9,242.4 133.3,242.4 132.7,242.4 132.0,242.4 131.4,242.4 130.7,242.4
130.1,242.4 129.5,242.4 128.8,242.4 128.2,242.4 127.5,242.4 126.9,242.4 126.3,242.4 125.6,242.4 125.0,242.4 124.3,242.4 123.7,242.4 123.1,242.4 122.4,242.4 121.8,242.4 121.1,242.4 120.5,242.4
119.8,242.4 119.2,242.4 118.6,242.4 117.9,242.4 117.3,242.4 116.6,242.4 116.0,242.4 115.4,242.4 114.7,242.4 114.1,242.4 113.4,242.4 112.8,242.4 112.2,242.4 111.5,242.4 110.9,242.4 110.2,242.4
109.6,242.4 108.9,242.4 108.3,242.4 107.7,242.4 107.0,242.4 106.4,242.4 105.7,242.4 105.1,242.4 '/>
	</g>
</g>
	</g>
	<g id="gnuplot_plot_2" ><title>Mean</title>
<g fill="none" color="white" stroke="rgb( 31, 120, 180)" stroke-width="2.00" stroke-linecap="butt" stroke-linejoin="miter">
</g>
<g fill="none" color="black" stroke="currentColor" stroke-width="2.00" stroke-linecap="butt" stroke-linejoin="miter">
	<path stroke='rgb( 31, 120, 180)'  d='M295.0,242.4 L295.0,206.3  '/></g>
	</g>
<g fill="none" color="black" stroke="currentColor" stroke-width="2.00" stroke-linecap="butt" stroke-linejoin="miter">
</g>
<g fill="none" color="black" stroke="black" stroke-width="1.00" stroke-linecap="butt" stroke-linejoin="miter">
</g>
<g fill="none" color="black" stroke="currentColor" stroke-width="1.00" stroke-linecap="butt" stroke-linejoin="miter">
	<path stroke='black'  d='M105.1,18.1 L105.1,242.4 L425.0,242.4 L425.0,18.1 L105.1,18.1 Z  '/></g>
<g fill="none" color="black" stroke="currentColor" stroke-width="1.00" stroke-linecap="butt" stroke-linejoin="miter">
</g>
</g>
</svg>

