<?xml version="1.0" encoding="utf-8"  standalone="no"?>
<svg 
 viewBox="0 0 450 300"
 xmlns="http://www.w3.org/2000/svg"
 xmlns:xlink="http://www.w3.org/1999/xlink"
>

<title>Gnuplot</title>
<desc>Produced by GNUPLOT 5.2 patchlevel 2 </desc>

<g id="gnuplot_canvas">

<rect x="0" y="0" width="450" height="300" fill="none"/>
<defs>

	<circle id='gpDot' r='0.5' stroke-width='0.5'/>
	<path id='gpPt0' stroke-width='0.222' stroke='currentColor' d='M-1,0 h2 M0,-1 v2'/>
	<path id='gpPt1' stroke-width='0.222' stroke='currentColor' d='M-1,-1 L1,1 M1,-1 L-1,1'/>
	<path id='gpPt2' stroke-width='0.222' stroke='currentColor' d='M-1,0 L1,0 M0,-1 L0,1 M-1,-1 L1,1 M-1,1 L1,-1'/>
	<rect id='gpPt3' stroke-width='0.222' stroke='currentColor' x='-1' y='-1' width='2' height='2'/>
	<rect id='gpPt4' stroke-width='0.222' stroke='currentColor' fill='currentColor' x='-1' y='-1' width='2' height='2'/>
	<circle id='gpPt5' stroke-width='0.222' stroke='currentColor' cx='0' cy='0' r='1'/>
	<use xlink:href='#gpPt5' id='gpPt6' fill='currentColor' stroke='none'/>
	<path id='gpPt7' stroke-width='0.222' stroke='currentColor' d='M0,-1.33 L-1.33,0.67 L1.33,0.67 z'/>
	<use xlink:href='#gpPt7' id='gpPt8' fill='currentColor' stroke='none'/>
	<use xlink:href='#gpPt7' id='gpPt9' stroke='currentColor' transform='rotate(180)'/>
	<use xlink:href='#gpPt9' id='gpPt10' fill='currentColor' stroke='none'/>
	<use xlink:href='#gpPt3' id='gpPt11' stroke='currentColor' transform='rotate(45)'/>
	<use xlink:href='#gpPt11' id='gpPt12' fill='currentColor' stroke='none'/>
	<path id='gpPt13' stroke-width='0.222' stroke='currentColor' d='M0,1.330 L1.265,0.411 L0.782,-1.067 L-0.782,-1.076 L-1.265,0.411 z'/>
	<use xlink:href='#gpPt13' id='gpPt14' fill='currentColor' stroke='none'/>
	<filter id='textbox' filterUnits='objectBoundingBox' x='0' y='0' height='1' width='1'>
	  <feFlood flood-color='white' flood-opacity='1' result='bgnd'/>
	  <feComposite in='SourceGraphic' in2='bgnd' operator='atop'/>
	</filter>
	<filter id='greybox' filterUnits='objectBoundingBox' x='0' y='0' height='1' width='1'>
	  <feFlood flood-color='lightgrey' flood-opacity='1' result='grey'/>
	  <feComposite in='SourceGraphic' in2='grey' operator='atop'/>
	</filter>
</defs>
<g fill="none" color="white" stroke="currentColor" stroke-width="1.00" stroke-linecap="butt" stroke-linejoin="miter">
</g>
<g fill="none" color="black" stroke="currentColor" stroke-width="1.00" stroke-linecap="butt" stroke-linejoin="miter">
	<path stroke='black'  d='M88.5,242.4 L97.5,242.4  '/>	<g transform="translate(80.2,246.3)" stroke="none" fill="black" font-family="Helvetica" font-size="12.00"  text-anchor="end">
		<text><tspan font-family="Helvetica" > 0</tspan></text>
	</g>
</g>
<g fill="none" color="black" stroke="currentColor" stroke-width="1.00" stroke-linecap="butt" stroke-linejoin="miter">
	<path stroke='black'  d='M88.5,215.7 L97.5,215.7  '/>	<g transform="translate(80.2,219.6)" stroke="none" fill="black" font-family="Helvetica" font-size="12.00"  text-anchor="end">
		<text><tspan font-family="Helvetica" > 1x10</tspan><tspan font-family="Helvetica"  font-size="9.6" dy="-6.00px">-8</tspan><tspan font-size="12.0" dy="6.00"></tspan></text>
	</g>
</g>
<g fill="none" color="black" stroke="currentColor" stroke-width="1.00" stroke-linecap="butt" stroke-linejoin="miter">
	<path stroke='black'  d='M88.5,188.9 L97.5,188.9  '/>	<g transform="translate(80.2,192.8)" stroke="none" fill="black" font-family="Helvetica" font-size="12.00"  text-anchor="end">
		<text><tspan font-family="Helvetica" > 2x10</tspan><tspan font-family="Helvetica"  font-size="9.6" dy="-6.00px">-8</tspan><tspan font-size="12.0" dy="6.00"></tspan></text>
	</g>
</g>
<g fill="none" color="black" stroke="currentColor" stroke-width="1.00" stroke-linecap="butt" stroke-linejoin="miter">
	<path stroke='black'  d='M88.5,162.2 L97.5,162.2  '/>	<g transform="translate(80.2,166.1)" stroke="none" fill="black" font-family="Helvetica" font-size="12.00"  text-anchor="end">
		<text><tspan font-family="Helvetica" > 3x10</tspan><tspan font-family="Helvetica"  font-size="9.6" dy="-6.00px">-8</tspan><tspan font-size="12.0" dy="6.00"></tspan></text>
	</g>
</g>
<g fill="none" color="black" stroke="currentColor" stroke-width="1.00" stroke-linecap="butt" stroke-linejoin="miter">
	<path stroke='black'  d='M88.5,135.5 L97.5,135.5  '/>	<g transform="translate(80.2,139.4)" stroke="none" fill="black" font-family="Helvetica" font-size="12.00"  text-anchor="end">
		<text><tspan font-family="Helvetica" > 4x10</tspan><tspan font-family="Helvetica"  font-size="9.6" dy="-6.00px">-8</tspan><tspan font-size="12.0" dy="6.00"></tspan></text>
	</g>
</g>
<g fill="none" color="black" stroke="currentColor" stroke-width="1.00" stroke-linecap="butt" stroke-linejoin="miter">
	<path stroke='black'  d='M88.5,108.7 L97.5,108.7  '/>	<g transform="translate(80.2,112.6)" stroke="none" fill="black" font-family="Helvetica" font-size="12.00"  text-anchor="end">
		<text><tspan font-family="Helvetica" > 5x10</tspan><tspan font-family="Helvetica"  font-size="9.6" dy="-6.00px">-8</tspan><tspan font-size="12.0" dy="6.00"></tspan></text>
	</g>
</g>
<g fill="none" color="black" stroke="currentColor" stroke-width="1.00" stroke-linecap="butt" stroke-linejoin="miter">
	<path stroke='black'  d='M88.5,82.0 L97.5,82.0  '/>	<g transform="translate(80.2,85.9)" stroke="none" fill="black" font-family="Helvetica" font-size="12.00"  text-anchor="end">
		<text><tspan font-family="Helvetica" > 6x10</tspan><tspan font-family="Helvetica"  font-size="9.6" dy="-6.00px">-8</tspan><tspan font-size="12.0" dy="6.00"></tspan></text>
	</g>
</g>
<g fill="none" color="black" stroke="currentColor" stroke-width="1.00" stroke-linecap="butt" stroke-linejoin="miter">
	<path stroke='black'  d='M88.5,55.3 L97.5,55.3  '/>	<g transform="translate(80.2,59.2)" stroke="none" fill="black" font-family="Helvetica" font-size="12.00"  text-anchor="end">
		<text><tspan font-family="Helvetica" > 7x10</tspan><tspan font-family="Helvetica"  font-size="9.6" dy="-6.00px">-8</tspan><tspan font-size="12.0" dy="6.00"></tspan></text>
	</g>
</g>
<g fill="none" color="black" stroke="currentColor" stroke-width="1.00" stroke-linecap="butt" stroke-linejoin="miter">
	<path stroke='black'  d='M88.5,28.5 L97.5,28.5  '/>	<g transform="translate(80.2,32.4)" stroke="none" fill="black" font-family="Helvetica" font-size="12.00"  text-anchor="end">
		<text><tspan font-family="Helvetica" > 8x10</tspan><tspan font-family="Helvetica"  font-size="9.6" dy="-6.00px">-8</tspan><tspan font-size="12.0" dy="6.00"></tspan></text>
	</g>
</g>
<g fill="none" color="black" stroke="currentColor" stroke-width="1.00" stroke-linecap="butt" stroke-linejoin="miter">
	<path stroke='black'  d='M105.8,242.4 L105.8,233.4  '/>	<g transform="translate(105.8,264.3)" stroke="none" fill="black" font-family="Helvetica" font-size="12.00"  text-anchor="middle">
		<text><tspan font-family="Helvetica" > 1x10</tspan><tspan font-family="Helvetica"  font-size="9.6" dy="-6.00px">7</tspan><tspan font-size="12.0" dy="6.00"></tspan></text>
	</g>
</g>
<g fill="none" color="black" stroke="currentColor" stroke-width="1.00" stroke-linecap="butt" stroke-linejoin="miter">
	<path stroke='black'  d='M144.2,242.4 L144.2,233.4  '/>	<g transform="translate(144.2,264.3)" stroke="none" fill="black" font-family="Helvetica" font-size="12.00"  text-anchor="middle">
		<text><tspan font-family="Helvetica" > 1.5x10</tspan><tspan font-family="Helvetica"  font-size="9.6" dy="-6.00px">7</tspan><tspan font-size="12.0" dy="6.00"></tspan></text>
	</g>
</g>
<g fill="none" color="black" stroke="currentColor" stroke-width="1.00" stroke-linecap="butt" stroke-linejoin="miter">
	<path stroke='black'  d='M182.7,242.4 L182.7,233.4  '/>	<g transform="translate(182.7,264.3)" stroke="none" fill="black" font-family="Helvetica" font-size="12.00"  text-anchor="middle">
		<text><tspan font-family="Helvetica" > 2x10</tspan><tspan font-family="Helvetica"  font-size="9.6" dy="-6.00px">7</tspan><tspan font-size="12.0" dy="6.00"></tspan></text>
	</g>
</g>
<g fill="none" color="black" stroke="currentColor" stroke-width="1.00" stroke-linecap="butt" stroke-linejoin="miter">
	<path stroke='black'  d='M221.1,242.4 L221.1,233.4  '/>	<g transform="translate(221.1,264.3)" stroke="none" fill="black" font-family="Helvetica" font-size="12.00"  text-anchor="middle">
		<text><tspan font-family="Helvetica" > 2.5x10</tspan><tspan font-family="Helvetica"  font-size="9.6" dy="-6.00px">7</tspan><tspan font-size="12.0" dy="6.00"></tspan></text>
	</g>
</g>
<g fill="none" color="black" stroke="currentColor" stroke-width="1.00" stroke-linecap="butt" stroke-linejoin="miter">
	<path stroke='black'  d='M259.6,242.4 L259.6,233.4  '/>	<g transform="translate(259.6,264.3)" stroke="none" fill="black" font-family="Helvetica" font-size="12.00"  text-anchor="middle">
		<text><tspan font-family="Helvetica" > 3x10</tspan><tspan font-family="Helvetica"  font-size="9.6" dy="-6.00px">7</tspan><tspan font-size="12.0" dy="6.00"></tspan></text>
	</g>
</g>
<g fill="none" color="black" stroke="currentColor" stroke-width="1.00" stroke-linecap="butt" stroke-linejoin="miter">
	<path stroke='black'  d='M298.0,242.4 L298.0,233.4  '/>	<g transform="translate(298.0,264.3)" stroke="none" fill="black" font-family="Helvetica" font-size="12.00"  text-anchor="middle">
		<text><tspan font-family="Helvetica" > 3.5x10</tspan><tspan font-family="Helvetica"  font-size="9.6" dy="-6.00px">7</tspan><tspan font-size="12.0" dy="6.00"></tspan></text>
	</g>
</g>
<g fill="none" color="black" stroke="currentColor" stroke-width="1.00" stroke-linecap="butt" stroke-linejoin="miter">
	<path stroke='black'  d='M336.5,242.4 L336.5,233.4  '/>	<g transform="translate(336.5,264.3)" stroke="none" fill="black" font-family="Helvetica" font-size="12.00"  text-anchor="middle">
		<text><tspan font-family="Helvetica" > 4x10</tspan><tspan font-family="Helvetica"  font-size="9.6" dy="-6.00px">7</tspan><tspan font-size="12.0" dy="6.00"></tspan></text>
	</g>
</g>
<g fill="none" color="black" stroke="currentColor" stroke-width="1.00" stroke-linecap="butt" stroke-linejoin="miter">
	<path stroke='black'  d='M374.9,242.4 L374.9,233.4  '/>	<g transform="translate(374.9,264.3)" stroke="none" fill="black" font-family="Helvetica" font-size="12.00"  text-anchor="middle">
		<text><tspan font-family="Helvetica" > 4.5x10</tspan><tspan font-family="Helvetica"  font-size="9.6" dy="-6.00px">7</tspan><tspan font-size="12.0" dy="6.00"></tspan></text>
	</g>
</g>
<g fill="none" color="black" stroke="currentColor" stroke-width="1.00" stroke-linecap="butt" stroke-linejoin="miter">
	<path stroke='black'  d='M413.4,242.4 L413.4,233.4  '/>	<g transform="translate(413.4,264.3)" stroke="none" fill="black" font-family="Helvetica" font-size="12.00"  text-anchor="middle">
		<text><tspan font-family="Helvetica" > 5x10</tspan><tspan font-family="Helvetica"  font-size="9.6" dy="-6.00px">7</tspan><tspan font-size="12.0" dy="6.00"></tspan></text>
	</g>
</g>
<g fill="none" color="black" stroke="currentColor" stroke-width="1.00" stroke-linecap="butt" stroke-linejoin="miter">
</g>
<g fill="none" color="black" stroke="currentColor" stroke-width="1.00" stroke-linecap="butt" stroke-linejoin="miter">
	<path stroke='black'  d='M88.5,18.1 L88.5,242.4 L425.0,242.4 L425.0,18.1 L88.5,18.1 Z  '/></g>
<g fill="none" color="black" stroke="currentColor" stroke-width="1.00" stroke-linecap="butt" stroke-linejoin="miter">
	<g transform="translate(16.3,130.3) rotate(270)" stroke="none" fill="black" font-family="Helvetica" font-size="12.00"  text-anchor="middle">
		<text><tspan font-family="Helvetica" >Density (a.u.)</tspan></text>
	</g>
</g>
<g fill="none" color="black" stroke="currentColor" stroke-width="1.00" stroke-linecap="butt" stroke-linejoin="miter">
	<g transform="translate(256.7,291.3)" stroke="none" fill="black" font-family="Helvetica" font-size="12.00"  text-anchor="middle">
		<text><tspan font-family="Helvetica" >Average time (cycles)</tspan></text>
	</g>
</g>
<g fill="none" color="black" stroke="currentColor" stroke-width="1.00" stroke-linecap="butt" stroke-linejoin="miter">
</g>
	<g id="gnuplot_plot_1" ><title>PDF</title>
<g fill="none" color="black" stroke="currentColor" stroke-width="1.00" stroke-linecap="butt" stroke-linejoin="miter">
	<g stroke='none' shape-rendering='crispEdges'>
		<polygon fill = 'rgb( 31, 120, 180)' fill-opacity = '0.250000' points = '88.5,242.1 89.2,242.1 89.8,242.1 90.5,242.0 91.2,242.0 91.9,242.0 92.5,241.9 93.2,241.9 93.9,241.8 94.6,241.8 95.2,241.7 95.9,241.7 96.6,241.6 97.3,241.6 97.9,241.5 98.6,241.4
99.3,241.3 100.0,241.3 100.6,241.2 101.3,241.1 102.0,241.0 102.7,240.9 103.3,240.7 104.0,240.6 104.7,240.5 105.4,240.3 106.0,240.2 106.7,240.0 107.4,239.9 108.1,239.7 108.7,239.5 109.4,239.3
110.1,239.1 110.8,238.9 111.4,238.7 112.1,238.4 112.8,238.2 113.5,237.9 114.1,237.6 114.8,237.3 115.5,237.0 116.1,236.7 116.8,236.4 117.5,236.0 118.2,235.6 118.8,235.2 119.5,234.8 120.2,234.4
120.9,234.0 121.5,233.5 122.2,233.0 122.9,232.5 123.6,232.0 124.2,231.5 124.9,230.9 125.6,230.4 126.3,229.8 126.9,229.2 127.6,228.5 128.3,227.9 129.0,227.2 129.6,226.5 130.3,225.8 131.0,225.1
131.7,224.3 132.3,223.5 133.0,222.8 133.7,222.0 134.4,221.1 135.0,220.3 135.7,219.4 136.4,218.5 137.1,217.6 137.7,216.7 138.4,215.8 139.1,214.9 139.8,213.9 140.4,212.9 141.1,211.9 141.8,211.0
142.4,210.0 143.1,208.9 143.8,207.9 144.5,206.9 145.1,205.9 145.8,204.8 146.5,203.8 147.2,202.7 147.8,201.7 148.5,200.7 149.2,199.6 149.9,198.6 150.5,197.6 151.2,196.5 151.9,195.5 152.6,194.5
153.2,193.5 153.9,192.5 154.6,191.6 155.3,190.6 155.9,189.7 156.6,188.8 157.3,187.9 158.0,187.0 158.6,186.1 159.3,185.3 160.0,184.5 160.7,183.7 161.3,183.0 162.0,182.3 162.7,181.6 163.4,180.9
164.0,180.3 164.7,179.7 165.4,179.1 166.1,178.6 166.7,178.1 167.4,177.7 168.1,177.2 168.7,176.9 169.4,176.5 170.1,176.2 170.8,176.0 171.4,175.7 172.1,175.5 172.8,175.4 173.5,175.3 174.1,175.2
174.8,175.2 175.5,175.2 176.2,175.2 176.8,175.3 177.5,175.4 178.2,175.6 178.9,175.8 179.5,176.0 180.2,176.3 180.9,176.6 181.6,176.9 182.2,177.2 182.9,177.6 183.6,178.0 184.3,178.5 184.9,178.9
185.6,179.4 186.3,179.9 187.0,180.5 187.6,181.0 188.3,181.6 189.0,182.2 189.7,182.8 190.3,183.5 191.0,184.1 191.7,184.8 192.3,185.4 193.0,186.1 193.7,186.8 194.4,187.5 195.0,188.2 195.7,188.9
196.4,189.6 197.1,190.3 197.7,191.0 198.4,191.7 199.1,192.4 199.8,193.2 200.4,193.9 201.1,194.5 201.8,195.2 202.5,195.9 203.1,196.6 203.8,197.3 204.5,197.9 205.2,198.5 205.8,199.2 206.5,199.8
207.2,200.4 207.9,201.0 208.5,201.6 209.2,202.1 209.9,202.7 210.6,203.2 211.2,203.7 211.9,204.2 212.6,204.7 213.3,205.1 213.9,205.6 214.6,206.0 215.3,206.4 216.0,206.8 216.6,207.1 217.3,207.5
218.0,207.8 218.6,208.1 219.3,208.4 220.0,208.6 220.7,208.9 221.3,209.1 222.0,209.3 222.7,209.5 223.4,209.6 224.0,209.8 224.7,209.9 225.4,210.0 226.1,210.1 226.7,210.1 227.4,210.2 228.1,210.2
228.8,210.2 229.4,210.2 230.1,210.1 230.8,210.0 231.5,210.0 232.1,209.9 232.8,209.7 233.5,209.6 234.2,209.4 234.8,209.2 235.5,209.0 236.2,208.8 236.9,208.5 237.5,208.3 238.2,208.0 238.9,207.7
239.6,207.3 240.2,207.0 240.9,206.6 241.6,206.2 242.3,205.7 242.9,205.3 243.6,204.8 244.3,204.3 244.9,203.8 245.6,203.2 246.3,202.6 247.0,202.0 247.6,201.4 248.3,200.7 249.0,200.0 249.7,199.3
250.3,198.6 251.0,197.8 251.7,197.0 252.4,196.2 253.0,195.3 253.7,194.4 254.4,193.4 255.1,192.5 255.7,191.5 256.4,190.4 257.1,189.4 257.8,188.2 258.4,187.1 259.1,185.9 259.8,184.7 260.5,183.4
261.1,182.1 261.8,180.8 262.5,179.4 263.2,178.0 263.8,176.5 264.5,175.0 265.2,173.5 265.9,171.9 266.5,170.3 267.2,168.6 267.9,166.9 268.6,165.2 269.2,163.4 269.9,161.5 270.6,159.6 271.2,157.7
271.9,155.8 272.6,153.8 273.3,151.7 273.9,149.6 274.6,147.5 275.3,145.3 276.0,143.1 276.6,140.8 277.3,138.6 278.0,136.2 278.7,133.9 279.3,131.5 280.0,129.0 280.7,126.6 281.4,124.1 282.0,121.6
282.7,119.0 283.4,116.4 284.1,113.8 284.7,111.2 285.4,108.6 286.1,105.9 286.8,103.2 287.4,100.6 288.1,97.9 288.8,95.2 289.5,92.5 290.1,89.7 290.8,87.0 291.5,84.3 292.2,81.6 292.8,79.0
293.5,76.3 294.2,73.6 294.9,71.0 295.5,68.4 296.2,65.8 296.9,63.2 297.5,60.7 298.2,58.3 298.9,55.8 299.6,53.4 300.2,51.1 300.9,48.8 301.6,46.6 302.3,44.4 302.9,42.3 303.6,40.2
304.3,38.3 305.0,36.4 305.6,34.5 306.3,32.8 307.0,31.1 307.7,29.6 308.3,28.1 309.0,26.7 309.7,25.4 310.4,24.2 311.0,23.1 311.7,22.1 312.4,21.2 313.1,20.5 313.7,19.8 314.4,19.2
315.1,18.8 315.8,18.4 316.4,18.2 317.1,18.1 317.8,18.1 318.5,18.2 319.1,18.5 319.8,18.8 320.5,19.3 321.2,19.9 321.8,20.6 322.5,21.4 323.2,22.4 323.8,23.4 324.5,24.6 325.2,25.8
325.9,27.2 326.5,28.7 327.2,30.3 327.9,32.0 328.6,33.8 329.2,35.7 329.9,37.7 330.6,39.8 331.3,41.9 331.9,44.2 332.6,46.5 333.3,48.9 334.0,51.4 334.6,54.0 335.3,56.6 336.0,59.3
336.7,62.1 337.3,64.9 338.0,67.8 338.7,70.7 339.4,73.7 340.0,76.7 340.7,79.8 341.4,82.8 342.1,86.0 342.7,89.1 343.4,92.3 344.1,95.4 344.8,98.6 345.4,101.8 346.1,105.0 346.8,108.3
347.4,111.5 348.1,114.7 348.8,117.9 349.5,121.1 350.1,124.3 350.8,127.4 351.5,130.5 352.2,133.7 352.8,136.8 353.5,139.8 354.2,142.8 354.9,145.8 355.5,148.8 356.2,151.7 356.9,154.6 357.6,157.4
358.2,160.2 358.9,163.0 359.6,165.7 360.3,168.3 360.9,170.9 361.6,173.5 362.3,176.0 363.0,178.4 363.6,180.8 364.3,183.1 365.0,185.4 365.7,187.6 366.3,189.8 367.0,191.9 367.7,194.0 368.4,195.9
369.0,197.9 369.7,199.8 370.4,201.6 371.1,203.4 371.7,205.1 372.4,206.8 373.1,208.4 373.7,209.9 374.4,211.4 375.1,212.9 375.8,214.3 376.4,215.6 377.1,216.9 377.8,218.2 378.5,219.4 379.1,220.5
379.8,221.6 380.5,222.7 381.2,223.7 381.8,224.7 382.5,225.6 383.2,226.5 383.9,227.4 384.5,228.2 385.2,229.0 385.9,229.7 386.6,230.5 387.2,231.1 387.9,231.8 388.6,232.4 389.3,233.0 389.9,233.5
390.6,234.1 391.3,234.6 392.0,235.1 392.6,235.5 393.3,235.9 394.0,236.3 394.7,236.7 395.3,237.1 396.0,237.4 396.7,237.7 397.4,238.1 398.0,238.3 398.7,238.6 399.4,238.9 400.0,239.1 400.7,239.3
401.4,239.5 402.1,239.7 402.7,239.9 403.4,240.1 404.1,240.3 404.8,240.4 405.4,240.6 406.1,240.7 406.8,240.8 407.5,240.9 408.1,241.0 408.8,241.1 409.5,241.2 410.2,241.3 410.8,241.4 411.5,241.5
412.2,241.6 412.9,241.6 413.5,241.7 414.2,241.7 414.9,241.8 415.6,241.8 416.2,241.9 416.9,241.9 417.6,242.0 418.3,242.0 418.9,242.0 419.6,242.1 420.3,242.1 421.0,242.1 421.6,242.1 422.3,242.2
423.0,242.2 423.7,242.2 424.3,242.2 425.0,242.2 425.0,242.4 424.3,242.4 423.7,242.4 423.0,242.4 422.3,242.4 421.6,242.4 421.0,242.4 420.3,242.4 419.6,242.4 418.9,242.4 418.3,242.4 417.6,242.4
416.9,242.4 416.2,242.4 415.6,242.4 414.9,242.4 414.2,242.4 413.5,242.4 412.9,242.4 412.2,242.4 411.5,242.4 410.8,242.4 410.2,242.4 409.5,242.4 408.8,242.4 408.1,242.4 407.5,242.4 406.8,242.4
406.1,242.4 405.4,242.4 404.8,242.4 404.1,242.4 403.4,242.4 402.7,242.4 402.1,242.4 401.4,242.4 400.7,242.4 400.0,242.4 399.4,242.4 398.7,242.4 398.0,242.4 397.4,242.4 396.7,242.4 396.0,242.4
395.3,242.4 394.7,242.4 394.0,242.4 393.3,242.4 392.6,242.4 392.0,242.4 391.3,242.4 390.6,242.4 389.9,242.4 389.3,242.4 388.6,242.4 387.9,242.4 387.2,242.4 386.6,242.4 385.9,242.4 385.2,242.4
384.5,242.4 383.9,242.4 383.2,242.4 382.5,242.4 381.8,242.4 381.2,242.4 380.5,242.4 379.8,242.4 379.1,242.4 378.5,242.4 377.8,242.4 377.1,242.4 376.4,242.4 375.8,242.4 375.1,242.4 374.4,242.4
373.7,242.4 373.1,242.4 372.4,242.4 371.7,242.4 371.1,242.4 370.4,242.4 369.7,242.4 369.0,242.4 368.4,242.4 367.7,242.4 367.0,242.4 366.3,242.4 365.7,242.4 365.0,242.4 364.3,242.4 363.6,242.4
363.0,242.4 362.3,242.4 361.6,242.4 360.9,242.4 360.3,242.4 359.6,242.4 358.9,242.4 358.2,242.4 357.6,242.4 356.9,242.4 356.2,242.4 355.5,242.4 354.9,242.4 354.2,242.4 353.5,242.4 352.8,242.4
352.2,242.4 351.5,242.4 350.8,242.4 350.1,242.4 349.5,242.4 348.8,242.4 348.1,242.4 347.4,242.4 346.8,242.4 346.1,242.4 345.4,242.4 344.8,242.4 344.1,242.4 343.4,242.4 342.7,242.4 342.1,242.4
341.4,242.4 340.7,242.4 340.0,242.4 339.4,242.4 338.7,242.4 338.0,242.4 337.3,242.4 336.7,242.4 336.0,242.4 335.3,242.4 334.6,242.4 334.0,242.4 333.3,242.4 332.6,242.4 331.9,242.4 331.3,242.4
330.6,242.4 329.9,242.4 329.2,242.4 328.6,242.4 327.9,242.4 327.2,242.4 326.5,242.4 325.9,242.4 325.2,242.4 324.5,242.4 323.8,242.4 323.2,242.4 322.5,242.4 321.8,242.4 321.2,242.4 320.5,242.4
319.8,242.4 319.1,242.4 318.5,242.4 317.8,242.4 317.1,242.4 316.4,242.4 315.8,242.4 315.1,242.4 314.4,242.4 313.7,242.4 313.1,242.4 312.4,242.4 311.7,242.4 311.0,242.4 310.4,242.4 309.7,242.4
309.0,242.4 308.3,242.4 307.7,242.4 307.0,242.4 306.3,242.4 305.6,242.4 305.0,242.4 304.3,242.4 303.6,242.4 302.9,242.4 302.3,242.4 301.6,242.4 300.9,242.4 300.2,242.4 299.6,242.4 298.9,242.4
298.2,242.4 297.5,242.4 296.9,242.4 296.2,242.4 295.5,242.4 294.9,242.4 294.2,242.4 293.5,242.4 292.8,242.4 292.2,242.4 291.5,242.4 290.8,242.4 290.1,242.4 289.5,242.4 288.8,242.4 288.1,242.4
287.4,242.4 286.8,242.4 286.1,242.4 285.4,242.4 284.7,242.4 284.1,242.4 283.4,242.4 282.7,242.4 282.0,242.4 281.4,242.4 280.7,242.4 280.0,242.4 279.3,242.4 278.7,242.4 278.0,242.4 277.3,242.4
276.6,242.4 276.0,242.4 275.3,242.4 274.6,242.4 273.9,242.4 273.3,242.4 272.6,242.4 271.9,242.4 271.2,242.4 270.6,242.4 269.9,242.4 269.2,242.4 268.6,242.4 267.9,242.4 267.2,242.4 266.5,242.4
265.9,242.4 265.2,242.4 264.5,242.4 263.8,242.4 263.2,242.4 262.5,242.4 261.8,242.4 261.1,242.4 260.5,242.4 259.8,242.4 259.1,242.4 258.4,242.4 257.8,242.4 257.1,242.4 256.4,242.4 255.7,242.4
255.1,242.4 254.4,242.4 253.7,242.4 253.0,242.4 252.4,242.4 251.7,242.4 251.0,242.4 250.3,242.4 249.7,242.4 249.0,242.4 248.3,242.4 247.6,242.4 247.0,242.4 246.3,242.4 245.6,242.4 244.9,242.4
244.3,242.4 243.6,242.4 242.9,242.4 242.3,242.4 241.6,242.4 240.9,242.4 240.2,242.4 239.6,242.4 238.9,242.4 238.2,242.4 237.5,242.4 236.9,242.4 236.2,242.4 235.5,242.4 234.8,242.4 234.2,242.4
233.5,242.4 232.8,242.4 232.1,242.4 231.5,242.4 230.8,242.4 230.1,242.4 229.4,242.4 228.8,242.4 228.1,242.4 227.4,242.4 226.7,242.4 226.1,242.4 225.4,242.4 224.7,242.4 224.0,242.4 223.4,242.4
222.7,242.4 222.0,242.4 221.3,242.4 220.7,242.4 220.0,242.4 219.3,242.4 218.6,242.4 218.0,242.4 217.3,242.4 216.6,242.4 216.0,242.4 215.3,242.4 214.6,242.4 213.9,242.4 213.3,242.4 212.6,242.4
211.9,242.4 211.2,242.4 210.6,242.4 209.9,242.4 209.2,242.4 208.5,242.4 207.9,242.4 207.2,242.4 206.5,242.4 205.8,242.4 205.2,242.4 204.5,242.4 203.8,242.4 203.1,242.4 202.5,242.4 201.8,242.4
201.1,242.4 200.4,242.4 199.8,242.4 199.1,242.4 198.4,242.4 197.7,242.4 197.1,242.4 196.4,242.4 195.7,242.4 195.0,242.4 194.4,242.4 193.7,242.4 193.0,242.4 192.3,242.4 191.7,242.4 191.0,242.4
190.3,242.4 189.7,242.4 189.0,242.4 188.3,242.4 187.6,242.4 187.0,242.4 186.3,242.4 185.6,242.4 184.9,242.4 184.3,242.4 183.6,242.4 182.9,242.4 182.2,242.4 181.6,242.4 180.9,242.4 180.2,242.4
179.5,242.4 178.9,242.4 178.2,242.4 177.5,242.4 176.8,242.4 176.2,242.4 175.5,242.4 174.8,242.4 174.1,242.4 173.5,242.4 172.8,242.4 172.1,242.4 171.4,242.4 170.8,242.4 170.1,242.4 169.4,242.4
168.7,242.4 168.1,242.4 167.4,242.4 166.7,242.4 166.1,242.4 165.4,242.4 164.7,242.4 164.0,242.4 163.4,242.4 162.7,242.4 162.0,242.4 161.3,242.4 160.7,242.4 160.0,242.4 159.3,242.4 158.6,242.4
158.0,242.4 157.3,242.4 156.6,242.4 155.9,242.4 155.3,242.4 154.6,242.4 153.9,242.4 153.2,242.4 152.6,242.4 151.9,242.4 151.2,242.4 150.5,242.4 149.9,242.4 149.2,242.4 148.5,242.4 147.8,242.4
147.2,242.4 146.5,242.4 145.8,242.4 145.1,242.4 144.5,242.4 143.8,242.4 143.1,242.4 142.4,242.4 141.8,242.4 141.1,242.4 140.4,242.4 139.8,242.4 139.1,242.4 138.4,242.4 137.7,242.4 137.1,242.4
136.4,242.4 135.7,242.4 135.0,242.4 134.4,242.4 133.7,242.4 133.0,242.4 132.3,242.4 131.7,242.4 131.0,242.4 130.3,242.4 129.6,242.4 129.0,242.4 128.3,242.4 127.6,242.4 126.9,242.4 126.3,242.4
125.6,242.4 124.9,242.4 124.2,242.4 123.6,242.4 122.9,242.4 122.2,242.4 121.5,242.4 120.9,242.4 120.2,242.4 119.5,242.4 118.8,242.4 118.2,242.4 117.5,242.4 116.8,242.4 116.1,242.4 115.5,242.4
114.8,242.4 114.1,242.4 113.5,242.4 112.8,242.4 112.1,242.4 111.4,242.4 110.8,242.4 110.1,242.4 109.4,242.4 108.7,242.4 108.1,242.4 107.4,242.4 106.7,242.4 106.0,242.4 105.4,242.4 104.7,242.4
104.0,242.4 103.3,242.4 102.7,242.4 102.0,242.4 101.3,242.4 100.6,242.4 100.0,242.4 99.3,242.4 98.6,242.4 97.9,242.4 97.3,242.4 96.6,242.4 95.9,242.4 95.2,242.4 94.6,242.4 93.9,242.4
93.2,242.4 92.5,242.4 91.9,242.4 91.2,242.4 90.5,242.4 89.8,242.4 89.2,242.4 88.5,242.4 '/>
	</g>
</g>
	</g>
	<g id="gnuplot_plot_2" ><title>Mean</title>
<g fill="none" color="white" stroke="rgb( 31, 120, 180)" stroke-width="2.00" stroke-linecap="butt" stroke-linejoin="miter">
</g>
<g fill="none" color="black" stroke="currentColor" stroke-width="2.00" stroke-linecap="butt" stroke-linejoin="miter">
	<path stroke='rgb( 31, 120, 180)'  d='M283.2,242.4 L283.2,128.7  '/></g>
	</g>
<g fill="none" color="black" stroke="currentColor" stroke-width="2.00" stroke-linecap="butt" stroke-linejoin="miter">
</g>
<g fill="none" color="black" stroke="black" stroke-width="1.00" stroke-linecap="butt" stroke-linejoin="miter">
</g>
<g fill="none" color="black" stroke="currentColor" stroke-width="1.00" stroke-linecap="butt" stroke-linejoin="miter">
	<path stroke='black'  d='M88.5,18.1 L88.5,242.4 L425.0,242.4 L425.0,18.1 L88.5,18.1 Z  '/></g>
<g fill="none" color="black" stroke="currentColor" stroke-width="1.00" stroke-linecap="butt" stroke-linejoin="miter">
</g>
</g>
</svg>

