<?xml version="1.0" encoding="utf-8"  standalone="no"?>
<svg 
 viewBox="0 0 1280 720"
 xmlns="http://www.w3.org/2000/svg"
 xmlns:xlink="http://www.w3.org/1999/xlink"
>

<title>Gnuplot</title>
<desc>Produced by GNUPLOT 5.2 patchlevel 2 </desc>

<g id="gnuplot_canvas">

<rect x="0" y="0" width="1280" height="720" fill="none"/>
<defs>

	<circle id='gpDot' r='0.5' stroke-width='0.5'/>
	<path id='gpPt0' stroke-width='0.222' stroke='currentColor' d='M-1,0 h2 M0,-1 v2'/>
	<path id='gpPt1' stroke-width='0.222' stroke='currentColor' d='M-1,-1 L1,1 M1,-1 L-1,1'/>
	<path id='gpPt2' stroke-width='0.222' stroke='currentColor' d='M-1,0 L1,0 M0,-1 L0,1 M-1,-1 L1,1 M-1,1 L1,-1'/>
	<rect id='gpPt3' stroke-width='0.222' stroke='currentColor' x='-1' y='-1' width='2' height='2'/>
	<rect id='gpPt4' stroke-width='0.222' stroke='currentColor' fill='currentColor' x='-1' y='-1' width='2' height='2'/>
	<circle id='gpPt5' stroke-width='0.222' stroke='currentColor' cx='0' cy='0' r='1'/>
	<use xlink:href='#gpPt5' id='gpPt6' fill='currentColor' stroke='none'/>
	<path id='gpPt7' stroke-width='0.222' stroke='currentColor' d='M0,-1.33 L-1.33,0.67 L1.33,0.67 z'/>
	<use xlink:href='#gpPt7' id='gpPt8' fill='currentColor' stroke='none'/>
	<use xlink:href='#gpPt7' id='gpPt9' stroke='currentColor' transform='rotate(180)'/>
	<use xlink:href='#gpPt9' id='gpPt10' fill='currentColor' stroke='none'/>
	<use xlink:href='#gpPt3' id='gpPt11' stroke='currentColor' transform='rotate(45)'/>
	<use xlink:href='#gpPt11' id='gpPt12' fill='currentColor' stroke='none'/>
	<path id='gpPt13' stroke-width='0.222' stroke='currentColor' d='M0,1.330 L1.265,0.411 L0.782,-1.067 L-0.782,-1.076 L-1.265,0.411 z'/>
	<use xlink:href='#gpPt13' id='gpPt14' fill='currentColor' stroke='none'/>
	<filter id='textbox' filterUnits='objectBoundingBox' x='0' y='0' height='1' width='1'>
	  <feFlood flood-color='white' flood-opacity='1' result='bgnd'/>
	  <feComposite in='SourceGraphic' in2='bgnd' operator='atop'/>
	</filter>
	<filter id='greybox' filterUnits='objectBoundingBox' x='0' y='0' height='1' width='1'>
	  <feFlood flood-color='lightgrey' flood-opacity='1' result='grey'/>
	  <feComposite in='SourceGraphic' in2='grey' operator='atop'/>
	</filter>
</defs>
<g fill="none" color="white" stroke="currentColor" stroke-width="1.00" stroke-linecap="butt" stroke-linejoin="miter">
</g>
<g fill="none" color="black" stroke="currentColor" stroke-width="1.00" stroke-linecap="butt" stroke-linejoin="miter">
	<path stroke='black'  d='M105.1,662.4 L114.1,662.4  '/>	<g transform="translate(96.8,666.3)" stroke="none" fill="black" font-family="Helvetica" font-size="12.00"  text-anchor="end">
		<text><tspan font-family="Helvetica" > 0</tspan></text>
	</g>
</g>
<g fill="none" color="black" stroke="currentColor" stroke-width="1.00" stroke-linecap="butt" stroke-linejoin="miter">
	<path stroke='black'  d='M105.1,540.7 L114.1,540.7  '/>	<g transform="translate(96.8,544.6)" stroke="none" fill="black" font-family="Helvetica" font-size="12.00"  text-anchor="end">
		<text><tspan font-family="Helvetica" > 5x10</tspan><tspan font-family="Helvetica"  font-size="9.6" dy="-6.00px">-8</tspan><tspan font-size="12.0" dy="6.00"></tspan></text>
	</g>
</g>
<g fill="none" color="black" stroke="currentColor" stroke-width="1.00" stroke-linecap="butt" stroke-linejoin="miter">
	<path stroke='black'  d='M105.1,419.1 L114.1,419.1  '/>	<g transform="translate(96.8,423.0)" stroke="none" fill="black" font-family="Helvetica" font-size="12.00"  text-anchor="end">
		<text><tspan font-family="Helvetica" > 1x10</tspan><tspan font-family="Helvetica"  font-size="9.6" dy="-6.00px">-7</tspan><tspan font-size="12.0" dy="6.00"></tspan></text>
	</g>
</g>
<g fill="none" color="black" stroke="currentColor" stroke-width="1.00" stroke-linecap="butt" stroke-linejoin="miter">
	<path stroke='black'  d='M105.1,297.4 L114.1,297.4  '/>	<g transform="translate(96.8,301.3)" stroke="none" fill="black" font-family="Helvetica" font-size="12.00"  text-anchor="end">
		<text><tspan font-family="Helvetica" > 1.5x10</tspan><tspan font-family="Helvetica"  font-size="9.6" dy="-6.00px">-7</tspan><tspan font-size="12.0" dy="6.00"></tspan></text>
	</g>
</g>
<g fill="none" color="black" stroke="currentColor" stroke-width="1.00" stroke-linecap="butt" stroke-linejoin="miter">
	<path stroke='black'  d='M105.1,175.8 L114.1,175.8  '/>	<g transform="translate(96.8,179.7)" stroke="none" fill="black" font-family="Helvetica" font-size="12.00"  text-anchor="end">
		<text><tspan font-family="Helvetica" > 2x10</tspan><tspan font-family="Helvetica"  font-size="9.6" dy="-6.00px">-7</tspan><tspan font-size="12.0" dy="6.00"></tspan></text>
	</g>
</g>
<g fill="none" color="black" stroke="currentColor" stroke-width="1.00" stroke-linecap="butt" stroke-linejoin="miter">
	<path stroke='black'  d='M105.1,54.1 L114.1,54.1  '/>	<g transform="translate(96.8,58.0)" stroke="none" fill="black" font-family="Helvetica" font-size="12.00"  text-anchor="end">
		<text><tspan font-family="Helvetica" > 2.5x10</tspan><tspan font-family="Helvetica"  font-size="9.6" dy="-6.00px">-7</tspan><tspan font-size="12.0" dy="6.00"></tspan></text>
	</g>
</g>
<g fill="none" color="black" stroke="currentColor" stroke-width="1.00" stroke-linecap="butt" stroke-linejoin="miter">
	<path stroke='black'  d='M233.0,662.4 L233.0,653.4  '/>	<g transform="translate(233.0,684.3)" stroke="none" fill="black" font-family="Helvetica" font-size="12.00"  text-anchor="middle">
		<text><tspan font-family="Helvetica" > 4x10</tspan><tspan font-family="Helvetica"  font-size="9.6" dy="-6.00px">6</tspan><tspan font-size="12.0" dy="6.00"></tspan></text>
	</g>
</g>
<g fill="none" color="black" stroke="currentColor" stroke-width="1.00" stroke-linecap="butt" stroke-linejoin="miter">
	<path stroke='black'  d='M365.8,662.4 L365.8,653.4  '/>	<g transform="translate(365.8,684.3)" stroke="none" fill="black" font-family="Helvetica" font-size="12.00"  text-anchor="middle">
		<text><tspan font-family="Helvetica" > 6x10</tspan><tspan font-family="Helvetica"  font-size="9.6" dy="-6.00px">6</tspan><tspan font-size="12.0" dy="6.00"></tspan></text>
	</g>
</g>
<g fill="none" color="black" stroke="currentColor" stroke-width="1.00" stroke-linecap="butt" stroke-linejoin="miter">
	<path stroke='black'  d='M498.6,662.4 L498.6,653.4  '/>	<g transform="translate(498.6,684.3)" stroke="none" fill="black" font-family="Helvetica" font-size="12.00"  text-anchor="middle">
		<text><tspan font-family="Helvetica" > 8x10</tspan><tspan font-family="Helvetica"  font-size="9.6" dy="-6.00px">6</tspan><tspan font-size="12.0" dy="6.00"></tspan></text>
	</g>
</g>
<g fill="none" color="black" stroke="currentColor" stroke-width="1.00" stroke-linecap="butt" stroke-linejoin="miter">
	<path stroke='black'  d='M631.4,662.4 L631.4,653.4  '/>	<g transform="translate(631.4,684.3)" stroke="none" fill="black" font-family="Helvetica" font-size="12.00"  text-anchor="middle">
		<text><tspan font-family="Helvetica" > 1x10</tspan><tspan font-family="Helvetica"  font-size="9.6" dy="-6.00px">7</tspan><tspan font-size="12.0" dy="6.00"></tspan></text>
	</g>
</g>
<g fill="none" color="black" stroke="currentColor" stroke-width="1.00" stroke-linecap="butt" stroke-linejoin="miter">
	<path stroke='black'  d='M764.2,662.4 L764.2,653.4  '/>	<g transform="translate(764.2,684.3)" stroke="none" fill="black" font-family="Helvetica" font-size="12.00"  text-anchor="middle">
		<text><tspan font-family="Helvetica" > 1.2x10</tspan><tspan font-family="Helvetica"  font-size="9.6" dy="-6.00px">7</tspan><tspan font-size="12.0" dy="6.00"></tspan></text>
	</g>
</g>
<g fill="none" color="black" stroke="currentColor" stroke-width="1.00" stroke-linecap="butt" stroke-linejoin="miter">
	<path stroke='black'  d='M897.0,662.4 L897.0,653.4  '/>	<g transform="translate(897.0,684.3)" stroke="none" fill="black" font-family="Helvetica" font-size="12.00"  text-anchor="middle">
		<text><tspan font-family="Helvetica" > 1.4x10</tspan><tspan font-family="Helvetica"  font-size="9.6" dy="-6.00px">7</tspan><tspan font-size="12.0" dy="6.00"></tspan></text>
	</g>
</g>
<g fill="none" color="black" stroke="currentColor" stroke-width="1.00" stroke-linecap="butt" stroke-linejoin="miter">
</g>
<g fill="none" color="black" stroke="currentColor" stroke-width="1.00" stroke-linecap="butt" stroke-linejoin="miter">
	<path stroke='black'  d='M105.1,54.1 L105.1,662.4 L1013.6,662.4 L1013.6,54.1 L105.1,54.1 Z  '/></g>
<g fill="none" color="black" stroke="currentColor" stroke-width="1.00" stroke-linecap="butt" stroke-linejoin="miter">
	<g transform="translate(16.3,358.3) rotate(270)" stroke="none" fill="black" font-family="Helvetica" font-size="12.00"  text-anchor="middle">
		<text><tspan font-family="Helvetica" >Density (a.u.)</tspan></text>
	</g>
</g>
<g fill="none" color="black" stroke="currentColor" stroke-width="1.00" stroke-linecap="butt" stroke-linejoin="miter">
	<g transform="translate(559.3,711.3)" stroke="none" fill="black" font-family="Helvetica" font-size="12.00"  text-anchor="middle">
		<text><tspan font-family="Helvetica" >Average time (cycles)</tspan></text>
	</g>
</g>
<g fill="none" color="black" stroke="currentColor" stroke-width="1.00" stroke-linecap="butt" stroke-linejoin="miter">
	<g transform="translate(559.3,31.0)" stroke="none" fill="black" font-family="Helvetica" font-size="12.00"  text-anchor="middle">
		<text><tspan font-family="Helvetica" >non_nested_compare/initial calculation/18: MAD</tspan></text>
	</g>
</g>
	<g id="gnuplot_plot_1" ><title>Bootstrap distribution</title>
<g fill="none" color="white" stroke="black" stroke-width="2.00" stroke-linecap="butt" stroke-linejoin="miter">
</g>
<g fill="none" color="black" stroke="currentColor" stroke-width="2.00" stroke-linecap="butt" stroke-linejoin="miter">
	<g transform="translate(1089.0,67.0)" stroke="none" fill="black" font-family="Helvetica" font-size="12.00"  text-anchor="start">
		<text><tspan font-family="Helvetica" >Bootstrap distribution</tspan></text>
	</g>
</g>
<g fill="none" color="black" stroke="currentColor" stroke-width="2.00" stroke-linecap="butt" stroke-linejoin="miter">
	<path stroke='rgb( 31, 120, 180)'  d='M1038.5,63.1 L1080.7,63.1 M105.1,653.4 L106.9,652.3 L108.7,651.1 L110.6,649.8 L112.4,648.4 L114.2,647.0
		L116.0,645.4 L117.8,643.8 L119.7,642.0 L121.5,640.2 L123.3,638.3 L125.1,636.4 L126.9,634.4 L128.8,632.3
		L130.6,630.2 L132.4,628.1 L134.2,625.9 L136.1,623.7 L137.9,621.5 L139.7,619.3 L141.5,617.0 L143.3,614.7
		L145.2,612.4 L147.0,610.1 L148.8,607.7 L150.6,605.2 L152.4,602.7 L154.3,600.0 L156.1,597.3 L157.9,594.5
		L159.7,591.5 L161.5,588.4 L163.4,585.2 L165.2,581.7 L167.0,578.1 L168.8,574.4 L170.6,570.4 L172.5,566.2
		L174.3,561.9 L176.1,557.4 L177.9,552.7 L179.7,547.8 L181.6,542.8 L183.4,537.7 L185.2,532.5 L187.0,527.3
		L188.8,522.0 L190.7,516.7 L192.5,511.4 L194.3,506.2 L196.1,501.1 L198.0,496.1 L199.8,491.2 L201.6,486.6
		L203.4,482.2 L205.2,478.0 L207.1,474.2 L208.9,470.6 L210.7,467.3 L212.5,464.4 L214.3,461.8 L216.2,459.5
		L218.0,457.5 L219.8,455.8 L221.6,454.4 L223.4,453.3 L225.3,452.4 L227.1,451.8 L228.9,451.3 L230.7,451.0
		L232.5,450.8 L234.4,450.7 L236.2,450.6 L238.0,450.7 L239.8,450.7 L241.6,450.8 L243.5,450.9 L245.3,451.0
		L247.1,451.0 L248.9,451.0 L250.8,450.9 L252.6,450.8 L254.4,450.6 L256.2,450.3 L258.0,449.8 L259.9,449.3
		L261.7,448.7 L263.5,447.9 L265.3,447.0 L267.1,445.9 L269.0,444.7 L270.8,443.4 L272.6,441.9 L274.4,440.3
		L276.2,438.5 L278.1,436.7 L279.9,434.8 L281.7,432.8 L283.5,430.7 L285.3,428.6 L287.2,426.5 L289.0,424.4
		L290.8,422.3 L292.6,420.2 L294.4,418.1 L296.3,416.1 L298.1,414.0 L299.9,411.9 L301.7,409.7 L303.5,407.6
		L305.4,405.3 L307.2,402.9 L309.0,400.4 L310.8,397.7 L312.7,394.8 L314.5,391.8 L316.3,388.4 L318.1,384.8
		L319.9,380.9 L321.8,376.7 L323.6,372.2 L325.4,367.4 L327.2,362.3 L329.0,356.9 L330.9,351.2 L332.7,345.2
		L334.5,338.9 L336.3,332.4 L338.1,325.7 L340.0,318.9 L341.8,311.8 L343.6,304.6 L345.4,297.3 L347.2,289.9
		L349.1,282.4 L350.9,274.9 L352.7,267.3 L354.5,259.6 L356.3,251.9 L358.2,244.2 L360.0,236.5 L361.8,228.7
		L363.6,220.9 L365.5,213.2 L367.3,205.4 L369.1,197.8 L370.9,190.1 L372.7,182.6 L374.6,175.2 L376.4,168.0
		L378.2,161.1 L380.0,154.4 L381.8,148.0 L383.7,142.0 L385.5,136.5 L387.3,131.5 L389.1,127.0 L390.9,123.1
		L392.8,119.8 L394.6,117.3 L396.4,115.4 L398.2,114.3 L400.0,113.9 L401.9,114.2 L403.7,115.2 L405.5,116.9
		L407.3,119.3 L409.1,122.3 L411.0,125.8 L412.8,129.9 L414.6,134.4 L416.4,139.4 L418.3,144.7 L420.1,150.4
		L421.9,156.4 L423.7,162.6 L425.5,169.1 L427.4,175.7 L429.2,182.6 L431.0,189.6 L432.8,196.9 L434.6,204.3
		L436.5,211.9 L438.3,219.7 L440.1,227.7 L441.9,235.9 L443.7,244.3 L445.6,252.9 L447.4,261.7 L449.2,270.7
		L451.0,279.8 L452.8,289.0 L454.7,298.4 L456.5,307.7 L458.3,317.1 L460.1,326.5 L461.9,335.8 L463.8,344.9
		L465.6,353.9 L467.4,362.7 L469.2,371.2 L471.0,379.4 L472.9,387.3 L474.7,394.8 L476.5,401.9 L478.3,408.6
		L480.2,414.9 L482.0,420.8 L483.8,426.2 L485.6,431.2 L487.4,435.8 L489.3,440.0 L491.1,443.8 L492.9,447.2
		L494.7,450.3 L496.5,453.2 L498.4,455.7 L500.2,458.1 L502.0,460.2 L503.8,462.2 L505.6,464.1 L507.5,465.9
		L509.3,467.7 L511.1,469.4 L512.9,471.2 L514.7,472.9 L516.6,474.7 L518.4,476.6 L520.2,478.5 L522.0,480.5
		L523.8,482.5 L525.7,484.6 L527.5,486.7 L529.3,488.9 L531.1,491.1 L533.0,493.3 L534.8,495.5 L536.6,497.7
		L538.4,499.9 L540.2,501.9 L542.1,503.9 L543.9,505.7 L545.7,507.5 L547.5,509.1 L549.3,510.5 L551.2,511.7
		L553.0,512.8 L554.8,513.7 L556.6,514.4 L558.4,514.9 L560.3,515.2 L562.1,515.3 L563.9,515.3 L565.7,515.1
		L567.5,514.7 L569.4,514.2 L571.2,513.6 L573.0,512.9 L574.8,512.1 L576.6,511.3 L578.5,510.4 L580.3,509.5
		L582.1,508.7 L583.9,507.8 L585.7,507.0 L587.6,506.2 L589.4,505.5 L591.2,504.9 L593.0,504.3 L594.9,503.9
		L596.7,503.6 L598.5,503.3 L600.3,503.2 L602.1,503.1 L604.0,503.2 L605.8,503.3 L607.6,503.5 L609.4,503.7
		L611.2,504.0 L613.1,504.3 L614.9,504.6 L616.7,504.9 L618.5,505.2 L620.3,505.4 L622.2,505.6 L624.0,505.7
		L625.8,505.8 L627.6,505.8 L629.4,505.7 L631.3,505.6 L633.1,505.4 L634.9,505.2 L636.7,505.0 L638.5,504.7
		L640.4,504.5 L642.2,504.2 L644.0,504.0 L645.8,503.8 L647.7,503.7 L649.5,503.7 L651.3,503.7 L653.1,503.8
		L654.9,504.0 L656.8,504.4 L658.6,504.8 L660.4,505.3 L662.2,506.0 L664.0,506.7 L665.9,507.5 L667.7,508.4
		L669.5,509.4 L671.3,510.5 L673.1,511.6 L675.0,512.8 L676.8,514.0 L678.6,515.2 L680.4,516.4 L682.2,517.7
		L684.1,519.0 L685.9,520.2 L687.7,521.5 L689.5,522.7 L691.3,523.9 L693.2,525.1 L695.0,526.3 L696.8,527.5
		L698.6,528.6 L700.4,529.7 L702.3,530.7 L704.1,531.7 L705.9,532.7 L707.7,533.6 L709.6,534.4 L711.4,535.2
		L713.2,535.9 L715.0,536.5 L716.8,537.0 L718.7,537.5 L720.5,537.9 L722.3,538.1 L724.1,538.3 L725.9,538.4
		L727.8,538.4 L729.6,538.4 L731.4,538.3 L733.2,538.1 L735.0,537.9 L736.9,537.6 L738.7,537.4 L740.5,537.1
		L742.3,536.8 L744.1,536.5 L746.0,536.3 L747.8,536.0 L749.6,535.8 L751.4,535.7 L753.2,535.5 L755.1,535.4
		L756.9,535.4 L758.7,535.4 L760.5,535.4 L762.4,535.5 L764.2,535.7 L766.0,535.9 L767.8,536.1 L769.6,536.5
		L771.5,536.9 L773.3,537.4 L775.1,538.0 L776.9,538.7 L778.7,539.4 L780.6,540.3 L782.4,541.3 L784.2,542.4
		L786.0,543.6 L787.8,545.0 L789.7,546.4 L791.5,548.0 L793.3,549.6 L795.1,551.3 L796.9,553.2 L798.8,555.1
		L800.6,557.0 L802.4,559.0 L804.2,561.1 L806.0,563.2 L807.9,565.3 L809.7,567.4 L811.5,569.4 L813.3,571.5
		L815.2,573.6 L817.0,575.6 L818.8,577.6 L820.6,579.6 L822.4,581.5 L824.3,583.4 L826.1,585.3 L827.9,587.1
		L829.7,588.8 L831.5,590.6 L833.4,592.2 L835.2,593.8 L837.0,595.4 L838.8,596.9 L840.6,598.3 L842.5,599.7
		L844.3,601.0 L846.1,602.3 L847.9,603.5 L849.7,604.6 L851.6,605.7 L853.4,606.7 L855.2,607.6 L857.0,608.5
		L858.8,609.3 L860.7,610.1 L862.5,610.8 L864.3,611.4 L866.1,612.1 L867.9,612.7 L869.8,613.2 L871.6,613.8
		L873.4,614.3 L875.2,614.8 L877.1,615.2 L878.9,615.7 L880.7,616.1 L882.5,616.6 L884.3,617.0 L886.2,617.4
		L888.0,617.8 L889.8,618.2 L891.6,618.6 L893.4,619.0 L895.3,619.4 L897.1,619.7 L898.9,620.1 L900.7,620.4
		L902.5,620.7 L904.4,621.0 L906.2,621.3 L908.0,621.6 L909.8,621.8 L911.6,622.1 L913.5,622.3 L915.3,622.5
		L917.1,622.7 L918.9,622.9 L920.7,623.0 L922.6,623.2 L924.4,623.3 L926.2,623.4 L928.0,623.4 L929.9,623.5
		L931.7,623.6 L933.5,623.6 L935.3,623.6 L937.1,623.6 L939.0,623.6 L940.8,623.6 L942.6,623.7 L944.4,623.7
		L946.2,623.7 L948.1,623.7 L949.9,623.8 L951.7,623.8 L953.5,623.9 L955.3,624.0 L957.2,624.1 L959.0,624.2
		L960.8,624.4 L962.6,624.5 L964.4,624.7 L966.3,624.9 L968.1,625.1 L969.9,625.3 L971.7,625.6 L973.5,625.8
		L975.4,626.1 L977.2,626.4 L979.0,626.7 L980.8,627.0 L982.6,627.3 L984.5,627.6 L986.3,627.9 L988.1,628.2
		L989.9,628.5 L991.8,628.9 L993.6,629.2 L995.4,629.6 L997.2,630.0 L999.0,630.3 L1000.9,630.7 L1002.7,631.2
		L1004.5,631.6 L1006.3,632.1 L1008.1,632.5 L1010.0,633.0 L1011.8,633.6 L1013.6,634.1  '/></g>
	</g>
	<g id="gnuplot_plot_2" ><title>Confidence interval</title>
<g fill="none" color="white" stroke="rgb( 31, 120, 180)" stroke-width="1.00" stroke-linecap="butt" stroke-linejoin="miter">
</g>
<g fill="none" color="black" stroke="currentColor" stroke-width="1.00" stroke-linecap="butt" stroke-linejoin="miter">
	<g transform="translate(1089.0,85.0)" stroke="none" fill="black" font-family="Helvetica" font-size="12.00"  text-anchor="start">
		<text><tspan font-family="Helvetica" >Confidence interval</tspan></text>
	</g>
</g>
<g fill="none" color="black" stroke="currentColor" stroke-width="1.00" stroke-linecap="butt" stroke-linejoin="miter">
	<g stroke='none' shape-rendering='crispEdges'>
		<polygon fill = 'rgb( 31, 120, 180)' fill-opacity = '0.250000' points = '1038.5,85.6 1080.7,85.6 1080.7,76.6 1038.5,76.6 '/>
		<polygon fill = 'rgb( 31, 120, 180)' fill-opacity = '0.250000' points = '188.8,522.0 190.7,516.7 192.5,511.4 194.3,506.2 196.1,501.1 198.0,496.1 199.8,491.2 201.6,486.6 203.4,482.2 205.2,478.0 207.1,474.2 208.9,470.6 210.7,467.3 212.5,464.4 214.3,461.8 216.2,459.5
218.0,457.5 219.8,455.8 221.6,454.4 223.4,453.3 225.3,452.4 227.1,451.8 228.9,451.3 230.7,451.0 232.5,450.8 234.4,450.7 236.2,450.6 238.0,450.7 239.8,450.7 241.6,450.8 243.5,450.9 245.3,451.0
247.1,451.0 248.9,451.0 250.8,450.9 252.6,450.8 254.4,450.6 256.2,450.3 258.0,449.8 259.9,449.3 261.7,448.7 263.5,447.9 265.3,447.0 267.1,445.9 269.0,444.7 270.8,443.4 272.6,441.9 274.4,440.3
276.2,438.5 278.1,436.7 279.9,434.8 281.7,432.8 283.5,430.7 285.3,428.6 287.2,426.5 289.0,424.4 290.8,422.3 292.6,420.2 294.4,418.1 296.3,416.1 298.1,414.0 299.9,411.9 301.7,409.7 303.5,407.6
305.4,405.3 307.2,402.9 309.0,400.4 310.8,397.7 312.7,394.8 314.5,391.8 316.3,388.4 318.1,384.8 319.9,380.9 321.8,376.7 323.6,372.2 325.4,367.4 327.2,362.3 329.0,356.9 330.9,351.2 332.7,345.2
334.5,338.9 336.3,332.4 338.1,325.7 340.0,318.9 341.8,311.8 343.6,304.6 345.4,297.3 347.2,289.9 349.1,282.4 350.9,274.9 352.7,267.3 354.5,259.6 356.3,251.9 358.2,244.2 360.0,236.5 361.8,228.7
363.6,220.9 365.5,213.2 367.3,205.4 369.1,197.8 370.9,190.1 372.7,182.6 374.6,175.2 376.4,168.0 378.2,161.1 380.0,154.4 381.8,148.0 383.7,142.0 385.5,136.5 387.3,131.5 389.1,127.0 390.9,123.1
392.8,119.8 394.6,117.3 396.4,115.4 398.2,114.3 400.0,113.9 401.9,114.2 403.7,115.2 405.5,116.9 407.3,119.3 409.1,122.3 411.0,125.8 412.8,129.9 414.6,134.4 416.4,139.4 418.3,144.7 420.1,150.4
421.9,156.4 423.7,162.6 425.5,169.1 427.4,175.7 429.2,182.6 431.0,189.6 432.8,196.9 434.6,204.3 436.5,211.9 438.3,219.7 440.1,227.7 441.9,235.9 443.7,244.3 445.6,252.9 447.4,261.7 449.2,270.7
451.0,279.8 452.8,289.0 454.7,298.4 456.5,307.7 458.3,317.1 460.1,326.5 461.9,335.8 463.8,344.9 465.6,353.9 467.4,362.7 469.2,371.2 471.0,379.4 472.9,387.3 474.7,394.8 476.5,401.9 478.3,408.6
480.2,414.9 482.0,420.8 483.8,426.2 485.6,431.2 487.4,435.8 489.3,440.0 491.1,443.8 492.9,447.2 494.7,450.3 496.5,453.2 498.4,455.7 500.2,458.1 502.0,460.2 503.8,462.2 505.6,464.1 507.5,465.9
509.3,467.7 511.1,469.4 512.9,471.2 514.7,472.9 516.6,474.7 518.4,476.6 520.2,478.5 522.0,480.5 523.8,482.5 525.7,484.6 527.5,486.7 529.3,488.9 531.1,491.1 533.0,493.3 534.8,495.5 536.6,497.7
538.4,499.9 540.2,501.9 542.1,503.9 543.9,505.7 545.7,507.5 547.5,509.1 549.3,510.5 551.2,511.7 553.0,512.8 554.8,513.7 556.6,514.4 558.4,514.9 560.3,515.2 562.1,515.3 563.9,515.3 565.7,515.1
567.5,514.7 569.4,514.2 571.2,513.6 573.0,512.9 574.8,512.1 576.6,511.3 578.5,510.4 580.3,509.5 582.1,508.7 583.9,507.8 585.7,507.0 587.6,506.2 589.4,505.5 591.2,504.9 593.0,504.3 594.9,503.9
596.7,503.6 598.5,503.3 600.3,503.2 602.1,503.1 604.0,503.2 605.8,503.3 607.6,503.5 609.4,503.7 611.2,504.0 613.1,504.3 614.9,504.6 616.7,504.9 618.5,505.2 620.3,505.4 622.2,505.6 624.0,505.7
625.8,505.8 627.6,505.8 629.4,505.7 631.3,505.6 633.1,505.4 634.9,505.2 636.7,505.0 638.5,504.7 640.4,504.5 642.2,504.2 644.0,504.0 645.8,503.8 647.7,503.7 649.5,503.7 651.3,503.7 653.1,503.8
654.9,504.0 656.8,504.4 658.6,504.8 660.4,505.3 662.2,506.0 664.0,506.7 665.9,507.5 667.7,508.4 669.5,509.4 671.3,510.5 673.1,511.6 675.0,512.8 676.8,514.0 678.6,515.2 680.4,516.4 682.2,517.7
684.1,519.0 685.9,520.2 687.7,521.5 689.5,522.7 691.3,523.9 693.2,525.1 695.0,526.3 696.8,527.5 698.6,528.6 700.4,529.7 702.3,530.7 704.1,531.7 705.9,532.7 707.7,533.6 709.6,534.4 711.4,535.2
713.2,535.9 715.0,536.5 716.8,537.0 718.7,537.5 720.5,537.9 722.3,538.1 724.1,538.3 725.9,538.4 727.8,538.4 729.6,538.4 731.4,538.3 733.2,538.1 735.0,537.9 736.9,537.6 738.7,537.4 740.5,537.1
742.3,536.8 744.1,536.5 746.0,536.3 747.8,536.0 749.6,535.8 751.4,535.7 753.2,535.5 755.1,535.4 756.9,535.4 758.7,535.4 760.5,535.4 762.4,535.5 764.2,535.7 766.0,535.9 767.8,536.1 769.6,536.5
771.5,536.9 773.3,537.4 775.1,538.0 776.9,538.7 778.7,539.4 780.6,540.3 782.4,541.3 784.2,542.4 786.0,543.6 787.8,545.0 789.7,546.4 791.5,548.0 793.3,549.6 795.1,551.3 796.9,553.2 798.8,555.1
800.6,557.0 802.4,559.0 804.2,561.1 806.0,563.2 807.9,565.3 809.7,567.4 811.5,569.4 813.3,571.5 815.2,573.6 817.0,575.6 818.8,577.6 820.6,579.6 822.4,581.5 824.3,583.4 826.1,585.3 827.9,587.1
829.7,588.8 831.5,590.6 833.4,592.2 835.2,593.8 837.0,595.4 838.8,596.9 840.6,598.3 842.5,599.7 844.3,601.0 846.1,602.3 847.9,603.5 849.7,604.6 851.6,605.7 853.4,606.7 855.2,607.6 857.0,608.5
858.8,609.3 860.7,610.1 862.5,610.8 864.3,611.4 866.1,612.1 867.9,612.7 869.8,613.2 871.6,613.8 873.4,614.3 875.2,614.8 877.1,615.2 878.9,615.7 880.7,616.1 882.5,616.6 884.3,617.0 886.2,617.4
888.0,617.8 889.8,618.2 891.6,618.6 893.4,619.0 895.3,619.4 897.1,619.7 898.9,620.1 900.7,620.4 902.5,620.7 904.4,621.0 906.2,621.3 908.0,621.6 909.8,621.8 911.6,622.1 913.5,622.3 915.3,622.5
917.1,622.7 918.9,622.9 920.7,623.0 922.6,623.2 924.4,623.3 926.2,623.4 928.0,623.4 928.0,662.4 926.2,662.4 924.4,662.4 922.6,662.4 920.7,662.4 918.9,662.4 917.1,662.4 915.3,662.4 913.5,662.4
911.6,662.4 909.8,662.4 908.0,662.4 906.2,662.4 904.4,662.4 902.5,662.4 900.7,662.4 898.9,662.4 897.1,662.4 895.3,662.4 893.4,662.4 891.6,662.4 889.8,662.4 888.0,662.4 886.2,662.4 884.3,662.4
882.5,662.4 880.7,662.4 878.9,662.4 877.1,662.4 875.2,662.4 873.4,662.4 871.6,662.4 869.8,662.4 867.9,662.4 866.1,662.4 864.3,662.4 862.5,662.4 860.7,662.4 858.8,662.4 857.0,662.4 855.2,662.4
853.4,662.4 851.6,662.4 849.7,662.4 847.9,662.4 846.1,662.4 844.3,662.4 842.5,662.4 840.6,662.4 838.8,662.4 837.0,662.4 835.2,662.4 833.4,662.4 831.5,662.4 829.7,662.4 827.9,662.4 826.1,662.4
824.3,662.4 822.4,662.4 820.6,662.4 818.8,662.4 817.0,662.4 815.2,662.4 813.3,662.4 811.5,662.4 809.7,662.4 807.9,662.4 806.0,662.4 804.2,662.4 802.4,662.4 800.6,662.4 798.8,662.4 796.9,662.4
795.1,662.4 793.3,662.4 791.5,662.4 789.7,662.4 787.8,662.4 786.0,662.4 784.2,662.4 782.4,662.4 780.6,662.4 778.7,662.4 776.9,662.4 775.1,662.4 773.3,662.4 771.5,662.4 769.6,662.4 767.8,662.4
766.0,662.4 764.2,662.4 762.4,662.4 760.5,662.4 758.7,662.4 756.9,662.4 755.1,662.4 753.2,662.4 751.4,662.4 749.6,662.4 747.8,662.4 746.0,662.4 744.1,662.4 742.3,662.4 740.5,662.4 738.7,662.4
736.9,662.4 735.0,662.4 733.2,662.4 731.4,662.4 729.6,662.4 727.8,662.4 725.9,662.4 724.1,662.4 722.3,662.4 720.5,662.4 718.7,662.4 716.8,662.4 715.0,662.4 713.2,662.4 711.4,662.4 709.6,662.4
707.7,662.4 705.9,662.4 704.1,662.4 702.3,662.4 700.4,662.4 698.6,662.4 696.8,662.4 695.0,662.4 693.2,662.4 691.3,662.4 689.5,662.4 687.7,662.4 685.9,662.4 684.1,662.4 682.2,662.4 680.4,662.4
678.6,662.4 676.8,662.4 675.0,662.4 673.1,662.4 671.3,662.4 669.5,662.4 667.7,662.4 665.9,662.4 664.0,662.4 662.2,662.4 660.4,662.4 658.6,662.4 656.8,662.4 654.9,662.4 653.1,662.4 651.3,662.4
649.5,662.4 647.7,662.4 645.8,662.4 644.0,662.4 642.2,662.4 640.4,662.4 638.5,662.4 636.7,662.4 634.9,662.4 633.1,662.4 631.3,662.4 629.4,662.4 627.6,662.4 625.8,662.4 624.0,662.4 622.2,662.4
620.3,662.4 618.5,662.4 616.7,662.4 614.9,662.4 613.1,662.4 611.2,662.4 609.4,662.4 607.6,662.4 605.8,662.4 604.0,662.4 602.1,662.4 600.3,662.4 598.5,662.4 596.7,662.4 594.9,662.4 593.0,662.4
591.2,662.4 589.4,662.4 587.6,662.4 585.7,662.4 583.9,662.4 582.1,662.4 580.3,662.4 578.5,662.4 576.6,662.4 574.8,662.4 573.0,662.4 571.2,662.4 569.4,662.4 567.5,662.4 565.7,662.4 563.9,662.4
562.1,662.4 560.3,662.4 558.4,662.4 556.6,662.4 554.8,662.4 553.0,662.4 551.2,662.4 549.3,662.4 547.5,662.4 545.7,662.4 543.9,662.4 542.1,662.4 540.2,662.4 538.4,662.4 536.6,662.4 534.8,662.4
533.0,662.4 531.1,662.4 529.3,662.4 527.5,662.4 525.7,662.4 523.8,662.4 522.0,662.4 520.2,662.4 518.4,662.4 516.6,662.4 514.7,662.4 512.9,662.4 511.1,662.4 509.3,662.4 507.5,662.4 505.6,662.4
503.8,662.4 502.0,662.4 500.2,662.4 498.4,662.4 496.5,662.4 494.7,662.4 492.9,662.4 491.1,662.4 489.3,662.4 487.4,662.4 485.6,662.4 483.8,662.4 482.0,662.4 480.2,662.4 478.3,662.4 476.5,662.4
474.7,662.4 472.9,662.4 471.0,662.4 469.2,662.4 467.4,662.4 465.6,662.4 463.8,662.4 461.9,662.4 460.1,662.4 458.3,662.4 456.5,662.4 454.7,662.4 452.8,662.4 451.0,662.4 449.2,662.4 447.4,662.4
445.6,662.4 443.7,662.4 441.9,662.4 440.1,662.4 438.3,662.4 436.5,662.4 434.6,662.4 432.8,662.4 431.0,662.4 429.2,662.4 427.4,662.4 425.5,662.4 423.7,662.4 421.9,662.4 420.1,662.4 418.3,662.4
416.4,662.4 414.6,662.4 412.8,662.4 411.0,662.4 409.1,662.4 407.3,662.4 405.5,662.4 403.7,662.4 401.9,662.4 400.0,662.4 398.2,662.4 396.4,662.4 394.6,662.4 392.8,662.4 390.9,662.4 389.1,662.4
387.3,662.4 385.5,662.4 383.7,662.4 381.8,662.4 380.0,662.4 378.2,662.4 376.4,662.4 374.6,662.4 372.7,662.4 370.9,662.4 369.1,662.4 367.3,662.4 365.5,662.4 363.6,662.4 361.8,662.4 360.0,662.4
358.2,662.4 356.3,662.4 354.5,662.4 352.7,662.4 350.9,662.4 349.1,662.4 347.2,662.4 345.4,662.4 343.6,662.4 341.8,662.4 340.0,662.4 338.1,662.4 336.3,662.4 334.5,662.4 332.7,662.4 330.9,662.4
329.0,662.4 327.2,662.4 325.4,662.4 323.6,662.4 321.8,662.4 319.9,662.4 318.1,662.4 316.3,662.4 314.5,662.4 312.7,662.4 310.8,662.4 309.0,662.4 307.2,662.4 305.4,662.4 303.5,662.4 301.7,662.4
299.9,662.4 298.1,662.4 296.3,662.4 294.4,662.4 292.6,662.4 290.8,662.4 289.0,662.4 287.2,662.4 285.3,662.4 283.5,662.4 281.7,662.4 279.9,662.4 278.1,662.4 276.2,662.4 274.4,662.4 272.6,662.4
270.8,662.4 269.0,662.4 267.1,662.4 265.3,662.4 263.5,662.4 261.7,662.4 259.9,662.4 258.0,662.4 256.2,662.4 254.4,662.4 252.6,662.4 250.8,662.4 248.9,662.4 247.1,662.4 245.3,662.4 243.5,662.4
241.6,662.4 239.8,662.4 238.0,662.4 236.2,662.4 234.4,662.4 232.5,662.4 230.7,662.4 228.9,662.4 227.1,662.4 225.3,662.4 223.4,662.4 221.6,662.4 219.8,662.4 218.0,662.4 216.2,662.4 214.3,662.4
212.5,662.4 210.7,662.4 208.9,662.4 207.1,662.4 205.2,662.4 203.4,662.4 201.6,662.4 199.8,662.4 198.0,662.4 196.1,662.4 194.3,662.4 192.5,662.4 190.7,662.4 188.8,662.4 '/>
	</g>
</g>
	</g>
	<g id="gnuplot_plot_3" ><title>Point estimate</title>
<g fill="none" color="white" stroke="rgb( 31, 120, 180)" stroke-width="2.00" stroke-linecap="butt" stroke-linejoin="miter">
</g>
<g fill="none" color="black" stroke="currentColor" stroke-width="2.00" stroke-linecap="butt" stroke-linejoin="miter">
	<g transform="translate(1089.0,103.0)" stroke="none" fill="black" font-family="Helvetica" font-size="12.00"  text-anchor="start">
		<text><tspan font-family="Helvetica" >Point estimate</tspan></text>
	</g>
</g>
<g fill="none" color="black" stroke="currentColor" stroke-width="2.00" stroke-linecap="butt" stroke-linejoin="miter">
	<path stroke='rgb( 31, 120, 180)'  d='M1038.5,99.1 L1080.7,99.1 M432.0,662.4 L432.0,193.5  '/></g>
	</g>
<g fill="none" color="black" stroke="currentColor" stroke-width="2.00" stroke-linecap="butt" stroke-linejoin="miter">
</g>
<g fill="none" color="black" stroke="black" stroke-width="1.00" stroke-linecap="butt" stroke-linejoin="miter">
</g>
<g fill="none" color="black" stroke="currentColor" stroke-width="1.00" stroke-linecap="butt" stroke-linejoin="miter">
	<path stroke='black'  d='M105.1,54.1 L105.1,662.4 L1013.6,662.4 L1013.6,54.1 L105.1,54.1 Z  '/></g>
<g fill="none" color="black" stroke="currentColor" stroke-width="1.00" stroke-linecap="butt" stroke-linejoin="miter">
</g>
</g>
</svg>

