<?xml version="1.0" encoding="utf-8"  standalone="no"?>
<svg 
 viewBox="0 0 1280 720"
 xmlns="http://www.w3.org/2000/svg"
 xmlns:xlink="http://www.w3.org/1999/xlink"
>

<title>Gnuplot</title>
<desc>Produced by GNUPLOT 5.2 patchlevel 2 </desc>

<g id="gnuplot_canvas">

<rect x="0" y="0" width="1280" height="720" fill="none"/>
<defs>

	<circle id='gpDot' r='0.5' stroke-width='0.5'/>
	<path id='gpPt0' stroke-width='0.222' stroke='currentColor' d='M-1,0 h2 M0,-1 v2'/>
	<path id='gpPt1' stroke-width='0.222' stroke='currentColor' d='M-1,-1 L1,1 M1,-1 L-1,1'/>
	<path id='gpPt2' stroke-width='0.222' stroke='currentColor' d='M-1,0 L1,0 M0,-1 L0,1 M-1,-1 L1,1 M-1,1 L1,-1'/>
	<rect id='gpPt3' stroke-width='0.222' stroke='currentColor' x='-1' y='-1' width='2' height='2'/>
	<rect id='gpPt4' stroke-width='0.222' stroke='currentColor' fill='currentColor' x='-1' y='-1' width='2' height='2'/>
	<circle id='gpPt5' stroke-width='0.222' stroke='currentColor' cx='0' cy='0' r='1'/>
	<use xlink:href='#gpPt5' id='gpPt6' fill='currentColor' stroke='none'/>
	<path id='gpPt7' stroke-width='0.222' stroke='currentColor' d='M0,-1.33 L-1.33,0.67 L1.33,0.67 z'/>
	<use xlink:href='#gpPt7' id='gpPt8' fill='currentColor' stroke='none'/>
	<use xlink:href='#gpPt7' id='gpPt9' stroke='currentColor' transform='rotate(180)'/>
	<use xlink:href='#gpPt9' id='gpPt10' fill='currentColor' stroke='none'/>
	<use xlink:href='#gpPt3' id='gpPt11' stroke='currentColor' transform='rotate(45)'/>
	<use xlink:href='#gpPt11' id='gpPt12' fill='currentColor' stroke='none'/>
	<path id='gpPt13' stroke-width='0.222' stroke='currentColor' d='M0,1.330 L1.265,0.411 L0.782,-1.067 L-0.782,-1.076 L-1.265,0.411 z'/>
	<use xlink:href='#gpPt13' id='gpPt14' fill='currentColor' stroke='none'/>
	<filter id='textbox' filterUnits='objectBoundingBox' x='0' y='0' height='1' width='1'>
	  <feFlood flood-color='white' flood-opacity='1' result='bgnd'/>
	  <feComposite in='SourceGraphic' in2='bgnd' operator='atop'/>
	</filter>
	<filter id='greybox' filterUnits='objectBoundingBox' x='0' y='0' height='1' width='1'>
	  <feFlood flood-color='lightgrey' flood-opacity='1' result='grey'/>
	  <feComposite in='SourceGraphic' in2='grey' operator='atop'/>
	</filter>
</defs>
<g fill="none" color="white" stroke="currentColor" stroke-width="1.00" stroke-linecap="butt" stroke-linejoin="miter">
</g>
<g fill="none" color="black" stroke="currentColor" stroke-width="1.00" stroke-linecap="butt" stroke-linejoin="miter">
	<path stroke='black'  d='M96.8,662.4 L105.8,662.4  '/>	<g transform="translate(88.5,666.3)" stroke="none" fill="black" font-family="Helvetica" font-size="12.00"  text-anchor="end">
		<text><tspan font-family="Helvetica" > 0</tspan></text>
	</g>
</g>
<g fill="none" color="black" stroke="currentColor" stroke-width="1.00" stroke-linecap="butt" stroke-linejoin="miter">
	<path stroke='black'  d='M96.8,561.0 L105.8,561.0  '/>	<g transform="translate(88.5,564.9)" stroke="none" fill="black" font-family="Helvetica" font-size="12.00"  text-anchor="end">
		<text><tspan font-family="Helvetica" > 0.0001</tspan></text>
	</g>
</g>
<g fill="none" color="black" stroke="currentColor" stroke-width="1.00" stroke-linecap="butt" stroke-linejoin="miter">
	<path stroke='black'  d='M96.8,459.6 L105.8,459.6  '/>	<g transform="translate(88.5,463.5)" stroke="none" fill="black" font-family="Helvetica" font-size="12.00"  text-anchor="end">
		<text><tspan font-family="Helvetica" > 0.0002</tspan></text>
	</g>
</g>
<g fill="none" color="black" stroke="currentColor" stroke-width="1.00" stroke-linecap="butt" stroke-linejoin="miter">
	<path stroke='black'  d='M96.8,358.2 L105.8,358.2  '/>	<g transform="translate(88.5,362.1)" stroke="none" fill="black" font-family="Helvetica" font-size="12.00"  text-anchor="end">
		<text><tspan font-family="Helvetica" > 0.0003</tspan></text>
	</g>
</g>
<g fill="none" color="black" stroke="currentColor" stroke-width="1.00" stroke-linecap="butt" stroke-linejoin="miter">
	<path stroke='black'  d='M96.8,256.9 L105.8,256.9  '/>	<g transform="translate(88.5,260.8)" stroke="none" fill="black" font-family="Helvetica" font-size="12.00"  text-anchor="end">
		<text><tspan font-family="Helvetica" > 0.0004</tspan></text>
	</g>
</g>
<g fill="none" color="black" stroke="currentColor" stroke-width="1.00" stroke-linecap="butt" stroke-linejoin="miter">
	<path stroke='black'  d='M96.8,155.5 L105.8,155.5  '/>	<g transform="translate(88.5,159.4)" stroke="none" fill="black" font-family="Helvetica" font-size="12.00"  text-anchor="end">
		<text><tspan font-family="Helvetica" > 0.0005</tspan></text>
	</g>
</g>
<g fill="none" color="black" stroke="currentColor" stroke-width="1.00" stroke-linecap="butt" stroke-linejoin="miter">
	<path stroke='black'  d='M96.8,54.1 L105.8,54.1  '/>	<g transform="translate(88.5,58.0)" stroke="none" fill="black" font-family="Helvetica" font-size="12.00"  text-anchor="end">
		<text><tspan font-family="Helvetica" > 0.0006</tspan></text>
	</g>
</g>
<g fill="none" color="black" stroke="currentColor" stroke-width="1.00" stroke-linecap="butt" stroke-linejoin="miter">
	<path stroke='black'  d='M179.4,662.4 L179.4,653.4  '/>	<g transform="translate(179.4,684.3)" stroke="none" fill="black" font-family="Helvetica" font-size="12.00"  text-anchor="middle">
		<text><tspan font-family="Helvetica" > 29500</tspan></text>
	</g>
</g>
<g fill="none" color="black" stroke="currentColor" stroke-width="1.00" stroke-linecap="butt" stroke-linejoin="miter">
	<path stroke='black'  d='M313.8,662.4 L313.8,653.4  '/>	<g transform="translate(313.8,684.3)" stroke="none" fill="black" font-family="Helvetica" font-size="12.00"  text-anchor="middle">
		<text><tspan font-family="Helvetica" > 30000</tspan></text>
	</g>
</g>
<g fill="none" color="black" stroke="currentColor" stroke-width="1.00" stroke-linecap="butt" stroke-linejoin="miter">
	<path stroke='black'  d='M448.1,662.4 L448.1,653.4  '/>	<g transform="translate(448.1,684.3)" stroke="none" fill="black" font-family="Helvetica" font-size="12.00"  text-anchor="middle">
		<text><tspan font-family="Helvetica" > 30500</tspan></text>
	</g>
</g>
<g fill="none" color="black" stroke="currentColor" stroke-width="1.00" stroke-linecap="butt" stroke-linejoin="miter">
	<path stroke='black'  d='M582.5,662.4 L582.5,653.4  '/>	<g transform="translate(582.5,684.3)" stroke="none" fill="black" font-family="Helvetica" font-size="12.00"  text-anchor="middle">
		<text><tspan font-family="Helvetica" > 31000</tspan></text>
	</g>
</g>
<g fill="none" color="black" stroke="currentColor" stroke-width="1.00" stroke-linecap="butt" stroke-linejoin="miter">
	<path stroke='black'  d='M716.9,662.4 L716.9,653.4  '/>	<g transform="translate(716.9,684.3)" stroke="none" fill="black" font-family="Helvetica" font-size="12.00"  text-anchor="middle">
		<text><tspan font-family="Helvetica" > 31500</tspan></text>
	</g>
</g>
<g fill="none" color="black" stroke="currentColor" stroke-width="1.00" stroke-linecap="butt" stroke-linejoin="miter">
	<path stroke='black'  d='M851.2,662.4 L851.2,653.4  '/>	<g transform="translate(851.2,684.3)" stroke="none" fill="black" font-family="Helvetica" font-size="12.00"  text-anchor="middle">
		<text><tspan font-family="Helvetica" > 32000</tspan></text>
	</g>
</g>
<g fill="none" color="black" stroke="currentColor" stroke-width="1.00" stroke-linecap="butt" stroke-linejoin="miter">
	<path stroke='black'  d='M985.6,662.4 L985.6,653.4  '/>	<g transform="translate(985.6,684.3)" stroke="none" fill="black" font-family="Helvetica" font-size="12.00"  text-anchor="middle">
		<text><tspan font-family="Helvetica" > 32500</tspan></text>
	</g>
</g>
<g fill="none" color="black" stroke="currentColor" stroke-width="1.00" stroke-linecap="butt" stroke-linejoin="miter">
</g>
<g fill="none" color="black" stroke="currentColor" stroke-width="1.00" stroke-linecap="butt" stroke-linejoin="miter">
	<path stroke='black'  d='M96.8,54.1 L96.8,662.4 L1013.6,662.4 L1013.6,54.1 L96.8,54.1 Z  '/></g>
<g fill="none" color="black" stroke="currentColor" stroke-width="1.00" stroke-linecap="butt" stroke-linejoin="miter">
	<g transform="translate(16.3,358.3) rotate(270)" stroke="none" fill="black" font-family="Helvetica" font-size="12.00"  text-anchor="middle">
		<text><tspan font-family="Helvetica" >Density (a.u.)</tspan></text>
	</g>
</g>
<g fill="none" color="black" stroke="currentColor" stroke-width="1.00" stroke-linecap="butt" stroke-linejoin="miter">
	<g transform="translate(555.2,711.3)" stroke="none" fill="black" font-family="Helvetica" font-size="12.00"  text-anchor="middle">
		<text><tspan font-family="Helvetica" >Average time (cycles)</tspan></text>
	</g>
</g>
<g fill="none" color="black" stroke="currentColor" stroke-width="1.00" stroke-linecap="butt" stroke-linejoin="miter">
	<g transform="translate(555.2,31.0)" stroke="none" fill="black" font-family="Helvetica" font-size="12.00"  text-anchor="middle">
		<text><tspan font-family="Helvetica" >non_nested_compare/modified from scratch/8: mean</tspan></text>
	</g>
</g>
	<g id="gnuplot_plot_1" ><title>Bootstrap distribution</title>
<g fill="none" color="white" stroke="black" stroke-width="2.00" stroke-linecap="butt" stroke-linejoin="miter">
</g>
<g fill="none" color="black" stroke="currentColor" stroke-width="2.00" stroke-linecap="butt" stroke-linejoin="miter">
	<g transform="translate(1089.0,67.0)" stroke="none" fill="black" font-family="Helvetica" font-size="12.00"  text-anchor="start">
		<text><tspan font-family="Helvetica" >Bootstrap distribution</tspan></text>
	</g>
</g>
<g fill="none" color="black" stroke="currentColor" stroke-width="2.00" stroke-linecap="butt" stroke-linejoin="miter">
	<path stroke='rgb( 31, 120, 180)'  d='M1038.5,63.1 L1080.7,63.1 M96.8,629.2 L98.6,628.6 L100.5,628.0 L102.3,627.4 L104.1,626.8 L106.0,626.2
		L107.8,625.6 L109.7,624.9 L111.5,624.3 L113.3,623.6 L115.2,622.9 L117.0,622.2 L118.8,621.5 L120.7,620.8
		L122.5,620.0 L124.4,619.2 L126.2,618.4 L128.0,617.6 L129.9,616.8 L131.7,615.9 L133.5,615.0 L135.4,614.1
		L137.2,613.2 L139.1,612.2 L140.9,611.3 L142.7,610.3 L144.6,609.2 L146.4,608.2 L148.2,607.1 L150.1,606.0
		L151.9,604.9 L153.8,603.7 L155.6,602.5 L157.4,601.2 L159.3,600.0 L161.1,598.7 L162.9,597.3 L164.8,596.0
		L166.6,594.5 L168.5,593.1 L170.3,591.6 L172.1,590.1 L174.0,588.6 L175.8,587.0 L177.6,585.4 L179.5,583.7
		L181.3,582.1 L183.2,580.4 L185.0,578.7 L186.8,576.9 L188.7,575.2 L190.5,573.4 L192.3,571.6 L194.2,569.8
		L196.0,568.0 L197.9,566.2 L199.7,564.4 L201.5,562.6 L203.4,560.8 L205.2,559.0 L207.0,557.2 L208.9,555.4
		L210.7,553.7 L212.5,552.0 L214.4,550.3 L216.2,548.6 L218.1,546.9 L219.9,545.2 L221.7,543.6 L223.6,541.9
		L225.4,540.2 L227.2,538.6 L229.1,536.9 L230.9,535.2 L232.8,533.5 L234.6,531.7 L236.4,530.0 L238.3,528.2
		L240.1,526.3 L241.9,524.4 L243.8,522.5 L245.6,520.5 L247.5,518.5 L249.3,516.5 L251.1,514.4 L253.0,512.3
		L254.8,510.1 L256.6,508.0 L258.5,505.8 L260.3,503.5 L262.2,501.3 L264.0,499.0 L265.8,496.7 L267.7,494.4
		L269.5,492.1 L271.3,489.7 L273.2,487.4 L275.0,485.0 L276.9,482.7 L278.7,480.3 L280.5,477.9 L282.4,475.4
		L284.2,473.0 L286.0,470.5 L287.9,468.0 L289.7,465.5 L291.6,462.9 L293.4,460.4 L295.2,457.7 L297.1,455.1
		L298.9,452.4 L300.7,449.7 L302.6,447.0 L304.4,444.2 L306.2,441.4 L308.1,438.6 L309.9,435.8 L311.8,432.9
		L313.6,430.1 L315.4,427.2 L317.3,424.3 L319.1,421.5 L320.9,418.6 L322.8,415.7 L324.6,412.9 L326.5,410.1
		L328.3,407.2 L330.1,404.4 L332.0,401.6 L333.8,398.8 L335.6,396.0 L337.5,393.2 L339.3,390.5 L341.2,387.7
		L343.0,384.9 L344.8,382.2 L346.7,379.4 L348.5,376.7 L350.3,373.9 L352.2,371.2 L354.0,368.4 L355.9,365.6
		L357.7,362.8 L359.5,360.0 L361.4,357.2 L363.2,354.4 L365.0,351.5 L366.9,348.6 L368.7,345.7 L370.6,342.8
		L372.4,339.9 L374.2,337.0 L376.1,334.1 L377.9,331.1 L379.7,328.2 L381.6,325.3 L383.4,322.3 L385.3,319.4
		L387.1,316.5 L388.9,313.6 L390.8,310.7 L392.6,307.9 L394.4,305.0 L396.3,302.2 L398.1,299.4 L400.0,296.6
		L401.8,293.8 L403.6,291.0 L405.5,288.2 L407.3,285.4 L409.1,282.7 L411.0,279.9 L412.8,277.2 L414.6,274.4
		L416.5,271.7 L418.3,268.9 L420.2,266.2 L422.0,263.4 L423.8,260.7 L425.7,258.0 L427.5,255.2 L429.3,252.5
		L431.2,249.7 L433.0,247.0 L434.9,244.2 L436.7,241.5 L438.5,238.7 L440.4,235.9 L442.2,233.1 L444.0,230.2
		L445.9,227.4 L447.7,224.5 L449.6,221.6 L451.4,218.7 L453.2,215.7 L455.1,212.7 L456.9,209.7 L458.7,206.7
		L460.6,203.7 L462.4,200.7 L464.3,197.7 L466.1,194.7 L467.9,191.7 L469.8,188.7 L471.6,185.8 L473.4,182.9
		L475.3,180.0 L477.1,177.1 L479.0,174.3 L480.8,171.6 L482.6,168.9 L484.5,166.2 L486.3,163.6 L488.1,161.0
		L490.0,158.5 L491.8,156.1 L493.7,153.7 L495.5,151.4 L497.3,149.1 L499.2,146.9 L501.0,144.8 L502.8,142.7
		L504.7,140.7 L506.5,138.7 L508.3,136.8 L510.2,135.0 L512.0,133.3 L513.9,131.6 L515.7,129.9 L517.5,128.3
		L519.4,126.8 L521.2,125.3 L523.0,123.8 L524.9,122.4 L526.7,121.1 L528.6,119.8 L530.4,118.5 L532.2,117.3
		L534.1,116.2 L535.9,115.0 L537.7,114.0 L539.6,112.9 L541.4,111.9 L543.3,111.0 L545.1,110.1 L546.9,109.2
		L548.8,108.4 L550.6,107.6 L552.4,106.8 L554.3,106.1 L556.1,105.4 L558.0,104.7 L559.8,104.1 L561.6,103.5
		L563.5,102.9 L565.3,102.4 L567.1,101.8 L569.0,101.4 L570.8,100.9 L572.7,100.5 L574.5,100.2 L576.3,99.9
		L578.2,99.6 L580.0,99.4 L581.8,99.3 L583.7,99.2 L585.5,99.1 L587.4,99.1 L589.2,99.2 L591.0,99.3
		L592.9,99.5 L594.7,99.7 L596.5,100.0 L598.4,100.4 L600.2,100.7 L602.1,101.2 L603.9,101.6 L605.7,102.2
		L607.6,102.7 L609.4,103.3 L611.2,104.0 L613.1,104.6 L614.9,105.4 L616.7,106.2 L618.6,107.0 L620.4,107.9
		L622.3,108.9 L624.1,109.9 L625.9,111.0 L627.8,112.1 L629.6,113.4 L631.4,114.7 L633.3,116.1 L635.1,117.6
		L637.0,119.1 L638.8,120.8 L640.6,122.5 L642.5,124.3 L644.3,126.2 L646.1,128.1 L648.0,130.2 L649.8,132.3
		L651.7,134.5 L653.5,136.7 L655.3,139.0 L657.2,141.3 L659.0,143.7 L660.8,146.1 L662.7,148.5 L664.5,151.0
		L666.4,153.5 L668.2,156.0 L670.0,158.4 L671.9,160.9 L673.7,163.4 L675.5,165.9 L677.4,168.4 L679.2,170.9
		L681.1,173.3 L682.9,175.8 L684.7,178.3 L686.6,180.8 L688.4,183.3 L690.2,185.9 L692.1,188.5 L693.9,191.1
		L695.8,193.7 L697.6,196.4 L699.4,199.1 L701.3,201.8 L703.1,204.6 L704.9,207.4 L706.8,210.3 L708.6,213.2
		L710.4,216.1 L712.3,219.1 L714.1,222.1 L716.0,225.1 L717.8,228.1 L719.6,231.2 L721.5,234.3 L723.3,237.4
		L725.1,240.5 L727.0,243.6 L728.8,246.7 L730.7,249.9 L732.5,253.1 L734.3,256.3 L736.2,259.5 L738.0,262.7
		L739.8,265.9 L741.7,269.2 L743.5,272.4 L745.4,275.7 L747.2,279.1 L749.0,282.4 L750.9,285.8 L752.7,289.1
		L754.5,292.5 L756.4,295.9 L758.2,299.4 L760.1,302.8 L761.9,306.3 L763.7,309.8 L765.6,313.2 L767.4,316.7
		L769.2,320.2 L771.1,323.7 L772.9,327.1 L774.8,330.6 L776.6,334.0 L778.4,337.4 L780.3,340.8 L782.1,344.1
		L783.9,347.5 L785.8,350.8 L787.6,354.0 L789.5,357.3 L791.3,360.5 L793.1,363.7 L795.0,366.9 L796.8,370.1
		L798.6,373.2 L800.5,376.4 L802.3,379.5 L804.2,382.6 L806.0,385.8 L807.8,388.9 L809.7,392.0 L811.5,395.1
		L813.3,398.2 L815.2,401.3 L817.0,404.4 L818.8,407.4 L820.7,410.5 L822.5,413.6 L824.4,416.6 L826.2,419.7
		L828.0,422.7 L829.9,425.8 L831.7,428.8 L833.5,431.9 L835.4,434.9 L837.2,438.0 L839.1,441.0 L840.9,444.1
		L842.7,447.2 L844.6,450.3 L846.4,453.5 L848.2,456.7 L850.1,459.8 L851.9,463.0 L853.8,466.2 L855.6,469.5
		L857.4,472.7 L859.3,475.9 L861.1,479.2 L862.9,482.4 L864.8,485.6 L866.6,488.7 L868.5,491.8 L870.3,494.9
		L872.1,498.0 L874.0,500.9 L875.8,503.9 L877.6,506.7 L879.5,509.5 L881.3,512.3 L883.2,514.9 L885.0,517.6
		L886.8,520.1 L888.7,522.6 L890.5,525.0 L892.3,527.4 L894.2,529.7 L896.0,532.0 L897.9,534.2 L899.7,536.4
		L901.5,538.5 L903.4,540.6 L905.2,542.7 L907.0,544.8 L908.9,546.8 L910.7,548.8 L912.5,550.7 L914.4,552.7
		L916.2,554.6 L918.1,556.5 L919.9,558.4 L921.7,560.2 L923.6,562.1 L925.4,564.0 L927.2,565.8 L929.1,567.7
		L930.9,569.5 L932.8,571.3 L934.6,573.2 L936.4,575.0 L938.3,576.8 L940.1,578.6 L941.9,580.4 L943.8,582.2
		L945.6,583.9 L947.5,585.7 L949.3,587.4 L951.1,589.1 L953.0,590.8 L954.8,592.4 L956.6,594.0 L958.5,595.6
		L960.3,597.1 L962.2,598.6 L964.0,600.0 L965.8,601.4 L967.7,602.8 L969.5,604.1 L971.3,605.4 L973.2,606.7
		L975.0,607.9 L976.9,609.1 L978.7,610.3 L980.5,611.4 L982.4,612.6 L984.2,613.7 L986.0,614.8 L987.9,615.9
		L989.7,616.9 L991.6,618.0 L993.4,619.1 L995.2,620.1 L997.1,621.1 L998.9,622.1 L1000.7,623.1 L1002.6,624.1
		L1004.4,625.1 L1006.3,626.0 L1008.1,626.9 L1009.9,627.8 L1011.8,628.7 L1013.6,629.5  '/></g>
	</g>
	<g id="gnuplot_plot_2" ><title>Confidence interval</title>
<g fill="none" color="white" stroke="rgb( 31, 120, 180)" stroke-width="1.00" stroke-linecap="butt" stroke-linejoin="miter">
</g>
<g fill="none" color="black" stroke="currentColor" stroke-width="1.00" stroke-linecap="butt" stroke-linejoin="miter">
	<g transform="translate(1089.0,85.0)" stroke="none" fill="black" font-family="Helvetica" font-size="12.00"  text-anchor="start">
		<text><tspan font-family="Helvetica" >Confidence interval</tspan></text>
	</g>
</g>
<g fill="none" color="black" stroke="currentColor" stroke-width="1.00" stroke-linecap="butt" stroke-linejoin="miter">
	<g stroke='none' shape-rendering='crispEdges'>
		<polygon fill = 'rgb( 31, 120, 180)' fill-opacity = '0.250000' points = '1038.5,85.6 1080.7,85.6 1080.7,76.6 1038.5,76.6 '/>
		<polygon fill = 'rgb( 31, 120, 180)' fill-opacity = '0.250000' points = '181.3,582.1 183.2,580.4 185.0,578.7 186.8,576.9 188.7,575.2 190.5,573.4 192.3,571.6 194.2,569.8 196.0,568.0 197.9,566.2 199.7,564.4 201.5,562.6 203.4,560.8 205.2,559.0 207.0,557.2 208.9,555.4
210.7,553.7 212.5,552.0 214.4,550.3 216.2,548.6 218.1,546.9 219.9,545.2 221.7,543.6 223.6,541.9 225.4,540.2 227.2,538.6 229.1,536.9 230.9,535.2 232.8,533.5 234.6,531.7 236.4,530.0 238.3,528.2
240.1,526.3 241.9,524.4 243.8,522.5 245.6,520.5 247.5,518.5 249.3,516.5 251.1,514.4 253.0,512.3 254.8,510.1 256.6,508.0 258.5,505.8 260.3,503.5 262.2,501.3 264.0,499.0 265.8,496.7 267.7,494.4
269.5,492.1 271.3,489.7 273.2,487.4 275.0,485.0 276.9,482.7 278.7,480.3 280.5,477.9 282.4,475.4 284.2,473.0 286.0,470.5 287.9,468.0 289.7,465.5 291.6,462.9 293.4,460.4 295.2,457.7 297.1,455.1
298.9,452.4 300.7,449.7 302.6,447.0 304.4,444.2 306.2,441.4 308.1,438.6 309.9,435.8 311.8,432.9 313.6,430.1 315.4,427.2 317.3,424.3 319.1,421.5 320.9,418.6 322.8,415.7 324.6,412.9 326.5,410.1
328.3,407.2 330.1,404.4 332.0,401.6 333.8,398.8 335.6,396.0 337.5,393.2 339.3,390.5 341.2,387.7 343.0,384.9 344.8,382.2 346.7,379.4 348.5,376.7 350.3,373.9 352.2,371.2 354.0,368.4 355.9,365.6
357.7,362.8 359.5,360.0 361.4,357.2 363.2,354.4 365.0,351.5 366.9,348.6 368.7,345.7 370.6,342.8 372.4,339.9 374.2,337.0 376.1,334.1 377.9,331.1 379.7,328.2 381.6,325.3 383.4,322.3 385.3,319.4
387.1,316.5 388.9,313.6 390.8,310.7 392.6,307.9 394.4,305.0 396.3,302.2 398.1,299.4 400.0,296.6 401.8,293.8 403.6,291.0 405.5,288.2 407.3,285.4 409.1,282.7 411.0,279.9 412.8,277.2 414.6,274.4
416.5,271.7 418.3,268.9 420.2,266.2 422.0,263.4 423.8,260.7 425.7,258.0 427.5,255.2 429.3,252.5 431.2,249.7 433.0,247.0 434.9,244.2 436.7,241.5 438.5,238.7 440.4,235.9 442.2,233.1 444.0,230.2
445.9,227.4 447.7,224.5 449.6,221.6 451.4,218.7 453.2,215.7 455.1,212.7 456.9,209.7 458.7,206.7 460.6,203.7 462.4,200.7 464.3,197.7 466.1,194.7 467.9,191.7 469.8,188.7 471.6,185.8 473.4,182.9
475.3,180.0 477.1,177.1 479.0,174.3 480.8,171.6 482.6,168.9 484.5,166.2 486.3,163.6 488.1,161.0 490.0,158.5 491.8,156.1 493.7,153.7 495.5,151.4 497.3,149.1 499.2,146.9 501.0,144.8 502.8,142.7
504.7,140.7 506.5,138.7 508.3,136.8 510.2,135.0 512.0,133.3 513.9,131.6 515.7,129.9 517.5,128.3 519.4,126.8 521.2,125.3 523.0,123.8 524.9,122.4 526.7,121.1 528.6,119.8 530.4,118.5 532.2,117.3
534.1,116.2 535.9,115.0 537.7,114.0 539.6,112.9 541.4,111.9 543.3,111.0 545.1,110.1 546.9,109.2 548.8,108.4 550.6,107.6 552.4,106.8 554.3,106.1 556.1,105.4 558.0,104.7 559.8,104.1 561.6,103.5
563.5,102.9 565.3,102.4 567.1,101.8 569.0,101.4 570.8,100.9 572.7,100.5 574.5,100.2 576.3,99.9 578.2,99.6 580.0,99.4 581.8,99.3 583.7,99.2 585.5,99.1 587.4,99.1 589.2,99.2 591.0,99.3
592.9,99.5 594.7,99.7 596.5,100.0 598.4,100.4 600.2,100.7 602.1,101.2 603.9,101.6 605.7,102.2 607.6,102.7 609.4,103.3 611.2,104.0 613.1,104.6 614.9,105.4 616.7,106.2 618.6,107.0 620.4,107.9
622.3,108.9 624.1,109.9 625.9,111.0 627.8,112.1 629.6,113.4 631.4,114.7 633.3,116.1 635.1,117.6 637.0,119.1 638.8,120.8 640.6,122.5 642.5,124.3 644.3,126.2 646.1,128.1 648.0,130.2 649.8,132.3
651.7,134.5 653.5,136.7 655.3,139.0 657.2,141.3 659.0,143.7 660.8,146.1 662.7,148.5 664.5,151.0 666.4,153.5 668.2,156.0 670.0,158.4 671.9,160.9 673.7,163.4 675.5,165.9 677.4,168.4 679.2,170.9
681.1,173.3 682.9,175.8 684.7,178.3 686.6,180.8 688.4,183.3 690.2,185.9 692.1,188.5 693.9,191.1 695.8,193.7 697.6,196.4 699.4,199.1 701.3,201.8 703.1,204.6 704.9,207.4 706.8,210.3 708.6,213.2
710.4,216.1 712.3,219.1 714.1,222.1 716.0,225.1 717.8,228.1 719.6,231.2 721.5,234.3 723.3,237.4 725.1,240.5 727.0,243.6 728.8,246.7 730.7,249.9 732.5,253.1 734.3,256.3 736.2,259.5 738.0,262.7
739.8,265.9 741.7,269.2 743.5,272.4 745.4,275.7 747.2,279.1 749.0,282.4 750.9,285.8 752.7,289.1 754.5,292.5 756.4,295.9 758.2,299.4 760.1,302.8 761.9,306.3 763.7,309.8 765.6,313.2 767.4,316.7
769.2,320.2 771.1,323.7 772.9,327.1 774.8,330.6 776.6,334.0 778.4,337.4 780.3,340.8 782.1,344.1 783.9,347.5 785.8,350.8 787.6,354.0 789.5,357.3 791.3,360.5 793.1,363.7 795.0,366.9 796.8,370.1
798.6,373.2 800.5,376.4 802.3,379.5 804.2,382.6 806.0,385.8 807.8,388.9 809.7,392.0 811.5,395.1 813.3,398.2 815.2,401.3 817.0,404.4 818.8,407.4 820.7,410.5 822.5,413.6 824.4,416.6 826.2,419.7
828.0,422.7 829.9,425.8 831.7,428.8 833.5,431.9 835.4,434.9 837.2,438.0 839.1,441.0 840.9,444.1 842.7,447.2 844.6,450.3 846.4,453.5 848.2,456.7 850.1,459.8 851.9,463.0 853.8,466.2 855.6,469.5
857.4,472.7 859.3,475.9 861.1,479.2 862.9,482.4 864.8,485.6 866.6,488.7 868.5,491.8 870.3,494.9 872.1,498.0 874.0,500.9 875.8,503.9 877.6,506.7 879.5,509.5 881.3,512.3 883.2,514.9 885.0,517.6
886.8,520.1 888.7,522.6 890.5,525.0 892.3,527.4 894.2,529.7 896.0,532.0 897.9,534.2 899.7,536.4 901.5,538.5 903.4,540.6 905.2,542.7 907.0,544.8 908.9,546.8 910.7,548.8 912.5,550.7 914.4,552.7
916.2,554.6 918.1,556.5 919.9,558.4 921.7,560.2 923.6,562.1 925.4,564.0 927.2,565.8 927.2,662.4 925.4,662.4 923.6,662.4 921.7,662.4 919.9,662.4 918.1,662.4 916.2,662.4 914.4,662.4 912.5,662.4
910.7,662.4 908.9,662.4 907.0,662.4 905.2,662.4 903.4,662.4 901.5,662.4 899.7,662.4 897.9,662.4 896.0,662.4 894.2,662.4 892.3,662.4 890.5,662.4 888.7,662.4 886.8,662.4 885.0,662.4 883.2,662.4
881.3,662.4 879.5,662.4 877.6,662.4 875.8,662.4 874.0,662.4 872.1,662.4 870.3,662.4 868.5,662.4 866.6,662.4 864.8,662.4 862.9,662.4 861.1,662.4 859.3,662.4 857.4,662.4 855.6,662.4 853.8,662.4
851.9,662.4 850.1,662.4 848.2,662.4 846.4,662.4 844.6,662.4 842.7,662.4 840.9,662.4 839.1,662.4 837.2,662.4 835.4,662.4 833.5,662.4 831.7,662.4 829.9,662.4 828.0,662.4 826.2,662.4 824.4,662.4
822.5,662.4 820.7,662.4 818.8,662.4 817.0,662.4 815.2,662.4 813.3,662.4 811.5,662.4 809.7,662.4 807.8,662.4 806.0,662.4 804.2,662.4 802.3,662.4 800.5,662.4 798.6,662.4 796.8,662.4 795.0,662.4
793.1,662.4 791.3,662.4 789.5,662.4 787.6,662.4 785.8,662.4 783.9,662.4 782.1,662.4 780.3,662.4 778.4,662.4 776.6,662.4 774.8,662.4 772.9,662.4 771.1,662.4 769.2,662.4 767.4,662.4 765.6,662.4
763.7,662.4 761.9,662.4 760.1,662.4 758.2,662.4 756.4,662.4 754.5,662.4 752.7,662.4 750.9,662.4 749.0,662.4 747.2,662.4 745.4,662.4 743.5,662.4 741.7,662.4 739.8,662.4 738.0,662.4 736.2,662.4
734.3,662.4 732.5,662.4 730.7,662.4 728.8,662.4 727.0,662.4 725.1,662.4 723.3,662.4 721.5,662.4 719.6,662.4 717.8,662.4 716.0,662.4 714.1,662.4 712.3,662.4 710.4,662.4 708.6,662.4 706.8,662.4
704.9,662.4 703.1,662.4 701.3,662.4 699.4,662.4 697.6,662.4 695.8,662.4 693.9,662.4 692.1,662.4 690.2,662.4 688.4,662.4 686.6,662.4 684.7,662.4 682.9,662.4 681.1,662.4 679.2,662.4 677.4,662.4
675.5,662.4 673.7,662.4 671.9,662.4 670.0,662.4 668.2,662.4 666.4,662.4 664.5,662.4 662.7,662.4 660.8,662.4 659.0,662.4 657.2,662.4 655.3,662.4 653.5,662.4 651.7,662.4 649.8,662.4 648.0,662.4
646.1,662.4 644.3,662.4 642.5,662.4 640.6,662.4 638.8,662.4 637.0,662.4 635.1,662.4 633.3,662.4 631.4,662.4 629.6,662.4 627.8,662.4 625.9,662.4 624.1,662.4 622.3,662.4 620.4,662.4 618.6,662.4
616.7,662.4 614.9,662.4 613.1,662.4 611.2,662.4 609.4,662.4 607.6,662.4 605.7,662.4 603.9,662.4 602.1,662.4 600.2,662.4 598.4,662.4 596.5,662.4 594.7,662.4 592.9,662.4 591.0,662.4 589.2,662.4
587.4,662.4 585.5,662.4 583.7,662.4 581.8,662.4 580.0,662.4 578.2,662.4 576.3,662.4 574.5,662.4 572.7,662.4 570.8,662.4 569.0,662.4 567.1,662.4 565.3,662.4 563.5,662.4 561.6,662.4 559.8,662.4
558.0,662.4 556.1,662.4 554.3,662.4 552.4,662.4 550.6,662.4 548.8,662.4 546.9,662.4 545.1,662.4 543.3,662.4 541.4,662.4 539.6,662.4 537.7,662.4 535.9,662.4 534.1,662.4 532.2,662.4 530.4,662.4
528.6,662.4 526.7,662.4 524.9,662.4 523.0,662.4 521.2,662.4 519.4,662.4 517.5,662.4 515.7,662.4 513.9,662.4 512.0,662.4 510.2,662.4 508.3,662.4 506.5,662.4 504.7,662.4 502.8,662.4 501.0,662.4
499.2,662.4 497.3,662.4 495.5,662.4 493.7,662.4 491.8,662.4 490.0,662.4 488.1,662.4 486.3,662.4 484.5,662.4 482.6,662.4 480.8,662.4 479.0,662.4 477.1,662.4 475.3,662.4 473.4,662.4 471.6,662.4
469.8,662.4 467.9,662.4 466.1,662.4 464.3,662.4 462.4,662.4 460.6,662.4 458.7,662.4 456.9,662.4 455.1,662.4 453.2,662.4 451.4,662.4 449.6,662.4 447.7,662.4 445.9,662.4 444.0,662.4 442.2,662.4
440.4,662.4 438.5,662.4 436.7,662.4 434.9,662.4 433.0,662.4 431.2,662.4 429.3,662.4 427.5,662.4 425.7,662.4 423.8,662.4 422.0,662.4 420.2,662.4 418.3,662.4 416.5,662.4 414.6,662.4 412.8,662.4
411.0,662.4 409.1,662.4 407.3,662.4 405.5,662.4 403.6,662.4 401.8,662.4 400.0,662.4 398.1,662.4 396.3,662.4 394.4,662.4 392.6,662.4 390.8,662.4 388.9,662.4 387.1,662.4 385.3,662.4 383.4,662.4
381.6,662.4 379.7,662.4 377.9,662.4 376.1,662.4 374.2,662.4 372.4,662.4 370.6,662.4 368.7,662.4 366.9,662.4 365.0,662.4 363.2,662.4 361.4,662.4 359.5,662.4 357.7,662.4 355.9,662.4 354.0,662.4
352.2,662.4 350.3,662.4 348.5,662.4 346.7,662.4 344.8,662.4 343.0,662.4 341.2,662.4 339.3,662.4 337.5,662.4 335.6,662.4 333.8,662.4 332.0,662.4 330.1,662.4 328.3,662.4 326.5,662.4 324.6,662.4
322.8,662.4 320.9,662.4 319.1,662.4 317.3,662.4 315.4,662.4 313.6,662.4 311.8,662.4 309.9,662.4 308.1,662.4 306.2,662.4 304.4,662.4 302.6,662.4 300.7,662.4 298.9,662.4 297.1,662.4 295.2,662.4
293.4,662.4 291.6,662.4 289.7,662.4 287.9,662.4 286.0,662.4 284.2,662.4 282.4,662.4 280.5,662.4 278.7,662.4 276.9,662.4 275.0,662.4 273.2,662.4 271.3,662.4 269.5,662.4 267.7,662.4 265.8,662.4
264.0,662.4 262.2,662.4 260.3,662.4 258.5,662.4 256.6,662.4 254.8,662.4 253.0,662.4 251.1,662.4 249.3,662.4 247.5,662.4 245.6,662.4 243.8,662.4 241.9,662.4 240.1,662.4 238.3,662.4 236.4,662.4
234.6,662.4 232.8,662.4 230.9,662.4 229.1,662.4 227.2,662.4 225.4,662.4 223.6,662.4 221.7,662.4 219.9,662.4 218.1,662.4 216.2,662.4 214.4,662.4 212.5,662.4 210.7,662.4 208.9,662.4 207.0,662.4
205.2,662.4 203.4,662.4 201.5,662.4 199.7,662.4 197.9,662.4 196.0,662.4 194.2,662.4 192.3,662.4 190.5,662.4 188.7,662.4 186.8,662.4 185.0,662.4 183.2,662.4 181.3,662.4 '/>
	</g>
</g>
	</g>
	<g id="gnuplot_plot_3" ><title>Point estimate</title>
<g fill="none" color="white" stroke="rgb( 31, 120, 180)" stroke-width="2.00" stroke-linecap="butt" stroke-linejoin="miter">
</g>
<g fill="none" color="black" stroke="currentColor" stroke-width="2.00" stroke-linecap="butt" stroke-linejoin="miter">
	<g transform="translate(1089.0,103.0)" stroke="none" fill="black" font-family="Helvetica" font-size="12.00"  text-anchor="start">
		<text><tspan font-family="Helvetica" >Point estimate</tspan></text>
	</g>
</g>
<g fill="none" color="black" stroke="currentColor" stroke-width="2.00" stroke-linecap="butt" stroke-linejoin="miter">
	<path stroke='rgb( 31, 120, 180)'  d='M1038.5,99.1 L1080.7,99.1 M566.7,662.4 L566.7,102.0  '/></g>
	</g>
<g fill="none" color="black" stroke="currentColor" stroke-width="2.00" stroke-linecap="butt" stroke-linejoin="miter">
</g>
<g fill="none" color="black" stroke="black" stroke-width="1.00" stroke-linecap="butt" stroke-linejoin="miter">
</g>
<g fill="none" color="black" stroke="currentColor" stroke-width="1.00" stroke-linecap="butt" stroke-linejoin="miter">
	<path stroke='black'  d='M96.8,54.1 L96.8,662.4 L1013.6,662.4 L1013.6,54.1 L96.8,54.1 Z  '/></g>
<g fill="none" color="black" stroke="currentColor" stroke-width="1.00" stroke-linecap="butt" stroke-linejoin="miter">
</g>
</g>
</svg>

