<?xml version="1.0" encoding="utf-8"  standalone="no"?>
<svg 
 viewBox="0 0 1280 720"
 xmlns="http://www.w3.org/2000/svg"
 xmlns:xlink="http://www.w3.org/1999/xlink"
>

<title>Gnuplot</title>
<desc>Produced by GNUPLOT 5.2 patchlevel 2 </desc>

<g id="gnuplot_canvas">

<rect x="0" y="0" width="1280" height="720" fill="none"/>
<defs>

	<circle id='gpDot' r='0.5' stroke-width='0.5'/>
	<path id='gpPt0' stroke-width='0.222' stroke='currentColor' d='M-1,0 h2 M0,-1 v2'/>
	<path id='gpPt1' stroke-width='0.222' stroke='currentColor' d='M-1,-1 L1,1 M1,-1 L-1,1'/>
	<path id='gpPt2' stroke-width='0.222' stroke='currentColor' d='M-1,0 L1,0 M0,-1 L0,1 M-1,-1 L1,1 M-1,1 L1,-1'/>
	<rect id='gpPt3' stroke-width='0.222' stroke='currentColor' x='-1' y='-1' width='2' height='2'/>
	<rect id='gpPt4' stroke-width='0.222' stroke='currentColor' fill='currentColor' x='-1' y='-1' width='2' height='2'/>
	<circle id='gpPt5' stroke-width='0.222' stroke='currentColor' cx='0' cy='0' r='1'/>
	<use xlink:href='#gpPt5' id='gpPt6' fill='currentColor' stroke='none'/>
	<path id='gpPt7' stroke-width='0.222' stroke='currentColor' d='M0,-1.33 L-1.33,0.67 L1.33,0.67 z'/>
	<use xlink:href='#gpPt7' id='gpPt8' fill='currentColor' stroke='none'/>
	<use xlink:href='#gpPt7' id='gpPt9' stroke='currentColor' transform='rotate(180)'/>
	<use xlink:href='#gpPt9' id='gpPt10' fill='currentColor' stroke='none'/>
	<use xlink:href='#gpPt3' id='gpPt11' stroke='currentColor' transform='rotate(45)'/>
	<use xlink:href='#gpPt11' id='gpPt12' fill='currentColor' stroke='none'/>
	<path id='gpPt13' stroke-width='0.222' stroke='currentColor' d='M0,1.330 L1.265,0.411 L0.782,-1.067 L-0.782,-1.076 L-1.265,0.411 z'/>
	<use xlink:href='#gpPt13' id='gpPt14' fill='currentColor' stroke='none'/>
	<filter id='textbox' filterUnits='objectBoundingBox' x='0' y='0' height='1' width='1'>
	  <feFlood flood-color='white' flood-opacity='1' result='bgnd'/>
	  <feComposite in='SourceGraphic' in2='bgnd' operator='atop'/>
	</filter>
	<filter id='greybox' filterUnits='objectBoundingBox' x='0' y='0' height='1' width='1'>
	  <feFlood flood-color='lightgrey' flood-opacity='1' result='grey'/>
	  <feComposite in='SourceGraphic' in2='grey' operator='atop'/>
	</filter>
</defs>
<g fill="none" color="white" stroke="currentColor" stroke-width="1.00" stroke-linecap="butt" stroke-linejoin="miter">
</g>
<g fill="none" color="black" stroke="currentColor" stroke-width="1.00" stroke-linecap="butt" stroke-linejoin="miter">
	<path stroke='black'  d='M88.5,662.4 L97.5,662.4  '/>	<g transform="translate(80.2,666.3)" stroke="none" fill="black" font-family="Helvetica" font-size="12.00"  text-anchor="end">
		<text><tspan font-family="Helvetica" > 0</tspan></text>
	</g>
</g>
<g fill="none" color="black" stroke="currentColor" stroke-width="1.00" stroke-linecap="butt" stroke-linejoin="miter">
	<path stroke='black'  d='M88.5,586.4 L97.5,586.4  '/>	<g transform="translate(80.2,590.3)" stroke="none" fill="black" font-family="Helvetica" font-size="12.00"  text-anchor="end">
		<text><tspan font-family="Helvetica" > 1x10</tspan><tspan font-family="Helvetica"  font-size="9.6" dy="-6.00px">-5</tspan><tspan font-size="12.0" dy="6.00"></tspan></text>
	</g>
</g>
<g fill="none" color="black" stroke="currentColor" stroke-width="1.00" stroke-linecap="butt" stroke-linejoin="miter">
	<path stroke='black'  d='M88.5,510.3 L97.5,510.3  '/>	<g transform="translate(80.2,514.2)" stroke="none" fill="black" font-family="Helvetica" font-size="12.00"  text-anchor="end">
		<text><tspan font-family="Helvetica" > 2x10</tspan><tspan font-family="Helvetica"  font-size="9.6" dy="-6.00px">-5</tspan><tspan font-size="12.0" dy="6.00"></tspan></text>
	</g>
</g>
<g fill="none" color="black" stroke="currentColor" stroke-width="1.00" stroke-linecap="butt" stroke-linejoin="miter">
	<path stroke='black'  d='M88.5,434.3 L97.5,434.3  '/>	<g transform="translate(80.2,438.2)" stroke="none" fill="black" font-family="Helvetica" font-size="12.00"  text-anchor="end">
		<text><tspan font-family="Helvetica" > 3x10</tspan><tspan font-family="Helvetica"  font-size="9.6" dy="-6.00px">-5</tspan><tspan font-size="12.0" dy="6.00"></tspan></text>
	</g>
</g>
<g fill="none" color="black" stroke="currentColor" stroke-width="1.00" stroke-linecap="butt" stroke-linejoin="miter">
	<path stroke='black'  d='M88.5,358.2 L97.5,358.2  '/>	<g transform="translate(80.2,362.1)" stroke="none" fill="black" font-family="Helvetica" font-size="12.00"  text-anchor="end">
		<text><tspan font-family="Helvetica" > 4x10</tspan><tspan font-family="Helvetica"  font-size="9.6" dy="-6.00px">-5</tspan><tspan font-size="12.0" dy="6.00"></tspan></text>
	</g>
</g>
<g fill="none" color="black" stroke="currentColor" stroke-width="1.00" stroke-linecap="butt" stroke-linejoin="miter">
	<path stroke='black'  d='M88.5,282.2 L97.5,282.2  '/>	<g transform="translate(80.2,286.1)" stroke="none" fill="black" font-family="Helvetica" font-size="12.00"  text-anchor="end">
		<text><tspan font-family="Helvetica" > 5x10</tspan><tspan font-family="Helvetica"  font-size="9.6" dy="-6.00px">-5</tspan><tspan font-size="12.0" dy="6.00"></tspan></text>
	</g>
</g>
<g fill="none" color="black" stroke="currentColor" stroke-width="1.00" stroke-linecap="butt" stroke-linejoin="miter">
	<path stroke='black'  d='M88.5,206.2 L97.5,206.2  '/>	<g transform="translate(80.2,210.1)" stroke="none" fill="black" font-family="Helvetica" font-size="12.00"  text-anchor="end">
		<text><tspan font-family="Helvetica" > 6x10</tspan><tspan font-family="Helvetica"  font-size="9.6" dy="-6.00px">-5</tspan><tspan font-size="12.0" dy="6.00"></tspan></text>
	</g>
</g>
<g fill="none" color="black" stroke="currentColor" stroke-width="1.00" stroke-linecap="butt" stroke-linejoin="miter">
	<path stroke='black'  d='M88.5,130.1 L97.5,130.1  '/>	<g transform="translate(80.2,134.0)" stroke="none" fill="black" font-family="Helvetica" font-size="12.00"  text-anchor="end">
		<text><tspan font-family="Helvetica" > 7x10</tspan><tspan font-family="Helvetica"  font-size="9.6" dy="-6.00px">-5</tspan><tspan font-size="12.0" dy="6.00"></tspan></text>
	</g>
</g>
<g fill="none" color="black" stroke="currentColor" stroke-width="1.00" stroke-linecap="butt" stroke-linejoin="miter">
	<path stroke='black'  d='M88.5,54.1 L97.5,54.1  '/>	<g transform="translate(80.2,58.0)" stroke="none" fill="black" font-family="Helvetica" font-size="12.00"  text-anchor="end">
		<text><tspan font-family="Helvetica" > 8x10</tspan><tspan font-family="Helvetica"  font-size="9.6" dy="-6.00px">-5</tspan><tspan font-size="12.0" dy="6.00"></tspan></text>
	</g>
</g>
<g fill="none" color="black" stroke="currentColor" stroke-width="1.00" stroke-linecap="butt" stroke-linejoin="miter">
	<path stroke='black'  d='M157.8,662.4 L157.8,653.4  '/>	<g transform="translate(157.8,684.3)" stroke="none" fill="black" font-family="Helvetica" font-size="12.00"  text-anchor="middle">
		<text><tspan font-family="Helvetica" > 10000</tspan></text>
	</g>
</g>
<g fill="none" color="black" stroke="currentColor" stroke-width="1.00" stroke-linecap="butt" stroke-linejoin="miter">
	<path stroke='black'  d='M294.4,662.4 L294.4,653.4  '/>	<g transform="translate(294.4,684.3)" stroke="none" fill="black" font-family="Helvetica" font-size="12.00"  text-anchor="middle">
		<text><tspan font-family="Helvetica" > 15000</tspan></text>
	</g>
</g>
<g fill="none" color="black" stroke="currentColor" stroke-width="1.00" stroke-linecap="butt" stroke-linejoin="miter">
	<path stroke='black'  d='M431.1,662.4 L431.1,653.4  '/>	<g transform="translate(431.1,684.3)" stroke="none" fill="black" font-family="Helvetica" font-size="12.00"  text-anchor="middle">
		<text><tspan font-family="Helvetica" > 20000</tspan></text>
	</g>
</g>
<g fill="none" color="black" stroke="currentColor" stroke-width="1.00" stroke-linecap="butt" stroke-linejoin="miter">
	<path stroke='black'  d='M567.7,662.4 L567.7,653.4  '/>	<g transform="translate(567.7,684.3)" stroke="none" fill="black" font-family="Helvetica" font-size="12.00"  text-anchor="middle">
		<text><tspan font-family="Helvetica" > 25000</tspan></text>
	</g>
</g>
<g fill="none" color="black" stroke="currentColor" stroke-width="1.00" stroke-linecap="butt" stroke-linejoin="miter">
	<path stroke='black'  d='M704.4,662.4 L704.4,653.4  '/>	<g transform="translate(704.4,684.3)" stroke="none" fill="black" font-family="Helvetica" font-size="12.00"  text-anchor="middle">
		<text><tspan font-family="Helvetica" > 30000</tspan></text>
	</g>
</g>
<g fill="none" color="black" stroke="currentColor" stroke-width="1.00" stroke-linecap="butt" stroke-linejoin="miter">
	<path stroke='black'  d='M841.0,662.4 L841.0,653.4  '/>	<g transform="translate(841.0,684.3)" stroke="none" fill="black" font-family="Helvetica" font-size="12.00"  text-anchor="middle">
		<text><tspan font-family="Helvetica" > 35000</tspan></text>
	</g>
</g>
<g fill="none" color="black" stroke="currentColor" stroke-width="1.00" stroke-linecap="butt" stroke-linejoin="miter">
	<path stroke='black'  d='M977.6,662.4 L977.6,653.4  '/>	<g transform="translate(977.6,684.3)" stroke="none" fill="black" font-family="Helvetica" font-size="12.00"  text-anchor="middle">
		<text><tspan font-family="Helvetica" > 40000</tspan></text>
	</g>
</g>
<g fill="none" color="black" stroke="currentColor" stroke-width="1.00" stroke-linecap="butt" stroke-linejoin="miter">
</g>
<g fill="none" color="black" stroke="currentColor" stroke-width="1.00" stroke-linecap="butt" stroke-linejoin="miter">
	<path stroke='black'  d='M88.5,54.1 L88.5,662.4 L1013.6,662.4 L1013.6,54.1 L88.5,54.1 Z  '/></g>
<g fill="none" color="black" stroke="currentColor" stroke-width="1.00" stroke-linecap="butt" stroke-linejoin="miter">
	<g transform="translate(16.3,358.3) rotate(270)" stroke="none" fill="black" font-family="Helvetica" font-size="12.00"  text-anchor="middle">
		<text><tspan font-family="Helvetica" >Density (a.u.)</tspan></text>
	</g>
</g>
<g fill="none" color="black" stroke="currentColor" stroke-width="1.00" stroke-linecap="butt" stroke-linejoin="miter">
	<g transform="translate(551.0,711.3)" stroke="none" fill="black" font-family="Helvetica" font-size="12.00"  text-anchor="middle">
		<text><tspan font-family="Helvetica" >Average time (cycles)</tspan></text>
	</g>
</g>
<g fill="none" color="black" stroke="currentColor" stroke-width="1.00" stroke-linecap="butt" stroke-linejoin="miter">
	<g transform="translate(551.0,31.0)" stroke="none" fill="black" font-family="Helvetica" font-size="12.00"  text-anchor="middle">
		<text><tspan font-family="Helvetica" >non_nested_compare/modified from scratch/12: MAD</tspan></text>
	</g>
</g>
	<g id="gnuplot_plot_1" ><title>Bootstrap distribution</title>
<g fill="none" color="white" stroke="black" stroke-width="2.00" stroke-linecap="butt" stroke-linejoin="miter">
</g>
<g fill="none" color="black" stroke="currentColor" stroke-width="2.00" stroke-linecap="butt" stroke-linejoin="miter">
	<g transform="translate(1089.0,67.0)" stroke="none" fill="black" font-family="Helvetica" font-size="12.00"  text-anchor="start">
		<text><tspan font-family="Helvetica" >Bootstrap distribution</tspan></text>
	</g>
</g>
<g fill="none" color="black" stroke="currentColor" stroke-width="2.00" stroke-linecap="butt" stroke-linejoin="miter">
	<path stroke='rgb( 31, 120, 180)'  d='M1038.5,63.1 L1080.7,63.1 M88.5,654.8 L90.4,654.1 L92.2,653.4 L94.1,652.5 L95.9,651.6 L97.8,650.6
		L99.6,649.6 L101.5,648.4 L103.3,647.1 L105.2,645.7 L107.0,644.1 L108.9,642.5 L110.7,640.7 L112.6,638.7
		L114.5,636.5 L116.3,634.2 L118.2,631.7 L120.0,629.0 L121.9,626.1 L123.7,622.9 L125.6,619.5 L127.4,615.9
		L129.3,611.9 L131.1,607.7 L133.0,603.2 L134.8,598.3 L136.7,593.1 L138.6,587.6 L140.4,581.8 L142.3,575.6
		L144.1,569.0 L146.0,562.1 L147.8,554.9 L149.7,547.4 L151.5,539.5 L153.4,531.4 L155.2,523.0 L157.1,514.3
		L158.9,505.6 L160.8,496.6 L162.7,487.7 L164.5,478.7 L166.4,469.7 L168.2,460.9 L170.1,452.3 L171.9,443.9
		L173.8,435.9 L175.6,428.3 L177.5,421.1 L179.3,414.5 L181.2,408.4 L183.0,402.9 L184.9,398.0 L186.8,393.9
		L188.6,390.3 L190.5,387.5 L192.3,385.3 L194.2,383.7 L196.0,382.7 L197.9,382.3 L199.7,382.3 L201.6,382.9
		L203.4,383.8 L205.3,385.0 L207.2,386.4 L209.0,388.1 L210.9,389.8 L212.7,391.6 L214.6,393.4 L216.4,395.1
		L218.3,396.7 L220.1,398.0 L222.0,399.2 L223.8,400.2 L225.7,400.8 L227.5,401.2 L229.4,401.4 L231.3,401.2
		L233.1,400.8 L235.0,400.1 L236.8,399.2 L238.7,398.1 L240.5,396.8 L242.4,395.4 L244.2,393.9 L246.1,392.4
		L247.9,390.8 L249.8,389.2 L251.6,387.7 L253.5,386.2 L255.4,384.9 L257.2,383.6 L259.1,382.6 L260.9,381.6
		L262.8,380.9 L264.6,380.2 L266.5,379.8 L268.3,379.5 L270.2,379.4 L272.0,379.4 L273.9,379.5 L275.7,379.7
		L277.6,380.0 L279.5,380.3 L281.3,380.7 L283.2,381.0 L285.0,381.3 L286.9,381.6 L288.7,381.7 L290.6,381.7
		L292.4,381.5 L294.3,381.1 L296.1,380.4 L298.0,379.5 L299.8,378.4 L301.7,376.9 L303.6,375.0 L305.4,372.9
		L307.3,370.3 L309.1,367.4 L311.0,364.2 L312.8,360.5 L314.7,356.5 L316.5,352.2 L318.4,347.6 L320.2,342.6
		L322.1,337.5 L323.9,332.1 L325.8,326.6 L327.7,320.9 L329.5,315.3 L331.4,309.7 L333.2,304.2 L335.1,298.9
		L336.9,293.8 L338.8,289.0 L340.6,284.7 L342.5,280.7 L344.3,277.3 L346.2,274.4 L348.0,272.1 L349.9,270.3
		L351.8,269.1 L353.6,268.5 L355.5,268.5 L357.3,269.0 L359.2,269.9 L361.0,271.2 L362.9,272.9 L364.7,274.9
		L366.6,277.0 L368.4,279.2 L370.3,281.4 L372.1,283.5 L374.0,285.5 L375.9,287.2 L377.7,288.6 L379.6,289.6
		L381.4,290.1 L383.3,290.2 L385.1,289.8 L387.0,288.8 L388.8,287.2 L390.7,285.1 L392.5,282.4 L394.4,279.1
		L396.2,275.3 L398.1,271.0 L400.0,266.1 L401.8,260.9 L403.7,255.2 L405.5,249.2 L407.4,242.9 L409.2,236.4
		L411.1,229.7 L412.9,222.8 L414.8,216.0 L416.6,209.1 L418.5,202.3 L420.3,195.6 L422.2,189.1 L424.1,182.9
		L425.9,176.9 L427.8,171.2 L429.6,165.8 L431.5,160.8 L433.3,156.1 L435.2,151.8 L437.0,147.8 L438.9,144.1
		L440.7,140.7 L442.6,137.5 L444.5,134.6 L446.3,131.9 L448.2,129.3 L450.0,126.9 L451.9,124.5 L453.7,122.3
		L455.6,120.1 L457.4,117.9 L459.3,115.9 L461.1,114.0 L463.0,112.2 L464.8,110.7 L466.7,109.4 L468.6,108.5
		L470.4,107.9 L472.3,107.9 L474.1,108.5 L476.0,109.7 L477.8,111.7 L479.7,114.4 L481.5,118.0 L483.4,122.4
		L485.2,127.7 L487.1,133.9 L488.9,140.9 L490.8,148.7 L492.7,157.3 L494.5,166.6 L496.4,176.4 L498.2,186.8
		L500.1,197.6 L501.9,208.6 L503.8,219.8 L505.6,231.1 L507.5,242.3 L509.3,253.3 L511.2,264.0 L513.0,274.4
		L514.9,284.2 L516.8,293.6 L518.6,302.4 L520.5,310.5 L522.3,318.0 L524.2,324.8 L526.0,330.9 L527.9,336.3
		L529.7,341.2 L531.6,345.4 L533.4,349.0 L535.3,352.1 L537.1,354.8 L539.0,357.0 L540.9,359.0 L542.7,360.6
		L544.6,362.0 L546.4,363.2 L548.3,364.3 L550.1,365.3 L552.0,366.2 L553.8,367.1 L555.7,368.0 L557.5,368.8
		L559.4,369.5 L561.2,370.3 L563.1,371.0 L565.0,371.6 L566.8,372.1 L568.7,372.6 L570.5,373.0 L572.4,373.3
		L574.2,373.5 L576.1,373.6 L577.9,373.6 L579.8,373.6 L581.6,373.6 L583.5,373.5 L585.3,373.4 L587.2,373.4
		L589.1,373.5 L590.9,373.7 L592.8,374.0 L594.6,374.5 L596.5,375.1 L598.3,376.0 L600.2,377.0 L602.0,378.2
		L603.9,379.7 L605.7,381.3 L607.6,383.1 L609.4,385.0 L611.3,387.1 L613.2,389.3 L615.0,391.5 L616.9,393.8
		L618.7,396.1 L620.6,398.3 L622.4,400.5 L624.3,402.7 L626.1,404.8 L628.0,406.7 L629.8,408.6 L631.7,410.3
		L633.5,412.0 L635.4,413.5 L637.3,415.0 L639.1,416.3 L641.0,417.6 L642.8,418.9 L644.7,420.1 L646.5,421.4
		L648.4,422.7 L650.2,424.1 L652.1,425.6 L653.9,427.2 L655.8,429.1 L657.6,431.1 L659.5,433.4 L661.4,435.9
		L663.2,438.7 L665.1,441.8 L666.9,445.1 L668.8,448.7 L670.6,452.6 L672.5,456.6 L674.3,460.9 L676.2,465.4
		L678.0,469.9 L679.9,474.5 L681.8,479.2 L683.6,483.8 L685.5,488.3 L687.3,492.8 L689.2,497.0 L691.0,501.1
		L692.9,505.0 L694.7,508.6 L696.6,512.0 L698.4,515.1 L700.3,517.9 L702.1,520.6 L704.0,523.0 L705.9,525.2
		L707.7,527.2 L709.6,529.1 L711.4,530.8 L713.3,532.4 L715.1,534.0 L717.0,535.5 L718.8,537.0 L720.7,538.4
		L722.5,539.8 L724.4,541.2 L726.2,542.6 L728.1,544.0 L730.0,545.4 L731.8,546.8 L733.7,548.2 L735.5,549.5
		L737.4,550.8 L739.2,552.1 L741.1,553.3 L742.9,554.5 L744.8,555.6 L746.6,556.7 L748.5,557.8 L750.3,558.8
		L752.2,559.8 L754.1,560.7 L755.9,561.6 L757.8,562.5 L759.6,563.4 L761.5,564.2 L763.3,565.1 L765.2,565.9
		L767.0,566.8 L768.9,567.7 L770.7,568.5 L772.6,569.4 L774.4,570.3 L776.3,571.2 L778.2,572.1 L780.0,573.0
		L781.9,574.0 L783.7,574.9 L785.6,575.8 L787.4,576.7 L789.3,577.6 L791.1,578.5 L793.0,579.3 L794.8,580.2
		L796.7,580.9 L798.5,581.7 L800.4,582.4 L802.3,583.0 L804.1,583.5 L806.0,584.0 L807.8,584.5 L809.7,584.9
		L811.5,585.2 L813.4,585.4 L815.2,585.6 L817.1,585.8 L818.9,586.0 L820.8,586.1 L822.6,586.2 L824.5,586.4
		L826.4,586.5 L828.2,586.7 L830.1,586.9 L831.9,587.1 L833.8,587.4 L835.6,587.7 L837.5,588.1 L839.3,588.5
		L841.2,588.9 L843.0,589.3 L844.9,589.7 L846.7,590.1 L848.6,590.5 L850.5,590.9 L852.3,591.2 L854.2,591.4
		L856.0,591.6 L857.9,591.7 L859.7,591.7 L861.6,591.7 L863.4,591.6 L865.3,591.5 L867.1,591.3 L869.0,591.2
		L870.8,591.0 L872.7,590.8 L874.6,590.6 L876.4,590.5 L878.3,590.4 L880.1,590.4 L882.0,590.5 L883.8,590.6
		L885.7,590.9 L887.5,591.2 L889.4,591.6 L891.2,592.1 L893.1,592.7 L894.9,593.3 L896.8,594.0 L898.7,594.7
		L900.5,595.5 L902.4,596.3 L904.2,597.1 L906.1,598.0 L907.9,598.9 L909.8,599.8 L911.6,600.7 L913.5,601.6
		L915.3,602.5 L917.2,603.5 L919.1,604.4 L920.9,605.4 L922.8,606.4 L924.6,607.4 L926.5,608.4 L928.3,609.4
		L930.2,610.4 L932.0,611.4 L933.9,612.4 L935.7,613.4 L937.6,614.4 L939.4,615.3 L941.3,616.2 L943.2,617.0
		L945.0,617.8 L946.9,618.5 L948.7,619.2 L950.6,619.8 L952.4,620.4 L954.3,620.8 L956.1,621.2 L958.0,621.6
		L959.8,621.9 L961.7,622.1 L963.5,622.3 L965.4,622.4 L967.3,622.6 L969.1,622.6 L971.0,622.7 L972.8,622.7
		L974.7,622.8 L976.5,622.8 L978.4,622.9 L980.2,623.0 L982.1,623.1 L983.9,623.2 L985.8,623.3 L987.6,623.5
		L989.5,623.7 L991.4,624.0 L993.2,624.3 L995.1,624.6 L996.9,625.0 L998.8,625.4 L1000.6,625.9 L1002.5,626.3
		L1004.3,626.8 L1006.2,627.3 L1008.0,627.9 L1009.9,628.4 L1011.7,628.9 L1013.6,629.5  '/></g>
	</g>
	<g id="gnuplot_plot_2" ><title>Confidence interval</title>
<g fill="none" color="white" stroke="rgb( 31, 120, 180)" stroke-width="1.00" stroke-linecap="butt" stroke-linejoin="miter">
</g>
<g fill="none" color="black" stroke="currentColor" stroke-width="1.00" stroke-linecap="butt" stroke-linejoin="miter">
	<g transform="translate(1089.0,85.0)" stroke="none" fill="black" font-family="Helvetica" font-size="12.00"  text-anchor="start">
		<text><tspan font-family="Helvetica" >Confidence interval</tspan></text>
	</g>
</g>
<g fill="none" color="black" stroke="currentColor" stroke-width="1.00" stroke-linecap="butt" stroke-linejoin="miter">
	<g stroke='none' shape-rendering='crispEdges'>
		<polygon fill = 'rgb( 31, 120, 180)' fill-opacity = '0.250000' points = '1038.5,85.6 1080.7,85.6 1080.7,76.6 1038.5,76.6 '/>
		<polygon fill = 'rgb( 31, 120, 180)' fill-opacity = '0.250000' points = '173.8,435.9 175.6,428.3 177.5,421.1 179.3,414.5 181.2,408.4 183.0,402.9 184.9,398.0 186.8,393.9 188.6,390.3 190.5,387.5 192.3,385.3 194.2,383.7 196.0,382.7 197.9,382.3 199.7,382.3 201.6,382.9
203.4,383.8 205.3,385.0 207.2,386.4 209.0,388.1 210.9,389.8 212.7,391.6 214.6,393.4 216.4,395.1 218.3,396.7 220.1,398.0 222.0,399.2 223.8,400.2 225.7,400.8 227.5,401.2 229.4,401.4 231.3,401.2
233.1,400.8 235.0,400.1 236.8,399.2 238.7,398.1 240.5,396.8 242.4,395.4 244.2,393.9 246.1,392.4 247.9,390.8 249.8,389.2 251.6,387.7 253.5,386.2 255.4,384.9 257.2,383.6 259.1,382.6 260.9,381.6
262.8,380.9 264.6,380.2 266.5,379.8 268.3,379.5 270.2,379.4 272.0,379.4 273.9,379.5 275.7,379.7 277.6,380.0 279.5,380.3 281.3,380.7 283.2,381.0 285.0,381.3 286.9,381.6 288.7,381.7 290.6,381.7
292.4,381.5 294.3,381.1 296.1,380.4 298.0,379.5 299.8,378.4 301.7,376.9 303.6,375.0 305.4,372.9 307.3,370.3 309.1,367.4 311.0,364.2 312.8,360.5 314.7,356.5 316.5,352.2 318.4,347.6 320.2,342.6
322.1,337.5 323.9,332.1 325.8,326.6 327.7,320.9 329.5,315.3 331.4,309.7 333.2,304.2 335.1,298.9 336.9,293.8 338.8,289.0 340.6,284.7 342.5,280.7 344.3,277.3 346.2,274.4 348.0,272.1 349.9,270.3
351.8,269.1 353.6,268.5 355.5,268.5 357.3,269.0 359.2,269.9 361.0,271.2 362.9,272.9 364.7,274.9 366.6,277.0 368.4,279.2 370.3,281.4 372.1,283.5 374.0,285.5 375.9,287.2 377.7,288.6 379.6,289.6
381.4,290.1 383.3,290.2 385.1,289.8 387.0,288.8 388.8,287.2 390.7,285.1 392.5,282.4 394.4,279.1 396.2,275.3 398.1,271.0 400.0,266.1 401.8,260.9 403.7,255.2 405.5,249.2 407.4,242.9 409.2,236.4
411.1,229.7 412.9,222.8 414.8,216.0 416.6,209.1 418.5,202.3 420.3,195.6 422.2,189.1 424.1,182.9 425.9,176.9 427.8,171.2 429.6,165.8 431.5,160.8 433.3,156.1 435.2,151.8 437.0,147.8 438.9,144.1
440.7,140.7 442.6,137.5 444.5,134.6 446.3,131.9 448.2,129.3 450.0,126.9 451.9,124.5 453.7,122.3 455.6,120.1 457.4,117.9 459.3,115.9 461.1,114.0 463.0,112.2 464.8,110.7 466.7,109.4 468.6,108.5
470.4,107.9 472.3,107.9 474.1,108.5 476.0,109.7 477.8,111.7 479.7,114.4 481.5,118.0 483.4,122.4 485.2,127.7 487.1,133.9 488.9,140.9 490.8,148.7 492.7,157.3 494.5,166.6 496.4,176.4 498.2,186.8
500.1,197.6 501.9,208.6 503.8,219.8 505.6,231.1 507.5,242.3 509.3,253.3 511.2,264.0 513.0,274.4 514.9,284.2 516.8,293.6 518.6,302.4 520.5,310.5 522.3,318.0 524.2,324.8 526.0,330.9 527.9,336.3
529.7,341.2 531.6,345.4 533.4,349.0 535.3,352.1 537.1,354.8 539.0,357.0 540.9,359.0 542.7,360.6 544.6,362.0 546.4,363.2 548.3,364.3 550.1,365.3 552.0,366.2 553.8,367.1 555.7,368.0 557.5,368.8
559.4,369.5 561.2,370.3 563.1,371.0 565.0,371.6 566.8,372.1 568.7,372.6 570.5,373.0 572.4,373.3 574.2,373.5 576.1,373.6 577.9,373.6 579.8,373.6 581.6,373.6 583.5,373.5 585.3,373.4 587.2,373.4
589.1,373.5 590.9,373.7 592.8,374.0 594.6,374.5 596.5,375.1 598.3,376.0 600.2,377.0 602.0,378.2 603.9,379.7 605.7,381.3 607.6,383.1 609.4,385.0 611.3,387.1 613.2,389.3 615.0,391.5 616.9,393.8
618.7,396.1 620.6,398.3 622.4,400.5 624.3,402.7 626.1,404.8 628.0,406.7 629.8,408.6 631.7,410.3 633.5,412.0 635.4,413.5 637.3,415.0 639.1,416.3 641.0,417.6 642.8,418.9 644.7,420.1 646.5,421.4
648.4,422.7 650.2,424.1 652.1,425.6 653.9,427.2 655.8,429.1 657.6,431.1 659.5,433.4 661.4,435.9 663.2,438.7 665.1,441.8 666.9,445.1 668.8,448.7 670.6,452.6 672.5,456.6 674.3,460.9 676.2,465.4
678.0,469.9 679.9,474.5 681.8,479.2 683.6,483.8 685.5,488.3 687.3,492.8 689.2,497.0 691.0,501.1 692.9,505.0 694.7,508.6 696.6,512.0 698.4,515.1 700.3,517.9 702.1,520.6 704.0,523.0 705.9,525.2
707.7,527.2 709.6,529.1 711.4,530.8 713.3,532.4 715.1,534.0 717.0,535.5 718.8,537.0 720.7,538.4 722.5,539.8 724.4,541.2 726.2,542.6 728.1,544.0 730.0,545.4 731.8,546.8 733.7,548.2 735.5,549.5
737.4,550.8 739.2,552.1 741.1,553.3 742.9,554.5 744.8,555.6 746.6,556.7 748.5,557.8 750.3,558.8 752.2,559.8 754.1,560.7 755.9,561.6 757.8,562.5 759.6,563.4 761.5,564.2 763.3,565.1 765.2,565.9
767.0,566.8 768.9,567.7 770.7,568.5 772.6,569.4 774.4,570.3 776.3,571.2 778.2,572.1 780.0,573.0 781.9,574.0 783.7,574.9 785.6,575.8 787.4,576.7 789.3,577.6 791.1,578.5 793.0,579.3 794.8,580.2
796.7,580.9 798.5,581.7 800.4,582.4 802.3,583.0 804.1,583.5 806.0,584.0 807.8,584.5 809.7,584.9 811.5,585.2 813.4,585.4 815.2,585.6 817.1,585.8 818.9,586.0 820.8,586.1 822.6,586.2 824.5,586.4
826.4,586.5 828.2,586.7 830.1,586.9 831.9,587.1 833.8,587.4 835.6,587.7 837.5,588.1 839.3,588.5 841.2,588.9 843.0,589.3 844.9,589.7 846.7,590.1 848.6,590.5 850.5,590.9 852.3,591.2 854.2,591.4
856.0,591.6 857.9,591.7 859.7,591.7 861.6,591.7 863.4,591.6 865.3,591.5 867.1,591.3 869.0,591.2 870.8,591.0 872.7,590.8 874.6,590.6 876.4,590.5 878.3,590.4 880.1,590.4 882.0,590.5 883.8,590.6
885.7,590.9 887.5,591.2 889.4,591.6 891.2,592.1 893.1,592.7 894.9,593.3 896.8,594.0 898.7,594.7 900.5,595.5 902.4,596.3 904.2,597.1 906.1,598.0 907.9,598.9 909.8,599.8 911.6,600.7 913.5,601.6
915.3,602.5 917.2,603.5 919.1,604.4 920.9,605.4 922.8,606.4 924.6,607.4 926.5,608.4 926.5,662.4 924.6,662.4 922.8,662.4 920.9,662.4 919.1,662.4 917.2,662.4 915.3,662.4 913.5,662.4 911.6,662.4
909.8,662.4 907.9,662.4 906.1,662.4 904.2,662.4 902.4,662.4 900.5,662.4 898.7,662.4 896.8,662.4 894.9,662.4 893.1,662.4 891.2,662.4 889.4,662.4 887.5,662.4 885.7,662.4 883.8,662.4 882.0,662.4
880.1,662.4 878.3,662.4 876.4,662.4 874.6,662.4 872.7,662.4 870.8,662.4 869.0,662.4 867.1,662.4 865.3,662.4 863.4,662.4 861.6,662.4 859.7,662.4 857.9,662.4 856.0,662.4 854.2,662.4 852.3,662.4
850.5,662.4 848.6,662.4 846.7,662.4 844.9,662.4 843.0,662.4 841.2,662.4 839.3,662.4 837.5,662.4 835.6,662.4 833.8,662.4 831.9,662.4 830.1,662.4 828.2,662.4 826.4,662.4 824.5,662.4 822.6,662.4
820.8,662.4 818.9,662.4 817.1,662.4 815.2,662.4 813.4,662.4 811.5,662.4 809.7,662.4 807.8,662.4 806.0,662.4 804.1,662.4 802.3,662.4 800.4,662.4 798.5,662.4 796.7,662.4 794.8,662.4 793.0,662.4
791.1,662.4 789.3,662.4 787.4,662.4 785.6,662.4 783.7,662.4 781.9,662.4 780.0,662.4 778.2,662.4 776.3,662.4 774.4,662.4 772.6,662.4 770.7,662.4 768.9,662.4 767.0,662.4 765.2,662.4 763.3,662.4
761.5,662.4 759.6,662.4 757.8,662.4 755.9,662.4 754.1,662.4 752.2,662.4 750.3,662.4 748.5,662.4 746.6,662.4 744.8,662.4 742.9,662.4 741.1,662.4 739.2,662.4 737.4,662.4 735.5,662.4 733.7,662.4
731.8,662.4 730.0,662.4 728.1,662.4 726.2,662.4 724.4,662.4 722.5,662.4 720.7,662.4 718.8,662.4 717.0,662.4 715.1,662.4 713.3,662.4 711.4,662.4 709.6,662.4 707.7,662.4 705.9,662.4 704.0,662.4
702.1,662.4 700.3,662.4 698.4,662.4 696.6,662.4 694.7,662.4 692.9,662.4 691.0,662.4 689.2,662.4 687.3,662.4 685.5,662.4 683.6,662.4 681.8,662.4 679.9,662.4 678.0,662.4 676.2,662.4 674.3,662.4
672.5,662.4 670.6,662.4 668.8,662.4 666.9,662.4 665.1,662.4 663.2,662.4 661.4,662.4 659.5,662.4 657.6,662.4 655.8,662.4 653.9,662.4 652.1,662.4 650.2,662.4 648.4,662.4 646.5,662.4 644.7,662.4
642.8,662.4 641.0,662.4 639.1,662.4 637.3,662.4 635.4,662.4 633.5,662.4 631.7,662.4 629.8,662.4 628.0,662.4 626.1,662.4 624.3,662.4 622.4,662.4 620.6,662.4 618.7,662.4 616.9,662.4 615.0,662.4
613.2,662.4 611.3,662.4 609.4,662.4 607.6,662.4 605.7,662.4 603.9,662.4 602.0,662.4 600.2,662.4 598.3,662.4 596.5,662.4 594.6,662.4 592.8,662.4 590.9,662.4 589.1,662.4 587.2,662.4 585.3,662.4
583.5,662.4 581.6,662.4 579.8,662.4 577.9,662.4 576.1,662.4 574.2,662.4 572.4,662.4 570.5,662.4 568.7,662.4 566.8,662.4 565.0,662.4 563.1,662.4 561.2,662.4 559.4,662.4 557.5,662.4 555.7,662.4
553.8,662.4 552.0,662.4 550.1,662.4 548.3,662.4 546.4,662.4 544.6,662.4 542.7,662.4 540.9,662.4 539.0,662.4 537.1,662.4 535.3,662.4 533.4,662.4 531.6,662.4 529.7,662.4 527.9,662.4 526.0,662.4
524.2,662.4 522.3,662.4 520.5,662.4 518.6,662.4 516.8,662.4 514.9,662.4 513.0,662.4 511.2,662.4 509.3,662.4 507.5,662.4 505.6,662.4 503.8,662.4 501.9,662.4 500.1,662.4 498.2,662.4 496.4,662.4
494.5,662.4 492.7,662.4 490.8,662.4 488.9,662.4 487.1,662.4 485.2,662.4 483.4,662.4 481.5,662.4 479.7,662.4 477.8,662.4 476.0,662.4 474.1,662.4 472.3,662.4 470.4,662.4 468.6,662.4 466.7,662.4
464.8,662.4 463.0,662.4 461.1,662.4 459.3,662.4 457.4,662.4 455.6,662.4 453.7,662.4 451.9,662.4 450.0,662.4 448.2,662.4 446.3,662.4 444.5,662.4 442.6,662.4 440.7,662.4 438.9,662.4 437.0,662.4
435.2,662.4 433.3,662.4 431.5,662.4 429.6,662.4 427.8,662.4 425.9,662.4 424.1,662.4 422.2,662.4 420.3,662.4 418.5,662.4 416.6,662.4 414.8,662.4 412.9,662.4 411.1,662.4 409.2,662.4 407.4,662.4
405.5,662.4 403.7,662.4 401.8,662.4 400.0,662.4 398.1,662.4 396.2,662.4 394.4,662.4 392.5,662.4 390.7,662.4 388.8,662.4 387.0,662.4 385.1,662.4 383.3,662.4 381.4,662.4 379.6,662.4 377.7,662.4
375.9,662.4 374.0,662.4 372.1,662.4 370.3,662.4 368.4,662.4 366.6,662.4 364.7,662.4 362.9,662.4 361.0,662.4 359.2,662.4 357.3,662.4 355.5,662.4 353.6,662.4 351.8,662.4 349.9,662.4 348.0,662.4
346.2,662.4 344.3,662.4 342.5,662.4 340.6,662.4 338.8,662.4 336.9,662.4 335.1,662.4 333.2,662.4 331.4,662.4 329.5,662.4 327.7,662.4 325.8,662.4 323.9,662.4 322.1,662.4 320.2,662.4 318.4,662.4
316.5,662.4 314.7,662.4 312.8,662.4 311.0,662.4 309.1,662.4 307.3,662.4 305.4,662.4 303.6,662.4 301.7,662.4 299.8,662.4 298.0,662.4 296.1,662.4 294.3,662.4 292.4,662.4 290.6,662.4 288.7,662.4
286.9,662.4 285.0,662.4 283.2,662.4 281.3,662.4 279.5,662.4 277.6,662.4 275.7,662.4 273.9,662.4 272.0,662.4 270.2,662.4 268.3,662.4 266.5,662.4 264.6,662.4 262.8,662.4 260.9,662.4 259.1,662.4
257.2,662.4 255.4,662.4 253.5,662.4 251.6,662.4 249.8,662.4 247.9,662.4 246.1,662.4 244.2,662.4 242.4,662.4 240.5,662.4 238.7,662.4 236.8,662.4 235.0,662.4 233.1,662.4 231.3,662.4 229.4,662.4
227.5,662.4 225.7,662.4 223.8,662.4 222.0,662.4 220.1,662.4 218.3,662.4 216.4,662.4 214.6,662.4 212.7,662.4 210.9,662.4 209.0,662.4 207.2,662.4 205.3,662.4 203.4,662.4 201.6,662.4 199.7,662.4
197.9,662.4 196.0,662.4 194.2,662.4 192.3,662.4 190.5,662.4 188.6,662.4 186.8,662.4 184.9,662.4 183.0,662.4 181.2,662.4 179.3,662.4 177.5,662.4 175.6,662.4 173.8,662.4 '/>
	</g>
</g>
	</g>
	<g id="gnuplot_plot_3" ><title>Point estimate</title>
<g fill="none" color="white" stroke="rgb( 31, 120, 180)" stroke-width="2.00" stroke-linecap="butt" stroke-linejoin="miter">
</g>
<g fill="none" color="black" stroke="currentColor" stroke-width="2.00" stroke-linecap="butt" stroke-linejoin="miter">
	<g transform="translate(1089.0,103.0)" stroke="none" fill="black" font-family="Helvetica" font-size="12.00"  text-anchor="start">
		<text><tspan font-family="Helvetica" >Point estimate</tspan></text>
	</g>
</g>
<g fill="none" color="black" stroke="currentColor" stroke-width="2.00" stroke-linecap="butt" stroke-linejoin="miter">
	<path stroke='rgb( 31, 120, 180)'  d='M1038.5,99.1 L1080.7,99.1 M453.9,662.4 L453.9,122.1  '/></g>
	</g>
<g fill="none" color="black" stroke="currentColor" stroke-width="2.00" stroke-linecap="butt" stroke-linejoin="miter">
</g>
<g fill="none" color="black" stroke="black" stroke-width="1.00" stroke-linecap="butt" stroke-linejoin="miter">
</g>
<g fill="none" color="black" stroke="currentColor" stroke-width="1.00" stroke-linecap="butt" stroke-linejoin="miter">
	<path stroke='black'  d='M88.5,54.1 L88.5,662.4 L1013.6,662.4 L1013.6,54.1 L88.5,54.1 Z  '/></g>
<g fill="none" color="black" stroke="currentColor" stroke-width="1.00" stroke-linecap="butt" stroke-linejoin="miter">
</g>
</g>
</svg>

