<?xml version="1.0" encoding="utf-8"  standalone="no"?>
<svg 
 viewBox="0 0 1280 720"
 xmlns="http://www.w3.org/2000/svg"
 xmlns:xlink="http://www.w3.org/1999/xlink"
>

<title>Gnuplot</title>
<desc>Produced by GNUPLOT 5.2 patchlevel 2 </desc>

<g id="gnuplot_canvas">

<rect x="0" y="0" width="1280" height="720" fill="none"/>
<defs>

	<circle id='gpDot' r='0.5' stroke-width='0.5'/>
	<path id='gpPt0' stroke-width='0.222' stroke='currentColor' d='M-1,0 h2 M0,-1 v2'/>
	<path id='gpPt1' stroke-width='0.222' stroke='currentColor' d='M-1,-1 L1,1 M1,-1 L-1,1'/>
	<path id='gpPt2' stroke-width='0.222' stroke='currentColor' d='M-1,0 L1,0 M0,-1 L0,1 M-1,-1 L1,1 M-1,1 L1,-1'/>
	<rect id='gpPt3' stroke-width='0.222' stroke='currentColor' x='-1' y='-1' width='2' height='2'/>
	<rect id='gpPt4' stroke-width='0.222' stroke='currentColor' fill='currentColor' x='-1' y='-1' width='2' height='2'/>
	<circle id='gpPt5' stroke-width='0.222' stroke='currentColor' cx='0' cy='0' r='1'/>
	<use xlink:href='#gpPt5' id='gpPt6' fill='currentColor' stroke='none'/>
	<path id='gpPt7' stroke-width='0.222' stroke='currentColor' d='M0,-1.33 L-1.33,0.67 L1.33,0.67 z'/>
	<use xlink:href='#gpPt7' id='gpPt8' fill='currentColor' stroke='none'/>
	<use xlink:href='#gpPt7' id='gpPt9' stroke='currentColor' transform='rotate(180)'/>
	<use xlink:href='#gpPt9' id='gpPt10' fill='currentColor' stroke='none'/>
	<use xlink:href='#gpPt3' id='gpPt11' stroke='currentColor' transform='rotate(45)'/>
	<use xlink:href='#gpPt11' id='gpPt12' fill='currentColor' stroke='none'/>
	<path id='gpPt13' stroke-width='0.222' stroke='currentColor' d='M0,1.330 L1.265,0.411 L0.782,-1.067 L-0.782,-1.076 L-1.265,0.411 z'/>
	<use xlink:href='#gpPt13' id='gpPt14' fill='currentColor' stroke='none'/>
	<filter id='textbox' filterUnits='objectBoundingBox' x='0' y='0' height='1' width='1'>
	  <feFlood flood-color='white' flood-opacity='1' result='bgnd'/>
	  <feComposite in='SourceGraphic' in2='bgnd' operator='atop'/>
	</filter>
	<filter id='greybox' filterUnits='objectBoundingBox' x='0' y='0' height='1' width='1'>
	  <feFlood flood-color='lightgrey' flood-opacity='1' result='grey'/>
	  <feComposite in='SourceGraphic' in2='grey' operator='atop'/>
	</filter>
</defs>
<g fill="none" color="white" stroke="currentColor" stroke-width="1.00" stroke-linecap="butt" stroke-linejoin="miter">
</g>
<g fill="none" color="black" stroke="currentColor" stroke-width="1.00" stroke-linecap="butt" stroke-linejoin="miter">
	<path stroke='black'  d='M55.3,662.4 L64.3,662.4  '/>	<g transform="translate(47.0,666.3)" stroke="none" fill="black" font-family="Helvetica" font-size="12.00"  text-anchor="end">
		<text><tspan font-family="Helvetica" > 0</tspan></text>
	</g>
</g>
<g fill="none" color="black" stroke="currentColor" stroke-width="1.00" stroke-linecap="butt" stroke-linejoin="miter">
	<path stroke='black'  d='M55.3,563.9 L64.3,563.9  '/>	<g transform="translate(47.0,567.8)" stroke="none" fill="black" font-family="Helvetica" font-size="12.00"  text-anchor="end">
		<text><tspan font-family="Helvetica" > 1</tspan></text>
	</g>
</g>
<g fill="none" color="black" stroke="currentColor" stroke-width="1.00" stroke-linecap="butt" stroke-linejoin="miter">
	<path stroke='black'  d='M55.3,465.4 L64.3,465.4  '/>	<g transform="translate(47.0,469.3)" stroke="none" fill="black" font-family="Helvetica" font-size="12.00"  text-anchor="end">
		<text><tspan font-family="Helvetica" > 2</tspan></text>
	</g>
</g>
<g fill="none" color="black" stroke="currentColor" stroke-width="1.00" stroke-linecap="butt" stroke-linejoin="miter">
	<path stroke='black'  d='M55.3,367.0 L64.3,367.0  '/>	<g transform="translate(47.0,370.9)" stroke="none" fill="black" font-family="Helvetica" font-size="12.00"  text-anchor="end">
		<text><tspan font-family="Helvetica" > 3</tspan></text>
	</g>
</g>
<g fill="none" color="black" stroke="currentColor" stroke-width="1.00" stroke-linecap="butt" stroke-linejoin="miter">
	<path stroke='black'  d='M55.3,268.5 L64.3,268.5  '/>	<g transform="translate(47.0,272.4)" stroke="none" fill="black" font-family="Helvetica" font-size="12.00"  text-anchor="end">
		<text><tspan font-family="Helvetica" > 4</tspan></text>
	</g>
</g>
<g fill="none" color="black" stroke="currentColor" stroke-width="1.00" stroke-linecap="butt" stroke-linejoin="miter">
	<path stroke='black'  d='M55.3,170.0 L64.3,170.0  '/>	<g transform="translate(47.0,173.9)" stroke="none" fill="black" font-family="Helvetica" font-size="12.00"  text-anchor="end">
		<text><tspan font-family="Helvetica" > 5</tspan></text>
	</g>
</g>
<g fill="none" color="black" stroke="currentColor" stroke-width="1.00" stroke-linecap="butt" stroke-linejoin="miter">
	<path stroke='black'  d='M55.3,71.5 L64.3,71.5  '/>	<g transform="translate(47.0,75.4)" stroke="none" fill="black" font-family="Helvetica" font-size="12.00"  text-anchor="end">
		<text><tspan font-family="Helvetica" > 6</tspan></text>
	</g>
</g>
<g fill="none" color="black" stroke="currentColor" stroke-width="1.00" stroke-linecap="butt" stroke-linejoin="miter">
	<path stroke='black'  d='M65.6,662.4 L65.6,653.4  '/>	<g transform="translate(65.6,684.3)" stroke="none" fill="black" font-family="Helvetica" font-size="12.00"  text-anchor="middle">
		<text><tspan font-family="Helvetica" > 0</tspan></text>
	</g>
</g>
<g fill="none" color="black" stroke="currentColor" stroke-width="1.00" stroke-linecap="butt" stroke-linejoin="miter">
	<path stroke='black'  d='M232.1,662.4 L232.1,653.4  '/>	<g transform="translate(232.1,684.3)" stroke="none" fill="black" font-family="Helvetica" font-size="12.00"  text-anchor="middle">
		<text><tspan font-family="Helvetica" > 10000</tspan></text>
	</g>
</g>
<g fill="none" color="black" stroke="currentColor" stroke-width="1.00" stroke-linecap="butt" stroke-linejoin="miter">
	<path stroke='black'  d='M398.7,662.4 L398.7,653.4  '/>	<g transform="translate(398.7,684.3)" stroke="none" fill="black" font-family="Helvetica" font-size="12.00"  text-anchor="middle">
		<text><tspan font-family="Helvetica" > 20000</tspan></text>
	</g>
</g>
<g fill="none" color="black" stroke="currentColor" stroke-width="1.00" stroke-linecap="butt" stroke-linejoin="miter">
	<path stroke='black'  d='M565.3,662.4 L565.3,653.4  '/>	<g transform="translate(565.3,684.3)" stroke="none" fill="black" font-family="Helvetica" font-size="12.00"  text-anchor="middle">
		<text><tspan font-family="Helvetica" > 30000</tspan></text>
	</g>
</g>
<g fill="none" color="black" stroke="currentColor" stroke-width="1.00" stroke-linecap="butt" stroke-linejoin="miter">
	<path stroke='black'  d='M731.8,662.4 L731.8,653.4  '/>	<g transform="translate(731.8,684.3)" stroke="none" fill="black" font-family="Helvetica" font-size="12.00"  text-anchor="middle">
		<text><tspan font-family="Helvetica" > 40000</tspan></text>
	</g>
</g>
<g fill="none" color="black" stroke="currentColor" stroke-width="1.00" stroke-linecap="butt" stroke-linejoin="miter">
	<path stroke='black'  d='M898.4,662.4 L898.4,653.4  '/>	<g transform="translate(898.4,684.3)" stroke="none" fill="black" font-family="Helvetica" font-size="12.00"  text-anchor="middle">
		<text><tspan font-family="Helvetica" > 50000</tspan></text>
	</g>
</g>
<g fill="none" color="black" stroke="currentColor" stroke-width="1.00" stroke-linecap="butt" stroke-linejoin="miter">
	<path stroke='black'  d='M979.0,662.4 L970.0,662.4  '/>	<g transform="translate(987.3,666.3)" stroke="none" fill="black" font-family="Helvetica" font-size="12.00"  text-anchor="start">
		<text><tspan font-family="Helvetica" > 0</tspan></text>
	</g>
</g>
<g fill="none" color="black" stroke="currentColor" stroke-width="1.00" stroke-linecap="butt" stroke-linejoin="miter">
	<path stroke='black'  d='M979.0,601.6 L970.0,601.6  '/>	<g transform="translate(987.3,605.5)" stroke="none" fill="black" font-family="Helvetica" font-size="12.00"  text-anchor="start">
		<text><tspan font-family="Helvetica" > 5x10</tspan><tspan font-family="Helvetica"  font-size="9.6" dy="-6.00px">-6</tspan><tspan font-size="12.0" dy="6.00"></tspan></text>
	</g>
</g>
<g fill="none" color="black" stroke="currentColor" stroke-width="1.00" stroke-linecap="butt" stroke-linejoin="miter">
	<path stroke='black'  d='M979.0,540.7 L970.0,540.7  '/>	<g transform="translate(987.3,544.6)" stroke="none" fill="black" font-family="Helvetica" font-size="12.00"  text-anchor="start">
		<text><tspan font-family="Helvetica" > 1x10</tspan><tspan font-family="Helvetica"  font-size="9.6" dy="-6.00px">-5</tspan><tspan font-size="12.0" dy="6.00"></tspan></text>
	</g>
</g>
<g fill="none" color="black" stroke="currentColor" stroke-width="1.00" stroke-linecap="butt" stroke-linejoin="miter">
	<path stroke='black'  d='M979.0,479.9 L970.0,479.9  '/>	<g transform="translate(987.3,483.8)" stroke="none" fill="black" font-family="Helvetica" font-size="12.00"  text-anchor="start">
		<text><tspan font-family="Helvetica" > 1.5x10</tspan><tspan font-family="Helvetica"  font-size="9.6" dy="-6.00px">-5</tspan><tspan font-size="12.0" dy="6.00"></tspan></text>
	</g>
</g>
<g fill="none" color="black" stroke="currentColor" stroke-width="1.00" stroke-linecap="butt" stroke-linejoin="miter">
	<path stroke='black'  d='M979.0,419.1 L970.0,419.1  '/>	<g transform="translate(987.3,423.0)" stroke="none" fill="black" font-family="Helvetica" font-size="12.00"  text-anchor="start">
		<text><tspan font-family="Helvetica" > 2x10</tspan><tspan font-family="Helvetica"  font-size="9.6" dy="-6.00px">-5</tspan><tspan font-size="12.0" dy="6.00"></tspan></text>
	</g>
</g>
<g fill="none" color="black" stroke="currentColor" stroke-width="1.00" stroke-linecap="butt" stroke-linejoin="miter">
	<path stroke='black'  d='M979.0,358.2 L970.0,358.2  '/>	<g transform="translate(987.3,362.1)" stroke="none" fill="black" font-family="Helvetica" font-size="12.00"  text-anchor="start">
		<text><tspan font-family="Helvetica" > 2.5x10</tspan><tspan font-family="Helvetica"  font-size="9.6" dy="-6.00px">-5</tspan><tspan font-size="12.0" dy="6.00"></tspan></text>
	</g>
</g>
<g fill="none" color="black" stroke="currentColor" stroke-width="1.00" stroke-linecap="butt" stroke-linejoin="miter">
	<path stroke='black'  d='M979.0,297.4 L970.0,297.4  '/>	<g transform="translate(987.3,301.3)" stroke="none" fill="black" font-family="Helvetica" font-size="12.00"  text-anchor="start">
		<text><tspan font-family="Helvetica" > 3x10</tspan><tspan font-family="Helvetica"  font-size="9.6" dy="-6.00px">-5</tspan><tspan font-size="12.0" dy="6.00"></tspan></text>
	</g>
</g>
<g fill="none" color="black" stroke="currentColor" stroke-width="1.00" stroke-linecap="butt" stroke-linejoin="miter">
	<path stroke='black'  d='M979.0,236.6 L970.0,236.6  '/>	<g transform="translate(987.3,240.5)" stroke="none" fill="black" font-family="Helvetica" font-size="12.00"  text-anchor="start">
		<text><tspan font-family="Helvetica" > 3.5x10</tspan><tspan font-family="Helvetica"  font-size="9.6" dy="-6.00px">-5</tspan><tspan font-size="12.0" dy="6.00"></tspan></text>
	</g>
</g>
<g fill="none" color="black" stroke="currentColor" stroke-width="1.00" stroke-linecap="butt" stroke-linejoin="miter">
	<path stroke='black'  d='M979.0,175.8 L970.0,175.8  '/>	<g transform="translate(987.3,179.7)" stroke="none" fill="black" font-family="Helvetica" font-size="12.00"  text-anchor="start">
		<text><tspan font-family="Helvetica" > 4x10</tspan><tspan font-family="Helvetica"  font-size="9.6" dy="-6.00px">-5</tspan><tspan font-size="12.0" dy="6.00"></tspan></text>
	</g>
</g>
<g fill="none" color="black" stroke="currentColor" stroke-width="1.00" stroke-linecap="butt" stroke-linejoin="miter">
	<path stroke='black'  d='M979.0,114.9 L970.0,114.9  '/>	<g transform="translate(987.3,118.8)" stroke="none" fill="black" font-family="Helvetica" font-size="12.00"  text-anchor="start">
		<text><tspan font-family="Helvetica" > 4.5x10</tspan><tspan font-family="Helvetica"  font-size="9.6" dy="-6.00px">-5</tspan><tspan font-size="12.0" dy="6.00"></tspan></text>
	</g>
</g>
<g fill="none" color="black" stroke="currentColor" stroke-width="1.00" stroke-linecap="butt" stroke-linejoin="miter">
	<path stroke='black'  d='M979.0,54.1 L970.0,54.1  '/>	<g transform="translate(987.3,58.0)" stroke="none" fill="black" font-family="Helvetica" font-size="12.00"  text-anchor="start">
		<text><tspan font-family="Helvetica" > 5x10</tspan><tspan font-family="Helvetica"  font-size="9.6" dy="-6.00px">-5</tspan><tspan font-size="12.0" dy="6.00"></tspan></text>
	</g>
</g>
<g fill="none" color="black" stroke="currentColor" stroke-width="1.00" stroke-linecap="butt" stroke-linejoin="miter">
</g>
<g fill="none" color="black" stroke="currentColor" stroke-width="1.00" stroke-linecap="butt" stroke-linejoin="miter">
	<path stroke='black'  d='M55.3,54.1 L55.3,662.4 L979.0,662.4 L979.0,54.1 L55.3,54.1 Z  '/></g>
<g fill="none" color="black" stroke="currentColor" stroke-width="1.00" stroke-linecap="butt" stroke-linejoin="miter">
	<g transform="translate(16.3,358.3) rotate(270)" stroke="none" fill="black" font-family="Helvetica" font-size="12.00"  text-anchor="middle">
		<text><tspan font-family="Helvetica" >Iterations (x 10</tspan><tspan font-family="Helvetica"  font-size="9.6" dy="-6.00px">6</tspan><tspan font-family="Helvetica"  font-size="12.0" dy="6.00px">)</tspan></text>
	</g>
</g>
<g fill="none" color="black" stroke="currentColor" stroke-width="1.00" stroke-linecap="butt" stroke-linejoin="miter">
	<g transform="translate(1082.5,358.3) rotate(270)" stroke="none" fill="black" font-family="Helvetica" font-size="12.00"  text-anchor="middle">
		<text><tspan font-family="Helvetica" >Density (a.u.)</tspan></text>
	</g>
</g>
<g fill="none" color="black" stroke="currentColor" stroke-width="1.00" stroke-linecap="butt" stroke-linejoin="miter">
	<g transform="translate(517.1,711.3)" stroke="none" fill="black" font-family="Helvetica" font-size="12.00"  text-anchor="middle">
		<text><tspan font-family="Helvetica" >Average time (cycles)</tspan></text>
	</g>
</g>
<g fill="none" color="black" stroke="currentColor" stroke-width="1.00" stroke-linecap="butt" stroke-linejoin="miter">
	<g transform="translate(517.1,31.0)" stroke="none" fill="black" font-family="Helvetica" font-size="12.00"  text-anchor="middle">
		<text><tspan font-family="Helvetica" >non_nested_compare/initial calculation/8</tspan></text>
	</g>
</g>
	<g id="gnuplot_plot_1" ><title>PDF</title>
<g fill="none" color="black" stroke="currentColor" stroke-width="1.00" stroke-linecap="butt" stroke-linejoin="miter">
	<g transform="translate(1155.4,67.0)" stroke="none" fill="black" font-family="Helvetica" font-size="12.00"  text-anchor="start">
		<text><tspan font-family="Helvetica" >PDF</tspan></text>
	</g>
</g>
<g fill="none" color="black" stroke="currentColor" stroke-width="1.00" stroke-linecap="butt" stroke-linejoin="miter">
	<g stroke='none' shape-rendering='crispEdges'>
		<polygon fill = 'rgb( 31, 120, 180)' fill-opacity = '0.250000' points = '1104.9,67.6 1147.1,67.6 1147.1,58.6 1104.9,58.6 '/>
		<polygon fill = 'rgb( 31, 120, 180)' fill-opacity = '0.250000' points = '55.3,661.6 57.2,661.5 59.0,661.4 60.9,661.4 62.7,661.3 64.6,661.2 66.4,661.1 68.3,661.0 70.1,660.8 72.0,660.7 73.8,660.6 75.7,660.4 77.5,660.3 79.4,660.1 81.2,659.9 83.1,659.8
84.9,659.6 86.8,659.3 88.6,659.1 90.5,658.9 92.3,658.6 94.2,658.3 96.0,658.0 97.9,657.7 99.7,657.4 101.6,657.1 103.4,656.7 105.3,656.3 107.1,655.9 109.0,655.5 110.8,655.0 112.7,654.5
114.5,654.0 116.4,653.5 118.2,652.9 120.1,652.3 121.9,651.7 123.8,651.1 125.6,650.4 127.5,649.6 129.3,648.9 131.2,648.1 133.0,647.3 134.9,646.4 136.7,645.5 138.6,644.6 140.5,643.6 142.3,642.6
144.2,641.5 146.0,640.4 147.9,639.3 149.7,638.1 151.6,636.9 153.4,635.6 155.3,634.3 157.1,632.9 159.0,631.5 160.8,630.0 162.7,628.5 164.5,626.9 166.4,625.3 168.2,623.7 170.1,622.0 171.9,620.2
173.8,618.4 175.6,616.5 177.5,614.6 179.3,612.7 181.2,610.7 183.0,608.6 184.9,606.5 186.7,604.4 188.6,602.2 190.4,599.9 192.3,597.7 194.1,595.3 196.0,593.0 197.8,590.6 199.7,588.1 201.5,585.7
203.4,583.2 205.2,580.6 207.1,578.0 208.9,575.4 210.8,572.8 212.6,570.1 214.5,567.4 216.3,564.7 218.2,562.0 220.0,559.3 221.9,556.5 223.8,553.8 225.6,551.0 227.5,548.3 229.3,545.5 231.2,542.7
233.0,540.0 234.9,537.2 236.7,534.5 238.6,531.8 240.4,529.1 242.3,526.4 244.1,523.7 246.0,521.1 247.8,518.5 249.7,515.9 251.5,513.4 253.4,511.0 255.2,508.5 257.1,506.1 258.9,503.8 260.8,501.5
262.6,499.3 264.5,497.2 266.3,495.1 268.2,493.1 270.0,491.2 271.9,489.3 273.7,487.5 275.6,485.8 277.4,484.2 279.3,482.6 281.1,481.2 283.0,479.8 284.8,478.5 286.7,477.4 288.5,476.3 290.4,475.3
292.2,474.4 294.1,473.6 295.9,472.9 297.8,472.3 299.6,471.8 301.5,471.4 303.3,471.1 305.2,470.9 307.0,470.8 308.9,470.8 310.8,470.9 312.6,471.1 314.5,471.4 316.3,471.8 318.2,472.3 320.0,472.9
321.9,473.5 323.7,474.3 325.6,475.1 327.4,476.1 329.3,477.1 331.1,478.1 333.0,479.3 334.8,480.5 336.7,481.8 338.5,483.1 340.4,484.5 342.2,486.0 344.1,487.5 345.9,489.0 347.8,490.6 349.6,492.2
351.5,493.9 353.3,495.5 355.2,497.2 357.0,498.9 358.9,500.6 360.7,502.3 362.6,504.0 364.4,505.7 366.3,507.4 368.1,509.1 370.0,510.7 371.8,512.3 373.7,513.8 375.5,515.3 377.4,516.8 379.2,518.2
381.1,519.6 382.9,520.8 384.8,522.0 386.6,523.2 388.5,524.2 390.3,525.2 392.2,526.0 394.1,526.8 395.9,527.4 397.8,528.0 399.6,528.4 401.5,528.7 403.3,528.9 405.2,529.0 407.0,528.9 408.9,528.8
410.7,528.4 412.6,528.0 414.4,527.4 416.3,526.7 418.1,525.8 420.0,524.8 421.8,523.6 423.7,522.3 425.5,520.8 427.4,519.2 429.2,517.5 431.1,515.6 432.9,513.6 434.8,511.4 436.6,509.1 438.5,506.6
440.3,504.0 442.2,501.3 444.0,498.4 445.9,495.4 447.7,492.3 449.6,489.1 451.4,485.7 453.3,482.2 455.1,478.7 457.0,475.0 458.8,471.2 460.7,467.4 462.5,463.4 464.4,459.4 466.2,455.3 468.1,451.2
469.9,447.0 471.8,442.7 473.6,438.4 475.5,434.1 477.4,429.7 479.2,425.3 481.1,420.9 482.9,416.5 484.8,412.1 486.6,407.7 488.5,403.3 490.3,398.9 492.2,394.6 494.0,390.3 495.9,386.0 497.7,381.8
499.6,377.7 501.4,373.6 503.3,369.6 505.1,365.7 507.0,361.8 508.8,358.1 510.7,354.4 512.5,350.8 514.4,347.4 516.2,344.0 518.1,340.7 519.9,337.6 521.8,334.6 523.6,331.6 525.5,328.9 527.3,326.2
529.2,323.6 531.0,321.2 532.9,318.9 534.7,316.7 536.6,314.7 538.4,312.7 540.3,310.9 542.1,309.2 544.0,307.6 545.8,306.2 547.7,304.8 549.5,303.6 551.4,302.4 553.2,301.4 555.1,300.4 556.9,299.5
558.8,298.7 560.7,298.0 562.5,297.4 564.4,296.8 566.2,296.3 568.1,295.8 569.9,295.4 571.8,295.0 573.6,294.7 575.5,294.4 577.3,294.1 579.2,293.8 581.0,293.5 582.9,293.2 584.7,292.9 586.6,292.6
588.4,292.2 590.3,291.8 592.1,291.4 594.0,291.0 595.8,290.4 597.7,289.9 599.5,289.2 601.4,288.5 603.2,287.7 605.1,286.8 606.9,285.9 608.8,284.8 610.6,283.7 612.5,282.4 614.3,281.0 616.2,279.6
618.0,278.0 619.9,276.3 621.7,274.5 623.6,272.6 625.4,270.5 627.3,268.4 629.1,266.1 631.0,263.7 632.8,261.1 634.7,258.5 636.5,255.7 638.4,252.8 640.2,249.8 642.1,246.7 644.0,243.5 645.8,240.1
647.7,236.7 649.5,233.2 651.4,229.6 653.2,225.8 655.1,222.0 656.9,218.2 658.8,214.2 660.6,210.2 662.5,206.1 664.3,202.0 666.2,197.9 668.0,193.7 669.9,189.5 671.7,185.2 673.6,181.0 675.4,176.7
677.3,172.5 679.1,168.3 681.0,164.1 682.8,159.9 684.7,155.8 686.5,151.8 688.4,147.8 690.2,143.9 692.1,140.1 693.9,136.4 695.8,132.8 697.6,129.3 699.5,126.0 701.3,122.8 703.2,119.7 705.0,116.8
706.9,114.1 708.7,111.5 710.6,109.1 712.4,106.9 714.3,105.0 716.1,103.2 718.0,101.7 719.8,100.3 721.7,99.3 723.5,98.4 725.4,97.8 727.3,97.5 729.1,97.4 731.0,97.5 732.8,98.0 734.7,98.7
736.5,99.6 738.4,100.9 740.2,102.4 742.1,104.2 743.9,106.3 745.8,108.7 747.6,111.3 749.5,114.2 751.3,117.4 753.2,120.9 755.0,124.6 756.9,128.6 758.7,132.9 760.6,137.4 762.4,142.2 764.3,147.3
766.1,152.5 768.0,158.1 769.8,163.8 771.7,169.8 773.5,176.0 775.4,182.4 777.2,188.9 779.1,195.7 780.9,202.7 782.8,209.8 784.6,217.1 786.5,224.6 788.3,232.1 790.2,239.8 792.0,247.7 793.9,255.6
795.7,263.7 797.6,271.8 799.4,280.0 801.3,288.2 803.1,296.6 805.0,304.9 806.8,313.3 808.7,321.7 810.5,330.2 812.4,338.6 814.3,347.0 816.1,355.4 818.0,363.8 819.8,372.1 821.7,380.4 823.5,388.6
825.4,396.7 827.2,404.8 829.1,412.8 830.9,420.8 832.8,428.6 834.6,436.3 836.5,443.9 838.3,451.4 840.2,458.8 842.0,466.0 843.9,473.1 845.7,480.1 847.6,486.9 849.4,493.6 851.3,500.2 853.1,506.6
855.0,512.8 856.8,518.9 858.7,524.9 860.5,530.6 862.4,536.3 864.2,541.7 866.1,547.0 867.9,552.2 869.8,557.2 871.6,562.0 873.5,566.7 875.3,571.2 877.2,575.6 879.0,579.8 880.9,583.9 882.7,587.8
884.6,591.6 886.4,595.2 888.3,598.7 890.1,602.0 892.0,605.2 893.8,608.3 895.7,611.2 897.6,614.1 899.4,616.7 901.3,619.3 903.1,621.8 905.0,624.1 906.8,626.4 908.7,628.5 910.5,630.5 912.4,632.4
914.2,634.3 916.1,636.0 917.9,637.6 919.8,639.2 921.6,640.7 923.5,642.1 925.3,643.4 927.2,644.6 929.0,645.8 930.9,646.9 932.7,648.0 934.6,648.9 936.4,649.9 938.3,650.7 940.1,651.5 942.0,652.3
943.8,653.0 945.7,653.7 947.5,654.3 949.4,654.9 951.2,655.5 953.1,656.0 954.9,656.5 956.8,656.9 958.6,657.3 960.5,657.7 962.3,658.1 964.2,658.4 966.0,658.8 967.9,659.0 969.7,659.3 971.6,659.6
973.4,659.8 975.3,660.0 977.1,660.2 979.0,660.4 979.0,662.4 977.1,662.4 975.3,662.4 973.4,662.4 971.6,662.4 969.7,662.4 967.9,662.4 966.0,662.4 964.2,662.4 962.3,662.4 960.5,662.4 958.6,662.4
956.8,662.4 954.9,662.4 953.1,662.4 951.2,662.4 949.4,662.4 947.5,662.4 945.7,662.4 943.8,662.4 942.0,662.4 940.1,662.4 938.3,662.4 936.4,662.4 934.6,662.4 932.7,662.4 930.9,662.4 929.0,662.4
927.2,662.4 925.3,662.4 923.5,662.4 921.6,662.4 919.8,662.4 917.9,662.4 916.1,662.4 914.2,662.4 912.4,662.4 910.5,662.4 908.7,662.4 906.8,662.4 905.0,662.4 903.1,662.4 901.3,662.4 899.4,662.4
897.6,662.4 895.7,662.4 893.8,662.4 892.0,662.4 890.1,662.4 888.3,662.4 886.4,662.4 884.6,662.4 882.7,662.4 880.9,662.4 879.0,662.4 877.2,662.4 875.3,662.4 873.5,662.4 871.6,662.4 869.8,662.4
867.9,662.4 866.1,662.4 864.2,662.4 862.4,662.4 860.5,662.4 858.7,662.4 856.8,662.4 855.0,662.4 853.1,662.4 851.3,662.4 849.4,662.4 847.6,662.4 845.7,662.4 843.9,662.4 842.0,662.4 840.2,662.4
838.3,662.4 836.5,662.4 834.6,662.4 832.8,662.4 830.9,662.4 829.1,662.4 827.2,662.4 825.4,662.4 823.5,662.4 821.7,662.4 819.8,662.4 818.0,662.4 816.1,662.4 814.3,662.4 812.4,662.4 810.5,662.4
808.7,662.4 806.8,662.4 805.0,662.4 803.1,662.4 801.3,662.4 799.4,662.4 797.6,662.4 795.7,662.4 793.9,662.4 792.0,662.4 790.2,662.4 788.3,662.4 786.5,662.4 784.6,662.4 782.8,662.4 780.9,662.4
779.1,662.4 777.2,662.4 775.4,662.4 773.5,662.4 771.7,662.4 769.8,662.4 768.0,662.4 766.1,662.4 764.3,662.4 762.4,662.4 760.6,662.4 758.7,662.4 756.9,662.4 755.0,662.4 753.2,662.4 751.3,662.4
749.5,662.4 747.6,662.4 745.8,662.4 743.9,662.4 742.1,662.4 740.2,662.4 738.4,662.4 736.5,662.4 734.7,662.4 732.8,662.4 731.0,662.4 729.1,662.4 727.3,662.4 725.4,662.4 723.5,662.4 721.7,662.4
719.8,662.4 718.0,662.4 716.1,662.4 714.3,662.4 712.4,662.4 710.6,662.4 708.7,662.4 706.9,662.4 705.0,662.4 703.2,662.4 701.3,662.4 699.5,662.4 697.6,662.4 695.8,662.4 693.9,662.4 692.1,662.4
690.2,662.4 688.4,662.4 686.5,662.4 684.7,662.4 682.8,662.4 681.0,662.4 679.1,662.4 677.3,662.4 675.4,662.4 673.6,662.4 671.7,662.4 669.9,662.4 668.0,662.4 666.2,662.4 664.3,662.4 662.5,662.4
660.6,662.4 658.8,662.4 656.9,662.4 655.1,662.4 653.2,662.4 651.4,662.4 649.5,662.4 647.7,662.4 645.8,662.4 644.0,662.4 642.1,662.4 640.2,662.4 638.4,662.4 636.5,662.4 634.7,662.4 632.8,662.4
631.0,662.4 629.1,662.4 627.3,662.4 625.4,662.4 623.6,662.4 621.7,662.4 619.9,662.4 618.0,662.4 616.2,662.4 614.3,662.4 612.5,662.4 610.6,662.4 608.8,662.4 606.9,662.4 605.1,662.4 603.2,662.4
601.4,662.4 599.5,662.4 597.7,662.4 595.8,662.4 594.0,662.4 592.1,662.4 590.3,662.4 588.4,662.4 586.6,662.4 584.7,662.4 582.9,662.4 581.0,662.4 579.2,662.4 577.3,662.4 575.5,662.4 573.6,662.4
571.8,662.4 569.9,662.4 568.1,662.4 566.2,662.4 564.4,662.4 562.5,662.4 560.7,662.4 558.8,662.4 556.9,662.4 555.1,662.4 553.2,662.4 551.4,662.4 549.5,662.4 547.7,662.4 545.8,662.4 544.0,662.4
542.1,662.4 540.3,662.4 538.4,662.4 536.6,662.4 534.7,662.4 532.9,662.4 531.0,662.4 529.2,662.4 527.3,662.4 525.5,662.4 523.6,662.4 521.8,662.4 519.9,662.4 518.1,662.4 516.2,662.4 514.4,662.4
512.5,662.4 510.7,662.4 508.8,662.4 507.0,662.4 505.1,662.4 503.3,662.4 501.4,662.4 499.6,662.4 497.7,662.4 495.9,662.4 494.0,662.4 492.2,662.4 490.3,662.4 488.5,662.4 486.6,662.4 484.8,662.4
482.9,662.4 481.1,662.4 479.2,662.4 477.4,662.4 475.5,662.4 473.6,662.4 471.8,662.4 469.9,662.4 468.1,662.4 466.2,662.4 464.4,662.4 462.5,662.4 460.7,662.4 458.8,662.4 457.0,662.4 455.1,662.4
453.3,662.4 451.4,662.4 449.6,662.4 447.7,662.4 445.9,662.4 444.0,662.4 442.2,662.4 440.3,662.4 438.5,662.4 436.6,662.4 434.8,662.4 432.9,662.4 431.1,662.4 429.2,662.4 427.4,662.4 425.5,662.4
423.7,662.4 421.8,662.4 420.0,662.4 418.1,662.4 416.3,662.4 414.4,662.4 412.6,662.4 410.7,662.4 408.9,662.4 407.0,662.4 405.2,662.4 403.3,662.4 401.5,662.4 399.6,662.4 397.8,662.4 395.9,662.4
394.1,662.4 392.2,662.4 390.3,662.4 388.5,662.4 386.6,662.4 384.8,662.4 382.9,662.4 381.1,662.4 379.2,662.4 377.4,662.4 375.5,662.4 373.7,662.4 371.8,662.4 370.0,662.4 368.1,662.4 366.3,662.4
364.4,662.4 362.6,662.4 360.7,662.4 358.9,662.4 357.0,662.4 355.2,662.4 353.3,662.4 351.5,662.4 349.6,662.4 347.8,662.4 345.9,662.4 344.1,662.4 342.2,662.4 340.4,662.4 338.5,662.4 336.7,662.4
334.8,662.4 333.0,662.4 331.1,662.4 329.3,662.4 327.4,662.4 325.6,662.4 323.7,662.4 321.9,662.4 320.0,662.4 318.2,662.4 316.3,662.4 314.5,662.4 312.6,662.4 310.8,662.4 308.9,662.4 307.0,662.4
305.2,662.4 303.3,662.4 301.5,662.4 299.6,662.4 297.8,662.4 295.9,662.4 294.1,662.4 292.2,662.4 290.4,662.4 288.5,662.4 286.7,662.4 284.8,662.4 283.0,662.4 281.1,662.4 279.3,662.4 277.4,662.4
275.6,662.4 273.7,662.4 271.9,662.4 270.0,662.4 268.2,662.4 266.3,662.4 264.5,662.4 262.6,662.4 260.8,662.4 258.9,662.4 257.1,662.4 255.2,662.4 253.4,662.4 251.5,662.4 249.7,662.4 247.8,662.4
246.0,662.4 244.1,662.4 242.3,662.4 240.4,662.4 238.6,662.4 236.7,662.4 234.9,662.4 233.0,662.4 231.2,662.4 229.3,662.4 227.5,662.4 225.6,662.4 223.8,662.4 221.9,662.4 220.0,662.4 218.2,662.4
216.3,662.4 214.5,662.4 212.6,662.4 210.8,662.4 208.9,662.4 207.1,662.4 205.2,662.4 203.4,662.4 201.5,662.4 199.7,662.4 197.8,662.4 196.0,662.4 194.1,662.4 192.3,662.4 190.4,662.4 188.6,662.4
186.7,662.4 184.9,662.4 183.0,662.4 181.2,662.4 179.3,662.4 177.5,662.4 175.6,662.4 173.8,662.4 171.9,662.4 170.1,662.4 168.2,662.4 166.4,662.4 164.5,662.4 162.7,662.4 160.8,662.4 159.0,662.4
157.1,662.4 155.3,662.4 153.4,662.4 151.6,662.4 149.7,662.4 147.9,662.4 146.0,662.4 144.2,662.4 142.3,662.4 140.5,662.4 138.6,662.4 136.7,662.4 134.9,662.4 133.0,662.4 131.2,662.4 129.3,662.4
127.5,662.4 125.6,662.4 123.8,662.4 121.9,662.4 120.1,662.4 118.2,662.4 116.4,662.4 114.5,662.4 112.7,662.4 110.8,662.4 109.0,662.4 107.1,662.4 105.3,662.4 103.4,662.4 101.6,662.4 99.7,662.4
97.9,662.4 96.0,662.4 94.2,662.4 92.3,662.4 90.5,662.4 88.6,662.4 86.8,662.4 84.9,662.4 83.1,662.4 81.2,662.4 79.4,662.4 77.5,662.4 75.7,662.4 73.8,662.4 72.0,662.4 70.1,662.4
68.3,662.4 66.4,662.4 64.6,662.4 62.7,662.4 60.9,662.4 59.0,662.4 57.2,662.4 55.3,662.4 '/>
	</g>
</g>
	</g>
	<g id="gnuplot_plot_2" ><title>Mean</title>
<g fill="none" color="white" stroke="rgb( 31, 120, 180)" stroke-width="2.00" stroke-linecap="butt" stroke-linejoin="miter">
</g>
<g fill="none" color="black" stroke="currentColor" stroke-width="2.00" stroke-linecap="butt" stroke-linejoin="miter">
	<g transform="translate(1155.4,85.0)" stroke="none" fill="black" font-family="Helvetica" font-size="12.00"  text-anchor="start">
		<text><tspan font-family="Helvetica" >Mean</tspan></text>
	</g>
</g>
<g fill="none" color="black" stroke="currentColor" stroke-width="2.00" stroke-linecap="butt" stroke-linejoin="miter">
	<path stroke='rgb( 31, 120, 180)'  d='M1104.9,81.1 L1147.1,81.1 M599.3,662.4 L599.3,54.1  '/></g>
	</g>
	<g id="gnuplot_plot_3" ><title>"Clean" sample</title>
<g fill="none" color="white" stroke="rgb( 31, 120, 180)" stroke-width="1.00" stroke-linecap="butt" stroke-linejoin="miter">
</g>
<g fill="none" color="black" stroke="currentColor" stroke-width="1.00" stroke-linecap="butt" stroke-linejoin="miter">
	<g transform="translate(1155.4,103.0)" stroke="none" fill="black" font-family="Helvetica" font-size="12.00"  text-anchor="start">
		<text><tspan font-family="Helvetica" >"Clean" sample</tspan></text>
	</g>
</g>
<g fill="none" color="black" stroke="currentColor" stroke-width="1.00" stroke-linecap="butt" stroke-linejoin="miter">
	<use xlink:href='#gpPt6' transform='translate(268.9,656.3) scale(3.38)' color='rgb( 31, 120, 180)'/>
	<use xlink:href='#gpPt6' transform='translate(265.0,650.2) scale(3.38)' color='rgb( 31, 120, 180)'/>
	<use xlink:href='#gpPt6' transform='translate(262.7,644.2) scale(3.38)' color='rgb( 31, 120, 180)'/>
	<use xlink:href='#gpPt6' transform='translate(262.2,638.1) scale(3.38)' color='rgb( 31, 120, 180)'/>
	<use xlink:href='#gpPt6' transform='translate(264.5,632.0) scale(3.38)' color='rgb( 31, 120, 180)'/>
	<use xlink:href='#gpPt6' transform='translate(270.6,625.9) scale(3.38)' color='rgb( 31, 120, 180)'/>
	<use xlink:href='#gpPt6' transform='translate(277.8,619.8) scale(3.38)' color='rgb( 31, 120, 180)'/>
	<use xlink:href='#gpPt6' transform='translate(291.8,613.7) scale(3.38)' color='rgb( 31, 120, 180)'/>
	<use xlink:href='#gpPt6' transform='translate(314.3,607.7) scale(3.38)' color='rgb( 31, 120, 180)'/>
	<use xlink:href='#gpPt6' transform='translate(331.5,601.6) scale(3.38)' color='rgb( 31, 120, 180)'/>
	<use xlink:href='#gpPt6' transform='translate(332.8,595.5) scale(3.38)' color='rgb( 31, 120, 180)'/>
	<use xlink:href='#gpPt6' transform='translate(333.2,589.4) scale(3.38)' color='rgb( 31, 120, 180)'/>
	<use xlink:href='#gpPt6' transform='translate(334.2,583.3) scale(3.38)' color='rgb( 31, 120, 180)'/>
	<use xlink:href='#gpPt6' transform='translate(336.6,577.2) scale(3.38)' color='rgb( 31, 120, 180)'/>
	<use xlink:href='#gpPt6' transform='translate(334.9,571.2) scale(3.38)' color='rgb( 31, 120, 180)'/>
	<use xlink:href='#gpPt6' transform='translate(335.9,565.1) scale(3.38)' color='rgb( 31, 120, 180)'/>
	<use xlink:href='#gpPt6' transform='translate(332.6,559.0) scale(3.38)' color='rgb( 31, 120, 180)'/>
	<use xlink:href='#gpPt6' transform='translate(334.6,552.9) scale(3.38)' color='rgb( 31, 120, 180)'/>
	<use xlink:href='#gpPt6' transform='translate(514.0,546.8) scale(3.38)' color='rgb( 31, 120, 180)'/>
	<use xlink:href='#gpPt6' transform='translate(516.2,540.7) scale(3.38)' color='rgb( 31, 120, 180)'/>
	<use xlink:href='#gpPt6' transform='translate(520.3,534.7) scale(3.38)' color='rgb( 31, 120, 180)'/>
	<use xlink:href='#gpPt6' transform='translate(522.5,528.6) scale(3.38)' color='rgb( 31, 120, 180)'/>
	<use xlink:href='#gpPt6' transform='translate(525.5,522.5) scale(3.38)' color='rgb( 31, 120, 180)'/>
	<use xlink:href='#gpPt6' transform='translate(528.3,516.4) scale(3.38)' color='rgb( 31, 120, 180)'/>
	<use xlink:href='#gpPt6' transform='translate(530.3,510.3) scale(3.38)' color='rgb( 31, 120, 180)'/>
	<use xlink:href='#gpPt6' transform='translate(532.2,504.2) scale(3.38)' color='rgb( 31, 120, 180)'/>
	<use xlink:href='#gpPt6' transform='translate(533.2,498.2) scale(3.38)' color='rgb( 31, 120, 180)'/>
	<use xlink:href='#gpPt6' transform='translate(533.7,492.1) scale(3.38)' color='rgb( 31, 120, 180)'/>
	<use xlink:href='#gpPt6' transform='translate(535.1,486.0) scale(3.38)' color='rgb( 31, 120, 180)'/>
	<use xlink:href='#gpPt6' transform='translate(536.4,479.9) scale(3.38)' color='rgb( 31, 120, 180)'/>
	<use xlink:href='#gpPt6' transform='translate(537.6,473.8) scale(3.38)' color='rgb( 31, 120, 180)'/>
	<use xlink:href='#gpPt6' transform='translate(538.8,467.7) scale(3.38)' color='rgb( 31, 120, 180)'/>
	<use xlink:href='#gpPt6' transform='translate(539.2,461.7) scale(3.38)' color='rgb( 31, 120, 180)'/>
	<use xlink:href='#gpPt6' transform='translate(540.0,455.6) scale(3.38)' color='rgb( 31, 120, 180)'/>
	<use xlink:href='#gpPt6' transform='translate(542.1,449.5) scale(3.38)' color='rgb( 31, 120, 180)'/>
	<use xlink:href='#gpPt6' transform='translate(542.0,443.4) scale(3.38)' color='rgb( 31, 120, 180)'/>
	<use xlink:href='#gpPt6' transform='translate(541.9,437.3) scale(3.38)' color='rgb( 31, 120, 180)'/>
	<use xlink:href='#gpPt6' transform='translate(543.9,431.2) scale(3.38)' color='rgb( 31, 120, 180)'/>
	<use xlink:href='#gpPt6' transform='translate(544.0,425.2) scale(3.38)' color='rgb( 31, 120, 180)'/>
	<use xlink:href='#gpPt6' transform='translate(545.3,419.1) scale(3.38)' color='rgb( 31, 120, 180)'/>
	<use xlink:href='#gpPt6' transform='translate(546.3,413.0) scale(3.38)' color='rgb( 31, 120, 180)'/>
	<use xlink:href='#gpPt6' transform='translate(545.9,406.9) scale(3.38)' color='rgb( 31, 120, 180)'/>
	<use xlink:href='#gpPt6' transform='translate(547.4,400.8) scale(3.38)' color='rgb( 31, 120, 180)'/>
	<use xlink:href='#gpPt6' transform='translate(548.7,394.7) scale(3.38)' color='rgb( 31, 120, 180)'/>
	<use xlink:href='#gpPt6' transform='translate(696.3,388.7) scale(3.38)' color='rgb( 31, 120, 180)'/>
	<use xlink:href='#gpPt6' transform='translate(760.1,382.6) scale(3.38)' color='rgb( 31, 120, 180)'/>
	<use xlink:href='#gpPt6' transform='translate(743.8,376.5) scale(3.38)' color='rgb( 31, 120, 180)'/>
	<use xlink:href='#gpPt6' transform='translate(743.1,370.4) scale(3.38)' color='rgb( 31, 120, 180)'/>
	<use xlink:href='#gpPt6' transform='translate(727.0,364.3) scale(3.38)' color='rgb( 31, 120, 180)'/>
	<use xlink:href='#gpPt6' transform='translate(759.8,358.2) scale(3.38)' color='rgb( 31, 120, 180)'/>
	<use xlink:href='#gpPt6' transform='translate(746.1,352.2) scale(3.38)' color='rgb( 31, 120, 180)'/>
	<use xlink:href='#gpPt6' transform='translate(766.4,346.1) scale(3.38)' color='rgb( 31, 120, 180)'/>
	<use xlink:href='#gpPt6' transform='translate(741.5,340.0) scale(3.38)' color='rgb( 31, 120, 180)'/>
	<use xlink:href='#gpPt6' transform='translate(733.3,333.9) scale(3.38)' color='rgb( 31, 120, 180)'/>
	<use xlink:href='#gpPt6' transform='translate(747.6,327.8) scale(3.38)' color='rgb( 31, 120, 180)'/>
	<use xlink:href='#gpPt6' transform='translate(738.1,321.8) scale(3.38)' color='rgb( 31, 120, 180)'/>
	<use xlink:href='#gpPt6' transform='translate(742.2,315.7) scale(3.38)' color='rgb( 31, 120, 180)'/>
	<use xlink:href='#gpPt6' transform='translate(743.7,309.6) scale(3.38)' color='rgb( 31, 120, 180)'/>
	<use xlink:href='#gpPt6' transform='translate(742.8,303.5) scale(3.38)' color='rgb( 31, 120, 180)'/>
	<use xlink:href='#gpPt6' transform='translate(704.3,297.4) scale(3.38)' color='rgb( 31, 120, 180)'/>
	<use xlink:href='#gpPt6' transform='translate(726.6,291.3) scale(3.38)' color='rgb( 31, 120, 180)'/>
	<use xlink:href='#gpPt6' transform='translate(738.7,285.3) scale(3.38)' color='rgb( 31, 120, 180)'/>
	<use xlink:href='#gpPt6' transform='translate(772.1,279.2) scale(3.38)' color='rgb( 31, 120, 180)'/>
	<use xlink:href='#gpPt6' transform='translate(742.6,273.1) scale(3.38)' color='rgb( 31, 120, 180)'/>
	<use xlink:href='#gpPt6' transform='translate(747.5,267.0) scale(3.38)' color='rgb( 31, 120, 180)'/>
	<use xlink:href='#gpPt6' transform='translate(747.9,260.9) scale(3.38)' color='rgb( 31, 120, 180)'/>
	<use xlink:href='#gpPt6' transform='translate(746.9,254.8) scale(3.38)' color='rgb( 31, 120, 180)'/>
	<use xlink:href='#gpPt6' transform='translate(743.9,248.8) scale(3.38)' color='rgb( 31, 120, 180)'/>
	<use xlink:href='#gpPt6' transform='translate(763.8,242.7) scale(3.38)' color='rgb( 31, 120, 180)'/>
	<use xlink:href='#gpPt6' transform='translate(751.5,236.6) scale(3.38)' color='rgb( 31, 120, 180)'/>
	<use xlink:href='#gpPt6' transform='translate(759.4,230.5) scale(3.38)' color='rgb( 31, 120, 180)'/>
	<use xlink:href='#gpPt6' transform='translate(758.6,224.4) scale(3.38)' color='rgb( 31, 120, 180)'/>
	<use xlink:href='#gpPt6' transform='translate(751.7,218.3) scale(3.38)' color='rgb( 31, 120, 180)'/>
	<use xlink:href='#gpPt6' transform='translate(755.5,212.3) scale(3.38)' color='rgb( 31, 120, 180)'/>
	<use xlink:href='#gpPt6' transform='translate(761.4,206.2) scale(3.38)' color='rgb( 31, 120, 180)'/>
	<use xlink:href='#gpPt6' transform='translate(754.5,200.1) scale(3.38)' color='rgb( 31, 120, 180)'/>
	<use xlink:href='#gpPt6' transform='translate(750.1,194.0) scale(3.38)' color='rgb( 31, 120, 180)'/>
	<use xlink:href='#gpPt6' transform='translate(760.2,187.9) scale(3.38)' color='rgb( 31, 120, 180)'/>
	<use xlink:href='#gpPt6' transform='translate(748.0,181.8) scale(3.38)' color='rgb( 31, 120, 180)'/>
	<use xlink:href='#gpPt6' transform='translate(742.3,175.8) scale(3.38)' color='rgb( 31, 120, 180)'/>
	<use xlink:href='#gpPt6' transform='translate(737.9,169.7) scale(3.38)' color='rgb( 31, 120, 180)'/>
	<use xlink:href='#gpPt6' transform='translate(761.3,163.6) scale(3.38)' color='rgb( 31, 120, 180)'/>
	<use xlink:href='#gpPt6' transform='translate(760.5,157.5) scale(3.38)' color='rgb( 31, 120, 180)'/>
	<use xlink:href='#gpPt6' transform='translate(760.7,151.4) scale(3.38)' color='rgb( 31, 120, 180)'/>
	<use xlink:href='#gpPt6' transform='translate(736.8,145.3) scale(3.38)' color='rgb( 31, 120, 180)'/>
	<use xlink:href='#gpPt6' transform='translate(726.4,139.3) scale(3.38)' color='rgb( 31, 120, 180)'/>
	<use xlink:href='#gpPt6' transform='translate(680.1,133.2) scale(3.38)' color='rgb( 31, 120, 180)'/>
	<use xlink:href='#gpPt6' transform='translate(670.0,127.1) scale(3.38)' color='rgb( 31, 120, 180)'/>
	<use xlink:href='#gpPt6' transform='translate(647.3,121.0) scale(3.38)' color='rgb( 31, 120, 180)'/>
	<use xlink:href='#gpPt6' transform='translate(651.0,114.9) scale(3.38)' color='rgb( 31, 120, 180)'/>
	<use xlink:href='#gpPt6' transform='translate(649.7,108.8) scale(3.38)' color='rgb( 31, 120, 180)'/>
	<use xlink:href='#gpPt6' transform='translate(651.3,102.8) scale(3.38)' color='rgb( 31, 120, 180)'/>
	<use xlink:href='#gpPt6' transform='translate(650.2,96.7) scale(3.38)' color='rgb( 31, 120, 180)'/>
	<use xlink:href='#gpPt6' transform='translate(652.5,90.6) scale(3.38)' color='rgb( 31, 120, 180)'/>
	<use xlink:href='#gpPt6' transform='translate(652.2,84.5) scale(3.38)' color='rgb( 31, 120, 180)'/>
	<use xlink:href='#gpPt6' transform='translate(652.0,78.4) scale(3.38)' color='rgb( 31, 120, 180)'/>
	<use xlink:href='#gpPt6' transform='translate(653.5,72.3) scale(3.38)' color='rgb( 31, 120, 180)'/>
	<use xlink:href='#gpPt6' transform='translate(653.7,66.3) scale(3.38)' color='rgb( 31, 120, 180)'/>
	<use xlink:href='#gpPt6' transform='translate(653.1,60.2) scale(3.38)' color='rgb( 31, 120, 180)'/>
	<use xlink:href='#gpPt6' transform='translate(651.1,54.1) scale(3.38)' color='rgb( 31, 120, 180)'/>
	<use xlink:href='#gpPt6' transform='translate(1126.0,99.1) scale(3.38)' color='rgb( 31, 120, 180)'/>
</g>
	</g>
	<g id="gnuplot_plot_4" ><title>gnuplot_plot_4</title>
<g fill="none" color="white" stroke="rgb( 31, 120, 180)" stroke-width="2.00" stroke-linecap="butt" stroke-linejoin="miter">
</g>
<g fill="none" color="black" stroke="currentColor" stroke-width="2.00" stroke-linecap="butt" stroke-linejoin="miter">
	<path stroke='rgb(255, 127,   0)'  d='M213.7,662.4 L213.7,54.1  '/></g>
	</g>
	<g id="gnuplot_plot_5" ><title>gnuplot_plot_5</title>
<g fill="none" color="black" stroke="currentColor" stroke-width="2.00" stroke-linecap="butt" stroke-linejoin="miter">
</g>
	</g>
	<g id="gnuplot_plot_6" ><title>gnuplot_plot_6</title>
<g fill="none" color="black" stroke="currentColor" stroke-width="2.00" stroke-linecap="butt" stroke-linejoin="miter">
</g>
	</g>
	<g id="gnuplot_plot_7" ><title>gnuplot_plot_7</title>
<g fill="none" color="black" stroke="currentColor" stroke-width="2.00" stroke-linecap="butt" stroke-linejoin="miter">
</g>
	</g>
<g fill="none" color="black" stroke="currentColor" stroke-width="2.00" stroke-linecap="butt" stroke-linejoin="miter">
</g>
<g fill="none" color="black" stroke="black" stroke-width="1.00" stroke-linecap="butt" stroke-linejoin="miter">
</g>
<g fill="none" color="black" stroke="currentColor" stroke-width="1.00" stroke-linecap="butt" stroke-linejoin="miter">
	<path stroke='black'  d='M55.3,54.1 L55.3,662.4 L979.0,662.4 L979.0,54.1 L55.3,54.1 Z  '/></g>
<g fill="none" color="black" stroke="currentColor" stroke-width="1.00" stroke-linecap="butt" stroke-linejoin="miter">
</g>
</g>
</svg>

