<?xml version="1.0" encoding="utf-8"  standalone="no"?>
<svg 
 viewBox="0 0 1280 720"
 xmlns="http://www.w3.org/2000/svg"
 xmlns:xlink="http://www.w3.org/1999/xlink"
>

<title>Gnuplot</title>
<desc>Produced by GNUPLOT 5.2 patchlevel 2 </desc>

<g id="gnuplot_canvas">

<rect x="0" y="0" width="1280" height="720" fill="none"/>
<defs>

	<circle id='gpDot' r='0.5' stroke-width='0.5'/>
	<path id='gpPt0' stroke-width='0.222' stroke='currentColor' d='M-1,0 h2 M0,-1 v2'/>
	<path id='gpPt1' stroke-width='0.222' stroke='currentColor' d='M-1,-1 L1,1 M1,-1 L-1,1'/>
	<path id='gpPt2' stroke-width='0.222' stroke='currentColor' d='M-1,0 L1,0 M0,-1 L0,1 M-1,-1 L1,1 M-1,1 L1,-1'/>
	<rect id='gpPt3' stroke-width='0.222' stroke='currentColor' x='-1' y='-1' width='2' height='2'/>
	<rect id='gpPt4' stroke-width='0.222' stroke='currentColor' fill='currentColor' x='-1' y='-1' width='2' height='2'/>
	<circle id='gpPt5' stroke-width='0.222' stroke='currentColor' cx='0' cy='0' r='1'/>
	<use xlink:href='#gpPt5' id='gpPt6' fill='currentColor' stroke='none'/>
	<path id='gpPt7' stroke-width='0.222' stroke='currentColor' d='M0,-1.33 L-1.33,0.67 L1.33,0.67 z'/>
	<use xlink:href='#gpPt7' id='gpPt8' fill='currentColor' stroke='none'/>
	<use xlink:href='#gpPt7' id='gpPt9' stroke='currentColor' transform='rotate(180)'/>
	<use xlink:href='#gpPt9' id='gpPt10' fill='currentColor' stroke='none'/>
	<use xlink:href='#gpPt3' id='gpPt11' stroke='currentColor' transform='rotate(45)'/>
	<use xlink:href='#gpPt11' id='gpPt12' fill='currentColor' stroke='none'/>
	<path id='gpPt13' stroke-width='0.222' stroke='currentColor' d='M0,1.330 L1.265,0.411 L0.782,-1.067 L-0.782,-1.076 L-1.265,0.411 z'/>
	<use xlink:href='#gpPt13' id='gpPt14' fill='currentColor' stroke='none'/>
	<filter id='textbox' filterUnits='objectBoundingBox' x='0' y='0' height='1' width='1'>
	  <feFlood flood-color='white' flood-opacity='1' result='bgnd'/>
	  <feComposite in='SourceGraphic' in2='bgnd' operator='atop'/>
	</filter>
	<filter id='greybox' filterUnits='objectBoundingBox' x='0' y='0' height='1' width='1'>
	  <feFlood flood-color='lightgrey' flood-opacity='1' result='grey'/>
	  <feComposite in='SourceGraphic' in2='grey' operator='atop'/>
	</filter>
</defs>
<g fill="none" color="white" stroke="currentColor" stroke-width="1.00" stroke-linecap="butt" stroke-linejoin="miter">
</g>
<g fill="none" color="black" stroke="currentColor" stroke-width="1.00" stroke-linecap="butt" stroke-linejoin="miter">
	<path stroke='black'  d='M105.1,662.4 L114.1,662.4  '/>	<g transform="translate(96.8,666.3)" stroke="none" fill="black" font-family="Helvetica" font-size="12.00"  text-anchor="end">
		<text><tspan font-family="Helvetica" > 0</tspan></text>
	</g>
</g>
<g fill="none" color="black" stroke="currentColor" stroke-width="1.00" stroke-linecap="butt" stroke-linejoin="miter">
	<path stroke='black'  d='M105.1,575.5 L114.1,575.5  '/>	<g transform="translate(96.8,579.4)" stroke="none" fill="black" font-family="Helvetica" font-size="12.00"  text-anchor="end">
		<text><tspan font-family="Helvetica" > 2x10</tspan><tspan font-family="Helvetica"  font-size="9.6" dy="-6.00px">-7</tspan><tspan font-size="12.0" dy="6.00"></tspan></text>
	</g>
</g>
<g fill="none" color="black" stroke="currentColor" stroke-width="1.00" stroke-linecap="butt" stroke-linejoin="miter">
	<path stroke='black'  d='M105.1,488.6 L114.1,488.6  '/>	<g transform="translate(96.8,492.5)" stroke="none" fill="black" font-family="Helvetica" font-size="12.00"  text-anchor="end">
		<text><tspan font-family="Helvetica" > 4x10</tspan><tspan font-family="Helvetica"  font-size="9.6" dy="-6.00px">-7</tspan><tspan font-size="12.0" dy="6.00"></tspan></text>
	</g>
</g>
<g fill="none" color="black" stroke="currentColor" stroke-width="1.00" stroke-linecap="butt" stroke-linejoin="miter">
	<path stroke='black'  d='M105.1,401.7 L114.1,401.7  '/>	<g transform="translate(96.8,405.6)" stroke="none" fill="black" font-family="Helvetica" font-size="12.00"  text-anchor="end">
		<text><tspan font-family="Helvetica" > 6x10</tspan><tspan font-family="Helvetica"  font-size="9.6" dy="-6.00px">-7</tspan><tspan font-size="12.0" dy="6.00"></tspan></text>
	</g>
</g>
<g fill="none" color="black" stroke="currentColor" stroke-width="1.00" stroke-linecap="butt" stroke-linejoin="miter">
	<path stroke='black'  d='M105.1,314.8 L114.1,314.8  '/>	<g transform="translate(96.8,318.7)" stroke="none" fill="black" font-family="Helvetica" font-size="12.00"  text-anchor="end">
		<text><tspan font-family="Helvetica" > 8x10</tspan><tspan font-family="Helvetica"  font-size="9.6" dy="-6.00px">-7</tspan><tspan font-size="12.0" dy="6.00"></tspan></text>
	</g>
</g>
<g fill="none" color="black" stroke="currentColor" stroke-width="1.00" stroke-linecap="butt" stroke-linejoin="miter">
	<path stroke='black'  d='M105.1,227.9 L114.1,227.9  '/>	<g transform="translate(96.8,231.8)" stroke="none" fill="black" font-family="Helvetica" font-size="12.00"  text-anchor="end">
		<text><tspan font-family="Helvetica" > 1x10</tspan><tspan font-family="Helvetica"  font-size="9.6" dy="-6.00px">-6</tspan><tspan font-size="12.0" dy="6.00"></tspan></text>
	</g>
</g>
<g fill="none" color="black" stroke="currentColor" stroke-width="1.00" stroke-linecap="butt" stroke-linejoin="miter">
	<path stroke='black'  d='M105.1,141.0 L114.1,141.0  '/>	<g transform="translate(96.8,144.9)" stroke="none" fill="black" font-family="Helvetica" font-size="12.00"  text-anchor="end">
		<text><tspan font-family="Helvetica" > 1.2x10</tspan><tspan font-family="Helvetica"  font-size="9.6" dy="-6.00px">-6</tspan><tspan font-size="12.0" dy="6.00"></tspan></text>
	</g>
</g>
<g fill="none" color="black" stroke="currentColor" stroke-width="1.00" stroke-linecap="butt" stroke-linejoin="miter">
	<path stroke='black'  d='M105.1,54.1 L114.1,54.1  '/>	<g transform="translate(96.8,58.0)" stroke="none" fill="black" font-family="Helvetica" font-size="12.00"  text-anchor="end">
		<text><tspan font-family="Helvetica" > 1.4x10</tspan><tspan font-family="Helvetica"  font-size="9.6" dy="-6.00px">-6</tspan><tspan font-size="12.0" dy="6.00"></tspan></text>
	</g>
</g>
<g fill="none" color="black" stroke="currentColor" stroke-width="1.00" stroke-linecap="butt" stroke-linejoin="miter">
	<path stroke='black'  d='M216.0,662.4 L216.0,653.4  '/>	<g transform="translate(216.0,684.3)" stroke="none" fill="black" font-family="Helvetica" font-size="12.00"  text-anchor="middle">
		<text><tspan font-family="Helvetica" > 2.22x10</tspan><tspan font-family="Helvetica"  font-size="9.6" dy="-6.00px">7</tspan><tspan font-size="12.0" dy="6.00"></tspan></text>
	</g>
</g>
<g fill="none" color="black" stroke="currentColor" stroke-width="1.00" stroke-linecap="butt" stroke-linejoin="miter">
	<path stroke='black'  d='M340.2,662.4 L340.2,653.4  '/>	<g transform="translate(340.2,684.3)" stroke="none" fill="black" font-family="Helvetica" font-size="12.00"  text-anchor="middle">
		<text><tspan font-family="Helvetica" > 2.24x10</tspan><tspan font-family="Helvetica"  font-size="9.6" dy="-6.00px">7</tspan><tspan font-size="12.0" dy="6.00"></tspan></text>
	</g>
</g>
<g fill="none" color="black" stroke="currentColor" stroke-width="1.00" stroke-linecap="butt" stroke-linejoin="miter">
	<path stroke='black'  d='M464.3,662.4 L464.3,653.4  '/>	<g transform="translate(464.3,684.3)" stroke="none" fill="black" font-family="Helvetica" font-size="12.00"  text-anchor="middle">
		<text><tspan font-family="Helvetica" > 2.26x10</tspan><tspan font-family="Helvetica"  font-size="9.6" dy="-6.00px">7</tspan><tspan font-size="12.0" dy="6.00"></tspan></text>
	</g>
</g>
<g fill="none" color="black" stroke="currentColor" stroke-width="1.00" stroke-linecap="butt" stroke-linejoin="miter">
	<path stroke='black'  d='M588.5,662.4 L588.5,653.4  '/>	<g transform="translate(588.5,684.3)" stroke="none" fill="black" font-family="Helvetica" font-size="12.00"  text-anchor="middle">
		<text><tspan font-family="Helvetica" > 2.28x10</tspan><tspan font-family="Helvetica"  font-size="9.6" dy="-6.00px">7</tspan><tspan font-size="12.0" dy="6.00"></tspan></text>
	</g>
</g>
<g fill="none" color="black" stroke="currentColor" stroke-width="1.00" stroke-linecap="butt" stroke-linejoin="miter">
	<path stroke='black'  d='M712.7,662.4 L712.7,653.4  '/>	<g transform="translate(712.7,684.3)" stroke="none" fill="black" font-family="Helvetica" font-size="12.00"  text-anchor="middle">
		<text><tspan font-family="Helvetica" > 2.3x10</tspan><tspan font-family="Helvetica"  font-size="9.6" dy="-6.00px">7</tspan><tspan font-size="12.0" dy="6.00"></tspan></text>
	</g>
</g>
<g fill="none" color="black" stroke="currentColor" stroke-width="1.00" stroke-linecap="butt" stroke-linejoin="miter">
	<path stroke='black'  d='M836.9,662.4 L836.9,653.4  '/>	<g transform="translate(836.9,684.3)" stroke="none" fill="black" font-family="Helvetica" font-size="12.00"  text-anchor="middle">
		<text><tspan font-family="Helvetica" > 2.32x10</tspan><tspan font-family="Helvetica"  font-size="9.6" dy="-6.00px">7</tspan><tspan font-size="12.0" dy="6.00"></tspan></text>
	</g>
</g>
<g fill="none" color="black" stroke="currentColor" stroke-width="1.00" stroke-linecap="butt" stroke-linejoin="miter">
	<path stroke='black'  d='M961.1,662.4 L961.1,653.4  '/>	<g transform="translate(961.1,684.3)" stroke="none" fill="black" font-family="Helvetica" font-size="12.00"  text-anchor="middle">
		<text><tspan font-family="Helvetica" > 2.34x10</tspan><tspan font-family="Helvetica"  font-size="9.6" dy="-6.00px">7</tspan><tspan font-size="12.0" dy="6.00"></tspan></text>
	</g>
</g>
<g fill="none" color="black" stroke="currentColor" stroke-width="1.00" stroke-linecap="butt" stroke-linejoin="miter">
</g>
<g fill="none" color="black" stroke="currentColor" stroke-width="1.00" stroke-linecap="butt" stroke-linejoin="miter">
	<path stroke='black'  d='M105.1,54.1 L105.1,662.4 L1013.6,662.4 L1013.6,54.1 L105.1,54.1 Z  '/></g>
<g fill="none" color="black" stroke="currentColor" stroke-width="1.00" stroke-linecap="butt" stroke-linejoin="miter">
	<g transform="translate(16.3,358.3) rotate(270)" stroke="none" fill="black" font-family="Helvetica" font-size="12.00"  text-anchor="middle">
		<text><tspan font-family="Helvetica" >Density (a.u.)</tspan></text>
	</g>
</g>
<g fill="none" color="black" stroke="currentColor" stroke-width="1.00" stroke-linecap="butt" stroke-linejoin="miter">
	<g transform="translate(559.3,711.3)" stroke="none" fill="black" font-family="Helvetica" font-size="12.00"  text-anchor="middle">
		<text><tspan font-family="Helvetica" >Average time (cycles)</tspan></text>
	</g>
</g>
<g fill="none" color="black" stroke="currentColor" stroke-width="1.00" stroke-linecap="butt" stroke-linejoin="miter">
	<g transform="translate(559.3,31.0)" stroke="none" fill="black" font-family="Helvetica" font-size="12.00"  text-anchor="middle">
		<text><tspan font-family="Helvetica" >non_nested_compare/modified from scratch/16: slope</tspan></text>
	</g>
</g>
	<g id="gnuplot_plot_1" ><title>Bootstrap distribution</title>
<g fill="none" color="white" stroke="black" stroke-width="2.00" stroke-linecap="butt" stroke-linejoin="miter">
</g>
<g fill="none" color="black" stroke="currentColor" stroke-width="2.00" stroke-linecap="butt" stroke-linejoin="miter">
	<g transform="translate(1089.0,67.0)" stroke="none" fill="black" font-family="Helvetica" font-size="12.00"  text-anchor="start">
		<text><tspan font-family="Helvetica" >Bootstrap distribution</tspan></text>
	</g>
</g>
<g fill="none" color="black" stroke="currentColor" stroke-width="2.00" stroke-linecap="butt" stroke-linejoin="miter">
	<path stroke='rgb( 31, 120, 180)'  d='M1038.5,63.1 L1080.7,63.1 M105.1,629.8 L106.9,629.2 L108.7,628.5 L110.6,627.8 L112.4,627.1 L114.2,626.3
		L116.0,625.6 L117.8,624.8 L119.7,624.0 L121.5,623.2 L123.3,622.4 L125.1,621.5 L126.9,620.6 L128.8,619.8
		L130.6,618.9 L132.4,618.0 L134.2,617.1 L136.1,616.2 L137.9,615.2 L139.7,614.3 L141.5,613.4 L143.3,612.5
		L145.2,611.6 L147.0,610.7 L148.8,609.8 L150.6,608.9 L152.4,608.0 L154.3,607.2 L156.1,606.3 L157.9,605.4
		L159.7,604.6 L161.5,603.7 L163.4,602.8 L165.2,601.9 L167.0,601.0 L168.8,600.0 L170.6,599.0 L172.5,598.0
		L174.3,596.9 L176.1,595.8 L177.9,594.6 L179.7,593.4 L181.6,592.1 L183.4,590.7 L185.2,589.3 L187.0,587.8
		L188.8,586.3 L190.7,584.7 L192.5,583.1 L194.3,581.4 L196.1,579.7 L198.0,578.0 L199.8,576.2 L201.6,574.4
		L203.4,572.5 L205.2,570.7 L207.1,568.8 L208.9,566.9 L210.7,565.1 L212.5,563.2 L214.3,561.3 L216.2,559.4
		L218.0,557.6 L219.8,555.7 L221.6,553.9 L223.4,552.1 L225.3,550.2 L227.1,548.4 L228.9,546.6 L230.7,544.8
		L232.5,542.9 L234.4,541.1 L236.2,539.3 L238.0,537.5 L239.8,535.6 L241.6,533.8 L243.5,531.9 L245.3,530.1
		L247.1,528.2 L248.9,526.3 L250.8,524.4 L252.6,522.5 L254.4,520.6 L256.2,518.7 L258.0,516.7 L259.9,514.7
		L261.7,512.7 L263.5,510.7 L265.3,508.7 L267.1,506.6 L269.0,504.5 L270.8,502.4 L272.6,500.2 L274.4,498.0
		L276.2,495.8 L278.1,493.5 L279.9,491.2 L281.7,488.8 L283.5,486.4 L285.3,484.0 L287.2,481.5 L289.0,478.9
		L290.8,476.4 L292.6,473.7 L294.4,471.1 L296.3,468.4 L298.1,465.6 L299.9,462.9 L301.7,460.1 L303.5,457.3
		L305.4,454.4 L307.2,451.6 L309.0,448.8 L310.8,445.9 L312.7,443.1 L314.5,440.2 L316.3,437.4 L318.1,434.6
		L319.9,431.8 L321.8,429.0 L323.6,426.2 L325.4,423.4 L327.2,420.7 L329.0,418.0 L330.9,415.3 L332.7,412.6
		L334.5,409.9 L336.3,407.2 L338.1,404.5 L340.0,401.8 L341.8,399.1 L343.6,396.4 L345.4,393.6 L347.2,390.8
		L349.1,388.0 L350.9,385.2 L352.7,382.3 L354.5,379.4 L356.3,376.5 L358.2,373.5 L360.0,370.5 L361.8,367.5
		L363.6,364.4 L365.5,361.3 L367.3,358.2 L369.1,355.1 L370.9,352.0 L372.7,348.8 L374.6,345.7 L376.4,342.5
		L378.2,339.4 L380.0,336.2 L381.8,333.0 L383.7,329.8 L385.5,326.6 L387.3,323.4 L389.1,320.1 L390.9,316.8
		L392.8,313.5 L394.6,310.1 L396.4,306.7 L398.2,303.2 L400.0,299.6 L401.9,296.0 L403.7,292.3 L405.5,288.6
		L407.3,284.8 L409.1,281.0 L411.0,277.2 L412.8,273.3 L414.6,269.4 L416.4,265.5 L418.3,261.7 L420.1,257.9
		L421.9,254.1 L423.7,250.3 L425.5,246.6 L427.4,243.0 L429.2,239.5 L431.0,236.1 L432.8,232.7 L434.6,229.5
		L436.5,226.4 L438.3,223.3 L440.1,220.4 L441.9,217.6 L443.7,214.9 L445.6,212.2 L447.4,209.7 L449.2,207.3
		L451.0,204.9 L452.8,202.6 L454.7,200.4 L456.5,198.2 L458.3,196.1 L460.1,194.0 L461.9,191.9 L463.8,189.9
		L465.6,187.8 L467.4,185.8 L469.2,183.7 L471.0,181.7 L472.9,179.6 L474.7,177.5 L476.5,175.3 L478.3,173.1
		L480.2,170.9 L482.0,168.6 L483.8,166.3 L485.6,164.0 L487.4,161.6 L489.3,159.2 L491.1,156.8 L492.9,154.4
		L494.7,151.9 L496.5,149.5 L498.4,147.1 L500.2,144.7 L502.0,142.4 L503.8,140.1 L505.6,137.9 L507.5,135.8
		L509.3,133.8 L511.1,131.8 L512.9,130.0 L514.7,128.3 L516.6,126.7 L518.4,125.3 L520.2,124.0 L522.0,122.8
		L523.8,121.7 L525.7,120.8 L527.5,120.0 L529.3,119.3 L531.1,118.6 L533.0,118.1 L534.8,117.6 L536.6,117.2
		L538.4,116.8 L540.2,116.4 L542.1,116.0 L543.9,115.6 L545.7,115.2 L547.5,114.8 L549.3,114.3 L551.2,113.8
		L553.0,113.2 L554.8,112.6 L556.6,111.9 L558.4,111.2 L560.3,110.4 L562.1,109.6 L563.9,108.8 L565.7,107.9
		L567.5,107.1 L569.4,106.3 L571.2,105.5 L573.0,104.8 L574.8,104.1 L576.6,103.5 L578.5,102.9 L580.3,102.5
		L582.1,102.2 L583.9,101.9 L585.7,101.8 L587.6,101.8 L589.4,101.9 L591.2,102.2 L593.0,102.5 L594.9,103.0
		L596.7,103.5 L598.5,104.2 L600.3,104.9 L602.1,105.7 L604.0,106.6 L605.8,107.6 L607.6,108.6 L609.4,109.7
		L611.2,110.7 L613.1,111.9 L614.9,113.0 L616.7,114.1 L618.5,115.2 L620.3,116.3 L622.2,117.5 L624.0,118.6
		L625.8,119.7 L627.6,120.7 L629.4,121.8 L631.3,122.8 L633.1,123.9 L634.9,124.9 L636.7,125.9 L638.5,127.0
		L640.4,128.0 L642.2,129.0 L644.0,130.1 L645.8,131.2 L647.7,132.4 L649.5,133.5 L651.3,134.8 L653.1,136.1
		L654.9,137.4 L656.8,138.8 L658.6,140.3 L660.4,141.9 L662.2,143.6 L664.0,145.3 L665.9,147.2 L667.7,149.1
		L669.5,151.2 L671.3,153.3 L673.1,155.5 L675.0,157.9 L676.8,160.3 L678.6,162.8 L680.4,165.3 L682.2,167.9
		L684.1,170.6 L685.9,173.3 L687.7,176.1 L689.5,178.9 L691.3,181.8 L693.2,184.7 L695.0,187.6 L696.8,190.5
		L698.6,193.5 L700.4,196.5 L702.3,199.5 L704.1,202.5 L705.9,205.5 L707.7,208.6 L709.6,211.7 L711.4,214.9
		L713.2,218.1 L715.0,221.4 L716.8,224.7 L718.7,228.0 L720.5,231.5 L722.3,234.9 L724.1,238.4 L725.9,242.0
		L727.8,245.6 L729.6,249.2 L731.4,252.9 L733.2,256.5 L735.0,260.2 L736.9,263.9 L738.7,267.5 L740.5,271.1
		L742.3,274.6 L744.1,278.2 L746.0,281.6 L747.8,285.0 L749.6,288.3 L751.4,291.6 L753.2,294.8 L755.1,297.9
		L756.9,301.0 L758.7,304.0 L760.5,307.0 L762.4,310.0 L764.2,313.0 L766.0,315.9 L767.8,318.8 L769.6,321.8
		L771.5,324.8 L773.3,327.8 L775.1,330.8 L776.9,333.9 L778.7,337.0 L780.6,340.2 L782.4,343.4 L784.2,346.6
		L786.0,350.0 L787.8,353.3 L789.7,356.7 L791.5,360.1 L793.3,363.5 L795.1,367.0 L796.9,370.5 L798.8,374.0
		L800.6,377.5 L802.4,381.0 L804.2,384.5 L806.0,387.9 L807.9,391.4 L809.7,394.9 L811.5,398.3 L813.3,401.7
		L815.2,405.1 L817.0,408.5 L818.8,411.9 L820.6,415.2 L822.4,418.5 L824.3,421.7 L826.1,424.9 L827.9,428.1
		L829.7,431.2 L831.5,434.3 L833.4,437.3 L835.2,440.3 L837.0,443.3 L838.8,446.2 L840.6,449.1 L842.5,452.0
		L844.3,454.8 L846.1,457.6 L847.9,460.3 L849.7,463.1 L851.6,465.8 L853.4,468.5 L855.2,471.2 L857.0,473.9
		L858.8,476.5 L860.7,479.2 L862.5,481.9 L864.3,484.5 L866.1,487.2 L867.9,489.8 L869.8,492.4 L871.6,495.1
		L873.4,497.7 L875.2,500.3 L877.1,502.9 L878.9,505.5 L880.7,508.1 L882.5,510.6 L884.3,513.1 L886.2,515.6
		L888.0,518.0 L889.8,520.5 L891.6,522.9 L893.4,525.2 L895.3,527.5 L897.1,529.8 L898.9,532.0 L900.7,534.2
		L902.5,536.4 L904.4,538.5 L906.2,540.6 L908.0,542.7 L909.8,544.7 L911.6,546.7 L913.5,548.7 L915.3,550.7
		L917.1,552.7 L918.9,554.6 L920.7,556.6 L922.6,558.5 L924.4,560.4 L926.2,562.4 L928.0,564.3 L929.9,566.2
		L931.7,568.2 L933.5,570.1 L935.3,572.0 L937.1,574.0 L939.0,575.9 L940.8,577.8 L942.6,579.7 L944.4,581.6
		L946.2,583.5 L948.1,585.3 L949.9,587.1 L951.7,588.9 L953.5,590.7 L955.3,592.4 L957.2,594.0 L959.0,595.7
		L960.8,597.3 L962.6,598.8 L964.4,600.3 L966.3,601.8 L968.1,603.2 L969.9,604.6 L971.7,606.0 L973.5,607.3
		L975.4,608.6 L977.2,609.8 L979.0,611.1 L980.8,612.3 L982.6,613.5 L984.5,614.6 L986.3,615.7 L988.1,616.9
		L989.9,617.9 L991.8,619.0 L993.6,620.1 L995.4,621.1 L997.2,622.1 L999.0,623.1 L1000.9,624.0 L1002.7,624.9
		L1004.5,625.8 L1006.3,626.6 L1008.1,627.5 L1010.0,628.2 L1011.8,629.0 L1013.6,629.7  '/></g>
	</g>
	<g id="gnuplot_plot_2" ><title>Confidence interval</title>
<g fill="none" color="white" stroke="rgb( 31, 120, 180)" stroke-width="1.00" stroke-linecap="butt" stroke-linejoin="miter">
</g>
<g fill="none" color="black" stroke="currentColor" stroke-width="1.00" stroke-linecap="butt" stroke-linejoin="miter">
	<g transform="translate(1089.0,85.0)" stroke="none" fill="black" font-family="Helvetica" font-size="12.00"  text-anchor="start">
		<text><tspan font-family="Helvetica" >Confidence interval</tspan></text>
	</g>
</g>
<g fill="none" color="black" stroke="currentColor" stroke-width="1.00" stroke-linecap="butt" stroke-linejoin="miter">
	<g stroke='none' shape-rendering='crispEdges'>
		<polygon fill = 'rgb( 31, 120, 180)' fill-opacity = '0.250000' points = '1038.5,85.6 1080.7,85.6 1080.7,76.6 1038.5,76.6 '/>
		<polygon fill = 'rgb( 31, 120, 180)' fill-opacity = '0.250000' points = '188.8,586.3 190.7,584.7 192.5,583.1 194.3,581.4 196.1,579.7 198.0,578.0 199.8,576.2 201.6,574.4 203.4,572.5 205.2,570.7 207.1,568.8 208.9,566.9 210.7,565.1 212.5,563.2 214.3,561.3 216.2,559.4
218.0,557.6 219.8,555.7 221.6,553.9 223.4,552.1 225.3,550.2 227.1,548.4 228.9,546.6 230.7,544.8 232.5,542.9 234.4,541.1 236.2,539.3 238.0,537.5 239.8,535.6 241.6,533.8 243.5,531.9 245.3,530.1
247.1,528.2 248.9,526.3 250.8,524.4 252.6,522.5 254.4,520.6 256.2,518.7 258.0,516.7 259.9,514.7 261.7,512.7 263.5,510.7 265.3,508.7 267.1,506.6 269.0,504.5 270.8,502.4 272.6,500.2 274.4,498.0
276.2,495.8 278.1,493.5 279.9,491.2 281.7,488.8 283.5,486.4 285.3,484.0 287.2,481.5 289.0,478.9 290.8,476.4 292.6,473.7 294.4,471.1 296.3,468.4 298.1,465.6 299.9,462.9 301.7,460.1 303.5,457.3
305.4,454.4 307.2,451.6 309.0,448.8 310.8,445.9 312.7,443.1 314.5,440.2 316.3,437.4 318.1,434.6 319.9,431.8 321.8,429.0 323.6,426.2 325.4,423.4 327.2,420.7 329.0,418.0 330.9,415.3 332.7,412.6
334.5,409.9 336.3,407.2 338.1,404.5 340.0,401.8 341.8,399.1 343.6,396.4 345.4,393.6 347.2,390.8 349.1,388.0 350.9,385.2 352.7,382.3 354.5,379.4 356.3,376.5 358.2,373.5 360.0,370.5 361.8,367.5
363.6,364.4 365.5,361.3 367.3,358.2 369.1,355.1 370.9,352.0 372.7,348.8 374.6,345.7 376.4,342.5 378.2,339.4 380.0,336.2 381.8,333.0 383.7,329.8 385.5,326.6 387.3,323.4 389.1,320.1 390.9,316.8
392.8,313.5 394.6,310.1 396.4,306.7 398.2,303.2 400.0,299.6 401.9,296.0 403.7,292.3 405.5,288.6 407.3,284.8 409.1,281.0 411.0,277.2 412.8,273.3 414.6,269.4 416.4,265.5 418.3,261.7 420.1,257.9
421.9,254.1 423.7,250.3 425.5,246.6 427.4,243.0 429.2,239.5 431.0,236.1 432.8,232.7 434.6,229.5 436.5,226.4 438.3,223.3 440.1,220.4 441.9,217.6 443.7,214.9 445.6,212.2 447.4,209.7 449.2,207.3
451.0,204.9 452.8,202.6 454.7,200.4 456.5,198.2 458.3,196.1 460.1,194.0 461.9,191.9 463.8,189.9 465.6,187.8 467.4,185.8 469.2,183.7 471.0,181.7 472.9,179.6 474.7,177.5 476.5,175.3 478.3,173.1
480.2,170.9 482.0,168.6 483.8,166.3 485.6,164.0 487.4,161.6 489.3,159.2 491.1,156.8 492.9,154.4 494.7,151.9 496.5,149.5 498.4,147.1 500.2,144.7 502.0,142.4 503.8,140.1 505.6,137.9 507.5,135.8
509.3,133.8 511.1,131.8 512.9,130.0 514.7,128.3 516.6,126.7 518.4,125.3 520.2,124.0 522.0,122.8 523.8,121.7 525.7,120.8 527.5,120.0 529.3,119.3 531.1,118.6 533.0,118.1 534.8,117.6 536.6,117.2
538.4,116.8 540.2,116.4 542.1,116.0 543.9,115.6 545.7,115.2 547.5,114.8 549.3,114.3 551.2,113.8 553.0,113.2 554.8,112.6 556.6,111.9 558.4,111.2 560.3,110.4 562.1,109.6 563.9,108.8 565.7,107.9
567.5,107.1 569.4,106.3 571.2,105.5 573.0,104.8 574.8,104.1 576.6,103.5 578.5,102.9 580.3,102.5 582.1,102.2 583.9,101.9 585.7,101.8 587.6,101.8 589.4,101.9 591.2,102.2 593.0,102.5 594.9,103.0
596.7,103.5 598.5,104.2 600.3,104.9 602.1,105.7 604.0,106.6 605.8,107.6 607.6,108.6 609.4,109.7 611.2,110.7 613.1,111.9 614.9,113.0 616.7,114.1 618.5,115.2 620.3,116.3 622.2,117.5 624.0,118.6
625.8,119.7 627.6,120.7 629.4,121.8 631.3,122.8 633.1,123.9 634.9,124.9 636.7,125.9 638.5,127.0 640.4,128.0 642.2,129.0 644.0,130.1 645.8,131.2 647.7,132.4 649.5,133.5 651.3,134.8 653.1,136.1
654.9,137.4 656.8,138.8 658.6,140.3 660.4,141.9 662.2,143.6 664.0,145.3 665.9,147.2 667.7,149.1 669.5,151.2 671.3,153.3 673.1,155.5 675.0,157.9 676.8,160.3 678.6,162.8 680.4,165.3 682.2,167.9
684.1,170.6 685.9,173.3 687.7,176.1 689.5,178.9 691.3,181.8 693.2,184.7 695.0,187.6 696.8,190.5 698.6,193.5 700.4,196.5 702.3,199.5 704.1,202.5 705.9,205.5 707.7,208.6 709.6,211.7 711.4,214.9
713.2,218.1 715.0,221.4 716.8,224.7 718.7,228.0 720.5,231.5 722.3,234.9 724.1,238.4 725.9,242.0 727.8,245.6 729.6,249.2 731.4,252.9 733.2,256.5 735.0,260.2 736.9,263.9 738.7,267.5 740.5,271.1
742.3,274.6 744.1,278.2 746.0,281.6 747.8,285.0 749.6,288.3 751.4,291.6 753.2,294.8 755.1,297.9 756.9,301.0 758.7,304.0 760.5,307.0 762.4,310.0 764.2,313.0 766.0,315.9 767.8,318.8 769.6,321.8
771.5,324.8 773.3,327.8 775.1,330.8 776.9,333.9 778.7,337.0 780.6,340.2 782.4,343.4 784.2,346.6 786.0,350.0 787.8,353.3 789.7,356.7 791.5,360.1 793.3,363.5 795.1,367.0 796.9,370.5 798.8,374.0
800.6,377.5 802.4,381.0 804.2,384.5 806.0,387.9 807.9,391.4 809.7,394.9 811.5,398.3 813.3,401.7 815.2,405.1 817.0,408.5 818.8,411.9 820.6,415.2 822.4,418.5 824.3,421.7 826.1,424.9 827.9,428.1
829.7,431.2 831.5,434.3 833.4,437.3 835.2,440.3 837.0,443.3 838.8,446.2 840.6,449.1 842.5,452.0 844.3,454.8 846.1,457.6 847.9,460.3 849.7,463.1 851.6,465.8 853.4,468.5 855.2,471.2 857.0,473.9
858.8,476.5 860.7,479.2 862.5,481.9 864.3,484.5 866.1,487.2 867.9,489.8 869.8,492.4 871.6,495.1 873.4,497.7 875.2,500.3 877.1,502.9 878.9,505.5 880.7,508.1 882.5,510.6 884.3,513.1 886.2,515.6
888.0,518.0 889.8,520.5 891.6,522.9 893.4,525.2 895.3,527.5 897.1,529.8 898.9,532.0 900.7,534.2 902.5,536.4 904.4,538.5 906.2,540.6 908.0,542.7 909.8,544.7 911.6,546.7 913.5,548.7 915.3,550.7
917.1,552.7 918.9,554.6 920.7,556.6 922.6,558.5 924.4,560.4 926.2,562.4 928.0,564.3 928.0,662.4 926.2,662.4 924.4,662.4 922.6,662.4 920.7,662.4 918.9,662.4 917.1,662.4 915.3,662.4 913.5,662.4
911.6,662.4 909.8,662.4 908.0,662.4 906.2,662.4 904.4,662.4 902.5,662.4 900.7,662.4 898.9,662.4 897.1,662.4 895.3,662.4 893.4,662.4 891.6,662.4 889.8,662.4 888.0,662.4 886.2,662.4 884.3,662.4
882.5,662.4 880.7,662.4 878.9,662.4 877.1,662.4 875.2,662.4 873.4,662.4 871.6,662.4 869.8,662.4 867.9,662.4 866.1,662.4 864.3,662.4 862.5,662.4 860.7,662.4 858.8,662.4 857.0,662.4 855.2,662.4
853.4,662.4 851.6,662.4 849.7,662.4 847.9,662.4 846.1,662.4 844.3,662.4 842.5,662.4 840.6,662.4 838.8,662.4 837.0,662.4 835.2,662.4 833.4,662.4 831.5,662.4 829.7,662.4 827.9,662.4 826.1,662.4
824.3,662.4 822.4,662.4 820.6,662.4 818.8,662.4 817.0,662.4 815.2,662.4 813.3,662.4 811.5,662.4 809.7,662.4 807.9,662.4 806.0,662.4 804.2,662.4 802.4,662.4 800.6,662.4 798.8,662.4 796.9,662.4
795.1,662.4 793.3,662.4 791.5,662.4 789.7,662.4 787.8,662.4 786.0,662.4 784.2,662.4 782.4,662.4 780.6,662.4 778.7,662.4 776.9,662.4 775.1,662.4 773.3,662.4 771.5,662.4 769.6,662.4 767.8,662.4
766.0,662.4 764.2,662.4 762.4,662.4 760.5,662.4 758.7,662.4 756.9,662.4 755.1,662.4 753.2,662.4 751.4,662.4 749.6,662.4 747.8,662.4 746.0,662.4 744.1,662.4 742.3,662.4 740.5,662.4 738.7,662.4
736.9,662.4 735.0,662.4 733.2,662.4 731.4,662.4 729.6,662.4 727.8,662.4 725.9,662.4 724.1,662.4 722.3,662.4 720.5,662.4 718.7,662.4 716.8,662.4 715.0,662.4 713.2,662.4 711.4,662.4 709.6,662.4
707.7,662.4 705.9,662.4 704.1,662.4 702.3,662.4 700.4,662.4 698.6,662.4 696.8,662.4 695.0,662.4 693.2,662.4 691.3,662.4 689.5,662.4 687.7,662.4 685.9,662.4 684.1,662.4 682.2,662.4 680.4,662.4
678.6,662.4 676.8,662.4 675.0,662.4 673.1,662.4 671.3,662.4 669.5,662.4 667.7,662.4 665.9,662.4 664.0,662.4 662.2,662.4 660.4,662.4 658.6,662.4 656.8,662.4 654.9,662.4 653.1,662.4 651.3,662.4
649.5,662.4 647.7,662.4 645.8,662.4 644.0,662.4 642.2,662.4 640.4,662.4 638.5,662.4 636.7,662.4 634.9,662.4 633.1,662.4 631.3,662.4 629.4,662.4 627.6,662.4 625.8,662.4 624.0,662.4 622.2,662.4
620.3,662.4 618.5,662.4 616.7,662.4 614.9,662.4 613.1,662.4 611.2,662.4 609.4,662.4 607.6,662.4 605.8,662.4 604.0,662.4 602.1,662.4 600.3,662.4 598.5,662.4 596.7,662.4 594.9,662.4 593.0,662.4
591.2,662.4 589.4,662.4 587.6,662.4 585.7,662.4 583.9,662.4 582.1,662.4 580.3,662.4 578.5,662.4 576.6,662.4 574.8,662.4 573.0,662.4 571.2,662.4 569.4,662.4 567.5,662.4 565.7,662.4 563.9,662.4
562.1,662.4 560.3,662.4 558.4,662.4 556.6,662.4 554.8,662.4 553.0,662.4 551.2,662.4 549.3,662.4 547.5,662.4 545.7,662.4 543.9,662.4 542.1,662.4 540.2,662.4 538.4,662.4 536.6,662.4 534.8,662.4
533.0,662.4 531.1,662.4 529.3,662.4 527.5,662.4 525.7,662.4 523.8,662.4 522.0,662.4 520.2,662.4 518.4,662.4 516.6,662.4 514.7,662.4 512.9,662.4 511.1,662.4 509.3,662.4 507.5,662.4 505.6,662.4
503.8,662.4 502.0,662.4 500.2,662.4 498.4,662.4 496.5,662.4 494.7,662.4 492.9,662.4 491.1,662.4 489.3,662.4 487.4,662.4 485.6,662.4 483.8,662.4 482.0,662.4 480.2,662.4 478.3,662.4 476.5,662.4
474.7,662.4 472.9,662.4 471.0,662.4 469.2,662.4 467.4,662.4 465.6,662.4 463.8,662.4 461.9,662.4 460.1,662.4 458.3,662.4 456.5,662.4 454.7,662.4 452.8,662.4 451.0,662.4 449.2,662.4 447.4,662.4
445.6,662.4 443.7,662.4 441.9,662.4 440.1,662.4 438.3,662.4 436.5,662.4 434.6,662.4 432.8,662.4 431.0,662.4 429.2,662.4 427.4,662.4 425.5,662.4 423.7,662.4 421.9,662.4 420.1,662.4 418.3,662.4
416.4,662.4 414.6,662.4 412.8,662.4 411.0,662.4 409.1,662.4 407.3,662.4 405.5,662.4 403.7,662.4 401.9,662.4 400.0,662.4 398.2,662.4 396.4,662.4 394.6,662.4 392.8,662.4 390.9,662.4 389.1,662.4
387.3,662.4 385.5,662.4 383.7,662.4 381.8,662.4 380.0,662.4 378.2,662.4 376.4,662.4 374.6,662.4 372.7,662.4 370.9,662.4 369.1,662.4 367.3,662.4 365.5,662.4 363.6,662.4 361.8,662.4 360.0,662.4
358.2,662.4 356.3,662.4 354.5,662.4 352.7,662.4 350.9,662.4 349.1,662.4 347.2,662.4 345.4,662.4 343.6,662.4 341.8,662.4 340.0,662.4 338.1,662.4 336.3,662.4 334.5,662.4 332.7,662.4 330.9,662.4
329.0,662.4 327.2,662.4 325.4,662.4 323.6,662.4 321.8,662.4 319.9,662.4 318.1,662.4 316.3,662.4 314.5,662.4 312.7,662.4 310.8,662.4 309.0,662.4 307.2,662.4 305.4,662.4 303.5,662.4 301.7,662.4
299.9,662.4 298.1,662.4 296.3,662.4 294.4,662.4 292.6,662.4 290.8,662.4 289.0,662.4 287.2,662.4 285.3,662.4 283.5,662.4 281.7,662.4 279.9,662.4 278.1,662.4 276.2,662.4 274.4,662.4 272.6,662.4
270.8,662.4 269.0,662.4 267.1,662.4 265.3,662.4 263.5,662.4 261.7,662.4 259.9,662.4 258.0,662.4 256.2,662.4 254.4,662.4 252.6,662.4 250.8,662.4 248.9,662.4 247.1,662.4 245.3,662.4 243.5,662.4
241.6,662.4 239.8,662.4 238.0,662.4 236.2,662.4 234.4,662.4 232.5,662.4 230.7,662.4 228.9,662.4 227.1,662.4 225.3,662.4 223.4,662.4 221.6,662.4 219.8,662.4 218.0,662.4 216.2,662.4 214.3,662.4
212.5,662.4 210.7,662.4 208.9,662.4 207.1,662.4 205.2,662.4 203.4,662.4 201.6,662.4 199.8,662.4 198.0,662.4 196.1,662.4 194.3,662.4 192.5,662.4 190.7,662.4 188.8,662.4 '/>
	</g>
</g>
	</g>
	<g id="gnuplot_plot_3" ><title>Point estimate</title>
<g fill="none" color="white" stroke="rgb( 31, 120, 180)" stroke-width="2.00" stroke-linecap="butt" stroke-linejoin="miter">
</g>
<g fill="none" color="black" stroke="currentColor" stroke-width="2.00" stroke-linecap="butt" stroke-linejoin="miter">
	<g transform="translate(1089.0,103.0)" stroke="none" fill="black" font-family="Helvetica" font-size="12.00"  text-anchor="start">
		<text><tspan font-family="Helvetica" >Point estimate</tspan></text>
	</g>
</g>
<g fill="none" color="black" stroke="currentColor" stroke-width="2.00" stroke-linecap="butt" stroke-linejoin="miter">
	<path stroke='rgb( 31, 120, 180)'  d='M1038.5,99.1 L1080.7,99.1 M582.1,662.4 L582.1,102.2  '/></g>
	</g>
<g fill="none" color="black" stroke="currentColor" stroke-width="2.00" stroke-linecap="butt" stroke-linejoin="miter">
</g>
<g fill="none" color="black" stroke="black" stroke-width="1.00" stroke-linecap="butt" stroke-linejoin="miter">
</g>
<g fill="none" color="black" stroke="currentColor" stroke-width="1.00" stroke-linecap="butt" stroke-linejoin="miter">
	<path stroke='black'  d='M105.1,54.1 L105.1,662.4 L1013.6,662.4 L1013.6,54.1 L105.1,54.1 Z  '/></g>
<g fill="none" color="black" stroke="currentColor" stroke-width="1.00" stroke-linecap="butt" stroke-linejoin="miter">
</g>
</g>
</svg>

