<?xml version="1.0" encoding="utf-8"  standalone="no"?>
<svg 
 viewBox="0 0 1280 720"
 xmlns="http://www.w3.org/2000/svg"
 xmlns:xlink="http://www.w3.org/1999/xlink"
>

<title>Gnuplot</title>
<desc>Produced by GNUPLOT 5.2 patchlevel 2 </desc>

<g id="gnuplot_canvas">

<rect x="0" y="0" width="1280" height="720" fill="none"/>
<defs>

	<circle id='gpDot' r='0.5' stroke-width='0.5'/>
	<path id='gpPt0' stroke-width='0.222' stroke='currentColor' d='M-1,0 h2 M0,-1 v2'/>
	<path id='gpPt1' stroke-width='0.222' stroke='currentColor' d='M-1,-1 L1,1 M1,-1 L-1,1'/>
	<path id='gpPt2' stroke-width='0.222' stroke='currentColor' d='M-1,0 L1,0 M0,-1 L0,1 M-1,-1 L1,1 M-1,1 L1,-1'/>
	<rect id='gpPt3' stroke-width='0.222' stroke='currentColor' x='-1' y='-1' width='2' height='2'/>
	<rect id='gpPt4' stroke-width='0.222' stroke='currentColor' fill='currentColor' x='-1' y='-1' width='2' height='2'/>
	<circle id='gpPt5' stroke-width='0.222' stroke='currentColor' cx='0' cy='0' r='1'/>
	<use xlink:href='#gpPt5' id='gpPt6' fill='currentColor' stroke='none'/>
	<path id='gpPt7' stroke-width='0.222' stroke='currentColor' d='M0,-1.33 L-1.33,0.67 L1.33,0.67 z'/>
	<use xlink:href='#gpPt7' id='gpPt8' fill='currentColor' stroke='none'/>
	<use xlink:href='#gpPt7' id='gpPt9' stroke='currentColor' transform='rotate(180)'/>
	<use xlink:href='#gpPt9' id='gpPt10' fill='currentColor' stroke='none'/>
	<use xlink:href='#gpPt3' id='gpPt11' stroke='currentColor' transform='rotate(45)'/>
	<use xlink:href='#gpPt11' id='gpPt12' fill='currentColor' stroke='none'/>
	<path id='gpPt13' stroke-width='0.222' stroke='currentColor' d='M0,1.330 L1.265,0.411 L0.782,-1.067 L-0.782,-1.076 L-1.265,0.411 z'/>
	<use xlink:href='#gpPt13' id='gpPt14' fill='currentColor' stroke='none'/>
	<filter id='textbox' filterUnits='objectBoundingBox' x='0' y='0' height='1' width='1'>
	  <feFlood flood-color='white' flood-opacity='1' result='bgnd'/>
	  <feComposite in='SourceGraphic' in2='bgnd' operator='atop'/>
	</filter>
	<filter id='greybox' filterUnits='objectBoundingBox' x='0' y='0' height='1' width='1'>
	  <feFlood flood-color='lightgrey' flood-opacity='1' result='grey'/>
	  <feComposite in='SourceGraphic' in2='grey' operator='atop'/>
	</filter>
</defs>
<g fill="none" color="white" stroke="currentColor" stroke-width="1.00" stroke-linecap="butt" stroke-linejoin="miter">
</g>
<g fill="none" color="black" stroke="currentColor" stroke-width="1.00" stroke-linecap="butt" stroke-linejoin="miter">
	<path stroke='black'  d='M96.8,662.4 L105.8,662.4  '/>	<g transform="translate(88.5,666.3)" stroke="none" fill="black" font-family="Helvetica" font-size="12.00"  text-anchor="end">
		<text><tspan font-family="Helvetica" > 0</tspan></text>
	</g>
</g>
<g fill="none" color="black" stroke="currentColor" stroke-width="1.00" stroke-linecap="butt" stroke-linejoin="miter">
	<path stroke='black'  d='M96.8,601.6 L105.8,601.6  '/>	<g transform="translate(88.5,605.5)" stroke="none" fill="black" font-family="Helvetica" font-size="12.00"  text-anchor="end">
		<text><tspan font-family="Helvetica" > 1x10</tspan><tspan font-family="Helvetica"  font-size="9.6" dy="-6.00px">-5</tspan><tspan font-size="12.0" dy="6.00"></tspan></text>
	</g>
</g>
<g fill="none" color="black" stroke="currentColor" stroke-width="1.00" stroke-linecap="butt" stroke-linejoin="miter">
	<path stroke='black'  d='M96.8,540.7 L105.8,540.7  '/>	<g transform="translate(88.5,544.6)" stroke="none" fill="black" font-family="Helvetica" font-size="12.00"  text-anchor="end">
		<text><tspan font-family="Helvetica" > 2x10</tspan><tspan font-family="Helvetica"  font-size="9.6" dy="-6.00px">-5</tspan><tspan font-size="12.0" dy="6.00"></tspan></text>
	</g>
</g>
<g fill="none" color="black" stroke="currentColor" stroke-width="1.00" stroke-linecap="butt" stroke-linejoin="miter">
	<path stroke='black'  d='M96.8,479.9 L105.8,479.9  '/>	<g transform="translate(88.5,483.8)" stroke="none" fill="black" font-family="Helvetica" font-size="12.00"  text-anchor="end">
		<text><tspan font-family="Helvetica" > 3x10</tspan><tspan font-family="Helvetica"  font-size="9.6" dy="-6.00px">-5</tspan><tspan font-size="12.0" dy="6.00"></tspan></text>
	</g>
</g>
<g fill="none" color="black" stroke="currentColor" stroke-width="1.00" stroke-linecap="butt" stroke-linejoin="miter">
	<path stroke='black'  d='M96.8,419.1 L105.8,419.1  '/>	<g transform="translate(88.5,423.0)" stroke="none" fill="black" font-family="Helvetica" font-size="12.00"  text-anchor="end">
		<text><tspan font-family="Helvetica" > 4x10</tspan><tspan font-family="Helvetica"  font-size="9.6" dy="-6.00px">-5</tspan><tspan font-size="12.0" dy="6.00"></tspan></text>
	</g>
</g>
<g fill="none" color="black" stroke="currentColor" stroke-width="1.00" stroke-linecap="butt" stroke-linejoin="miter">
	<path stroke='black'  d='M96.8,358.2 L105.8,358.2  '/>	<g transform="translate(88.5,362.1)" stroke="none" fill="black" font-family="Helvetica" font-size="12.00"  text-anchor="end">
		<text><tspan font-family="Helvetica" > 5x10</tspan><tspan font-family="Helvetica"  font-size="9.6" dy="-6.00px">-5</tspan><tspan font-size="12.0" dy="6.00"></tspan></text>
	</g>
</g>
<g fill="none" color="black" stroke="currentColor" stroke-width="1.00" stroke-linecap="butt" stroke-linejoin="miter">
	<path stroke='black'  d='M96.8,297.4 L105.8,297.4  '/>	<g transform="translate(88.5,301.3)" stroke="none" fill="black" font-family="Helvetica" font-size="12.00"  text-anchor="end">
		<text><tspan font-family="Helvetica" > 6x10</tspan><tspan font-family="Helvetica"  font-size="9.6" dy="-6.00px">-5</tspan><tspan font-size="12.0" dy="6.00"></tspan></text>
	</g>
</g>
<g fill="none" color="black" stroke="currentColor" stroke-width="1.00" stroke-linecap="butt" stroke-linejoin="miter">
	<path stroke='black'  d='M96.8,236.6 L105.8,236.6  '/>	<g transform="translate(88.5,240.5)" stroke="none" fill="black" font-family="Helvetica" font-size="12.00"  text-anchor="end">
		<text><tspan font-family="Helvetica" > 7x10</tspan><tspan font-family="Helvetica"  font-size="9.6" dy="-6.00px">-5</tspan><tspan font-size="12.0" dy="6.00"></tspan></text>
	</g>
</g>
<g fill="none" color="black" stroke="currentColor" stroke-width="1.00" stroke-linecap="butt" stroke-linejoin="miter">
	<path stroke='black'  d='M96.8,175.8 L105.8,175.8  '/>	<g transform="translate(88.5,179.7)" stroke="none" fill="black" font-family="Helvetica" font-size="12.00"  text-anchor="end">
		<text><tspan font-family="Helvetica" > 8x10</tspan><tspan font-family="Helvetica"  font-size="9.6" dy="-6.00px">-5</tspan><tspan font-size="12.0" dy="6.00"></tspan></text>
	</g>
</g>
<g fill="none" color="black" stroke="currentColor" stroke-width="1.00" stroke-linecap="butt" stroke-linejoin="miter">
	<path stroke='black'  d='M96.8,114.9 L105.8,114.9  '/>	<g transform="translate(88.5,118.8)" stroke="none" fill="black" font-family="Helvetica" font-size="12.00"  text-anchor="end">
		<text><tspan font-family="Helvetica" > 9x10</tspan><tspan font-family="Helvetica"  font-size="9.6" dy="-6.00px">-5</tspan><tspan font-size="12.0" dy="6.00"></tspan></text>
	</g>
</g>
<g fill="none" color="black" stroke="currentColor" stroke-width="1.00" stroke-linecap="butt" stroke-linejoin="miter">
	<path stroke='black'  d='M96.8,54.1 L105.8,54.1  '/>	<g transform="translate(88.5,58.0)" stroke="none" fill="black" font-family="Helvetica" font-size="12.00"  text-anchor="end">
		<text><tspan font-family="Helvetica" > 0.0001</tspan></text>
	</g>
</g>
<g fill="none" color="black" stroke="currentColor" stroke-width="1.00" stroke-linecap="butt" stroke-linejoin="miter">
	<path stroke='black'  d='M144.9,662.4 L144.9,653.4  '/>	<g transform="translate(144.9,684.3)" stroke="none" fill="black" font-family="Helvetica" font-size="12.00"  text-anchor="middle">
		<text><tspan font-family="Helvetica" > 95000</tspan></text>
	</g>
</g>
<g fill="none" color="black" stroke="currentColor" stroke-width="1.00" stroke-linecap="butt" stroke-linejoin="miter">
	<path stroke='black'  d='M369.9,662.4 L369.9,653.4  '/>	<g transform="translate(369.9,684.3)" stroke="none" fill="black" font-family="Helvetica" font-size="12.00"  text-anchor="middle">
		<text><tspan font-family="Helvetica" > 100000</tspan></text>
	</g>
</g>
<g fill="none" color="black" stroke="currentColor" stroke-width="1.00" stroke-linecap="butt" stroke-linejoin="miter">
	<path stroke='black'  d='M595.0,662.4 L595.0,653.4  '/>	<g transform="translate(595.0,684.3)" stroke="none" fill="black" font-family="Helvetica" font-size="12.00"  text-anchor="middle">
		<text><tspan font-family="Helvetica" > 105000</tspan></text>
	</g>
</g>
<g fill="none" color="black" stroke="currentColor" stroke-width="1.00" stroke-linecap="butt" stroke-linejoin="miter">
	<path stroke='black'  d='M820.0,662.4 L820.0,653.4  '/>	<g transform="translate(820.0,684.3)" stroke="none" fill="black" font-family="Helvetica" font-size="12.00"  text-anchor="middle">
		<text><tspan font-family="Helvetica" > 110000</tspan></text>
	</g>
</g>
<g fill="none" color="black" stroke="currentColor" stroke-width="1.00" stroke-linecap="butt" stroke-linejoin="miter">
</g>
<g fill="none" color="black" stroke="currentColor" stroke-width="1.00" stroke-linecap="butt" stroke-linejoin="miter">
	<path stroke='black'  d='M96.8,54.1 L96.8,662.4 L1013.6,662.4 L1013.6,54.1 L96.8,54.1 Z  '/></g>
<g fill="none" color="black" stroke="currentColor" stroke-width="1.00" stroke-linecap="butt" stroke-linejoin="miter">
	<g transform="translate(16.3,358.3) rotate(270)" stroke="none" fill="black" font-family="Helvetica" font-size="12.00"  text-anchor="middle">
		<text><tspan font-family="Helvetica" >Density (a.u.)</tspan></text>
	</g>
</g>
<g fill="none" color="black" stroke="currentColor" stroke-width="1.00" stroke-linecap="butt" stroke-linejoin="miter">
	<g transform="translate(555.2,711.3)" stroke="none" fill="black" font-family="Helvetica" font-size="12.00"  text-anchor="middle">
		<text><tspan font-family="Helvetica" >Average time (cycles)</tspan></text>
	</g>
</g>
<g fill="none" color="black" stroke="currentColor" stroke-width="1.00" stroke-linecap="butt" stroke-linejoin="miter">
	<g transform="translate(555.2,31.0)" stroke="none" fill="black" font-family="Helvetica" font-size="12.00"  text-anchor="middle">
		<text><tspan font-family="Helvetica" >non_nested_compare/incremental calc/10: slope</tspan></text>
	</g>
</g>
	<g id="gnuplot_plot_1" ><title>Bootstrap distribution</title>
<g fill="none" color="white" stroke="black" stroke-width="2.00" stroke-linecap="butt" stroke-linejoin="miter">
</g>
<g fill="none" color="black" stroke="currentColor" stroke-width="2.00" stroke-linecap="butt" stroke-linejoin="miter">
	<g transform="translate(1089.0,67.0)" stroke="none" fill="black" font-family="Helvetica" font-size="12.00"  text-anchor="start">
		<text><tspan font-family="Helvetica" >Bootstrap distribution</tspan></text>
	</g>
</g>
<g fill="none" color="black" stroke="currentColor" stroke-width="2.00" stroke-linecap="butt" stroke-linejoin="miter">
	<path stroke='rgb( 31, 120, 180)'  d='M1038.5,63.1 L1080.7,63.1 M96.8,629.6 L98.6,629.1 L100.5,628.5 L102.3,628.0 L104.1,627.5 L106.0,626.9
		L107.8,626.4 L109.7,625.8 L111.5,625.3 L113.3,624.7 L115.2,624.2 L117.0,623.6 L118.8,623.0 L120.7,622.5
		L122.5,621.9 L124.4,621.3 L126.2,620.7 L128.0,620.0 L129.9,619.4 L131.7,618.8 L133.5,618.1 L135.4,617.4
		L137.2,616.7 L139.1,616.0 L140.9,615.2 L142.7,614.5 L144.6,613.7 L146.4,612.8 L148.2,612.0 L150.1,611.1
		L151.9,610.2 L153.8,609.2 L155.6,608.3 L157.4,607.3 L159.3,606.3 L161.1,605.2 L162.9,604.1 L164.8,603.0
		L166.6,601.9 L168.5,600.8 L170.3,599.6 L172.1,598.4 L174.0,597.2 L175.8,596.0 L177.6,594.8 L179.5,593.6
		L181.3,592.3 L183.2,591.1 L185.0,589.8 L186.8,588.6 L188.7,587.4 L190.5,586.1 L192.3,584.9 L194.2,583.7
		L196.0,582.5 L197.9,581.3 L199.7,580.1 L201.5,578.9 L203.4,577.8 L205.2,576.6 L207.0,575.5 L208.9,574.3
		L210.7,573.1 L212.5,572.0 L214.4,570.8 L216.2,569.7 L218.1,568.5 L219.9,567.4 L221.7,566.2 L223.6,565.0
		L225.4,563.8 L227.2,562.6 L229.1,561.3 L230.9,560.1 L232.8,558.8 L234.6,557.5 L236.4,556.2 L238.3,554.8
		L240.1,553.5 L241.9,552.1 L243.8,550.6 L245.6,549.2 L247.5,547.7 L249.3,546.2 L251.1,544.6 L253.0,543.0
		L254.8,541.4 L256.6,539.7 L258.5,538.0 L260.3,536.3 L262.2,534.5 L264.0,532.7 L265.8,530.8 L267.7,528.9
		L269.5,527.0 L271.3,525.1 L273.2,523.1 L275.0,521.1 L276.9,519.0 L278.7,517.0 L280.5,514.9 L282.4,512.8
		L284.2,510.7 L286.0,508.6 L287.9,506.4 L289.7,504.3 L291.6,502.1 L293.4,500.0 L295.2,497.8 L297.1,495.7
		L298.9,493.6 L300.7,491.4 L302.6,489.3 L304.4,487.2 L306.2,485.0 L308.1,482.9 L309.9,480.8 L311.8,478.6
		L313.6,476.4 L315.4,474.3 L317.3,472.1 L319.1,469.8 L320.9,467.6 L322.8,465.3 L324.6,462.9 L326.5,460.5
		L328.3,458.1 L330.1,455.6 L332.0,453.1 L333.8,450.5 L335.6,447.9 L337.5,445.2 L339.3,442.5 L341.2,439.7
		L343.0,436.9 L344.8,434.1 L346.7,431.2 L348.5,428.3 L350.3,425.4 L352.2,422.5 L354.0,419.6 L355.9,416.6
		L357.7,413.7 L359.5,410.8 L361.4,407.8 L363.2,404.9 L365.0,402.0 L366.9,399.1 L368.7,396.2 L370.6,393.3
		L372.4,390.4 L374.2,387.6 L376.1,384.7 L377.9,381.9 L379.7,379.1 L381.6,376.3 L383.4,373.5 L385.3,370.7
		L387.1,367.9 L388.9,365.0 L390.8,362.2 L392.6,359.4 L394.4,356.5 L396.3,353.6 L398.1,350.7 L400.0,347.8
		L401.8,344.8 L403.6,341.8 L405.5,338.8 L407.3,335.7 L409.1,332.6 L411.0,329.5 L412.8,326.4 L414.6,323.2
		L416.5,320.0 L418.3,316.9 L420.2,313.7 L422.0,310.5 L423.8,307.3 L425.7,304.1 L427.5,300.9 L429.3,297.7
		L431.2,294.5 L433.0,291.3 L434.9,288.2 L436.7,285.0 L438.5,281.9 L440.4,278.7 L442.2,275.6 L444.0,272.5
		L445.9,269.4 L447.7,266.3 L449.6,263.2 L451.4,260.1 L453.2,257.1 L455.1,254.0 L456.9,251.0 L458.7,248.0
		L460.6,245.1 L462.4,242.1 L464.3,239.3 L466.1,236.4 L467.9,233.6 L469.8,230.9 L471.6,228.1 L473.4,225.5
		L475.3,222.9 L477.1,220.3 L479.0,217.8 L480.8,215.4 L482.6,213.0 L484.5,210.6 L486.3,208.3 L488.1,206.1
		L490.0,203.8 L491.8,201.6 L493.7,199.4 L495.5,197.2 L497.3,195.1 L499.2,192.9 L501.0,190.7 L502.8,188.5
		L504.7,186.3 L506.5,184.1 L508.3,181.8 L510.2,179.5 L512.0,177.2 L513.9,174.8 L515.7,172.4 L517.5,169.9
		L519.4,167.4 L521.2,164.8 L523.0,162.2 L524.9,159.6 L526.7,157.0 L528.6,154.4 L530.4,151.7 L532.2,149.1
		L534.1,146.4 L535.9,143.8 L537.7,141.3 L539.6,138.7 L541.4,136.2 L543.3,133.8 L545.1,131.5 L546.9,129.2
		L548.8,127.0 L550.6,124.8 L552.4,122.8 L554.3,120.8 L556.1,118.9 L558.0,117.1 L559.8,115.4 L561.6,113.7
		L563.5,112.1 L565.3,110.6 L567.1,109.2 L569.0,107.8 L570.8,106.5 L572.7,105.3 L574.5,104.1 L576.3,102.9
		L578.2,101.8 L580.0,100.8 L581.8,99.8 L583.7,98.8 L585.5,97.8 L587.4,96.9 L589.2,96.0 L591.0,95.1
		L592.9,94.3 L594.7,93.5 L596.5,92.7 L598.4,91.9 L600.2,91.1 L602.1,90.4 L603.9,89.7 L605.7,89.0
		L607.6,88.3 L609.4,87.8 L611.2,87.2 L613.1,86.7 L614.9,86.3 L616.7,85.9 L618.6,85.6 L620.4,85.4
		L622.3,85.3 L624.1,85.2 L625.9,85.2 L627.8,85.3 L629.6,85.5 L631.4,85.7 L633.3,86.1 L635.1,86.5
		L637.0,87.0 L638.8,87.6 L640.6,88.2 L642.5,89.0 L644.3,89.8 L646.1,90.6 L648.0,91.6 L649.8,92.6
		L651.7,93.6 L653.5,94.8 L655.3,96.0 L657.2,97.2 L659.0,98.5 L660.8,99.8 L662.7,101.2 L664.5,102.7
		L666.4,104.2 L668.2,105.7 L670.0,107.3 L671.9,108.9 L673.7,110.6 L675.5,112.3 L677.4,114.0 L679.2,115.8
		L681.1,117.7 L682.9,119.5 L684.7,121.4 L686.6,123.4 L688.4,125.3 L690.2,127.4 L692.1,129.4 L693.9,131.5
		L695.8,133.7 L697.6,135.9 L699.4,138.1 L701.3,140.4 L703.1,142.7 L704.9,145.1 L706.8,147.6 L708.6,150.1
		L710.4,152.6 L712.3,155.2 L714.1,157.9 L716.0,160.6 L717.8,163.4 L719.6,166.2 L721.5,169.1 L723.3,172.0
		L725.1,174.9 L727.0,177.9 L728.8,180.9 L730.7,184.0 L732.5,187.0 L734.3,190.1 L736.2,193.1 L738.0,196.2
		L739.8,199.3 L741.7,202.3 L743.5,205.4 L745.4,208.4 L747.2,211.5 L749.0,214.5 L750.9,217.5 L752.7,220.5
		L754.5,223.5 L756.4,226.5 L758.2,229.5 L760.1,232.5 L761.9,235.6 L763.7,238.6 L765.6,241.8 L767.4,245.0
		L769.2,248.2 L771.1,251.5 L772.9,254.9 L774.8,258.4 L776.6,261.9 L778.4,265.5 L780.3,269.3 L782.1,273.1
		L783.9,277.0 L785.8,280.9 L787.6,285.0 L789.5,289.1 L791.3,293.2 L793.1,297.4 L795.0,301.6 L796.8,305.9
		L798.6,310.1 L800.5,314.4 L802.3,318.6 L804.2,322.8 L806.0,327.0 L807.8,331.1 L809.7,335.2 L811.5,339.2
		L813.3,343.2 L815.2,347.2 L817.0,351.1 L818.8,354.9 L820.7,358.7 L822.5,362.5 L824.4,366.3 L826.2,370.0
		L828.0,373.7 L829.9,377.4 L831.7,381.0 L833.5,384.6 L835.4,388.3 L837.2,391.9 L839.1,395.5 L840.9,399.1
		L842.7,402.6 L844.6,406.2 L846.4,409.7 L848.2,413.2 L850.1,416.7 L851.9,420.2 L853.8,423.6 L855.6,427.0
		L857.4,430.4 L859.3,433.7 L861.1,437.1 L862.9,440.4 L864.8,443.7 L866.6,446.9 L868.5,450.2 L870.3,453.4
		L872.1,456.6 L874.0,459.8 L875.8,463.0 L877.6,466.2 L879.5,469.4 L881.3,472.6 L883.2,475.8 L885.0,479.0
		L886.8,482.1 L888.7,485.3 L890.5,488.5 L892.3,491.7 L894.2,494.8 L896.0,498.0 L897.9,501.1 L899.7,504.2
		L901.5,507.3 L903.4,510.4 L905.2,513.4 L907.0,516.4 L908.9,519.3 L910.7,522.2 L912.5,525.1 L914.4,528.0
		L916.2,530.8 L918.1,533.5 L919.9,536.2 L921.7,538.9 L923.6,541.6 L925.4,544.2 L927.2,546.8 L929.1,549.4
		L930.9,551.9 L932.8,554.4 L934.6,556.9 L936.4,559.3 L938.3,561.8 L940.1,564.2 L941.9,566.5 L943.8,568.9
		L945.6,571.2 L947.5,573.4 L949.3,575.7 L951.1,577.9 L953.0,580.0 L954.8,582.2 L956.6,584.2 L958.5,586.2
		L960.3,588.2 L962.2,590.1 L964.0,592.0 L965.8,593.8 L967.7,595.6 L969.5,597.3 L971.3,599.0 L973.2,600.7
		L975.0,602.2 L976.9,603.8 L978.7,605.3 L980.5,606.7 L982.4,608.2 L984.2,609.5 L986.0,610.9 L987.9,612.2
		L989.7,613.5 L991.6,614.8 L993.4,616.0 L995.2,617.2 L997.1,618.4 L998.9,619.6 L1000.7,620.8 L1002.6,621.9
		L1004.4,623.1 L1006.3,624.2 L1008.1,625.3 L1009.9,626.4 L1011.8,627.5 L1013.6,628.6  '/></g>
	</g>
	<g id="gnuplot_plot_2" ><title>Confidence interval</title>
<g fill="none" color="white" stroke="rgb( 31, 120, 180)" stroke-width="1.00" stroke-linecap="butt" stroke-linejoin="miter">
</g>
<g fill="none" color="black" stroke="currentColor" stroke-width="1.00" stroke-linecap="butt" stroke-linejoin="miter">
	<g transform="translate(1089.0,85.0)" stroke="none" fill="black" font-family="Helvetica" font-size="12.00"  text-anchor="start">
		<text><tspan font-family="Helvetica" >Confidence interval</tspan></text>
	</g>
</g>
<g fill="none" color="black" stroke="currentColor" stroke-width="1.00" stroke-linecap="butt" stroke-linejoin="miter">
	<g stroke='none' shape-rendering='crispEdges'>
		<polygon fill = 'rgb( 31, 120, 180)' fill-opacity = '0.250000' points = '1038.5,85.6 1080.7,85.6 1080.7,76.6 1038.5,76.6 '/>
		<polygon fill = 'rgb( 31, 120, 180)' fill-opacity = '0.250000' points = '181.3,592.3 183.2,591.1 185.0,589.8 186.8,588.6 188.7,587.4 190.5,586.1 192.3,584.9 194.2,583.7 196.0,582.5 197.9,581.3 199.7,580.1 201.5,578.9 203.4,577.8 205.2,576.6 207.0,575.5 208.9,574.3
210.7,573.1 212.5,572.0 214.4,570.8 216.2,569.7 218.1,568.5 219.9,567.4 221.7,566.2 223.6,565.0 225.4,563.8 227.2,562.6 229.1,561.3 230.9,560.1 232.8,558.8 234.6,557.5 236.4,556.2 238.3,554.8
240.1,553.5 241.9,552.1 243.8,550.6 245.6,549.2 247.5,547.7 249.3,546.2 251.1,544.6 253.0,543.0 254.8,541.4 256.6,539.7 258.5,538.0 260.3,536.3 262.2,534.5 264.0,532.7 265.8,530.8 267.7,528.9
269.5,527.0 271.3,525.1 273.2,523.1 275.0,521.1 276.9,519.0 278.7,517.0 280.5,514.9 282.4,512.8 284.2,510.7 286.0,508.6 287.9,506.4 289.7,504.3 291.6,502.1 293.4,500.0 295.2,497.8 297.1,495.7
298.9,493.6 300.7,491.4 302.6,489.3 304.4,487.2 306.2,485.0 308.1,482.9 309.9,480.8 311.8,478.6 313.6,476.4 315.4,474.3 317.3,472.1 319.1,469.8 320.9,467.6 322.8,465.3 324.6,462.9 326.5,460.5
328.3,458.1 330.1,455.6 332.0,453.1 333.8,450.5 335.6,447.9 337.5,445.2 339.3,442.5 341.2,439.7 343.0,436.9 344.8,434.1 346.7,431.2 348.5,428.3 350.3,425.4 352.2,422.5 354.0,419.6 355.9,416.6
357.7,413.7 359.5,410.8 361.4,407.8 363.2,404.9 365.0,402.0 366.9,399.1 368.7,396.2 370.6,393.3 372.4,390.4 374.2,387.6 376.1,384.7 377.9,381.9 379.7,379.1 381.6,376.3 383.4,373.5 385.3,370.7
387.1,367.9 388.9,365.0 390.8,362.2 392.6,359.4 394.4,356.5 396.3,353.6 398.1,350.7 400.0,347.8 401.8,344.8 403.6,341.8 405.5,338.8 407.3,335.7 409.1,332.6 411.0,329.5 412.8,326.4 414.6,323.2
416.5,320.0 418.3,316.9 420.2,313.7 422.0,310.5 423.8,307.3 425.7,304.1 427.5,300.9 429.3,297.7 431.2,294.5 433.0,291.3 434.9,288.2 436.7,285.0 438.5,281.9 440.4,278.7 442.2,275.6 444.0,272.5
445.9,269.4 447.7,266.3 449.6,263.2 451.4,260.1 453.2,257.1 455.1,254.0 456.9,251.0 458.7,248.0 460.6,245.1 462.4,242.1 464.3,239.3 466.1,236.4 467.9,233.6 469.8,230.9 471.6,228.1 473.4,225.5
475.3,222.9 477.1,220.3 479.0,217.8 480.8,215.4 482.6,213.0 484.5,210.6 486.3,208.3 488.1,206.1 490.0,203.8 491.8,201.6 493.7,199.4 495.5,197.2 497.3,195.1 499.2,192.9 501.0,190.7 502.8,188.5
504.7,186.3 506.5,184.1 508.3,181.8 510.2,179.5 512.0,177.2 513.9,174.8 515.7,172.4 517.5,169.9 519.4,167.4 521.2,164.8 523.0,162.2 524.9,159.6 526.7,157.0 528.6,154.4 530.4,151.7 532.2,149.1
534.1,146.4 535.9,143.8 537.7,141.3 539.6,138.7 541.4,136.2 543.3,133.8 545.1,131.5 546.9,129.2 548.8,127.0 550.6,124.8 552.4,122.8 554.3,120.8 556.1,118.9 558.0,117.1 559.8,115.4 561.6,113.7
563.5,112.1 565.3,110.6 567.1,109.2 569.0,107.8 570.8,106.5 572.7,105.3 574.5,104.1 576.3,102.9 578.2,101.8 580.0,100.8 581.8,99.8 583.7,98.8 585.5,97.8 587.4,96.9 589.2,96.0 591.0,95.1
592.9,94.3 594.7,93.5 596.5,92.7 598.4,91.9 600.2,91.1 602.1,90.4 603.9,89.7 605.7,89.0 607.6,88.3 609.4,87.8 611.2,87.2 613.1,86.7 614.9,86.3 616.7,85.9 618.6,85.6 620.4,85.4
622.3,85.3 624.1,85.2 625.9,85.2 627.8,85.3 629.6,85.5 631.4,85.7 633.3,86.1 635.1,86.5 637.0,87.0 638.8,87.6 640.6,88.2 642.5,89.0 644.3,89.8 646.1,90.6 648.0,91.6 649.8,92.6
651.7,93.6 653.5,94.8 655.3,96.0 657.2,97.2 659.0,98.5 660.8,99.8 662.7,101.2 664.5,102.7 666.4,104.2 668.2,105.7 670.0,107.3 671.9,108.9 673.7,110.6 675.5,112.3 677.4,114.0 679.2,115.8
681.1,117.7 682.9,119.5 684.7,121.4 686.6,123.4 688.4,125.3 690.2,127.4 692.1,129.4 693.9,131.5 695.8,133.7 697.6,135.9 699.4,138.1 701.3,140.4 703.1,142.7 704.9,145.1 706.8,147.6 708.6,150.1
710.4,152.6 712.3,155.2 714.1,157.9 716.0,160.6 717.8,163.4 719.6,166.2 721.5,169.1 723.3,172.0 725.1,174.9 727.0,177.9 728.8,180.9 730.7,184.0 732.5,187.0 734.3,190.1 736.2,193.1 738.0,196.2
739.8,199.3 741.7,202.3 743.5,205.4 745.4,208.4 747.2,211.5 749.0,214.5 750.9,217.5 752.7,220.5 754.5,223.5 756.4,226.5 758.2,229.5 760.1,232.5 761.9,235.6 763.7,238.6 765.6,241.8 767.4,245.0
769.2,248.2 771.1,251.5 772.9,254.9 774.8,258.4 776.6,261.9 778.4,265.5 780.3,269.3 782.1,273.1 783.9,277.0 785.8,280.9 787.6,285.0 789.5,289.1 791.3,293.2 793.1,297.4 795.0,301.6 796.8,305.9
798.6,310.1 800.5,314.4 802.3,318.6 804.2,322.8 806.0,327.0 807.8,331.1 809.7,335.2 811.5,339.2 813.3,343.2 815.2,347.2 817.0,351.1 818.8,354.9 820.7,358.7 822.5,362.5 824.4,366.3 826.2,370.0
828.0,373.7 829.9,377.4 831.7,381.0 833.5,384.6 835.4,388.3 837.2,391.9 839.1,395.5 840.9,399.1 842.7,402.6 844.6,406.2 846.4,409.7 848.2,413.2 850.1,416.7 851.9,420.2 853.8,423.6 855.6,427.0
857.4,430.4 859.3,433.7 861.1,437.1 862.9,440.4 864.8,443.7 866.6,446.9 868.5,450.2 870.3,453.4 872.1,456.6 874.0,459.8 875.8,463.0 877.6,466.2 879.5,469.4 881.3,472.6 883.2,475.8 885.0,479.0
886.8,482.1 888.7,485.3 890.5,488.5 892.3,491.7 894.2,494.8 896.0,498.0 897.9,501.1 899.7,504.2 901.5,507.3 903.4,510.4 905.2,513.4 907.0,516.4 908.9,519.3 910.7,522.2 912.5,525.1 914.4,528.0
916.2,530.8 918.1,533.5 919.9,536.2 921.7,538.9 923.6,541.6 925.4,544.2 927.2,546.8 927.2,662.4 925.4,662.4 923.6,662.4 921.7,662.4 919.9,662.4 918.1,662.4 916.2,662.4 914.4,662.4 912.5,662.4
910.7,662.4 908.9,662.4 907.0,662.4 905.2,662.4 903.4,662.4 901.5,662.4 899.7,662.4 897.9,662.4 896.0,662.4 894.2,662.4 892.3,662.4 890.5,662.4 888.7,662.4 886.8,662.4 885.0,662.4 883.2,662.4
881.3,662.4 879.5,662.4 877.6,662.4 875.8,662.4 874.0,662.4 872.1,662.4 870.3,662.4 868.5,662.4 866.6,662.4 864.8,662.4 862.9,662.4 861.1,662.4 859.3,662.4 857.4,662.4 855.6,662.4 853.8,662.4
851.9,662.4 850.1,662.4 848.2,662.4 846.4,662.4 844.6,662.4 842.7,662.4 840.9,662.4 839.1,662.4 837.2,662.4 835.4,662.4 833.5,662.4 831.7,662.4 829.9,662.4 828.0,662.4 826.2,662.4 824.4,662.4
822.5,662.4 820.7,662.4 818.8,662.4 817.0,662.4 815.2,662.4 813.3,662.4 811.5,662.4 809.7,662.4 807.8,662.4 806.0,662.4 804.2,662.4 802.3,662.4 800.5,662.4 798.6,662.4 796.8,662.4 795.0,662.4
793.1,662.4 791.3,662.4 789.5,662.4 787.6,662.4 785.8,662.4 783.9,662.4 782.1,662.4 780.3,662.4 778.4,662.4 776.6,662.4 774.8,662.4 772.9,662.4 771.1,662.4 769.2,662.4 767.4,662.4 765.6,662.4
763.7,662.4 761.9,662.4 760.1,662.4 758.2,662.4 756.4,662.4 754.5,662.4 752.7,662.4 750.9,662.4 749.0,662.4 747.2,662.4 745.4,662.4 743.5,662.4 741.7,662.4 739.8,662.4 738.0,662.4 736.2,662.4
734.3,662.4 732.5,662.4 730.7,662.4 728.8,662.4 727.0,662.4 725.1,662.4 723.3,662.4 721.5,662.4 719.6,662.4 717.8,662.4 716.0,662.4 714.1,662.4 712.3,662.4 710.4,662.4 708.6,662.4 706.8,662.4
704.9,662.4 703.1,662.4 701.3,662.4 699.4,662.4 697.6,662.4 695.8,662.4 693.9,662.4 692.1,662.4 690.2,662.4 688.4,662.4 686.6,662.4 684.7,662.4 682.9,662.4 681.1,662.4 679.2,662.4 677.4,662.4
675.5,662.4 673.7,662.4 671.9,662.4 670.0,662.4 668.2,662.4 666.4,662.4 664.5,662.4 662.7,662.4 660.8,662.4 659.0,662.4 657.2,662.4 655.3,662.4 653.5,662.4 651.7,662.4 649.8,662.4 648.0,662.4
646.1,662.4 644.3,662.4 642.5,662.4 640.6,662.4 638.8,662.4 637.0,662.4 635.1,662.4 633.3,662.4 631.4,662.4 629.6,662.4 627.8,662.4 625.9,662.4 624.1,662.4 622.3,662.4 620.4,662.4 618.6,662.4
616.7,662.4 614.9,662.4 613.1,662.4 611.2,662.4 609.4,662.4 607.6,662.4 605.7,662.4 603.9,662.4 602.1,662.4 600.2,662.4 598.4,662.4 596.5,662.4 594.7,662.4 592.9,662.4 591.0,662.4 589.2,662.4
587.4,662.4 585.5,662.4 583.7,662.4 581.8,662.4 580.0,662.4 578.2,662.4 576.3,662.4 574.5,662.4 572.7,662.4 570.8,662.4 569.0,662.4 567.1,662.4 565.3,662.4 563.5,662.4 561.6,662.4 559.8,662.4
558.0,662.4 556.1,662.4 554.3,662.4 552.4,662.4 550.6,662.4 548.8,662.4 546.9,662.4 545.1,662.4 543.3,662.4 541.4,662.4 539.6,662.4 537.7,662.4 535.9,662.4 534.1,662.4 532.2,662.4 530.4,662.4
528.6,662.4 526.7,662.4 524.9,662.4 523.0,662.4 521.2,662.4 519.4,662.4 517.5,662.4 515.7,662.4 513.9,662.4 512.0,662.4 510.2,662.4 508.3,662.4 506.5,662.4 504.7,662.4 502.8,662.4 501.0,662.4
499.2,662.4 497.3,662.4 495.5,662.4 493.7,662.4 491.8,662.4 490.0,662.4 488.1,662.4 486.3,662.4 484.5,662.4 482.6,662.4 480.8,662.4 479.0,662.4 477.1,662.4 475.3,662.4 473.4,662.4 471.6,662.4
469.8,662.4 467.9,662.4 466.1,662.4 464.3,662.4 462.4,662.4 460.6,662.4 458.7,662.4 456.9,662.4 455.1,662.4 453.2,662.4 451.4,662.4 449.6,662.4 447.7,662.4 445.9,662.4 444.0,662.4 442.2,662.4
440.4,662.4 438.5,662.4 436.7,662.4 434.9,662.4 433.0,662.4 431.2,662.4 429.3,662.4 427.5,662.4 425.7,662.4 423.8,662.4 422.0,662.4 420.2,662.4 418.3,662.4 416.5,662.4 414.6,662.4 412.8,662.4
411.0,662.4 409.1,662.4 407.3,662.4 405.5,662.4 403.6,662.4 401.8,662.4 400.0,662.4 398.1,662.4 396.3,662.4 394.4,662.4 392.6,662.4 390.8,662.4 388.9,662.4 387.1,662.4 385.3,662.4 383.4,662.4
381.6,662.4 379.7,662.4 377.9,662.4 376.1,662.4 374.2,662.4 372.4,662.4 370.6,662.4 368.7,662.4 366.9,662.4 365.0,662.4 363.2,662.4 361.4,662.4 359.5,662.4 357.7,662.4 355.9,662.4 354.0,662.4
352.2,662.4 350.3,662.4 348.5,662.4 346.7,662.4 344.8,662.4 343.0,662.4 341.2,662.4 339.3,662.4 337.5,662.4 335.6,662.4 333.8,662.4 332.0,662.4 330.1,662.4 328.3,662.4 326.5,662.4 324.6,662.4
322.8,662.4 320.9,662.4 319.1,662.4 317.3,662.4 315.4,662.4 313.6,662.4 311.8,662.4 309.9,662.4 308.1,662.4 306.2,662.4 304.4,662.4 302.6,662.4 300.7,662.4 298.9,662.4 297.1,662.4 295.2,662.4
293.4,662.4 291.6,662.4 289.7,662.4 287.9,662.4 286.0,662.4 284.2,662.4 282.4,662.4 280.5,662.4 278.7,662.4 276.9,662.4 275.0,662.4 273.2,662.4 271.3,662.4 269.5,662.4 267.7,662.4 265.8,662.4
264.0,662.4 262.2,662.4 260.3,662.4 258.5,662.4 256.6,662.4 254.8,662.4 253.0,662.4 251.1,662.4 249.3,662.4 247.5,662.4 245.6,662.4 243.8,662.4 241.9,662.4 240.1,662.4 238.3,662.4 236.4,662.4
234.6,662.4 232.8,662.4 230.9,662.4 229.1,662.4 227.2,662.4 225.4,662.4 223.6,662.4 221.7,662.4 219.9,662.4 218.1,662.4 216.2,662.4 214.4,662.4 212.5,662.4 210.7,662.4 208.9,662.4 207.0,662.4
205.2,662.4 203.4,662.4 201.5,662.4 199.7,662.4 197.9,662.4 196.0,662.4 194.2,662.4 192.3,662.4 190.5,662.4 188.7,662.4 186.8,662.4 185.0,662.4 183.2,662.4 181.3,662.4 '/>
	</g>
</g>
	</g>
	<g id="gnuplot_plot_3" ><title>Point estimate</title>
<g fill="none" color="white" stroke="rgb( 31, 120, 180)" stroke-width="2.00" stroke-linecap="butt" stroke-linejoin="miter">
</g>
<g fill="none" color="black" stroke="currentColor" stroke-width="2.00" stroke-linecap="butt" stroke-linejoin="miter">
	<g transform="translate(1089.0,103.0)" stroke="none" fill="black" font-family="Helvetica" font-size="12.00"  text-anchor="start">
		<text><tspan font-family="Helvetica" >Point estimate</tspan></text>
	</g>
</g>
<g fill="none" color="black" stroke="currentColor" stroke-width="2.00" stroke-linecap="butt" stroke-linejoin="miter">
	<path stroke='rgb( 31, 120, 180)'  d='M1038.5,99.1 L1080.7,99.1 M599.7,662.4 L599.7,91.3  '/></g>
	</g>
<g fill="none" color="black" stroke="currentColor" stroke-width="2.00" stroke-linecap="butt" stroke-linejoin="miter">
</g>
<g fill="none" color="black" stroke="black" stroke-width="1.00" stroke-linecap="butt" stroke-linejoin="miter">
</g>
<g fill="none" color="black" stroke="currentColor" stroke-width="1.00" stroke-linecap="butt" stroke-linejoin="miter">
	<path stroke='black'  d='M96.8,54.1 L96.8,662.4 L1013.6,662.4 L1013.6,54.1 L96.8,54.1 Z  '/></g>
<g fill="none" color="black" stroke="currentColor" stroke-width="1.00" stroke-linecap="butt" stroke-linejoin="miter">
</g>
</g>
</svg>

