<?xml version="1.0" encoding="utf-8"  standalone="no"?>
<svg 
 viewBox="0 0 1280 720"
 xmlns="http://www.w3.org/2000/svg"
 xmlns:xlink="http://www.w3.org/1999/xlink"
>

<title>Gnuplot</title>
<desc>Produced by GNUPLOT 5.2 patchlevel 2 </desc>

<g id="gnuplot_canvas">

<rect x="0" y="0" width="1280" height="720" fill="none"/>
<defs>

	<circle id='gpDot' r='0.5' stroke-width='0.5'/>
	<path id='gpPt0' stroke-width='0.222' stroke='currentColor' d='M-1,0 h2 M0,-1 v2'/>
	<path id='gpPt1' stroke-width='0.222' stroke='currentColor' d='M-1,-1 L1,1 M1,-1 L-1,1'/>
	<path id='gpPt2' stroke-width='0.222' stroke='currentColor' d='M-1,0 L1,0 M0,-1 L0,1 M-1,-1 L1,1 M-1,1 L1,-1'/>
	<rect id='gpPt3' stroke-width='0.222' stroke='currentColor' x='-1' y='-1' width='2' height='2'/>
	<rect id='gpPt4' stroke-width='0.222' stroke='currentColor' fill='currentColor' x='-1' y='-1' width='2' height='2'/>
	<circle id='gpPt5' stroke-width='0.222' stroke='currentColor' cx='0' cy='0' r='1'/>
	<use xlink:href='#gpPt5' id='gpPt6' fill='currentColor' stroke='none'/>
	<path id='gpPt7' stroke-width='0.222' stroke='currentColor' d='M0,-1.33 L-1.33,0.67 L1.33,0.67 z'/>
	<use xlink:href='#gpPt7' id='gpPt8' fill='currentColor' stroke='none'/>
	<use xlink:href='#gpPt7' id='gpPt9' stroke='currentColor' transform='rotate(180)'/>
	<use xlink:href='#gpPt9' id='gpPt10' fill='currentColor' stroke='none'/>
	<use xlink:href='#gpPt3' id='gpPt11' stroke='currentColor' transform='rotate(45)'/>
	<use xlink:href='#gpPt11' id='gpPt12' fill='currentColor' stroke='none'/>
	<path id='gpPt13' stroke-width='0.222' stroke='currentColor' d='M0,1.330 L1.265,0.411 L0.782,-1.067 L-0.782,-1.076 L-1.265,0.411 z'/>
	<use xlink:href='#gpPt13' id='gpPt14' fill='currentColor' stroke='none'/>
	<filter id='textbox' filterUnits='objectBoundingBox' x='0' y='0' height='1' width='1'>
	  <feFlood flood-color='white' flood-opacity='1' result='bgnd'/>
	  <feComposite in='SourceGraphic' in2='bgnd' operator='atop'/>
	</filter>
	<filter id='greybox' filterUnits='objectBoundingBox' x='0' y='0' height='1' width='1'>
	  <feFlood flood-color='lightgrey' flood-opacity='1' result='grey'/>
	  <feComposite in='SourceGraphic' in2='grey' operator='atop'/>
	</filter>
</defs>
<g fill="none" color="white" stroke="currentColor" stroke-width="1.00" stroke-linecap="butt" stroke-linejoin="miter">
</g>
<g fill="none" color="black" stroke="currentColor" stroke-width="1.00" stroke-linecap="butt" stroke-linejoin="miter">
	<path stroke='black'  d='M105.1,662.4 L114.1,662.4  '/>	<g transform="translate(96.8,666.3)" stroke="none" fill="black" font-family="Helvetica" font-size="12.00"  text-anchor="end">
		<text><tspan font-family="Helvetica" > 0</tspan></text>
	</g>
</g>
<g fill="none" color="black" stroke="currentColor" stroke-width="1.00" stroke-linecap="butt" stroke-linejoin="miter">
	<path stroke='black'  d='M105.1,540.7 L114.1,540.7  '/>	<g transform="translate(96.8,544.6)" stroke="none" fill="black" font-family="Helvetica" font-size="12.00"  text-anchor="end">
		<text><tspan font-family="Helvetica" > 5x10</tspan><tspan font-family="Helvetica"  font-size="9.6" dy="-6.00px">-5</tspan><tspan font-size="12.0" dy="6.00"></tspan></text>
	</g>
</g>
<g fill="none" color="black" stroke="currentColor" stroke-width="1.00" stroke-linecap="butt" stroke-linejoin="miter">
	<path stroke='black'  d='M105.1,419.1 L114.1,419.1  '/>	<g transform="translate(96.8,423.0)" stroke="none" fill="black" font-family="Helvetica" font-size="12.00"  text-anchor="end">
		<text><tspan font-family="Helvetica" > 0.0001</tspan></text>
	</g>
</g>
<g fill="none" color="black" stroke="currentColor" stroke-width="1.00" stroke-linecap="butt" stroke-linejoin="miter">
	<path stroke='black'  d='M105.1,297.4 L114.1,297.4  '/>	<g transform="translate(96.8,301.3)" stroke="none" fill="black" font-family="Helvetica" font-size="12.00"  text-anchor="end">
		<text><tspan font-family="Helvetica" > 0.00015</tspan></text>
	</g>
</g>
<g fill="none" color="black" stroke="currentColor" stroke-width="1.00" stroke-linecap="butt" stroke-linejoin="miter">
	<path stroke='black'  d='M105.1,175.8 L114.1,175.8  '/>	<g transform="translate(96.8,179.7)" stroke="none" fill="black" font-family="Helvetica" font-size="12.00"  text-anchor="end">
		<text><tspan font-family="Helvetica" > 0.0002</tspan></text>
	</g>
</g>
<g fill="none" color="black" stroke="currentColor" stroke-width="1.00" stroke-linecap="butt" stroke-linejoin="miter">
	<path stroke='black'  d='M105.1,54.1 L114.1,54.1  '/>	<g transform="translate(96.8,58.0)" stroke="none" fill="black" font-family="Helvetica" font-size="12.00"  text-anchor="end">
		<text><tspan font-family="Helvetica" > 0.00025</tspan></text>
	</g>
</g>
<g fill="none" color="black" stroke="currentColor" stroke-width="1.00" stroke-linecap="butt" stroke-linejoin="miter">
	<path stroke='black'  d='M180.9,662.4 L180.9,653.4  '/>	<g transform="translate(180.9,684.3)" stroke="none" fill="black" font-family="Helvetica" font-size="12.00"  text-anchor="middle">
		<text><tspan font-family="Helvetica" > 57000</tspan></text>
	</g>
</g>
<g fill="none" color="black" stroke="currentColor" stroke-width="1.00" stroke-linecap="butt" stroke-linejoin="miter">
	<path stroke='black'  d='M294.5,662.4 L294.5,653.4  '/>	<g transform="translate(294.5,684.3)" stroke="none" fill="black" font-family="Helvetica" font-size="12.00"  text-anchor="middle">
		<text><tspan font-family="Helvetica" > 58000</tspan></text>
	</g>
</g>
<g fill="none" color="black" stroke="currentColor" stroke-width="1.00" stroke-linecap="butt" stroke-linejoin="miter">
	<path stroke='black'  d='M408.2,662.4 L408.2,653.4  '/>	<g transform="translate(408.2,684.3)" stroke="none" fill="black" font-family="Helvetica" font-size="12.00"  text-anchor="middle">
		<text><tspan font-family="Helvetica" > 59000</tspan></text>
	</g>
</g>
<g fill="none" color="black" stroke="currentColor" stroke-width="1.00" stroke-linecap="butt" stroke-linejoin="miter">
	<path stroke='black'  d='M521.9,662.4 L521.9,653.4  '/>	<g transform="translate(521.9,684.3)" stroke="none" fill="black" font-family="Helvetica" font-size="12.00"  text-anchor="middle">
		<text><tspan font-family="Helvetica" > 60000</tspan></text>
	</g>
</g>
<g fill="none" color="black" stroke="currentColor" stroke-width="1.00" stroke-linecap="butt" stroke-linejoin="miter">
	<path stroke='black'  d='M635.5,662.4 L635.5,653.4  '/>	<g transform="translate(635.5,684.3)" stroke="none" fill="black" font-family="Helvetica" font-size="12.00"  text-anchor="middle">
		<text><tspan font-family="Helvetica" > 61000</tspan></text>
	</g>
</g>
<g fill="none" color="black" stroke="currentColor" stroke-width="1.00" stroke-linecap="butt" stroke-linejoin="miter">
	<path stroke='black'  d='M749.2,662.4 L749.2,653.4  '/>	<g transform="translate(749.2,684.3)" stroke="none" fill="black" font-family="Helvetica" font-size="12.00"  text-anchor="middle">
		<text><tspan font-family="Helvetica" > 62000</tspan></text>
	</g>
</g>
<g fill="none" color="black" stroke="currentColor" stroke-width="1.00" stroke-linecap="butt" stroke-linejoin="miter">
	<path stroke='black'  d='M862.8,662.4 L862.8,653.4  '/>	<g transform="translate(862.8,684.3)" stroke="none" fill="black" font-family="Helvetica" font-size="12.00"  text-anchor="middle">
		<text><tspan font-family="Helvetica" > 63000</tspan></text>
	</g>
</g>
<g fill="none" color="black" stroke="currentColor" stroke-width="1.00" stroke-linecap="butt" stroke-linejoin="miter">
	<path stroke='black'  d='M976.5,662.4 L976.5,653.4  '/>	<g transform="translate(976.5,684.3)" stroke="none" fill="black" font-family="Helvetica" font-size="12.00"  text-anchor="middle">
		<text><tspan font-family="Helvetica" > 64000</tspan></text>
	</g>
</g>
<g fill="none" color="black" stroke="currentColor" stroke-width="1.00" stroke-linecap="butt" stroke-linejoin="miter">
</g>
<g fill="none" color="black" stroke="currentColor" stroke-width="1.00" stroke-linecap="butt" stroke-linejoin="miter">
	<path stroke='black'  d='M105.1,54.1 L105.1,662.4 L1013.6,662.4 L1013.6,54.1 L105.1,54.1 Z  '/></g>
<g fill="none" color="black" stroke="currentColor" stroke-width="1.00" stroke-linecap="butt" stroke-linejoin="miter">
	<g transform="translate(16.3,358.3) rotate(270)" stroke="none" fill="black" font-family="Helvetica" font-size="12.00"  text-anchor="middle">
		<text><tspan font-family="Helvetica" >Density (a.u.)</tspan></text>
	</g>
</g>
<g fill="none" color="black" stroke="currentColor" stroke-width="1.00" stroke-linecap="butt" stroke-linejoin="miter">
	<g transform="translate(559.3,711.3)" stroke="none" fill="black" font-family="Helvetica" font-size="12.00"  text-anchor="middle">
		<text><tspan font-family="Helvetica" >Average time (cycles)</tspan></text>
	</g>
</g>
<g fill="none" color="black" stroke="currentColor" stroke-width="1.00" stroke-linecap="butt" stroke-linejoin="miter">
	<g transform="translate(559.3,31.0)" stroke="none" fill="black" font-family="Helvetica" font-size="12.00"  text-anchor="middle">
		<text><tspan font-family="Helvetica" >non_nested_compare/modified from scratch/9: mean</tspan></text>
	</g>
</g>
	<g id="gnuplot_plot_1" ><title>Bootstrap distribution</title>
<g fill="none" color="white" stroke="black" stroke-width="2.00" stroke-linecap="butt" stroke-linejoin="miter">
</g>
<g fill="none" color="black" stroke="currentColor" stroke-width="2.00" stroke-linecap="butt" stroke-linejoin="miter">
	<g transform="translate(1089.0,67.0)" stroke="none" fill="black" font-family="Helvetica" font-size="12.00"  text-anchor="start">
		<text><tspan font-family="Helvetica" >Bootstrap distribution</tspan></text>
	</g>
</g>
<g fill="none" color="black" stroke="currentColor" stroke-width="2.00" stroke-linecap="butt" stroke-linejoin="miter">
	<path stroke='rgb( 31, 120, 180)'  d='M1038.5,63.1 L1080.7,63.1 M105.1,627.8 L106.9,627.1 L108.7,626.3 L110.6,625.6 L112.4,624.8 L114.2,624.1
		L116.0,623.3 L117.8,622.6 L119.7,621.8 L121.5,621.0 L123.3,620.3 L125.1,619.5 L126.9,618.7 L128.8,617.9
		L130.6,617.1 L132.4,616.3 L134.2,615.4 L136.1,614.6 L137.9,613.7 L139.7,612.8 L141.5,611.9 L143.3,610.9
		L145.2,609.9 L147.0,608.9 L148.8,607.8 L150.6,606.7 L152.4,605.6 L154.3,604.4 L156.1,603.2 L157.9,602.0
		L159.7,600.8 L161.5,599.5 L163.4,598.2 L165.2,596.8 L167.0,595.4 L168.8,594.1 L170.6,592.6 L172.5,591.2
		L174.3,589.8 L176.1,588.3 L177.9,586.8 L179.7,585.3 L181.6,583.8 L183.4,582.2 L185.2,580.7 L187.0,579.1
		L188.8,577.5 L190.7,575.8 L192.5,574.2 L194.3,572.5 L196.1,570.8 L198.0,569.1 L199.8,567.4 L201.6,565.6
		L203.4,563.9 L205.2,562.1 L207.1,560.3 L208.9,558.5 L210.7,556.7 L212.5,554.9 L214.3,553.1 L216.2,551.3
		L218.0,549.5 L219.8,547.7 L221.6,545.9 L223.4,544.1 L225.3,542.3 L227.1,540.5 L228.9,538.7 L230.7,536.9
		L232.5,535.1 L234.4,533.3 L236.2,531.4 L238.0,529.6 L239.8,527.7 L241.6,525.8 L243.5,523.8 L245.3,521.8
		L247.1,519.7 L248.9,517.7 L250.8,515.5 L252.6,513.3 L254.4,511.0 L256.2,508.7 L258.0,506.3 L259.9,503.8
		L261.7,501.3 L263.5,498.7 L265.3,496.0 L267.1,493.3 L269.0,490.5 L270.8,487.6 L272.6,484.7 L274.4,481.7
		L276.2,478.7 L278.1,475.7 L279.9,472.6 L281.7,469.5 L283.5,466.4 L285.3,463.3 L287.2,460.3 L289.0,457.2
		L290.8,454.1 L292.6,451.1 L294.4,448.0 L296.3,445.0 L298.1,442.0 L299.9,439.0 L301.7,436.0 L303.5,433.0
		L305.4,430.0 L307.2,427.1 L309.0,424.0 L310.8,421.0 L312.7,418.0 L314.5,414.9 L316.3,411.8 L318.1,408.7
		L319.9,405.5 L321.8,402.3 L323.6,399.1 L325.4,395.9 L327.2,392.6 L329.0,389.3 L330.9,386.0 L332.7,382.7
		L334.5,379.3 L336.3,376.0 L338.1,372.7 L340.0,369.4 L341.8,366.1 L343.6,362.8 L345.4,359.6 L347.2,356.3
		L349.1,353.1 L350.9,349.9 L352.7,346.8 L354.5,343.7 L356.3,340.6 L358.2,337.5 L360.0,334.4 L361.8,331.4
		L363.6,328.4 L365.5,325.4 L367.3,322.5 L369.1,319.5 L370.9,316.6 L372.7,313.6 L374.6,310.7 L376.4,307.8
		L378.2,304.9 L380.0,302.0 L381.8,299.2 L383.7,296.3 L385.5,293.4 L387.3,290.5 L389.1,287.5 L390.9,284.6
		L392.8,281.7 L394.6,278.8 L396.4,275.8 L398.2,272.8 L400.0,269.9 L401.9,266.9 L403.7,263.9 L405.5,260.9
		L407.3,257.9 L409.1,254.9 L411.0,251.9 L412.8,249.0 L414.6,246.0 L416.4,243.0 L418.3,240.1 L420.1,237.1
		L421.9,234.2 L423.7,231.3 L425.5,228.4 L427.4,225.5 L429.2,222.7 L431.0,219.8 L432.8,217.0 L434.6,214.1
		L436.5,211.3 L438.3,208.5 L440.1,205.8 L441.9,203.0 L443.7,200.3 L445.6,197.5 L447.4,194.8 L449.2,192.1
		L451.0,189.5 L452.8,186.8 L454.7,184.2 L456.5,181.6 L458.3,179.0 L460.1,176.5 L461.9,174.0 L463.8,171.5
		L465.6,169.0 L467.4,166.6 L469.2,164.2 L471.0,161.8 L472.9,159.4 L474.7,157.0 L476.5,154.7 L478.3,152.4
		L480.2,150.1 L482.0,147.9 L483.8,145.6 L485.6,143.4 L487.4,141.2 L489.3,139.0 L491.1,136.9 L492.9,134.8
		L494.7,132.7 L496.5,130.7 L498.4,128.7 L500.2,126.8 L502.0,124.9 L503.8,123.1 L505.6,121.3 L507.5,119.6
		L509.3,117.9 L511.1,116.3 L512.9,114.8 L514.7,113.4 L516.6,112.0 L518.4,110.7 L520.2,109.5 L522.0,108.3
		L523.8,107.2 L525.7,106.1 L527.5,105.1 L529.3,104.1 L531.1,103.2 L533.0,102.3 L534.8,101.4 L536.6,100.6
		L538.4,99.8 L540.2,99.0 L542.1,98.3 L543.9,97.6 L545.7,96.9 L547.5,96.2 L549.3,95.5 L551.2,94.9
		L553.0,94.4 L554.8,93.8 L556.6,93.3 L558.4,92.9 L560.3,92.5 L562.1,92.1 L563.9,91.8 L565.7,91.6
		L567.5,91.4 L569.4,91.3 L571.2,91.2 L573.0,91.2 L574.8,91.3 L576.6,91.5 L578.5,91.7 L580.3,91.9
		L582.1,92.3 L583.9,92.7 L585.7,93.1 L587.6,93.6 L589.4,94.2 L591.2,94.8 L593.0,95.5 L594.9,96.2
		L596.7,97.0 L598.5,97.8 L600.3,98.7 L602.1,99.6 L604.0,100.6 L605.8,101.6 L607.6,102.7 L609.4,103.9
		L611.2,105.1 L613.1,106.4 L614.9,107.7 L616.7,109.1 L618.5,110.5 L620.3,112.0 L622.2,113.5 L624.0,115.0
		L625.8,116.6 L627.6,118.2 L629.4,119.8 L631.3,121.4 L633.1,123.0 L634.9,124.6 L636.7,126.1 L638.5,127.7
		L640.4,129.2 L642.2,130.7 L644.0,132.2 L645.8,133.7 L647.7,135.1 L649.5,136.6 L651.3,138.1 L653.1,139.6
		L654.9,141.2 L656.8,142.8 L658.6,144.5 L660.4,146.3 L662.2,148.1 L664.0,150.1 L665.9,152.2 L667.7,154.3
		L669.5,156.7 L671.3,159.1 L673.1,161.7 L675.0,164.4 L676.8,167.2 L678.6,170.1 L680.4,173.1 L682.2,176.1
		L684.1,179.3 L685.9,182.5 L687.7,185.8 L689.5,189.0 L691.3,192.3 L693.2,195.6 L695.0,198.9 L696.8,202.1
		L698.6,205.4 L700.4,208.6 L702.3,211.7 L704.1,214.8 L705.9,217.9 L707.7,220.9 L709.6,223.9 L711.4,226.8
		L713.2,229.7 L715.0,232.6 L716.8,235.5 L718.7,238.4 L720.5,241.4 L722.3,244.3 L724.1,247.3 L725.9,250.3
		L727.8,253.4 L729.6,256.5 L731.4,259.7 L733.2,263.0 L735.0,266.3 L736.9,269.8 L738.7,273.2 L740.5,276.7
		L742.3,280.3 L744.1,283.9 L746.0,287.6 L747.8,291.3 L749.6,294.9 L751.4,298.6 L753.2,302.3 L755.1,306.0
		L756.9,309.6 L758.7,313.2 L760.5,316.8 L762.4,320.3 L764.2,323.7 L766.0,327.1 L767.8,330.5 L769.6,333.8
		L771.5,337.0 L773.3,340.2 L775.1,343.3 L776.9,346.4 L778.7,349.4 L780.6,352.4 L782.4,355.3 L784.2,358.2
		L786.0,361.1 L787.8,363.9 L789.7,366.8 L791.5,369.6 L793.3,372.4 L795.1,375.1 L796.9,377.9 L798.8,380.7
		L800.6,383.4 L802.4,386.2 L804.2,388.9 L806.0,391.7 L807.9,394.4 L809.7,397.2 L811.5,400.0 L813.3,402.8
		L815.2,405.6 L817.0,408.4 L818.8,411.2 L820.6,414.0 L822.4,416.8 L824.3,419.7 L826.1,422.5 L827.9,425.4
		L829.7,428.2 L831.5,431.1 L833.4,433.9 L835.2,436.8 L837.0,439.6 L838.8,442.5 L840.6,445.4 L842.5,448.3
		L844.3,451.2 L846.1,454.1 L847.9,457.0 L849.7,459.9 L851.6,462.9 L853.4,465.8 L855.2,468.8 L857.0,471.8
		L858.8,474.7 L860.7,477.7 L862.5,480.7 L864.3,483.7 L866.1,486.7 L867.9,489.7 L869.8,492.7 L871.6,495.7
		L873.4,498.7 L875.2,501.7 L877.1,504.6 L878.9,507.5 L880.7,510.4 L882.5,513.2 L884.3,516.0 L886.2,518.8
		L888.0,521.5 L889.8,524.2 L891.6,526.8 L893.4,529.4 L895.3,532.0 L897.1,534.4 L898.9,536.9 L900.7,539.2
		L902.5,541.6 L904.4,543.8 L906.2,546.0 L908.0,548.2 L909.8,550.3 L911.6,552.4 L913.5,554.4 L915.3,556.4
		L917.1,558.4 L918.9,560.3 L920.7,562.2 L922.6,564.0 L924.4,565.8 L926.2,567.6 L928.0,569.4 L929.9,571.1
		L931.7,572.8 L933.5,574.5 L935.3,576.1 L937.1,577.8 L939.0,579.4 L940.8,581.0 L942.6,582.6 L944.4,584.2
		L946.2,585.7 L948.1,587.2 L949.9,588.8 L951.7,590.3 L953.5,591.8 L955.3,593.2 L957.2,594.7 L959.0,596.1
		L960.8,597.5 L962.6,598.9 L964.4,600.3 L966.3,601.6 L968.1,603.0 L969.9,604.3 L971.7,605.6 L973.5,606.8
		L975.4,608.1 L977.2,609.3 L979.0,610.4 L980.8,611.6 L982.6,612.7 L984.5,613.8 L986.3,614.8 L988.1,615.9
		L989.9,616.9 L991.8,617.9 L993.6,618.8 L995.4,619.8 L997.2,620.7 L999.0,621.6 L1000.9,622.5 L1002.7,623.4
		L1004.5,624.2 L1006.3,625.1 L1008.1,625.9 L1010.0,626.8 L1011.8,627.6 L1013.6,628.4  '/></g>
	</g>
	<g id="gnuplot_plot_2" ><title>Confidence interval</title>
<g fill="none" color="white" stroke="rgb( 31, 120, 180)" stroke-width="1.00" stroke-linecap="butt" stroke-linejoin="miter">
</g>
<g fill="none" color="black" stroke="currentColor" stroke-width="1.00" stroke-linecap="butt" stroke-linejoin="miter">
	<g transform="translate(1089.0,85.0)" stroke="none" fill="black" font-family="Helvetica" font-size="12.00"  text-anchor="start">
		<text><tspan font-family="Helvetica" >Confidence interval</tspan></text>
	</g>
</g>
<g fill="none" color="black" stroke="currentColor" stroke-width="1.00" stroke-linecap="butt" stroke-linejoin="miter">
	<g stroke='none' shape-rendering='crispEdges'>
		<polygon fill = 'rgb( 31, 120, 180)' fill-opacity = '0.250000' points = '1038.5,85.6 1080.7,85.6 1080.7,76.6 1038.5,76.6 '/>
		<polygon fill = 'rgb( 31, 120, 180)' fill-opacity = '0.250000' points = '188.8,577.5 190.7,575.8 192.5,574.2 194.3,572.5 196.1,570.8 198.0,569.1 199.8,567.4 201.6,565.6 203.4,563.9 205.2,562.1 207.1,560.3 208.9,558.5 210.7,556.7 212.5,554.9 214.3,553.1 216.2,551.3
218.0,549.5 219.8,547.7 221.6,545.9 223.4,544.1 225.3,542.3 227.1,540.5 228.9,538.7 230.7,536.9 232.5,535.1 234.4,533.3 236.2,531.4 238.0,529.6 239.8,527.7 241.6,525.8 243.5,523.8 245.3,521.8
247.1,519.7 248.9,517.7 250.8,515.5 252.6,513.3 254.4,511.0 256.2,508.7 258.0,506.3 259.9,503.8 261.7,501.3 263.5,498.7 265.3,496.0 267.1,493.3 269.0,490.5 270.8,487.6 272.6,484.7 274.4,481.7
276.2,478.7 278.1,475.7 279.9,472.6 281.7,469.5 283.5,466.4 285.3,463.3 287.2,460.3 289.0,457.2 290.8,454.1 292.6,451.1 294.4,448.0 296.3,445.0 298.1,442.0 299.9,439.0 301.7,436.0 303.5,433.0
305.4,430.0 307.2,427.1 309.0,424.0 310.8,421.0 312.7,418.0 314.5,414.9 316.3,411.8 318.1,408.7 319.9,405.5 321.8,402.3 323.6,399.1 325.4,395.9 327.2,392.6 329.0,389.3 330.9,386.0 332.7,382.7
334.5,379.3 336.3,376.0 338.1,372.7 340.0,369.4 341.8,366.1 343.6,362.8 345.4,359.6 347.2,356.3 349.1,353.1 350.9,349.9 352.7,346.8 354.5,343.7 356.3,340.6 358.2,337.5 360.0,334.4 361.8,331.4
363.6,328.4 365.5,325.4 367.3,322.5 369.1,319.5 370.9,316.6 372.7,313.6 374.6,310.7 376.4,307.8 378.2,304.9 380.0,302.0 381.8,299.2 383.7,296.3 385.5,293.4 387.3,290.5 389.1,287.5 390.9,284.6
392.8,281.7 394.6,278.8 396.4,275.8 398.2,272.8 400.0,269.9 401.9,266.9 403.7,263.9 405.5,260.9 407.3,257.9 409.1,254.9 411.0,251.9 412.8,249.0 414.6,246.0 416.4,243.0 418.3,240.1 420.1,237.1
421.9,234.2 423.7,231.3 425.5,228.4 427.4,225.5 429.2,222.7 431.0,219.8 432.8,217.0 434.6,214.1 436.5,211.3 438.3,208.5 440.1,205.8 441.9,203.0 443.7,200.3 445.6,197.5 447.4,194.8 449.2,192.1
451.0,189.5 452.8,186.8 454.7,184.2 456.5,181.6 458.3,179.0 460.1,176.5 461.9,174.0 463.8,171.5 465.6,169.0 467.4,166.6 469.2,164.2 471.0,161.8 472.9,159.4 474.7,157.0 476.5,154.7 478.3,152.4
480.2,150.1 482.0,147.9 483.8,145.6 485.6,143.4 487.4,141.2 489.3,139.0 491.1,136.9 492.9,134.8 494.7,132.7 496.5,130.7 498.4,128.7 500.2,126.8 502.0,124.9 503.8,123.1 505.6,121.3 507.5,119.6
509.3,117.9 511.1,116.3 512.9,114.8 514.7,113.4 516.6,112.0 518.4,110.7 520.2,109.5 522.0,108.3 523.8,107.2 525.7,106.1 527.5,105.1 529.3,104.1 531.1,103.2 533.0,102.3 534.8,101.4 536.6,100.6
538.4,99.8 540.2,99.0 542.1,98.3 543.9,97.6 545.7,96.9 547.5,96.2 549.3,95.5 551.2,94.9 553.0,94.4 554.8,93.8 556.6,93.3 558.4,92.9 560.3,92.5 562.1,92.1 563.9,91.8 565.7,91.6
567.5,91.4 569.4,91.3 571.2,91.2 573.0,91.2 574.8,91.3 576.6,91.5 578.5,91.7 580.3,91.9 582.1,92.3 583.9,92.7 585.7,93.1 587.6,93.6 589.4,94.2 591.2,94.8 593.0,95.5 594.9,96.2
596.7,97.0 598.5,97.8 600.3,98.7 602.1,99.6 604.0,100.6 605.8,101.6 607.6,102.7 609.4,103.9 611.2,105.1 613.1,106.4 614.9,107.7 616.7,109.1 618.5,110.5 620.3,112.0 622.2,113.5 624.0,115.0
625.8,116.6 627.6,118.2 629.4,119.8 631.3,121.4 633.1,123.0 634.9,124.6 636.7,126.1 638.5,127.7 640.4,129.2 642.2,130.7 644.0,132.2 645.8,133.7 647.7,135.1 649.5,136.6 651.3,138.1 653.1,139.6
654.9,141.2 656.8,142.8 658.6,144.5 660.4,146.3 662.2,148.1 664.0,150.1 665.9,152.2 667.7,154.3 669.5,156.7 671.3,159.1 673.1,161.7 675.0,164.4 676.8,167.2 678.6,170.1 680.4,173.1 682.2,176.1
684.1,179.3 685.9,182.5 687.7,185.8 689.5,189.0 691.3,192.3 693.2,195.6 695.0,198.9 696.8,202.1 698.6,205.4 700.4,208.6 702.3,211.7 704.1,214.8 705.9,217.9 707.7,220.9 709.6,223.9 711.4,226.8
713.2,229.7 715.0,232.6 716.8,235.5 718.7,238.4 720.5,241.4 722.3,244.3 724.1,247.3 725.9,250.3 727.8,253.4 729.6,256.5 731.4,259.7 733.2,263.0 735.0,266.3 736.9,269.8 738.7,273.2 740.5,276.7
742.3,280.3 744.1,283.9 746.0,287.6 747.8,291.3 749.6,294.9 751.4,298.6 753.2,302.3 755.1,306.0 756.9,309.6 758.7,313.2 760.5,316.8 762.4,320.3 764.2,323.7 766.0,327.1 767.8,330.5 769.6,333.8
771.5,337.0 773.3,340.2 775.1,343.3 776.9,346.4 778.7,349.4 780.6,352.4 782.4,355.3 784.2,358.2 786.0,361.1 787.8,363.9 789.7,366.8 791.5,369.6 793.3,372.4 795.1,375.1 796.9,377.9 798.8,380.7
800.6,383.4 802.4,386.2 804.2,388.9 806.0,391.7 807.9,394.4 809.7,397.2 811.5,400.0 813.3,402.8 815.2,405.6 817.0,408.4 818.8,411.2 820.6,414.0 822.4,416.8 824.3,419.7 826.1,422.5 827.9,425.4
829.7,428.2 831.5,431.1 833.4,433.9 835.2,436.8 837.0,439.6 838.8,442.5 840.6,445.4 842.5,448.3 844.3,451.2 846.1,454.1 847.9,457.0 849.7,459.9 851.6,462.9 853.4,465.8 855.2,468.8 857.0,471.8
858.8,474.7 860.7,477.7 862.5,480.7 864.3,483.7 866.1,486.7 867.9,489.7 869.8,492.7 871.6,495.7 873.4,498.7 875.2,501.7 877.1,504.6 878.9,507.5 880.7,510.4 882.5,513.2 884.3,516.0 886.2,518.8
888.0,521.5 889.8,524.2 891.6,526.8 893.4,529.4 895.3,532.0 897.1,534.4 898.9,536.9 900.7,539.2 902.5,541.6 904.4,543.8 906.2,546.0 908.0,548.2 909.8,550.3 911.6,552.4 913.5,554.4 915.3,556.4
917.1,558.4 918.9,560.3 920.7,562.2 922.6,564.0 924.4,565.8 926.2,567.6 928.0,569.4 928.0,662.4 926.2,662.4 924.4,662.4 922.6,662.4 920.7,662.4 918.9,662.4 917.1,662.4 915.3,662.4 913.5,662.4
911.6,662.4 909.8,662.4 908.0,662.4 906.2,662.4 904.4,662.4 902.5,662.4 900.7,662.4 898.9,662.4 897.1,662.4 895.3,662.4 893.4,662.4 891.6,662.4 889.8,662.4 888.0,662.4 886.2,662.4 884.3,662.4
882.5,662.4 880.7,662.4 878.9,662.4 877.1,662.4 875.2,662.4 873.4,662.4 871.6,662.4 869.8,662.4 867.9,662.4 866.1,662.4 864.3,662.4 862.5,662.4 860.7,662.4 858.8,662.4 857.0,662.4 855.2,662.4
853.4,662.4 851.6,662.4 849.7,662.4 847.9,662.4 846.1,662.4 844.3,662.4 842.5,662.4 840.6,662.4 838.8,662.4 837.0,662.4 835.2,662.4 833.4,662.4 831.5,662.4 829.7,662.4 827.9,662.4 826.1,662.4
824.3,662.4 822.4,662.4 820.6,662.4 818.8,662.4 817.0,662.4 815.2,662.4 813.3,662.4 811.5,662.4 809.7,662.4 807.9,662.4 806.0,662.4 804.2,662.4 802.4,662.4 800.6,662.4 798.8,662.4 796.9,662.4
795.1,662.4 793.3,662.4 791.5,662.4 789.7,662.4 787.8,662.4 786.0,662.4 784.2,662.4 782.4,662.4 780.6,662.4 778.7,662.4 776.9,662.4 775.1,662.4 773.3,662.4 771.5,662.4 769.6,662.4 767.8,662.4
766.0,662.4 764.2,662.4 762.4,662.4 760.5,662.4 758.7,662.4 756.9,662.4 755.1,662.4 753.2,662.4 751.4,662.4 749.6,662.4 747.8,662.4 746.0,662.4 744.1,662.4 742.3,662.4 740.5,662.4 738.7,662.4
736.9,662.4 735.0,662.4 733.2,662.4 731.4,662.4 729.6,662.4 727.8,662.4 725.9,662.4 724.1,662.4 722.3,662.4 720.5,662.4 718.7,662.4 716.8,662.4 715.0,662.4 713.2,662.4 711.4,662.4 709.6,662.4
707.7,662.4 705.9,662.4 704.1,662.4 702.3,662.4 700.4,662.4 698.6,662.4 696.8,662.4 695.0,662.4 693.2,662.4 691.3,662.4 689.5,662.4 687.7,662.4 685.9,662.4 684.1,662.4 682.2,662.4 680.4,662.4
678.6,662.4 676.8,662.4 675.0,662.4 673.1,662.4 671.3,662.4 669.5,662.4 667.7,662.4 665.9,662.4 664.0,662.4 662.2,662.4 660.4,662.4 658.6,662.4 656.8,662.4 654.9,662.4 653.1,662.4 651.3,662.4
649.5,662.4 647.7,662.4 645.8,662.4 644.0,662.4 642.2,662.4 640.4,662.4 638.5,662.4 636.7,662.4 634.9,662.4 633.1,662.4 631.3,662.4 629.4,662.4 627.6,662.4 625.8,662.4 624.0,662.4 622.2,662.4
620.3,662.4 618.5,662.4 616.7,662.4 614.9,662.4 613.1,662.4 611.2,662.4 609.4,662.4 607.6,662.4 605.8,662.4 604.0,662.4 602.1,662.4 600.3,662.4 598.5,662.4 596.7,662.4 594.9,662.4 593.0,662.4
591.2,662.4 589.4,662.4 587.6,662.4 585.7,662.4 583.9,662.4 582.1,662.4 580.3,662.4 578.5,662.4 576.6,662.4 574.8,662.4 573.0,662.4 571.2,662.4 569.4,662.4 567.5,662.4 565.7,662.4 563.9,662.4
562.1,662.4 560.3,662.4 558.4,662.4 556.6,662.4 554.8,662.4 553.0,662.4 551.2,662.4 549.3,662.4 547.5,662.4 545.7,662.4 543.9,662.4 542.1,662.4 540.2,662.4 538.4,662.4 536.6,662.4 534.8,662.4
533.0,662.4 531.1,662.4 529.3,662.4 527.5,662.4 525.7,662.4 523.8,662.4 522.0,662.4 520.2,662.4 518.4,662.4 516.6,662.4 514.7,662.4 512.9,662.4 511.1,662.4 509.3,662.4 507.5,662.4 505.6,662.4
503.8,662.4 502.0,662.4 500.2,662.4 498.4,662.4 496.5,662.4 494.7,662.4 492.9,662.4 491.1,662.4 489.3,662.4 487.4,662.4 485.6,662.4 483.8,662.4 482.0,662.4 480.2,662.4 478.3,662.4 476.5,662.4
474.7,662.4 472.9,662.4 471.0,662.4 469.2,662.4 467.4,662.4 465.6,662.4 463.8,662.4 461.9,662.4 460.1,662.4 458.3,662.4 456.5,662.4 454.7,662.4 452.8,662.4 451.0,662.4 449.2,662.4 447.4,662.4
445.6,662.4 443.7,662.4 441.9,662.4 440.1,662.4 438.3,662.4 436.5,662.4 434.6,662.4 432.8,662.4 431.0,662.4 429.2,662.4 427.4,662.4 425.5,662.4 423.7,662.4 421.9,662.4 420.1,662.4 418.3,662.4
416.4,662.4 414.6,662.4 412.8,662.4 411.0,662.4 409.1,662.4 407.3,662.4 405.5,662.4 403.7,662.4 401.9,662.4 400.0,662.4 398.2,662.4 396.4,662.4 394.6,662.4 392.8,662.4 390.9,662.4 389.1,662.4
387.3,662.4 385.5,662.4 383.7,662.4 381.8,662.4 380.0,662.4 378.2,662.4 376.4,662.4 374.6,662.4 372.7,662.4 370.9,662.4 369.1,662.4 367.3,662.4 365.5,662.4 363.6,662.4 361.8,662.4 360.0,662.4
358.2,662.4 356.3,662.4 354.5,662.4 352.7,662.4 350.9,662.4 349.1,662.4 347.2,662.4 345.4,662.4 343.6,662.4 341.8,662.4 340.0,662.4 338.1,662.4 336.3,662.4 334.5,662.4 332.7,662.4 330.9,662.4
329.0,662.4 327.2,662.4 325.4,662.4 323.6,662.4 321.8,662.4 319.9,662.4 318.1,662.4 316.3,662.4 314.5,662.4 312.7,662.4 310.8,662.4 309.0,662.4 307.2,662.4 305.4,662.4 303.5,662.4 301.7,662.4
299.9,662.4 298.1,662.4 296.3,662.4 294.4,662.4 292.6,662.4 290.8,662.4 289.0,662.4 287.2,662.4 285.3,662.4 283.5,662.4 281.7,662.4 279.9,662.4 278.1,662.4 276.2,662.4 274.4,662.4 272.6,662.4
270.8,662.4 269.0,662.4 267.1,662.4 265.3,662.4 263.5,662.4 261.7,662.4 259.9,662.4 258.0,662.4 256.2,662.4 254.4,662.4 252.6,662.4 250.8,662.4 248.9,662.4 247.1,662.4 245.3,662.4 243.5,662.4
241.6,662.4 239.8,662.4 238.0,662.4 236.2,662.4 234.4,662.4 232.5,662.4 230.7,662.4 228.9,662.4 227.1,662.4 225.3,662.4 223.4,662.4 221.6,662.4 219.8,662.4 218.0,662.4 216.2,662.4 214.3,662.4
212.5,662.4 210.7,662.4 208.9,662.4 207.1,662.4 205.2,662.4 203.4,662.4 201.6,662.4 199.8,662.4 198.0,662.4 196.1,662.4 194.3,662.4 192.5,662.4 190.7,662.4 188.8,662.4 '/>
	</g>
</g>
	</g>
	<g id="gnuplot_plot_3" ><title>Point estimate</title>
<g fill="none" color="white" stroke="rgb( 31, 120, 180)" stroke-width="2.00" stroke-linecap="butt" stroke-linejoin="miter">
</g>
<g fill="none" color="black" stroke="currentColor" stroke-width="2.00" stroke-linecap="butt" stroke-linejoin="miter">
	<g transform="translate(1089.0,103.0)" stroke="none" fill="black" font-family="Helvetica" font-size="12.00"  text-anchor="start">
		<text><tspan font-family="Helvetica" >Point estimate</tspan></text>
	</g>
</g>
<g fill="none" color="black" stroke="currentColor" stroke-width="2.00" stroke-linecap="butt" stroke-linejoin="miter">
	<path stroke='rgb( 31, 120, 180)'  d='M1038.5,99.1 L1080.7,99.1 M565.7,662.4 L565.7,91.6  '/></g>
	</g>
<g fill="none" color="black" stroke="currentColor" stroke-width="2.00" stroke-linecap="butt" stroke-linejoin="miter">
</g>
<g fill="none" color="black" stroke="black" stroke-width="1.00" stroke-linecap="butt" stroke-linejoin="miter">
</g>
<g fill="none" color="black" stroke="currentColor" stroke-width="1.00" stroke-linecap="butt" stroke-linejoin="miter">
	<path stroke='black'  d='M105.1,54.1 L105.1,662.4 L1013.6,662.4 L1013.6,54.1 L105.1,54.1 Z  '/></g>
<g fill="none" color="black" stroke="currentColor" stroke-width="1.00" stroke-linecap="butt" stroke-linejoin="miter">
</g>
</g>
</svg>

