<?xml version="1.0" encoding="utf-8"  standalone="no"?>
<svg 
 viewBox="0 0 450 300"
 xmlns="http://www.w3.org/2000/svg"
 xmlns:xlink="http://www.w3.org/1999/xlink"
>

<title>Gnuplot</title>
<desc>Produced by GNUPLOT 5.2 patchlevel 2 </desc>

<g id="gnuplot_canvas">

<rect x="0" y="0" width="450" height="300" fill="none"/>
<defs>

	<circle id='gpDot' r='0.5' stroke-width='0.5'/>
	<path id='gpPt0' stroke-width='0.222' stroke='currentColor' d='M-1,0 h2 M0,-1 v2'/>
	<path id='gpPt1' stroke-width='0.222' stroke='currentColor' d='M-1,-1 L1,1 M1,-1 L-1,1'/>
	<path id='gpPt2' stroke-width='0.222' stroke='currentColor' d='M-1,0 L1,0 M0,-1 L0,1 M-1,-1 L1,1 M-1,1 L1,-1'/>
	<rect id='gpPt3' stroke-width='0.222' stroke='currentColor' x='-1' y='-1' width='2' height='2'/>
	<rect id='gpPt4' stroke-width='0.222' stroke='currentColor' fill='currentColor' x='-1' y='-1' width='2' height='2'/>
	<circle id='gpPt5' stroke-width='0.222' stroke='currentColor' cx='0' cy='0' r='1'/>
	<use xlink:href='#gpPt5' id='gpPt6' fill='currentColor' stroke='none'/>
	<path id='gpPt7' stroke-width='0.222' stroke='currentColor' d='M0,-1.33 L-1.33,0.67 L1.33,0.67 z'/>
	<use xlink:href='#gpPt7' id='gpPt8' fill='currentColor' stroke='none'/>
	<use xlink:href='#gpPt7' id='gpPt9' stroke='currentColor' transform='rotate(180)'/>
	<use xlink:href='#gpPt9' id='gpPt10' fill='currentColor' stroke='none'/>
	<use xlink:href='#gpPt3' id='gpPt11' stroke='currentColor' transform='rotate(45)'/>
	<use xlink:href='#gpPt11' id='gpPt12' fill='currentColor' stroke='none'/>
	<path id='gpPt13' stroke-width='0.222' stroke='currentColor' d='M0,1.330 L1.265,0.411 L0.782,-1.067 L-0.782,-1.076 L-1.265,0.411 z'/>
	<use xlink:href='#gpPt13' id='gpPt14' fill='currentColor' stroke='none'/>
	<filter id='textbox' filterUnits='objectBoundingBox' x='0' y='0' height='1' width='1'>
	  <feFlood flood-color='white' flood-opacity='1' result='bgnd'/>
	  <feComposite in='SourceGraphic' in2='bgnd' operator='atop'/>
	</filter>
	<filter id='greybox' filterUnits='objectBoundingBox' x='0' y='0' height='1' width='1'>
	  <feFlood flood-color='lightgrey' flood-opacity='1' result='grey'/>
	  <feComposite in='SourceGraphic' in2='grey' operator='atop'/>
	</filter>
</defs>
<g fill="none" color="white" stroke="currentColor" stroke-width="1.00" stroke-linecap="butt" stroke-linejoin="miter">
</g>
<g fill="none" color="black" stroke="currentColor" stroke-width="1.00" stroke-linecap="butt" stroke-linejoin="miter">
	<path stroke='black'  d='M105.1,242.4 L114.1,242.4  '/>	<g transform="translate(96.8,246.3)" stroke="none" fill="black" font-family="Helvetica" font-size="12.00"  text-anchor="end">
		<text><tspan font-family="Helvetica" > 0</tspan></text>
	</g>
</g>
<g fill="none" color="black" stroke="currentColor" stroke-width="1.00" stroke-linecap="butt" stroke-linejoin="miter">
	<path stroke='black'  d='M105.1,212.0 L114.1,212.0  '/>	<g transform="translate(96.8,215.9)" stroke="none" fill="black" font-family="Helvetica" font-size="12.00"  text-anchor="end">
		<text><tspan font-family="Helvetica" > 5x10</tspan><tspan font-family="Helvetica"  font-size="9.6" dy="-6.00px">-6</tspan><tspan font-size="12.0" dy="6.00"></tspan></text>
	</g>
</g>
<g fill="none" color="black" stroke="currentColor" stroke-width="1.00" stroke-linecap="butt" stroke-linejoin="miter">
	<path stroke='black'  d='M105.1,181.5 L114.1,181.5  '/>	<g transform="translate(96.8,185.4)" stroke="none" fill="black" font-family="Helvetica" font-size="12.00"  text-anchor="end">
		<text><tspan font-family="Helvetica" > 1x10</tspan><tspan font-family="Helvetica"  font-size="9.6" dy="-6.00px">-5</tspan><tspan font-size="12.0" dy="6.00"></tspan></text>
	</g>
</g>
<g fill="none" color="black" stroke="currentColor" stroke-width="1.00" stroke-linecap="butt" stroke-linejoin="miter">
	<path stroke='black'  d='M105.1,151.1 L114.1,151.1  '/>	<g transform="translate(96.8,155.0)" stroke="none" fill="black" font-family="Helvetica" font-size="12.00"  text-anchor="end">
		<text><tspan font-family="Helvetica" > 1.5x10</tspan><tspan font-family="Helvetica"  font-size="9.6" dy="-6.00px">-5</tspan><tspan font-size="12.0" dy="6.00"></tspan></text>
	</g>
</g>
<g fill="none" color="black" stroke="currentColor" stroke-width="1.00" stroke-linecap="butt" stroke-linejoin="miter">
	<path stroke='black'  d='M105.1,120.7 L114.1,120.7  '/>	<g transform="translate(96.8,124.6)" stroke="none" fill="black" font-family="Helvetica" font-size="12.00"  text-anchor="end">
		<text><tspan font-family="Helvetica" > 2x10</tspan><tspan font-family="Helvetica"  font-size="9.6" dy="-6.00px">-5</tspan><tspan font-size="12.0" dy="6.00"></tspan></text>
	</g>
</g>
<g fill="none" color="black" stroke="currentColor" stroke-width="1.00" stroke-linecap="butt" stroke-linejoin="miter">
	<path stroke='black'  d='M105.1,90.3 L114.1,90.3  '/>	<g transform="translate(96.8,94.2)" stroke="none" fill="black" font-family="Helvetica" font-size="12.00"  text-anchor="end">
		<text><tspan font-family="Helvetica" > 2.5x10</tspan><tspan font-family="Helvetica"  font-size="9.6" dy="-6.00px">-5</tspan><tspan font-size="12.0" dy="6.00"></tspan></text>
	</g>
</g>
<g fill="none" color="black" stroke="currentColor" stroke-width="1.00" stroke-linecap="butt" stroke-linejoin="miter">
	<path stroke='black'  d='M105.1,59.8 L114.1,59.8  '/>	<g transform="translate(96.8,63.7)" stroke="none" fill="black" font-family="Helvetica" font-size="12.00"  text-anchor="end">
		<text><tspan font-family="Helvetica" > 3x10</tspan><tspan font-family="Helvetica"  font-size="9.6" dy="-6.00px">-5</tspan><tspan font-size="12.0" dy="6.00"></tspan></text>
	</g>
</g>
<g fill="none" color="black" stroke="currentColor" stroke-width="1.00" stroke-linecap="butt" stroke-linejoin="miter">
	<path stroke='black'  d='M105.1,29.4 L114.1,29.4  '/>	<g transform="translate(96.8,33.3)" stroke="none" fill="black" font-family="Helvetica" font-size="12.00"  text-anchor="end">
		<text><tspan font-family="Helvetica" > 3.5x10</tspan><tspan font-family="Helvetica"  font-size="9.6" dy="-6.00px">-5</tspan><tspan font-size="12.0" dy="6.00"></tspan></text>
	</g>
</g>
<g fill="none" color="black" stroke="currentColor" stroke-width="1.00" stroke-linecap="butt" stroke-linejoin="miter">
	<path stroke='black'  d='M122.6,242.4 L122.6,233.4  '/>	<g transform="translate(122.6,264.3)" stroke="none" fill="black" font-family="Helvetica" font-size="12.00"  text-anchor="middle">
		<text><tspan font-family="Helvetica" > 10000</tspan></text>
	</g>
</g>
<g fill="none" color="black" stroke="currentColor" stroke-width="1.00" stroke-linecap="butt" stroke-linejoin="miter">
	<path stroke='black'  d='M157.3,242.4 L157.3,233.4  '/>	<g transform="translate(157.3,264.3)" stroke="none" fill="black" font-family="Helvetica" font-size="12.00"  text-anchor="middle">
		<text><tspan font-family="Helvetica" > 20000</tspan></text>
	</g>
</g>
<g fill="none" color="black" stroke="currentColor" stroke-width="1.00" stroke-linecap="butt" stroke-linejoin="miter">
	<path stroke='black'  d='M191.9,242.4 L191.9,233.4  '/>	<g transform="translate(191.9,264.3)" stroke="none" fill="black" font-family="Helvetica" font-size="12.00"  text-anchor="middle">
		<text><tspan font-family="Helvetica" > 30000</tspan></text>
	</g>
</g>
<g fill="none" color="black" stroke="currentColor" stroke-width="1.00" stroke-linecap="butt" stroke-linejoin="miter">
	<path stroke='black'  d='M226.5,242.4 L226.5,233.4  '/>	<g transform="translate(226.5,264.3)" stroke="none" fill="black" font-family="Helvetica" font-size="12.00"  text-anchor="middle">
		<text><tspan font-family="Helvetica" > 40000</tspan></text>
	</g>
</g>
<g fill="none" color="black" stroke="currentColor" stroke-width="1.00" stroke-linecap="butt" stroke-linejoin="miter">
	<path stroke='black'  d='M261.1,242.4 L261.1,233.4  '/>	<g transform="translate(261.1,264.3)" stroke="none" fill="black" font-family="Helvetica" font-size="12.00"  text-anchor="middle">
		<text><tspan font-family="Helvetica" > 50000</tspan></text>
	</g>
</g>
<g fill="none" color="black" stroke="currentColor" stroke-width="1.00" stroke-linecap="butt" stroke-linejoin="miter">
	<path stroke='black'  d='M295.8,242.4 L295.8,233.4  '/>	<g transform="translate(295.8,264.3)" stroke="none" fill="black" font-family="Helvetica" font-size="12.00"  text-anchor="middle">
		<text><tspan font-family="Helvetica" > 60000</tspan></text>
	</g>
</g>
<g fill="none" color="black" stroke="currentColor" stroke-width="1.00" stroke-linecap="butt" stroke-linejoin="miter">
	<path stroke='black'  d='M330.4,242.4 L330.4,233.4  '/>	<g transform="translate(330.4,264.3)" stroke="none" fill="black" font-family="Helvetica" font-size="12.00"  text-anchor="middle">
		<text><tspan font-family="Helvetica" > 70000</tspan></text>
	</g>
</g>
<g fill="none" color="black" stroke="currentColor" stroke-width="1.00" stroke-linecap="butt" stroke-linejoin="miter">
	<path stroke='black'  d='M365.0,242.4 L365.0,233.4  '/>	<g transform="translate(365.0,264.3)" stroke="none" fill="black" font-family="Helvetica" font-size="12.00"  text-anchor="middle">
		<text><tspan font-family="Helvetica" > 80000</tspan></text>
	</g>
</g>
<g fill="none" color="black" stroke="currentColor" stroke-width="1.00" stroke-linecap="butt" stroke-linejoin="miter">
	<path stroke='black'  d='M399.6,242.4 L399.6,233.4  '/>	<g transform="translate(399.6,264.3)" stroke="none" fill="black" font-family="Helvetica" font-size="12.00"  text-anchor="middle">
		<text><tspan font-family="Helvetica" > 90000</tspan></text>
	</g>
</g>
<g fill="none" color="black" stroke="currentColor" stroke-width="1.00" stroke-linecap="butt" stroke-linejoin="miter">
</g>
<g fill="none" color="black" stroke="currentColor" stroke-width="1.00" stroke-linecap="butt" stroke-linejoin="miter">
	<path stroke='black'  d='M105.1,18.1 L105.1,242.4 L425.0,242.4 L425.0,18.1 L105.1,18.1 Z  '/></g>
<g fill="none" color="black" stroke="currentColor" stroke-width="1.00" stroke-linecap="butt" stroke-linejoin="miter">
	<g transform="translate(16.3,130.3) rotate(270)" stroke="none" fill="black" font-family="Helvetica" font-size="12.00"  text-anchor="middle">
		<text><tspan font-family="Helvetica" >Density (a.u.)</tspan></text>
	</g>
</g>
<g fill="none" color="black" stroke="currentColor" stroke-width="1.00" stroke-linecap="butt" stroke-linejoin="miter">
	<g transform="translate(265.0,291.3)" stroke="none" fill="black" font-family="Helvetica" font-size="12.00"  text-anchor="middle">
		<text><tspan font-family="Helvetica" >Average time (cycles)</tspan></text>
	</g>
</g>
<g fill="none" color="black" stroke="currentColor" stroke-width="1.00" stroke-linecap="butt" stroke-linejoin="miter">
</g>
	<g id="gnuplot_plot_1" ><title>PDF</title>
<g fill="none" color="black" stroke="currentColor" stroke-width="1.00" stroke-linecap="butt" stroke-linejoin="miter">
	<g stroke='none' shape-rendering='crispEdges'>
		<polygon fill = 'rgb( 31, 120, 180)' fill-opacity = '0.250000' points = '105.1,242.2 105.7,242.2 106.4,242.2 107.0,242.2 107.7,242.2 108.3,242.2 108.9,242.1 109.6,242.1 110.2,242.1 110.9,242.1 111.5,242.1 112.2,242.0 112.8,242.0 113.4,242.0 114.1,241.9 114.7,241.9
115.4,241.9 116.0,241.8 116.6,241.8 117.3,241.8 117.9,241.7 118.6,241.7 119.2,241.6 119.8,241.6 120.5,241.5 121.1,241.4 121.8,241.4 122.4,241.3 123.1,241.3 123.7,241.2 124.3,241.1 125.0,241.0
125.6,240.9 126.3,240.8 126.9,240.8 127.5,240.7 128.2,240.6 128.8,240.4 129.5,240.3 130.1,240.2 130.7,240.1 131.4,240.0 132.0,239.8 132.7,239.7 133.3,239.6 133.9,239.4 134.6,239.2 135.2,239.1
135.9,238.9 136.5,238.7 137.2,238.6 137.8,238.4 138.4,238.2 139.1,238.0 139.7,237.8 140.4,237.6 141.0,237.3 141.6,237.1 142.3,236.9 142.9,236.6 143.6,236.4 144.2,236.1 144.8,235.9 145.5,235.6
146.1,235.3 146.8,235.0 147.4,234.7 148.1,234.4 148.7,234.1 149.3,233.8 150.0,233.5 150.6,233.2 151.3,232.8 151.9,232.5 152.5,232.2 153.2,231.8 153.8,231.4 154.5,231.1 155.1,230.7 155.7,230.3
156.4,229.9 157.0,229.5 157.7,229.1 158.3,228.7 159.0,228.3 159.6,227.9 160.2,227.4 160.9,227.0 161.5,226.6 162.2,226.1 162.8,225.7 163.4,225.2 164.1,224.7 164.7,224.3 165.4,223.8 166.0,223.3
166.6,222.8 167.3,222.3 167.9,221.8 168.6,221.3 169.2,220.7 169.8,220.2 170.5,219.6 171.1,219.1 171.8,218.5 172.4,218.0 173.1,217.4 173.7,216.8 174.3,216.2 175.0,215.6 175.6,215.0 176.3,214.3
176.9,213.7 177.5,213.0 178.2,212.3 178.8,211.6 179.5,210.9 180.1,210.2 180.7,209.5 181.4,208.7 182.0,208.0 182.7,207.2 183.3,206.4 184.0,205.6 184.6,204.7 185.2,203.9 185.9,203.0 186.5,202.1
187.2,201.1 187.8,200.2 188.4,199.2 189.1,198.2 189.7,197.2 190.4,196.1 191.0,195.1 191.6,194.0 192.3,192.8 192.9,191.7 193.6,190.5 194.2,189.3 194.9,188.1 195.5,186.8 196.1,185.5 196.8,184.2
197.4,182.9 198.1,181.5 198.7,180.2 199.3,178.8 200.0,177.3 200.6,175.9 201.3,174.4 201.9,172.9 202.5,171.4 203.2,169.8 203.8,168.3 204.5,166.7 205.1,165.1 205.7,163.5 206.4,161.8 207.0,160.2
207.7,158.6 208.3,156.9 209.0,155.3 209.6,153.6 210.2,151.9 210.9,150.3 211.5,148.6 212.2,147.0 212.8,145.3 213.4,143.7 214.1,142.1 214.7,140.5 215.4,138.9 216.0,137.3 216.6,135.7 217.3,134.2
217.9,132.7 218.6,131.3 219.2,129.9 219.9,128.5 220.5,127.1 221.1,125.8 221.8,124.6 222.4,123.3 223.1,122.2 223.7,121.1 224.3,120.0 225.0,119.0 225.6,118.1 226.3,117.2 226.9,116.4 227.5,115.6
228.2,115.0 228.8,114.4 229.5,113.8 230.1,113.4 230.8,113.0 231.4,112.6 232.0,112.4 232.7,112.2 233.3,112.2 234.0,112.1 234.6,112.2 235.2,112.4 235.9,112.6 236.5,112.9 237.2,113.3 237.8,113.7
238.4,114.3 239.1,114.9 239.7,115.6 240.4,116.4 241.0,117.2 241.7,118.1 242.3,119.1 242.9,120.2 243.6,121.3 244.2,122.5 244.9,123.7 245.5,125.0 246.1,126.4 246.8,127.8 247.4,129.3 248.1,130.8
248.7,132.4 249.3,134.1 250.0,135.7 250.6,137.4 251.3,139.2 251.9,141.0 252.5,142.8 253.2,144.6 253.8,146.5 254.5,148.4 255.1,150.3 255.8,152.2 256.4,154.2 257.0,156.1 257.7,158.1 258.3,160.0
259.0,162.0 259.6,163.9 260.2,165.9 260.9,167.8 261.5,169.7 262.2,171.6 262.8,173.5 263.4,175.4 264.1,177.3 264.7,179.1 265.4,180.9 266.0,182.7 266.7,184.4 267.3,186.1 267.9,187.8 268.6,189.4
269.2,191.0 269.9,192.5 270.5,194.0 271.1,195.5 271.8,196.9 272.4,198.2 273.1,199.5 273.7,200.8 274.3,201.9 275.0,203.1 275.6,204.1 276.3,205.1 276.9,206.1 277.6,207.0 278.2,207.8 278.8,208.5
279.5,209.2 280.1,209.8 280.8,210.4 281.4,210.9 282.0,211.3 282.7,211.6 283.3,211.9 284.0,212.1 284.6,212.2 285.2,212.2 285.9,212.2 286.5,212.0 287.2,211.9 287.8,211.6 288.4,211.2 289.1,210.8
289.7,210.3 290.4,209.7 291.0,209.0 291.7,208.2 292.3,207.4 292.9,206.4 293.6,205.4 294.2,204.3 294.9,203.1 295.5,201.9 296.1,200.5 296.8,199.1 297.4,197.6 298.1,196.0 298.7,194.3 299.3,192.5
300.0,190.6 300.6,188.7 301.3,186.7 301.9,184.6 302.6,182.4 303.2,180.1 303.8,177.8 304.5,175.3 305.1,172.8 305.8,170.3 306.4,167.6 307.0,164.9 307.7,162.1 308.3,159.3 309.0,156.3 309.6,153.4
310.2,150.3 310.9,147.2 311.5,144.1 312.2,140.9 312.8,137.6 313.5,134.3 314.1,131.0 314.7,127.7 315.4,124.3 316.0,120.8 316.7,117.4 317.3,113.9 317.9,110.5 318.6,107.0 319.2,103.5 319.9,100.0
320.5,96.5 321.1,93.0 321.8,89.6 322.4,86.1 323.1,82.7 323.7,79.4 324.4,76.0 325.0,72.7 325.6,69.5 326.3,66.3 326.9,63.2 327.6,60.1 328.2,57.1 328.8,54.2 329.5,51.3 330.1,48.6
330.8,45.9 331.4,43.3 332.0,40.9 332.7,38.5 333.3,36.3 334.0,34.1 334.6,32.1 335.2,30.2 335.9,28.5 336.5,26.8 337.2,25.3 337.8,23.9 338.5,22.7 339.1,21.6 339.7,20.7 340.4,19.9
341.0,19.2 341.7,18.7 342.3,18.4 342.9,18.2 343.6,18.1 344.2,18.2 344.9,18.4 345.5,18.8 346.1,19.4 346.8,20.1 347.4,20.9 348.1,21.9 348.7,23.0 349.4,24.3 350.0,25.7 350.6,27.2
351.3,28.9 351.9,30.7 352.6,32.6 353.2,34.7 353.8,36.9 354.5,39.1 355.1,41.5 355.8,44.0 356.4,46.6 357.0,49.3 357.7,52.1 358.3,55.0 359.0,57.9 359.6,60.9 360.3,64.0 360.9,67.2
361.5,70.4 362.2,73.7 362.8,77.0 363.5,80.4 364.1,83.8 364.7,87.2 365.4,90.7 366.0,94.2 366.7,97.7 367.3,101.2 367.9,104.7 368.6,108.2 369.2,111.8 369.9,115.3 370.5,118.8 371.1,122.3
371.8,125.7 372.4,129.2 373.1,132.6 373.7,136.0 374.4,139.3 375.0,142.7 375.6,145.9 376.3,149.1 376.9,152.3 377.6,155.5 378.2,158.5 378.8,161.5 379.5,164.5 380.1,167.4 380.8,170.3 381.4,173.0
382.0,175.8 382.7,178.4 383.3,181.0 384.0,183.5 384.6,186.0 385.3,188.4 385.9,190.7 386.5,193.0 387.2,195.2 387.8,197.3 388.5,199.4 389.1,201.4 389.7,203.3 390.4,205.2 391.0,207.0 391.7,208.7
392.3,210.4 392.9,212.0 393.6,213.5 394.2,215.0 394.9,216.4 395.5,217.8 396.2,219.1 396.8,220.4 397.4,221.6 398.1,222.7 398.7,223.8 399.4,224.9 400.0,225.9 400.6,226.8 401.3,227.7 401.9,228.6
402.6,229.4 403.2,230.2 403.8,230.9 404.5,231.7 405.1,232.3 405.8,233.0 406.4,233.6 407.0,234.1 407.7,234.7 408.3,235.2 409.0,235.6 409.6,236.1 410.3,236.5 410.9,236.9 411.5,237.3 412.2,237.6
412.8,238.0 413.5,238.3 414.1,238.6 414.7,238.8 415.4,239.1 416.0,239.3 416.7,239.6 417.3,239.8 417.9,240.0 418.6,240.2 419.2,240.3 419.9,240.5 420.5,240.6 421.2,240.8 421.8,240.9 422.4,241.0
423.1,241.1 423.7,241.2 424.4,241.3 425.0,241.4 425.0,242.4 424.4,242.4 423.7,242.4 423.1,242.4 422.4,242.4 421.8,242.4 421.2,242.4 420.5,242.4 419.9,242.4 419.2,242.4 418.6,242.4 417.9,242.4
417.3,242.4 416.7,242.4 416.0,242.4 415.4,242.4 414.7,242.4 414.1,242.4 413.5,242.4 412.8,242.4 412.2,242.4 411.5,242.4 410.9,242.4 410.3,242.4 409.6,242.4 409.0,242.4 408.3,242.4 407.7,242.4
407.0,242.4 406.4,242.4 405.8,242.4 405.1,242.4 404.5,242.4 403.8,242.4 403.2,242.4 402.6,242.4 401.9,242.4 401.3,242.4 400.6,242.4 400.0,242.4 399.4,242.4 398.7,242.4 398.1,242.4 397.4,242.4
396.8,242.4 396.2,242.4 395.5,242.4 394.9,242.4 394.2,242.4 393.6,242.4 392.9,242.4 392.3,242.4 391.7,242.4 391.0,242.4 390.4,242.4 389.7,242.4 389.1,242.4 388.5,242.4 387.8,242.4 387.2,242.4
386.5,242.4 385.9,242.4 385.3,242.4 384.6,242.4 384.0,242.4 383.3,242.4 382.7,242.4 382.0,242.4 381.4,242.4 380.8,242.4 380.1,242.4 379.5,242.4 378.8,242.4 378.2,242.4 377.6,242.4 376.9,242.4
376.3,242.4 375.6,242.4 375.0,242.4 374.4,242.4 373.7,242.4 373.1,242.4 372.4,242.4 371.8,242.4 371.1,242.4 370.5,242.4 369.9,242.4 369.2,242.4 368.6,242.4 367.9,242.4 367.3,242.4 366.7,242.4
366.0,242.4 365.4,242.4 364.7,242.4 364.1,242.4 363.5,242.4 362.8,242.4 362.2,242.4 361.5,242.4 360.9,242.4 360.3,242.4 359.6,242.4 359.0,242.4 358.3,242.4 357.7,242.4 357.0,242.4 356.4,242.4
355.8,242.4 355.1,242.4 354.5,242.4 353.8,242.4 353.2,242.4 352.6,242.4 351.9,242.4 351.3,242.4 350.6,242.4 350.0,242.4 349.4,242.4 348.7,242.4 348.1,242.4 347.4,242.4 346.8,242.4 346.1,242.4
345.5,242.4 344.9,242.4 344.2,242.4 343.6,242.4 342.9,242.4 342.3,242.4 341.7,242.4 341.0,242.4 340.4,242.4 339.7,242.4 339.1,242.4 338.5,242.4 337.8,242.4 337.2,242.4 336.5,242.4 335.9,242.4
335.2,242.4 334.6,242.4 334.0,242.4 333.3,242.4 332.7,242.4 332.0,242.4 331.4,242.4 330.8,242.4 330.1,242.4 329.5,242.4 328.8,242.4 328.2,242.4 327.6,242.4 326.9,242.4 326.3,242.4 325.6,242.4
325.0,242.4 324.4,242.4 323.7,242.4 323.1,242.4 322.4,242.4 321.8,242.4 321.1,242.4 320.5,242.4 319.9,242.4 319.2,242.4 318.6,242.4 317.9,242.4 317.3,242.4 316.7,242.4 316.0,242.4 315.4,242.4
314.7,242.4 314.1,242.4 313.5,242.4 312.8,242.4 312.2,242.4 311.5,242.4 310.9,242.4 310.2,242.4 309.6,242.4 309.0,242.4 308.3,242.4 307.7,242.4 307.0,242.4 306.4,242.4 305.8,242.4 305.1,242.4
304.5,242.4 303.8,242.4 303.2,242.4 302.6,242.4 301.9,242.4 301.3,242.4 300.6,242.4 300.0,242.4 299.3,242.4 298.7,242.4 298.1,242.4 297.4,242.4 296.8,242.4 296.1,242.4 295.5,242.4 294.9,242.4
294.2,242.4 293.6,242.4 292.9,242.4 292.3,242.4 291.7,242.4 291.0,242.4 290.4,242.4 289.7,242.4 289.1,242.4 288.4,242.4 287.8,242.4 287.2,242.4 286.5,242.4 285.9,242.4 285.2,242.4 284.6,242.4
284.0,242.4 283.3,242.4 282.7,242.4 282.0,242.4 281.4,242.4 280.8,242.4 280.1,242.4 279.5,242.4 278.8,242.4 278.2,242.4 277.6,242.4 276.9,242.4 276.3,242.4 275.6,242.4 275.0,242.4 274.3,242.4
273.7,242.4 273.1,242.4 272.4,242.4 271.8,242.4 271.1,242.4 270.5,242.4 269.9,242.4 269.2,242.4 268.6,242.4 267.9,242.4 267.3,242.4 266.7,242.4 266.0,242.4 265.4,242.4 264.7,242.4 264.1,242.4
263.4,242.4 262.8,242.4 262.2,242.4 261.5,242.4 260.9,242.4 260.2,242.4 259.6,242.4 259.0,242.4 258.3,242.4 257.7,242.4 257.0,242.4 256.4,242.4 255.8,242.4 255.1,242.4 254.5,242.4 253.8,242.4
253.2,242.4 252.5,242.4 251.9,242.4 251.3,242.4 250.6,242.4 250.0,242.4 249.3,242.4 248.7,242.4 248.1,242.4 247.4,242.4 246.8,242.4 246.1,242.4 245.5,242.4 244.9,242.4 244.2,242.4 243.6,242.4
242.9,242.4 242.3,242.4 241.7,242.4 241.0,242.4 240.4,242.4 239.7,242.4 239.1,242.4 238.4,242.4 237.8,242.4 237.2,242.4 236.5,242.4 235.9,242.4 235.2,242.4 234.6,242.4 234.0,242.4 233.3,242.4
232.7,242.4 232.0,242.4 231.4,242.4 230.8,242.4 230.1,242.4 229.5,242.4 228.8,242.4 228.2,242.4 227.5,242.4 226.9,242.4 226.3,242.4 225.6,242.4 225.0,242.4 224.3,242.4 223.7,242.4 223.1,242.4
222.4,242.4 221.8,242.4 221.1,242.4 220.5,242.4 219.9,242.4 219.2,242.4 218.6,242.4 217.9,242.4 217.3,242.4 216.6,242.4 216.0,242.4 215.4,242.4 214.7,242.4 214.1,242.4 213.4,242.4 212.8,242.4
212.2,242.4 211.5,242.4 210.9,242.4 210.2,242.4 209.6,242.4 209.0,242.4 208.3,242.4 207.7,242.4 207.0,242.4 206.4,242.4 205.7,242.4 205.1,242.4 204.5,242.4 203.8,242.4 203.2,242.4 202.5,242.4
201.9,242.4 201.3,242.4 200.6,242.4 200.0,242.4 199.3,242.4 198.7,242.4 198.1,242.4 197.4,242.4 196.8,242.4 196.1,242.4 195.5,242.4 194.9,242.4 194.2,242.4 193.6,242.4 192.9,242.4 192.3,242.4
191.6,242.4 191.0,242.4 190.4,242.4 189.7,242.4 189.1,242.4 188.4,242.4 187.8,242.4 187.2,242.4 186.5,242.4 185.9,242.4 185.2,242.4 184.6,242.4 184.0,242.4 183.3,242.4 182.7,242.4 182.0,242.4
181.4,242.4 180.7,242.4 180.1,242.4 179.5,242.4 178.8,242.4 178.2,242.4 177.5,242.4 176.9,242.4 176.3,242.4 175.6,242.4 175.0,242.4 174.3,242.4 173.7,242.4 173.1,242.4 172.4,242.4 171.8,242.4
171.1,242.4 170.5,242.4 169.8,242.4 169.2,242.4 168.6,242.4 167.9,242.4 167.3,242.4 166.6,242.4 166.0,242.4 165.4,242.4 164.7,242.4 164.1,242.4 163.4,242.4 162.8,242.4 162.2,242.4 161.5,242.4
160.9,242.4 160.2,242.4 159.6,242.4 159.0,242.4 158.3,242.4 157.7,242.4 157.0,242.4 156.4,242.4 155.7,242.4 155.1,242.4 154.5,242.4 153.8,242.4 153.2,242.4 152.5,242.4 151.9,242.4 151.3,242.4
150.6,242.4 150.0,242.4 149.3,242.4 148.7,242.4 148.1,242.4 147.4,242.4 146.8,242.4 146.1,242.4 145.5,242.4 144.8,242.4 144.2,242.4 143.6,242.4 142.9,242.4 142.3,242.4 141.6,242.4 141.0,242.4
140.4,242.4 139.7,242.4 139.1,242.4 138.4,242.4 137.8,242.4 137.2,242.4 136.5,242.4 135.9,242.4 135.2,242.4 134.6,242.4 133.9,242.4 133.3,242.4 132.7,242.4 132.0,242.4 131.4,242.4 130.7,242.4
130.1,242.4 129.5,242.4 128.8,242.4 128.2,242.4 127.5,242.4 126.9,242.4 126.3,242.4 125.6,242.4 125.0,242.4 124.3,242.4 123.7,242.4 123.1,242.4 122.4,242.4 121.8,242.4 121.1,242.4 120.5,242.4
119.8,242.4 119.2,242.4 118.6,242.4 117.9,242.4 117.3,242.4 116.6,242.4 116.0,242.4 115.4,242.4 114.7,242.4 114.1,242.4 113.4,242.4 112.8,242.4 112.2,242.4 111.5,242.4 110.9,242.4 110.2,242.4
109.6,242.4 108.9,242.4 108.3,242.4 107.7,242.4 107.0,242.4 106.4,242.4 105.7,242.4 105.1,242.4 '/>
	</g>
</g>
	</g>
	<g id="gnuplot_plot_2" ><title>Mean</title>
<g fill="none" color="white" stroke="rgb( 31, 120, 180)" stroke-width="2.00" stroke-linecap="butt" stroke-linejoin="miter">
</g>
<g fill="none" color="black" stroke="currentColor" stroke-width="2.00" stroke-linecap="butt" stroke-linejoin="miter">
	<path stroke='rgb( 31, 120, 180)'  d='M297.1,242.4 L297.1,202.4  '/></g>
	</g>
<g fill="none" color="black" stroke="currentColor" stroke-width="2.00" stroke-linecap="butt" stroke-linejoin="miter">
</g>
<g fill="none" color="black" stroke="black" stroke-width="1.00" stroke-linecap="butt" stroke-linejoin="miter">
</g>
<g fill="none" color="black" stroke="currentColor" stroke-width="1.00" stroke-linecap="butt" stroke-linejoin="miter">
	<path stroke='black'  d='M105.1,18.1 L105.1,242.4 L425.0,242.4 L425.0,18.1 L105.1,18.1 Z  '/></g>
<g fill="none" color="black" stroke="currentColor" stroke-width="1.00" stroke-linecap="butt" stroke-linejoin="miter">
</g>
</g>
</svg>

