<?xml version="1.0" encoding="utf-8"  standalone="no"?>
<svg 
 viewBox="0 0 1280 720"
 xmlns="http://www.w3.org/2000/svg"
 xmlns:xlink="http://www.w3.org/1999/xlink"
>

<title>Gnuplot</title>
<desc>Produced by GNUPLOT 5.2 patchlevel 2 </desc>

<g id="gnuplot_canvas">

<rect x="0" y="0" width="1280" height="720" fill="none"/>
<defs>

	<circle id='gpDot' r='0.5' stroke-width='0.5'/>
	<path id='gpPt0' stroke-width='0.222' stroke='currentColor' d='M-1,0 h2 M0,-1 v2'/>
	<path id='gpPt1' stroke-width='0.222' stroke='currentColor' d='M-1,-1 L1,1 M1,-1 L-1,1'/>
	<path id='gpPt2' stroke-width='0.222' stroke='currentColor' d='M-1,0 L1,0 M0,-1 L0,1 M-1,-1 L1,1 M-1,1 L1,-1'/>
	<rect id='gpPt3' stroke-width='0.222' stroke='currentColor' x='-1' y='-1' width='2' height='2'/>
	<rect id='gpPt4' stroke-width='0.222' stroke='currentColor' fill='currentColor' x='-1' y='-1' width='2' height='2'/>
	<circle id='gpPt5' stroke-width='0.222' stroke='currentColor' cx='0' cy='0' r='1'/>
	<use xlink:href='#gpPt5' id='gpPt6' fill='currentColor' stroke='none'/>
	<path id='gpPt7' stroke-width='0.222' stroke='currentColor' d='M0,-1.33 L-1.33,0.67 L1.33,0.67 z'/>
	<use xlink:href='#gpPt7' id='gpPt8' fill='currentColor' stroke='none'/>
	<use xlink:href='#gpPt7' id='gpPt9' stroke='currentColor' transform='rotate(180)'/>
	<use xlink:href='#gpPt9' id='gpPt10' fill='currentColor' stroke='none'/>
	<use xlink:href='#gpPt3' id='gpPt11' stroke='currentColor' transform='rotate(45)'/>
	<use xlink:href='#gpPt11' id='gpPt12' fill='currentColor' stroke='none'/>
	<path id='gpPt13' stroke-width='0.222' stroke='currentColor' d='M0,1.330 L1.265,0.411 L0.782,-1.067 L-0.782,-1.076 L-1.265,0.411 z'/>
	<use xlink:href='#gpPt13' id='gpPt14' fill='currentColor' stroke='none'/>
	<filter id='textbox' filterUnits='objectBoundingBox' x='0' y='0' height='1' width='1'>
	  <feFlood flood-color='white' flood-opacity='1' result='bgnd'/>
	  <feComposite in='SourceGraphic' in2='bgnd' operator='atop'/>
	</filter>
	<filter id='greybox' filterUnits='objectBoundingBox' x='0' y='0' height='1' width='1'>
	  <feFlood flood-color='lightgrey' flood-opacity='1' result='grey'/>
	  <feComposite in='SourceGraphic' in2='grey' operator='atop'/>
	</filter>
</defs>
<g fill="none" color="white" stroke="currentColor" stroke-width="1.00" stroke-linecap="butt" stroke-linejoin="miter">
</g>
<g fill="none" color="black" stroke="currentColor" stroke-width="1.00" stroke-linecap="butt" stroke-linejoin="miter">
	<path stroke='black'  d='M96.8,662.4 L105.8,662.4  '/>	<g transform="translate(88.5,666.3)" stroke="none" fill="black" font-family="Helvetica" font-size="12.00"  text-anchor="end">
		<text><tspan font-family="Helvetica" > 0</tspan></text>
	</g>
</g>
<g fill="none" color="black" stroke="currentColor" stroke-width="1.00" stroke-linecap="butt" stroke-linejoin="miter">
	<path stroke='black'  d='M96.8,594.8 L105.8,594.8  '/>	<g transform="translate(88.5,598.7)" stroke="none" fill="black" font-family="Helvetica" font-size="12.00"  text-anchor="end">
		<text><tspan font-family="Helvetica" > 0.0001</tspan></text>
	</g>
</g>
<g fill="none" color="black" stroke="currentColor" stroke-width="1.00" stroke-linecap="butt" stroke-linejoin="miter">
	<path stroke='black'  d='M96.8,527.2 L105.8,527.2  '/>	<g transform="translate(88.5,531.1)" stroke="none" fill="black" font-family="Helvetica" font-size="12.00"  text-anchor="end">
		<text><tspan font-family="Helvetica" > 0.0002</tspan></text>
	</g>
</g>
<g fill="none" color="black" stroke="currentColor" stroke-width="1.00" stroke-linecap="butt" stroke-linejoin="miter">
	<path stroke='black'  d='M96.8,459.6 L105.8,459.6  '/>	<g transform="translate(88.5,463.5)" stroke="none" fill="black" font-family="Helvetica" font-size="12.00"  text-anchor="end">
		<text><tspan font-family="Helvetica" > 0.0003</tspan></text>
	</g>
</g>
<g fill="none" color="black" stroke="currentColor" stroke-width="1.00" stroke-linecap="butt" stroke-linejoin="miter">
	<path stroke='black'  d='M96.8,392.0 L105.8,392.0  '/>	<g transform="translate(88.5,395.9)" stroke="none" fill="black" font-family="Helvetica" font-size="12.00"  text-anchor="end">
		<text><tspan font-family="Helvetica" > 0.0004</tspan></text>
	</g>
</g>
<g fill="none" color="black" stroke="currentColor" stroke-width="1.00" stroke-linecap="butt" stroke-linejoin="miter">
	<path stroke='black'  d='M96.8,324.5 L105.8,324.5  '/>	<g transform="translate(88.5,328.4)" stroke="none" fill="black" font-family="Helvetica" font-size="12.00"  text-anchor="end">
		<text><tspan font-family="Helvetica" > 0.0005</tspan></text>
	</g>
</g>
<g fill="none" color="black" stroke="currentColor" stroke-width="1.00" stroke-linecap="butt" stroke-linejoin="miter">
	<path stroke='black'  d='M96.8,256.9 L105.8,256.9  '/>	<g transform="translate(88.5,260.8)" stroke="none" fill="black" font-family="Helvetica" font-size="12.00"  text-anchor="end">
		<text><tspan font-family="Helvetica" > 0.0006</tspan></text>
	</g>
</g>
<g fill="none" color="black" stroke="currentColor" stroke-width="1.00" stroke-linecap="butt" stroke-linejoin="miter">
	<path stroke='black'  d='M96.8,189.3 L105.8,189.3  '/>	<g transform="translate(88.5,193.2)" stroke="none" fill="black" font-family="Helvetica" font-size="12.00"  text-anchor="end">
		<text><tspan font-family="Helvetica" > 0.0007</tspan></text>
	</g>
</g>
<g fill="none" color="black" stroke="currentColor" stroke-width="1.00" stroke-linecap="butt" stroke-linejoin="miter">
	<path stroke='black'  d='M96.8,121.7 L105.8,121.7  '/>	<g transform="translate(88.5,125.6)" stroke="none" fill="black" font-family="Helvetica" font-size="12.00"  text-anchor="end">
		<text><tspan font-family="Helvetica" > 0.0008</tspan></text>
	</g>
</g>
<g fill="none" color="black" stroke="currentColor" stroke-width="1.00" stroke-linecap="butt" stroke-linejoin="miter">
	<path stroke='black'  d='M96.8,54.1 L105.8,54.1  '/>	<g transform="translate(88.5,58.0)" stroke="none" fill="black" font-family="Helvetica" font-size="12.00"  text-anchor="end">
		<text><tspan font-family="Helvetica" > 0.0009</tspan></text>
	</g>
</g>
<g fill="none" color="black" stroke="currentColor" stroke-width="1.00" stroke-linecap="butt" stroke-linejoin="miter">
	<path stroke='black'  d='M256.7,662.4 L256.7,653.4  '/>	<g transform="translate(256.7,684.3)" stroke="none" fill="black" font-family="Helvetica" font-size="12.00"  text-anchor="middle">
		<text><tspan font-family="Helvetica" > 71000</tspan></text>
	</g>
</g>
<g fill="none" color="black" stroke="currentColor" stroke-width="1.00" stroke-linecap="butt" stroke-linejoin="miter">
	<path stroke='black'  d='M445.1,662.4 L445.1,653.4  '/>	<g transform="translate(445.1,684.3)" stroke="none" fill="black" font-family="Helvetica" font-size="12.00"  text-anchor="middle">
		<text><tspan font-family="Helvetica" > 71500</tspan></text>
	</g>
</g>
<g fill="none" color="black" stroke="currentColor" stroke-width="1.00" stroke-linecap="butt" stroke-linejoin="miter">
	<path stroke='black'  d='M633.4,662.4 L633.4,653.4  '/>	<g transform="translate(633.4,684.3)" stroke="none" fill="black" font-family="Helvetica" font-size="12.00"  text-anchor="middle">
		<text><tspan font-family="Helvetica" > 72000</tspan></text>
	</g>
</g>
<g fill="none" color="black" stroke="currentColor" stroke-width="1.00" stroke-linecap="butt" stroke-linejoin="miter">
	<path stroke='black'  d='M821.7,662.4 L821.7,653.4  '/>	<g transform="translate(821.7,684.3)" stroke="none" fill="black" font-family="Helvetica" font-size="12.00"  text-anchor="middle">
		<text><tspan font-family="Helvetica" > 72500</tspan></text>
	</g>
</g>
<g fill="none" color="black" stroke="currentColor" stroke-width="1.00" stroke-linecap="butt" stroke-linejoin="miter">
	<path stroke='black'  d='M1010.0,662.4 L1010.0,653.4  '/>	<g transform="translate(1010.0,684.3)" stroke="none" fill="black" font-family="Helvetica" font-size="12.00"  text-anchor="middle">
		<text><tspan font-family="Helvetica" > 73000</tspan></text>
	</g>
</g>
<g fill="none" color="black" stroke="currentColor" stroke-width="1.00" stroke-linecap="butt" stroke-linejoin="miter">
</g>
<g fill="none" color="black" stroke="currentColor" stroke-width="1.00" stroke-linecap="butt" stroke-linejoin="miter">
	<path stroke='black'  d='M96.8,54.1 L96.8,662.4 L1013.6,662.4 L1013.6,54.1 L96.8,54.1 Z  '/></g>
<g fill="none" color="black" stroke="currentColor" stroke-width="1.00" stroke-linecap="butt" stroke-linejoin="miter">
	<g transform="translate(16.3,358.3) rotate(270)" stroke="none" fill="black" font-family="Helvetica" font-size="12.00"  text-anchor="middle">
		<text><tspan font-family="Helvetica" >Density (a.u.)</tspan></text>
	</g>
</g>
<g fill="none" color="black" stroke="currentColor" stroke-width="1.00" stroke-linecap="butt" stroke-linejoin="miter">
	<g transform="translate(555.2,711.3)" stroke="none" fill="black" font-family="Helvetica" font-size="12.00"  text-anchor="middle">
		<text><tspan font-family="Helvetica" >Average time (cycles)</tspan></text>
	</g>
</g>
<g fill="none" color="black" stroke="currentColor" stroke-width="1.00" stroke-linecap="butt" stroke-linejoin="miter">
	<g transform="translate(555.2,31.0)" stroke="none" fill="black" font-family="Helvetica" font-size="12.00"  text-anchor="middle">
		<text><tspan font-family="Helvetica" >non_nested_compare/modified from scratch/9: slope</tspan></text>
	</g>
</g>
	<g id="gnuplot_plot_1" ><title>Bootstrap distribution</title>
<g fill="none" color="white" stroke="black" stroke-width="2.00" stroke-linecap="butt" stroke-linejoin="miter">
</g>
<g fill="none" color="black" stroke="currentColor" stroke-width="2.00" stroke-linecap="butt" stroke-linejoin="miter">
	<g transform="translate(1089.0,67.0)" stroke="none" fill="black" font-family="Helvetica" font-size="12.00"  text-anchor="start">
		<text><tspan font-family="Helvetica" >Bootstrap distribution</tspan></text>
	</g>
</g>
<g fill="none" color="black" stroke="currentColor" stroke-width="2.00" stroke-linecap="butt" stroke-linejoin="miter">
	<path stroke='rgb( 31, 120, 180)'  d='M1038.5,63.1 L1080.7,63.1 M96.8,634.8 L98.6,634.4 L100.5,634.0 L102.3,633.5 L104.1,633.0 L106.0,632.5
		L107.8,632.0 L109.7,631.4 L111.5,630.8 L113.3,630.3 L115.2,629.7 L117.0,629.0 L118.8,628.4 L120.7,627.8
		L122.5,627.1 L124.4,626.4 L126.2,625.8 L128.0,625.1 L129.9,624.4 L131.7,623.7 L133.5,622.9 L135.4,622.2
		L137.2,621.5 L139.1,620.8 L140.9,620.0 L142.7,619.3 L144.6,618.5 L146.4,617.8 L148.2,617.0 L150.1,616.3
		L151.9,615.5 L153.8,614.7 L155.6,613.9 L157.4,613.2 L159.3,612.4 L161.1,611.6 L162.9,610.8 L164.8,610.0
		L166.6,609.2 L168.5,608.4 L170.3,607.5 L172.1,606.7 L174.0,605.8 L175.8,605.0 L177.6,604.1 L179.5,603.2
		L181.3,602.3 L183.2,601.4 L185.0,600.5 L186.8,599.6 L188.7,598.6 L190.5,597.7 L192.3,596.7 L194.2,595.8
		L196.0,594.8 L197.9,593.8 L199.7,592.8 L201.5,591.8 L203.4,590.8 L205.2,589.8 L207.0,588.7 L208.9,587.7
		L210.7,586.6 L212.5,585.6 L214.4,584.5 L216.2,583.4 L218.1,582.3 L219.9,581.2 L221.7,580.1 L223.6,579.0
		L225.4,577.9 L227.2,576.8 L229.1,575.6 L230.9,574.5 L232.8,573.3 L234.6,572.1 L236.4,571.0 L238.3,569.8
		L240.1,568.6 L241.9,567.4 L243.8,566.2 L245.6,564.9 L247.5,563.7 L249.3,562.4 L251.1,561.2 L253.0,559.9
		L254.8,558.6 L256.6,557.2 L258.5,555.9 L260.3,554.5 L262.2,553.1 L264.0,551.6 L265.8,550.2 L267.7,548.7
		L269.5,547.2 L271.3,545.6 L273.2,544.0 L275.0,542.4 L276.9,540.7 L278.7,539.0 L280.5,537.3 L282.4,535.6
		L284.2,533.8 L286.0,532.0 L287.9,530.2 L289.7,528.3 L291.6,526.5 L293.4,524.6 L295.2,522.7 L297.1,520.8
		L298.9,518.8 L300.7,516.9 L302.6,515.0 L304.4,513.0 L306.2,511.1 L308.1,509.1 L309.9,507.2 L311.8,505.2
		L313.6,503.3 L315.4,501.3 L317.3,499.4 L319.1,497.5 L320.9,495.5 L322.8,493.6 L324.6,491.7 L326.5,489.8
		L328.3,487.9 L330.1,486.0 L332.0,484.1 L333.8,482.2 L335.6,480.3 L337.5,478.4 L339.3,476.5 L341.2,474.5
		L343.0,472.6 L344.8,470.6 L346.7,468.6 L348.5,466.6 L350.3,464.5 L352.2,462.4 L354.0,460.3 L355.9,458.1
		L357.7,455.9 L359.5,453.6 L361.4,451.3 L363.2,448.9 L365.0,446.5 L366.9,444.0 L368.7,441.5 L370.6,439.0
		L372.4,436.4 L374.2,433.8 L376.1,431.2 L377.9,428.6 L379.7,426.0 L381.6,423.3 L383.4,420.7 L385.3,418.2
		L387.1,415.6 L388.9,413.1 L390.8,410.6 L392.6,408.1 L394.4,405.6 L396.3,403.2 L398.1,400.8 L400.0,398.5
		L401.8,396.2 L403.6,393.8 L405.5,391.5 L407.3,389.2 L409.1,386.9 L411.0,384.7 L412.8,382.4 L414.6,380.1
		L416.5,377.7 L418.3,375.4 L420.2,373.1 L422.0,370.7 L423.8,368.4 L425.7,366.0 L427.5,363.6 L429.3,361.2
		L431.2,358.8 L433.0,356.3 L434.9,353.9 L436.7,351.4 L438.5,348.9 L440.4,346.4 L442.2,343.9 L444.0,341.4
		L445.9,338.8 L447.7,336.2 L449.6,333.6 L451.4,331.0 L453.2,328.3 L455.1,325.6 L456.9,322.9 L458.7,320.2
		L460.6,317.4 L462.4,314.6 L464.3,311.7 L466.1,308.9 L467.9,306.0 L469.8,303.0 L471.6,300.1 L473.4,297.1
		L475.3,294.0 L477.1,291.0 L479.0,287.9 L480.8,284.8 L482.6,281.7 L484.5,278.6 L486.3,275.5 L488.1,272.3
		L490.0,269.2 L491.8,266.1 L493.7,262.9 L495.5,259.8 L497.3,256.7 L499.2,253.7 L501.0,250.6 L502.8,247.6
		L504.7,244.6 L506.5,241.6 L508.3,238.7 L510.2,235.7 L512.0,232.8 L513.9,229.9 L515.7,227.1 L517.5,224.2
		L519.4,221.4 L521.2,218.6 L523.0,215.8 L524.9,213.0 L526.7,210.2 L528.6,207.5 L530.4,204.8 L532.2,202.2
		L534.1,199.6 L535.9,197.0 L537.7,194.5 L539.6,192.1 L541.4,189.7 L543.3,187.4 L545.1,185.2 L546.9,183.0
		L548.8,180.9 L550.6,178.8 L552.4,176.9 L554.3,174.9 L556.1,173.0 L558.0,171.2 L559.8,169.4 L561.6,167.6
		L563.5,165.9 L565.3,164.1 L567.1,162.3 L569.0,160.6 L570.8,158.8 L572.7,157.0 L574.5,155.2 L576.3,153.4
		L578.2,151.5 L580.0,149.7 L581.8,147.8 L583.7,146.0 L585.5,144.2 L587.4,142.4 L589.2,140.7 L591.0,139.0
		L592.9,137.4 L594.7,135.8 L596.5,134.3 L598.4,132.9 L600.2,131.6 L602.1,130.3 L603.9,129.2 L605.7,128.1
		L607.6,127.2 L609.4,126.3 L611.2,125.5 L613.1,124.7 L614.9,124.1 L616.7,123.5 L618.6,123.0 L620.4,122.6
		L622.3,122.2 L624.1,121.9 L625.9,121.6 L627.8,121.4 L629.6,121.3 L631.4,121.2 L633.3,121.2 L635.1,121.2
		L637.0,121.3 L638.8,121.4 L640.6,121.6 L642.5,121.8 L644.3,122.0 L646.1,122.3 L648.0,122.6 L649.8,122.9
		L651.7,123.2 L653.5,123.6 L655.3,123.9 L657.2,124.3 L659.0,124.7 L660.8,125.2 L662.7,125.6 L664.5,126.1
		L666.4,126.5 L668.2,127.1 L670.0,127.6 L671.9,128.2 L673.7,128.9 L675.5,129.6 L677.4,130.3 L679.2,131.1
		L681.1,132.0 L682.9,133.0 L684.7,134.0 L686.6,135.1 L688.4,136.3 L690.2,137.6 L692.1,138.9 L693.9,140.2
		L695.8,141.7 L697.6,143.2 L699.4,144.7 L701.3,146.4 L703.1,148.0 L704.9,149.7 L706.8,151.5 L708.6,153.3
		L710.4,155.2 L712.3,157.1 L714.1,159.1 L716.0,161.1 L717.8,163.2 L719.6,165.4 L721.5,167.6 L723.3,169.9
		L725.1,172.3 L727.0,174.7 L728.8,177.2 L730.7,179.8 L732.5,182.4 L734.3,185.1 L736.2,187.9 L738.0,190.6
		L739.8,193.4 L741.7,196.3 L743.5,199.1 L745.4,202.0 L747.2,204.9 L749.0,207.8 L750.9,210.7 L752.7,213.6
		L754.5,216.5 L756.4,219.4 L758.2,222.3 L760.1,225.2 L761.9,228.2 L763.7,231.1 L765.6,234.1 L767.4,237.0
		L769.2,240.0 L771.1,243.1 L772.9,246.1 L774.8,249.2 L776.6,252.4 L778.4,255.5 L780.3,258.8 L782.1,262.0
		L783.9,265.3 L785.8,268.6 L787.6,272.0 L789.5,275.4 L791.3,278.8 L793.1,282.2 L795.0,285.6 L796.8,289.1
		L798.6,292.6 L800.5,296.1 L802.3,299.6 L804.2,303.1 L806.0,306.6 L807.8,310.1 L809.7,313.7 L811.5,317.3
		L813.3,320.9 L815.2,324.5 L817.0,328.2 L818.8,331.9 L820.7,335.6 L822.5,339.3 L824.4,343.1 L826.2,347.0
		L828.0,350.8 L829.9,354.8 L831.7,358.8 L833.5,362.8 L835.4,366.9 L837.2,371.0 L839.1,375.1 L840.9,379.3
		L842.7,383.6 L844.6,387.8 L846.4,392.1 L848.2,396.4 L850.1,400.7 L851.9,405.1 L853.8,409.4 L855.6,413.6
		L857.4,417.9 L859.3,422.1 L861.1,426.3 L862.9,430.5 L864.8,434.5 L866.6,438.6 L868.5,442.6 L870.3,446.5
		L872.1,450.4 L874.0,454.2 L875.8,458.0 L877.6,461.7 L879.5,465.4 L881.3,469.0 L883.2,472.6 L885.0,476.2
		L886.8,479.7 L888.7,483.2 L890.5,486.7 L892.3,490.1 L894.2,493.6 L896.0,497.0 L897.9,500.4 L899.7,503.7
		L901.5,507.0 L903.4,510.3 L905.2,513.6 L907.0,516.9 L908.9,520.1 L910.7,523.2 L912.5,526.3 L914.4,529.4
		L916.2,532.4 L918.1,535.4 L919.9,538.3 L921.7,541.2 L923.6,544.0 L925.4,546.8 L927.2,549.5 L929.1,552.1
		L930.9,554.7 L932.8,557.2 L934.6,559.6 L936.4,562.0 L938.3,564.3 L940.1,566.6 L941.9,568.8 L943.8,571.0
		L945.6,573.1 L947.5,575.1 L949.3,577.2 L951.1,579.1 L953.0,581.1 L954.8,583.0 L956.6,584.8 L958.5,586.7
		L960.3,588.5 L962.2,590.3 L964.0,592.0 L965.8,593.8 L967.7,595.5 L969.5,597.2 L971.3,598.9 L973.2,600.6
		L975.0,602.3 L976.9,603.9 L978.7,605.5 L980.5,607.1 L982.4,608.7 L984.2,610.2 L986.0,611.8 L987.9,613.3
		L989.7,614.8 L991.6,616.2 L993.4,617.7 L995.2,619.1 L997.1,620.4 L998.9,621.8 L1000.7,623.1 L1002.6,624.4
		L1004.4,625.7 L1006.3,627.0 L1008.1,628.2 L1009.9,629.4 L1011.8,630.6 L1013.6,631.8  '/></g>
	</g>
	<g id="gnuplot_plot_2" ><title>Confidence interval</title>
<g fill="none" color="white" stroke="rgb( 31, 120, 180)" stroke-width="1.00" stroke-linecap="butt" stroke-linejoin="miter">
</g>
<g fill="none" color="black" stroke="currentColor" stroke-width="1.00" stroke-linecap="butt" stroke-linejoin="miter">
	<g transform="translate(1089.0,85.0)" stroke="none" fill="black" font-family="Helvetica" font-size="12.00"  text-anchor="start">
		<text><tspan font-family="Helvetica" >Confidence interval</tspan></text>
	</g>
</g>
<g fill="none" color="black" stroke="currentColor" stroke-width="1.00" stroke-linecap="butt" stroke-linejoin="miter">
	<g stroke='none' shape-rendering='crispEdges'>
		<polygon fill = 'rgb( 31, 120, 180)' fill-opacity = '0.250000' points = '1038.5,85.6 1080.7,85.6 1080.7,76.6 1038.5,76.6 '/>
		<polygon fill = 'rgb( 31, 120, 180)' fill-opacity = '0.250000' points = '181.3,602.3 183.2,601.4 185.0,600.5 186.8,599.6 188.7,598.6 190.5,597.7 192.3,596.7 194.2,595.8 196.0,594.8 197.9,593.8 199.7,592.8 201.5,591.8 203.4,590.8 205.2,589.8 207.0,588.7 208.9,587.7
210.7,586.6 212.5,585.6 214.4,584.5 216.2,583.4 218.1,582.3 219.9,581.2 221.7,580.1 223.6,579.0 225.4,577.9 227.2,576.8 229.1,575.6 230.9,574.5 232.8,573.3 234.6,572.1 236.4,571.0 238.3,569.8
240.1,568.6 241.9,567.4 243.8,566.2 245.6,564.9 247.5,563.7 249.3,562.4 251.1,561.2 253.0,559.9 254.8,558.6 256.6,557.2 258.5,555.9 260.3,554.5 262.2,553.1 264.0,551.6 265.8,550.2 267.7,548.7
269.5,547.2 271.3,545.6 273.2,544.0 275.0,542.4 276.9,540.7 278.7,539.0 280.5,537.3 282.4,535.6 284.2,533.8 286.0,532.0 287.9,530.2 289.7,528.3 291.6,526.5 293.4,524.6 295.2,522.7 297.1,520.8
298.9,518.8 300.7,516.9 302.6,515.0 304.4,513.0 306.2,511.1 308.1,509.1 309.9,507.2 311.8,505.2 313.6,503.3 315.4,501.3 317.3,499.4 319.1,497.5 320.9,495.5 322.8,493.6 324.6,491.7 326.5,489.8
328.3,487.9 330.1,486.0 332.0,484.1 333.8,482.2 335.6,480.3 337.5,478.4 339.3,476.5 341.2,474.5 343.0,472.6 344.8,470.6 346.7,468.6 348.5,466.6 350.3,464.5 352.2,462.4 354.0,460.3 355.9,458.1
357.7,455.9 359.5,453.6 361.4,451.3 363.2,448.9 365.0,446.5 366.9,444.0 368.7,441.5 370.6,439.0 372.4,436.4 374.2,433.8 376.1,431.2 377.9,428.6 379.7,426.0 381.6,423.3 383.4,420.7 385.3,418.2
387.1,415.6 388.9,413.1 390.8,410.6 392.6,408.1 394.4,405.6 396.3,403.2 398.1,400.8 400.0,398.5 401.8,396.2 403.6,393.8 405.5,391.5 407.3,389.2 409.1,386.9 411.0,384.7 412.8,382.4 414.6,380.1
416.5,377.7 418.3,375.4 420.2,373.1 422.0,370.7 423.8,368.4 425.7,366.0 427.5,363.6 429.3,361.2 431.2,358.8 433.0,356.3 434.9,353.9 436.7,351.4 438.5,348.9 440.4,346.4 442.2,343.9 444.0,341.4
445.9,338.8 447.7,336.2 449.6,333.6 451.4,331.0 453.2,328.3 455.1,325.6 456.9,322.9 458.7,320.2 460.6,317.4 462.4,314.6 464.3,311.7 466.1,308.9 467.9,306.0 469.8,303.0 471.6,300.1 473.4,297.1
475.3,294.0 477.1,291.0 479.0,287.9 480.8,284.8 482.6,281.7 484.5,278.6 486.3,275.5 488.1,272.3 490.0,269.2 491.8,266.1 493.7,262.9 495.5,259.8 497.3,256.7 499.2,253.7 501.0,250.6 502.8,247.6
504.7,244.6 506.5,241.6 508.3,238.7 510.2,235.7 512.0,232.8 513.9,229.9 515.7,227.1 517.5,224.2 519.4,221.4 521.2,218.6 523.0,215.8 524.9,213.0 526.7,210.2 528.6,207.5 530.4,204.8 532.2,202.2
534.1,199.6 535.9,197.0 537.7,194.5 539.6,192.1 541.4,189.7 543.3,187.4 545.1,185.2 546.9,183.0 548.8,180.9 550.6,178.8 552.4,176.9 554.3,174.9 556.1,173.0 558.0,171.2 559.8,169.4 561.6,167.6
563.5,165.9 565.3,164.1 567.1,162.3 569.0,160.6 570.8,158.8 572.7,157.0 574.5,155.2 576.3,153.4 578.2,151.5 580.0,149.7 581.8,147.8 583.7,146.0 585.5,144.2 587.4,142.4 589.2,140.7 591.0,139.0
592.9,137.4 594.7,135.8 596.5,134.3 598.4,132.9 600.2,131.6 602.1,130.3 603.9,129.2 605.7,128.1 607.6,127.2 609.4,126.3 611.2,125.5 613.1,124.7 614.9,124.1 616.7,123.5 618.6,123.0 620.4,122.6
622.3,122.2 624.1,121.9 625.9,121.6 627.8,121.4 629.6,121.3 631.4,121.2 633.3,121.2 635.1,121.2 637.0,121.3 638.8,121.4 640.6,121.6 642.5,121.8 644.3,122.0 646.1,122.3 648.0,122.6 649.8,122.9
651.7,123.2 653.5,123.6 655.3,123.9 657.2,124.3 659.0,124.7 660.8,125.2 662.7,125.6 664.5,126.1 666.4,126.5 668.2,127.1 670.0,127.6 671.9,128.2 673.7,128.9 675.5,129.6 677.4,130.3 679.2,131.1
681.1,132.0 682.9,133.0 684.7,134.0 686.6,135.1 688.4,136.3 690.2,137.6 692.1,138.9 693.9,140.2 695.8,141.7 697.6,143.2 699.4,144.7 701.3,146.4 703.1,148.0 704.9,149.7 706.8,151.5 708.6,153.3
710.4,155.2 712.3,157.1 714.1,159.1 716.0,161.1 717.8,163.2 719.6,165.4 721.5,167.6 723.3,169.9 725.1,172.3 727.0,174.7 728.8,177.2 730.7,179.8 732.5,182.4 734.3,185.1 736.2,187.9 738.0,190.6
739.8,193.4 741.7,196.3 743.5,199.1 745.4,202.0 747.2,204.9 749.0,207.8 750.9,210.7 752.7,213.6 754.5,216.5 756.4,219.4 758.2,222.3 760.1,225.2 761.9,228.2 763.7,231.1 765.6,234.1 767.4,237.0
769.2,240.0 771.1,243.1 772.9,246.1 774.8,249.2 776.6,252.4 778.4,255.5 780.3,258.8 782.1,262.0 783.9,265.3 785.8,268.6 787.6,272.0 789.5,275.4 791.3,278.8 793.1,282.2 795.0,285.6 796.8,289.1
798.6,292.6 800.5,296.1 802.3,299.6 804.2,303.1 806.0,306.6 807.8,310.1 809.7,313.7 811.5,317.3 813.3,320.9 815.2,324.5 817.0,328.2 818.8,331.9 820.7,335.6 822.5,339.3 824.4,343.1 826.2,347.0
828.0,350.8 829.9,354.8 831.7,358.8 833.5,362.8 835.4,366.9 837.2,371.0 839.1,375.1 840.9,379.3 842.7,383.6 844.6,387.8 846.4,392.1 848.2,396.4 850.1,400.7 851.9,405.1 853.8,409.4 855.6,413.6
857.4,417.9 859.3,422.1 861.1,426.3 862.9,430.5 864.8,434.5 866.6,438.6 868.5,442.6 870.3,446.5 872.1,450.4 874.0,454.2 875.8,458.0 877.6,461.7 879.5,465.4 881.3,469.0 883.2,472.6 885.0,476.2
886.8,479.7 888.7,483.2 890.5,486.7 892.3,490.1 894.2,493.6 896.0,497.0 897.9,500.4 899.7,503.7 901.5,507.0 903.4,510.3 905.2,513.6 907.0,516.9 908.9,520.1 910.7,523.2 912.5,526.3 914.4,529.4
916.2,532.4 918.1,535.4 919.9,538.3 921.7,541.2 923.6,544.0 925.4,546.8 927.2,549.5 927.2,662.4 925.4,662.4 923.6,662.4 921.7,662.4 919.9,662.4 918.1,662.4 916.2,662.4 914.4,662.4 912.5,662.4
910.7,662.4 908.9,662.4 907.0,662.4 905.2,662.4 903.4,662.4 901.5,662.4 899.7,662.4 897.9,662.4 896.0,662.4 894.2,662.4 892.3,662.4 890.5,662.4 888.7,662.4 886.8,662.4 885.0,662.4 883.2,662.4
881.3,662.4 879.5,662.4 877.6,662.4 875.8,662.4 874.0,662.4 872.1,662.4 870.3,662.4 868.5,662.4 866.6,662.4 864.8,662.4 862.9,662.4 861.1,662.4 859.3,662.4 857.4,662.4 855.6,662.4 853.8,662.4
851.9,662.4 850.1,662.4 848.2,662.4 846.4,662.4 844.6,662.4 842.7,662.4 840.9,662.4 839.1,662.4 837.2,662.4 835.4,662.4 833.5,662.4 831.7,662.4 829.9,662.4 828.0,662.4 826.2,662.4 824.4,662.4
822.5,662.4 820.7,662.4 818.8,662.4 817.0,662.4 815.2,662.4 813.3,662.4 811.5,662.4 809.7,662.4 807.8,662.4 806.0,662.4 804.2,662.4 802.3,662.4 800.5,662.4 798.6,662.4 796.8,662.4 795.0,662.4
793.1,662.4 791.3,662.4 789.5,662.4 787.6,662.4 785.8,662.4 783.9,662.4 782.1,662.4 780.3,662.4 778.4,662.4 776.6,662.4 774.8,662.4 772.9,662.4 771.1,662.4 769.2,662.4 767.4,662.4 765.6,662.4
763.7,662.4 761.9,662.4 760.1,662.4 758.2,662.4 756.4,662.4 754.5,662.4 752.7,662.4 750.9,662.4 749.0,662.4 747.2,662.4 745.4,662.4 743.5,662.4 741.7,662.4 739.8,662.4 738.0,662.4 736.2,662.4
734.3,662.4 732.5,662.4 730.7,662.4 728.8,662.4 727.0,662.4 725.1,662.4 723.3,662.4 721.5,662.4 719.6,662.4 717.8,662.4 716.0,662.4 714.1,662.4 712.3,662.4 710.4,662.4 708.6,662.4 706.8,662.4
704.9,662.4 703.1,662.4 701.3,662.4 699.4,662.4 697.6,662.4 695.8,662.4 693.9,662.4 692.1,662.4 690.2,662.4 688.4,662.4 686.6,662.4 684.7,662.4 682.9,662.4 681.1,662.4 679.2,662.4 677.4,662.4
675.5,662.4 673.7,662.4 671.9,662.4 670.0,662.4 668.2,662.4 666.4,662.4 664.5,662.4 662.7,662.4 660.8,662.4 659.0,662.4 657.2,662.4 655.3,662.4 653.5,662.4 651.7,662.4 649.8,662.4 648.0,662.4
646.1,662.4 644.3,662.4 642.5,662.4 640.6,662.4 638.8,662.4 637.0,662.4 635.1,662.4 633.3,662.4 631.4,662.4 629.6,662.4 627.8,662.4 625.9,662.4 624.1,662.4 622.3,662.4 620.4,662.4 618.6,662.4
616.7,662.4 614.9,662.4 613.1,662.4 611.2,662.4 609.4,662.4 607.6,662.4 605.7,662.4 603.9,662.4 602.1,662.4 600.2,662.4 598.4,662.4 596.5,662.4 594.7,662.4 592.9,662.4 591.0,662.4 589.2,662.4
587.4,662.4 585.5,662.4 583.7,662.4 581.8,662.4 580.0,662.4 578.2,662.4 576.3,662.4 574.5,662.4 572.7,662.4 570.8,662.4 569.0,662.4 567.1,662.4 565.3,662.4 563.5,662.4 561.6,662.4 559.8,662.4
558.0,662.4 556.1,662.4 554.3,662.4 552.4,662.4 550.6,662.4 548.8,662.4 546.9,662.4 545.1,662.4 543.3,662.4 541.4,662.4 539.6,662.4 537.7,662.4 535.9,662.4 534.1,662.4 532.2,662.4 530.4,662.4
528.6,662.4 526.7,662.4 524.9,662.4 523.0,662.4 521.2,662.4 519.4,662.4 517.5,662.4 515.7,662.4 513.9,662.4 512.0,662.4 510.2,662.4 508.3,662.4 506.5,662.4 504.7,662.4 502.8,662.4 501.0,662.4
499.2,662.4 497.3,662.4 495.5,662.4 493.7,662.4 491.8,662.4 490.0,662.4 488.1,662.4 486.3,662.4 484.5,662.4 482.6,662.4 480.8,662.4 479.0,662.4 477.1,662.4 475.3,662.4 473.4,662.4 471.6,662.4
469.8,662.4 467.9,662.4 466.1,662.4 464.3,662.4 462.4,662.4 460.6,662.4 458.7,662.4 456.9,662.4 455.1,662.4 453.2,662.4 451.4,662.4 449.6,662.4 447.7,662.4 445.9,662.4 444.0,662.4 442.2,662.4
440.4,662.4 438.5,662.4 436.7,662.4 434.9,662.4 433.0,662.4 431.2,662.4 429.3,662.4 427.5,662.4 425.7,662.4 423.8,662.4 422.0,662.4 420.2,662.4 418.3,662.4 416.5,662.4 414.6,662.4 412.8,662.4
411.0,662.4 409.1,662.4 407.3,662.4 405.5,662.4 403.6,662.4 401.8,662.4 400.0,662.4 398.1,662.4 396.3,662.4 394.4,662.4 392.6,662.4 390.8,662.4 388.9,662.4 387.1,662.4 385.3,662.4 383.4,662.4
381.6,662.4 379.7,662.4 377.9,662.4 376.1,662.4 374.2,662.4 372.4,662.4 370.6,662.4 368.7,662.4 366.9,662.4 365.0,662.4 363.2,662.4 361.4,662.4 359.5,662.4 357.7,662.4 355.9,662.4 354.0,662.4
352.2,662.4 350.3,662.4 348.5,662.4 346.7,662.4 344.8,662.4 343.0,662.4 341.2,662.4 339.3,662.4 337.5,662.4 335.6,662.4 333.8,662.4 332.0,662.4 330.1,662.4 328.3,662.4 326.5,662.4 324.6,662.4
322.8,662.4 320.9,662.4 319.1,662.4 317.3,662.4 315.4,662.4 313.6,662.4 311.8,662.4 309.9,662.4 308.1,662.4 306.2,662.4 304.4,662.4 302.6,662.4 300.7,662.4 298.9,662.4 297.1,662.4 295.2,662.4
293.4,662.4 291.6,662.4 289.7,662.4 287.9,662.4 286.0,662.4 284.2,662.4 282.4,662.4 280.5,662.4 278.7,662.4 276.9,662.4 275.0,662.4 273.2,662.4 271.3,662.4 269.5,662.4 267.7,662.4 265.8,662.4
264.0,662.4 262.2,662.4 260.3,662.4 258.5,662.4 256.6,662.4 254.8,662.4 253.0,662.4 251.1,662.4 249.3,662.4 247.5,662.4 245.6,662.4 243.8,662.4 241.9,662.4 240.1,662.4 238.3,662.4 236.4,662.4
234.6,662.4 232.8,662.4 230.9,662.4 229.1,662.4 227.2,662.4 225.4,662.4 223.6,662.4 221.7,662.4 219.9,662.4 218.1,662.4 216.2,662.4 214.4,662.4 212.5,662.4 210.7,662.4 208.9,662.4 207.0,662.4
205.2,662.4 203.4,662.4 201.5,662.4 199.7,662.4 197.9,662.4 196.0,662.4 194.2,662.4 192.3,662.4 190.5,662.4 188.7,662.4 186.8,662.4 185.0,662.4 183.2,662.4 181.3,662.4 '/>
	</g>
</g>
	</g>
	<g id="gnuplot_plot_3" ><title>Point estimate</title>
<g fill="none" color="white" stroke="rgb( 31, 120, 180)" stroke-width="2.00" stroke-linecap="butt" stroke-linejoin="miter">
</g>
<g fill="none" color="black" stroke="currentColor" stroke-width="2.00" stroke-linecap="butt" stroke-linejoin="miter">
	<g transform="translate(1089.0,103.0)" stroke="none" fill="black" font-family="Helvetica" font-size="12.00"  text-anchor="start">
		<text><tspan font-family="Helvetica" >Point estimate</tspan></text>
	</g>
</g>
<g fill="none" color="black" stroke="currentColor" stroke-width="2.00" stroke-linecap="butt" stroke-linejoin="miter">
	<path stroke='rgb( 31, 120, 180)'  d='M1038.5,99.1 L1080.7,99.1 M612.3,662.4 L612.3,125.0  '/></g>
	</g>
<g fill="none" color="black" stroke="currentColor" stroke-width="2.00" stroke-linecap="butt" stroke-linejoin="miter">
</g>
<g fill="none" color="black" stroke="black" stroke-width="1.00" stroke-linecap="butt" stroke-linejoin="miter">
</g>
<g fill="none" color="black" stroke="currentColor" stroke-width="1.00" stroke-linecap="butt" stroke-linejoin="miter">
	<path stroke='black'  d='M96.8,54.1 L96.8,662.4 L1013.6,662.4 L1013.6,54.1 L96.8,54.1 Z  '/></g>
<g fill="none" color="black" stroke="currentColor" stroke-width="1.00" stroke-linecap="butt" stroke-linejoin="miter">
</g>
</g>
</svg>

