<?xml version="1.0" encoding="utf-8"  standalone="no"?>
<svg 
 viewBox="0 0 1280 720"
 xmlns="http://www.w3.org/2000/svg"
 xmlns:xlink="http://www.w3.org/1999/xlink"
>

<title>Gnuplot</title>
<desc>Produced by GNUPLOT 5.2 patchlevel 2 </desc>

<g id="gnuplot_canvas">

<rect x="0" y="0" width="1280" height="720" fill="none"/>
<defs>

	<circle id='gpDot' r='0.5' stroke-width='0.5'/>
	<path id='gpPt0' stroke-width='0.222' stroke='currentColor' d='M-1,0 h2 M0,-1 v2'/>
	<path id='gpPt1' stroke-width='0.222' stroke='currentColor' d='M-1,-1 L1,1 M1,-1 L-1,1'/>
	<path id='gpPt2' stroke-width='0.222' stroke='currentColor' d='M-1,0 L1,0 M0,-1 L0,1 M-1,-1 L1,1 M-1,1 L1,-1'/>
	<rect id='gpPt3' stroke-width='0.222' stroke='currentColor' x='-1' y='-1' width='2' height='2'/>
	<rect id='gpPt4' stroke-width='0.222' stroke='currentColor' fill='currentColor' x='-1' y='-1' width='2' height='2'/>
	<circle id='gpPt5' stroke-width='0.222' stroke='currentColor' cx='0' cy='0' r='1'/>
	<use xlink:href='#gpPt5' id='gpPt6' fill='currentColor' stroke='none'/>
	<path id='gpPt7' stroke-width='0.222' stroke='currentColor' d='M0,-1.33 L-1.33,0.67 L1.33,0.67 z'/>
	<use xlink:href='#gpPt7' id='gpPt8' fill='currentColor' stroke='none'/>
	<use xlink:href='#gpPt7' id='gpPt9' stroke='currentColor' transform='rotate(180)'/>
	<use xlink:href='#gpPt9' id='gpPt10' fill='currentColor' stroke='none'/>
	<use xlink:href='#gpPt3' id='gpPt11' stroke='currentColor' transform='rotate(45)'/>
	<use xlink:href='#gpPt11' id='gpPt12' fill='currentColor' stroke='none'/>
	<path id='gpPt13' stroke-width='0.222' stroke='currentColor' d='M0,1.330 L1.265,0.411 L0.782,-1.067 L-0.782,-1.076 L-1.265,0.411 z'/>
	<use xlink:href='#gpPt13' id='gpPt14' fill='currentColor' stroke='none'/>
	<filter id='textbox' filterUnits='objectBoundingBox' x='0' y='0' height='1' width='1'>
	  <feFlood flood-color='white' flood-opacity='1' result='bgnd'/>
	  <feComposite in='SourceGraphic' in2='bgnd' operator='atop'/>
	</filter>
	<filter id='greybox' filterUnits='objectBoundingBox' x='0' y='0' height='1' width='1'>
	  <feFlood flood-color='lightgrey' flood-opacity='1' result='grey'/>
	  <feComposite in='SourceGraphic' in2='grey' operator='atop'/>
	</filter>
</defs>
<g fill="none" color="white" stroke="currentColor" stroke-width="1.00" stroke-linecap="butt" stroke-linejoin="miter">
</g>
<g fill="none" color="black" stroke="currentColor" stroke-width="1.00" stroke-linecap="butt" stroke-linejoin="miter">
	<path stroke='black'  d='M105.1,662.4 L114.1,662.4  '/>	<g transform="translate(96.8,666.3)" stroke="none" fill="black" font-family="Helvetica" font-size="12.00"  text-anchor="end">
		<text><tspan font-family="Helvetica" > 0</tspan></text>
	</g>
</g>
<g fill="none" color="black" stroke="currentColor" stroke-width="1.00" stroke-linecap="butt" stroke-linejoin="miter">
	<path stroke='black'  d='M105.1,586.4 L114.1,586.4  '/>	<g transform="translate(96.8,590.3)" stroke="none" fill="black" font-family="Helvetica" font-size="12.00"  text-anchor="end">
		<text><tspan font-family="Helvetica" > 5x10</tspan><tspan font-family="Helvetica"  font-size="9.6" dy="-6.00px">-7</tspan><tspan font-size="12.0" dy="6.00"></tspan></text>
	</g>
</g>
<g fill="none" color="black" stroke="currentColor" stroke-width="1.00" stroke-linecap="butt" stroke-linejoin="miter">
	<path stroke='black'  d='M105.1,510.3 L114.1,510.3  '/>	<g transform="translate(96.8,514.2)" stroke="none" fill="black" font-family="Helvetica" font-size="12.00"  text-anchor="end">
		<text><tspan font-family="Helvetica" > 1x10</tspan><tspan font-family="Helvetica"  font-size="9.6" dy="-6.00px">-6</tspan><tspan font-size="12.0" dy="6.00"></tspan></text>
	</g>
</g>
<g fill="none" color="black" stroke="currentColor" stroke-width="1.00" stroke-linecap="butt" stroke-linejoin="miter">
	<path stroke='black'  d='M105.1,434.3 L114.1,434.3  '/>	<g transform="translate(96.8,438.2)" stroke="none" fill="black" font-family="Helvetica" font-size="12.00"  text-anchor="end">
		<text><tspan font-family="Helvetica" > 1.5x10</tspan><tspan font-family="Helvetica"  font-size="9.6" dy="-6.00px">-6</tspan><tspan font-size="12.0" dy="6.00"></tspan></text>
	</g>
</g>
<g fill="none" color="black" stroke="currentColor" stroke-width="1.00" stroke-linecap="butt" stroke-linejoin="miter">
	<path stroke='black'  d='M105.1,358.2 L114.1,358.2  '/>	<g transform="translate(96.8,362.1)" stroke="none" fill="black" font-family="Helvetica" font-size="12.00"  text-anchor="end">
		<text><tspan font-family="Helvetica" > 2x10</tspan><tspan font-family="Helvetica"  font-size="9.6" dy="-6.00px">-6</tspan><tspan font-size="12.0" dy="6.00"></tspan></text>
	</g>
</g>
<g fill="none" color="black" stroke="currentColor" stroke-width="1.00" stroke-linecap="butt" stroke-linejoin="miter">
	<path stroke='black'  d='M105.1,282.2 L114.1,282.2  '/>	<g transform="translate(96.8,286.1)" stroke="none" fill="black" font-family="Helvetica" font-size="12.00"  text-anchor="end">
		<text><tspan font-family="Helvetica" > 2.5x10</tspan><tspan font-family="Helvetica"  font-size="9.6" dy="-6.00px">-6</tspan><tspan font-size="12.0" dy="6.00"></tspan></text>
	</g>
</g>
<g fill="none" color="black" stroke="currentColor" stroke-width="1.00" stroke-linecap="butt" stroke-linejoin="miter">
	<path stroke='black'  d='M105.1,206.2 L114.1,206.2  '/>	<g transform="translate(96.8,210.1)" stroke="none" fill="black" font-family="Helvetica" font-size="12.00"  text-anchor="end">
		<text><tspan font-family="Helvetica" > 3x10</tspan><tspan font-family="Helvetica"  font-size="9.6" dy="-6.00px">-6</tspan><tspan font-size="12.0" dy="6.00"></tspan></text>
	</g>
</g>
<g fill="none" color="black" stroke="currentColor" stroke-width="1.00" stroke-linecap="butt" stroke-linejoin="miter">
	<path stroke='black'  d='M105.1,130.1 L114.1,130.1  '/>	<g transform="translate(96.8,134.0)" stroke="none" fill="black" font-family="Helvetica" font-size="12.00"  text-anchor="end">
		<text><tspan font-family="Helvetica" > 3.5x10</tspan><tspan font-family="Helvetica"  font-size="9.6" dy="-6.00px">-6</tspan><tspan font-size="12.0" dy="6.00"></tspan></text>
	</g>
</g>
<g fill="none" color="black" stroke="currentColor" stroke-width="1.00" stroke-linecap="butt" stroke-linejoin="miter">
	<path stroke='black'  d='M105.1,54.1 L114.1,54.1  '/>	<g transform="translate(96.8,58.0)" stroke="none" fill="black" font-family="Helvetica" font-size="12.00"  text-anchor="end">
		<text><tspan font-family="Helvetica" > 4x10</tspan><tspan font-family="Helvetica"  font-size="9.6" dy="-6.00px">-6</tspan><tspan font-size="12.0" dy="6.00"></tspan></text>
	</g>
</g>
<g fill="none" color="black" stroke="currentColor" stroke-width="1.00" stroke-linecap="butt" stroke-linejoin="miter">
	<path stroke='black'  d='M221.0,662.4 L221.0,653.4  '/>	<g transform="translate(221.0,684.3)" stroke="none" fill="black" font-family="Helvetica" font-size="12.00"  text-anchor="middle">
		<text><tspan font-family="Helvetica" > 2.24x10</tspan><tspan font-family="Helvetica"  font-size="9.6" dy="-6.00px">7</tspan><tspan font-size="12.0" dy="6.00"></tspan></text>
	</g>
</g>
<g fill="none" color="black" stroke="currentColor" stroke-width="1.00" stroke-linecap="butt" stroke-linejoin="miter">
	<path stroke='black'  d='M358.5,662.4 L358.5,653.4  '/>	<g transform="translate(358.5,684.3)" stroke="none" fill="black" font-family="Helvetica" font-size="12.00"  text-anchor="middle">
		<text><tspan font-family="Helvetica" > 2.26x10</tspan><tspan font-family="Helvetica"  font-size="9.6" dy="-6.00px">7</tspan><tspan font-size="12.0" dy="6.00"></tspan></text>
	</g>
</g>
<g fill="none" color="black" stroke="currentColor" stroke-width="1.00" stroke-linecap="butt" stroke-linejoin="miter">
	<path stroke='black'  d='M496.1,662.4 L496.1,653.4  '/>	<g transform="translate(496.1,684.3)" stroke="none" fill="black" font-family="Helvetica" font-size="12.00"  text-anchor="middle">
		<text><tspan font-family="Helvetica" > 2.28x10</tspan><tspan font-family="Helvetica"  font-size="9.6" dy="-6.00px">7</tspan><tspan font-size="12.0" dy="6.00"></tspan></text>
	</g>
</g>
<g fill="none" color="black" stroke="currentColor" stroke-width="1.00" stroke-linecap="butt" stroke-linejoin="miter">
	<path stroke='black'  d='M633.7,662.4 L633.7,653.4  '/>	<g transform="translate(633.7,684.3)" stroke="none" fill="black" font-family="Helvetica" font-size="12.00"  text-anchor="middle">
		<text><tspan font-family="Helvetica" > 2.3x10</tspan><tspan font-family="Helvetica"  font-size="9.6" dy="-6.00px">7</tspan><tspan font-size="12.0" dy="6.00"></tspan></text>
	</g>
</g>
<g fill="none" color="black" stroke="currentColor" stroke-width="1.00" stroke-linecap="butt" stroke-linejoin="miter">
	<path stroke='black'  d='M771.3,662.4 L771.3,653.4  '/>	<g transform="translate(771.3,684.3)" stroke="none" fill="black" font-family="Helvetica" font-size="12.00"  text-anchor="middle">
		<text><tspan font-family="Helvetica" > 2.32x10</tspan><tspan font-family="Helvetica"  font-size="9.6" dy="-6.00px">7</tspan><tspan font-size="12.0" dy="6.00"></tspan></text>
	</g>
</g>
<g fill="none" color="black" stroke="currentColor" stroke-width="1.00" stroke-linecap="butt" stroke-linejoin="miter">
	<path stroke='black'  d='M908.8,662.4 L908.8,653.4  '/>	<g transform="translate(908.8,684.3)" stroke="none" fill="black" font-family="Helvetica" font-size="12.00"  text-anchor="middle">
		<text><tspan font-family="Helvetica" > 2.34x10</tspan><tspan font-family="Helvetica"  font-size="9.6" dy="-6.00px">7</tspan><tspan font-size="12.0" dy="6.00"></tspan></text>
	</g>
</g>
<g fill="none" color="black" stroke="currentColor" stroke-width="1.00" stroke-linecap="butt" stroke-linejoin="miter">
</g>
<g fill="none" color="black" stroke="currentColor" stroke-width="1.00" stroke-linecap="butt" stroke-linejoin="miter">
	<path stroke='black'  d='M105.1,54.1 L105.1,662.4 L1013.6,662.4 L1013.6,54.1 L105.1,54.1 Z  '/></g>
<g fill="none" color="black" stroke="currentColor" stroke-width="1.00" stroke-linecap="butt" stroke-linejoin="miter">
	<g transform="translate(16.3,358.3) rotate(270)" stroke="none" fill="black" font-family="Helvetica" font-size="12.00"  text-anchor="middle">
		<text><tspan font-family="Helvetica" >Density (a.u.)</tspan></text>
	</g>
</g>
<g fill="none" color="black" stroke="currentColor" stroke-width="1.00" stroke-linecap="butt" stroke-linejoin="miter">
	<g transform="translate(559.3,711.3)" stroke="none" fill="black" font-family="Helvetica" font-size="12.00"  text-anchor="middle">
		<text><tspan font-family="Helvetica" >Average time (cycles)</tspan></text>
	</g>
</g>
<g fill="none" color="black" stroke="currentColor" stroke-width="1.00" stroke-linecap="butt" stroke-linejoin="miter">
	<g transform="translate(559.3,31.0)" stroke="none" fill="black" font-family="Helvetica" font-size="12.00"  text-anchor="middle">
		<text><tspan font-family="Helvetica" >non_nested_compare/incremental calc/17: median</tspan></text>
	</g>
</g>
	<g id="gnuplot_plot_1" ><title>Bootstrap distribution</title>
<g fill="none" color="white" stroke="black" stroke-width="2.00" stroke-linecap="butt" stroke-linejoin="miter">
</g>
<g fill="none" color="black" stroke="currentColor" stroke-width="2.00" stroke-linecap="butt" stroke-linejoin="miter">
	<g transform="translate(1089.0,67.0)" stroke="none" fill="black" font-family="Helvetica" font-size="12.00"  text-anchor="start">
		<text><tspan font-family="Helvetica" >Bootstrap distribution</tspan></text>
	</g>
</g>
<g fill="none" color="black" stroke="currentColor" stroke-width="2.00" stroke-linecap="butt" stroke-linejoin="miter">
	<path stroke='rgb( 31, 120, 180)'  d='M1038.5,63.1 L1080.7,63.1 M105.1,652.7 L106.9,652.4 L108.7,652.1 L110.6,651.7 L112.4,651.3 L114.2,650.9
		L116.0,650.4 L117.8,650.0 L119.7,649.5 L121.5,649.0 L123.3,648.5 L125.1,647.9 L126.9,647.4 L128.8,646.8
		L130.6,646.3 L132.4,645.7 L134.2,645.1 L136.1,644.5 L137.9,643.9 L139.7,643.2 L141.5,642.5 L143.3,641.8
		L145.2,641.1 L147.0,640.3 L148.8,639.6 L150.6,638.8 L152.4,638.1 L154.3,637.4 L156.1,636.7 L157.9,636.1
		L159.7,635.5 L161.5,635.0 L163.4,634.6 L165.2,634.2 L167.0,634.0 L168.8,633.8 L170.6,633.8 L172.5,633.9
		L174.3,634.1 L176.1,634.5 L177.9,635.0 L179.7,635.6 L181.6,636.4 L183.4,637.3 L185.2,638.4 L187.0,639.6
		L188.8,640.9 L190.7,642.3 L192.5,643.8 L194.3,645.3 L196.1,646.8 L198.0,648.4 L199.8,649.9 L201.6,651.4
		L203.4,652.8 L205.2,654.1 L207.1,655.3 L208.9,656.4 L210.7,657.4 L212.5,658.3 L214.3,659.0 L216.2,659.6
		L218.0,660.1 L219.8,660.6 L221.6,660.9 L223.4,661.1 L225.3,661.3 L227.1,661.5 L228.9,661.6 L230.7,661.6
		L232.5,661.6 L234.4,661.6 L236.2,661.6 L238.0,661.5 L239.8,661.5 L241.6,661.4 L243.5,661.3 L245.3,661.2
		L247.1,661.0 L248.9,660.9 L250.8,660.7 L252.6,660.4 L254.4,660.2 L256.2,659.9 L258.0,659.5 L259.9,659.1
		L261.7,658.6 L263.5,658.1 L265.3,657.5 L267.1,656.8 L269.0,656.0 L270.8,655.2 L272.6,654.2 L274.4,653.2
		L276.2,652.1 L278.1,650.9 L279.9,649.6 L281.7,648.3 L283.5,646.9 L285.3,645.6 L287.2,644.2 L289.0,642.9
		L290.8,641.7 L292.6,640.6 L294.4,639.6 L296.3,638.7 L298.1,638.1 L299.9,637.6 L301.7,637.4 L303.5,637.3
		L305.4,637.5 L307.2,637.9 L309.0,638.4 L310.8,639.2 L312.7,640.1 L314.5,641.1 L316.3,642.2 L318.1,643.4
		L319.9,644.7 L321.8,646.0 L323.6,647.3 L325.4,648.6 L327.2,649.9 L329.0,651.1 L330.9,652.2 L332.7,653.3
		L334.5,654.3 L336.3,655.2 L338.1,655.9 L340.0,656.6 L341.8,657.2 L343.6,657.6 L345.4,658.0 L347.2,658.2
		L349.1,658.4 L350.9,658.4 L352.7,658.4 L354.5,658.3 L356.3,658.1 L358.2,657.9 L360.0,657.6 L361.8,657.3
		L363.6,657.0 L365.5,656.7 L367.3,656.5 L369.1,656.2 L370.9,655.9 L372.7,655.7 L374.6,655.5 L376.4,655.4
		L378.2,655.2 L380.0,655.1 L381.8,655.0 L383.7,654.8 L385.5,654.6 L387.3,654.3 L389.1,653.9 L390.9,653.4
		L392.8,652.8 L394.6,652.1 L396.4,651.2 L398.2,650.1 L400.0,648.9 L401.9,647.5 L403.7,646.0 L405.5,644.4
		L407.3,642.6 L409.1,640.8 L411.0,638.9 L412.8,637.0 L414.6,635.1 L416.4,633.2 L418.3,631.3 L420.1,629.5
		L421.9,627.8 L423.7,626.2 L425.5,624.7 L427.4,623.2 L429.2,621.9 L431.0,620.8 L432.8,619.7 L434.6,618.9
		L436.5,618.1 L438.3,617.6 L440.1,617.2 L441.9,617.1 L443.7,617.1 L445.6,617.4 L447.4,617.9 L449.2,618.6
		L451.0,619.5 L452.8,620.7 L454.7,622.0 L456.5,623.5 L458.3,625.2 L460.1,626.9 L461.9,628.7 L463.8,630.5
		L465.6,632.2 L467.4,633.7 L469.2,635.0 L471.0,636.1 L472.9,636.8 L474.7,637.2 L476.5,637.2 L478.3,636.7
		L480.2,635.9 L482.0,634.6 L483.8,632.9 L485.6,630.9 L487.4,628.5 L489.3,625.8 L491.1,622.9 L492.9,619.9
		L494.7,616.8 L496.5,613.7 L498.4,610.8 L500.2,608.0 L502.0,605.6 L503.8,603.5 L505.6,602.0 L507.5,600.9
		L509.3,600.4 L511.1,600.6 L512.9,601.3 L514.7,602.6 L516.6,604.5 L518.4,606.9 L520.2,609.6 L522.0,612.5
		L523.8,615.6 L525.7,618.6 L527.5,621.3 L529.3,623.7 L531.1,625.4 L533.0,626.3 L534.8,626.2 L536.6,624.9
		L538.4,622.2 L540.2,617.8 L542.1,611.7 L543.9,603.7 L545.7,593.5 L547.5,581.0 L549.3,566.3 L551.2,549.2
		L553.0,529.8 L554.8,508.1 L556.6,484.3 L558.4,458.5 L560.3,431.2 L562.1,402.5 L563.9,373.0 L565.7,343.0
		L567.5,313.1 L569.4,283.6 L571.2,255.1 L573.0,227.9 L574.8,202.6 L576.6,179.5 L578.5,158.8 L580.3,140.7
		L582.1,125.4 L583.9,113.0 L585.7,103.3 L587.6,96.4 L589.4,92.2 L591.2,90.5 L593.0,91.1 L594.9,93.8
		L596.7,98.5 L598.5,104.9 L600.3,112.8 L602.1,122.1 L604.0,132.6 L605.8,144.0 L607.6,156.0 L609.4,168.6
		L611.2,181.4 L613.1,194.3 L614.9,206.9 L616.7,219.0 L618.5,230.5 L620.3,241.1 L622.2,250.6 L624.0,258.9
		L625.8,265.7 L627.6,271.1 L629.4,274.9 L631.3,276.9 L633.1,277.2 L634.9,275.7 L636.7,272.4 L638.5,267.2
		L640.4,260.2 L642.2,251.4 L644.0,240.9 L645.8,228.9 L647.7,215.6 L649.5,201.4 L651.3,186.6 L653.1,171.6
		L654.9,157.2 L656.8,143.8 L658.6,132.1 L660.4,122.9 L662.2,116.7 L664.0,114.2 L665.9,115.7 L667.7,121.6
		L669.5,132.1 L671.3,147.1 L673.1,166.4 L675.0,189.6 L676.8,216.0 L678.6,245.0 L680.4,275.7 L682.2,307.1
		L684.1,338.5 L685.9,368.9 L687.7,397.6 L689.5,423.8 L691.3,446.9 L693.2,466.7 L695.0,482.9 L696.8,495.5
		L698.6,504.4 L700.4,510.1 L702.3,512.8 L704.1,513.1 L705.9,511.4 L707.7,508.4 L709.6,504.6 L711.4,500.6
		L713.2,496.9 L715.0,493.9 L716.8,492.0 L718.7,491.5 L720.5,492.5 L722.3,495.0 L724.1,498.8 L725.9,503.9
		L727.8,509.9 L729.6,516.4 L731.4,522.9 L733.2,529.2 L735.0,534.5 L736.9,538.7 L738.7,541.1 L740.5,541.5
		L742.3,539.7 L744.1,535.3 L746.0,528.4 L747.8,519.0 L749.6,507.2 L751.4,493.2 L753.2,477.4 L755.1,460.1
		L756.9,442.0 L758.7,423.4 L760.5,404.9 L762.4,387.2 L764.2,370.8 L766.0,356.1 L767.8,343.8 L769.6,334.0
		L771.5,327.2 L773.3,323.5 L775.1,323.1 L776.9,325.8 L778.7,331.7 L780.6,340.5 L782.4,351.8 L784.2,365.5
		L786.0,380.9 L787.8,397.8 L789.7,415.6 L791.5,434.0 L793.3,452.4 L795.1,470.4 L796.9,487.7 L798.8,504.0
		L800.6,519.0 L802.4,532.7 L804.2,544.7 L806.0,555.3 L807.9,564.2 L809.7,571.7 L811.5,577.9 L813.3,582.9
		L815.2,586.9 L817.0,590.1 L818.8,592.7 L820.6,594.8 L822.4,596.6 L824.3,598.2 L826.1,599.7 L827.9,601.2
		L829.7,602.6 L831.5,604.0 L833.4,605.3 L835.2,606.5 L837.0,607.5 L838.8,608.4 L840.6,609.0 L842.5,609.4
		L844.3,609.6 L846.1,609.7 L847.9,609.5 L849.7,609.3 L851.6,609.1 L853.4,608.9 L855.2,608.9 L857.0,609.0
		L858.8,609.3 L860.7,609.8 L862.5,610.5 L864.3,611.4 L866.1,612.5 L867.9,613.6 L869.8,614.8 L871.6,615.9
		L873.4,616.9 L875.2,617.8 L877.1,618.5 L878.9,619.0 L880.7,619.3 L882.5,619.4 L884.3,619.3 L886.2,619.1
		L888.0,618.8 L889.8,618.4 L891.6,617.9 L893.4,617.4 L895.3,616.8 L897.1,616.0 L898.9,615.2 L900.7,614.1
		L902.5,612.8 L904.4,611.3 L906.2,609.4 L908.0,607.2 L909.8,604.7 L911.6,601.9 L913.5,598.8 L915.3,595.7
		L917.1,592.4 L918.9,589.3 L920.7,586.3 L922.6,583.7 L924.4,581.6 L926.2,580.0 L928.0,579.1 L929.9,579.0
		L931.7,579.6 L933.5,580.9 L935.3,583.1 L937.1,585.9 L939.0,589.3 L940.8,593.2 L942.6,597.6 L944.4,602.2
		L946.2,607.0 L948.1,611.9 L949.9,616.7 L951.7,621.4 L953.5,625.8 L955.3,629.9 L957.2,633.7 L959.0,637.1
		L960.8,640.1 L962.6,642.7 L964.4,645.0 L966.3,646.8 L968.1,648.4 L969.9,649.6 L971.7,650.6 L973.5,651.4
		L975.4,652.1 L977.2,652.6 L979.0,653.0 L980.8,653.4 L982.6,653.7 L984.5,654.0 L986.3,654.4 L988.1,654.7
		L989.9,655.1 L991.8,655.4 L993.6,655.8 L995.4,656.1 L997.2,656.4 L999.0,656.6 L1000.9,656.9 L1002.7,657.1
		L1004.5,657.2 L1006.3,657.3 L1008.1,657.3 L1010.0,657.3 L1011.8,657.2 L1013.6,657.2  '/></g>
	</g>
	<g id="gnuplot_plot_2" ><title>Confidence interval</title>
<g fill="none" color="white" stroke="rgb( 31, 120, 180)" stroke-width="1.00" stroke-linecap="butt" stroke-linejoin="miter">
</g>
<g fill="none" color="black" stroke="currentColor" stroke-width="1.00" stroke-linecap="butt" stroke-linejoin="miter">
	<g transform="translate(1089.0,85.0)" stroke="none" fill="black" font-family="Helvetica" font-size="12.00"  text-anchor="start">
		<text><tspan font-family="Helvetica" >Confidence interval</tspan></text>
	</g>
</g>
<g fill="none" color="black" stroke="currentColor" stroke-width="1.00" stroke-linecap="butt" stroke-linejoin="miter">
	<g stroke='none' shape-rendering='crispEdges'>
		<polygon fill = 'rgb( 31, 120, 180)' fill-opacity = '0.250000' points = '1038.5,85.6 1080.7,85.6 1080.7,76.6 1038.5,76.6 '/>
		<polygon fill = 'rgb( 31, 120, 180)' fill-opacity = '0.250000' points = '188.8,640.9 190.7,642.3 192.5,643.8 194.3,645.3 196.1,646.8 198.0,648.4 199.8,649.9 201.6,651.4 203.4,652.8 205.2,654.1 207.1,655.3 208.9,656.4 210.7,657.4 212.5,658.3 214.3,659.0 216.2,659.6
218.0,660.1 219.8,660.6 221.6,660.9 223.4,661.1 225.3,661.3 227.1,661.5 228.9,661.6 230.7,661.6 232.5,661.6 234.4,661.6 236.2,661.6 238.0,661.5 239.8,661.5 241.6,661.4 243.5,661.3 245.3,661.2
247.1,661.0 248.9,660.9 250.8,660.7 252.6,660.4 254.4,660.2 256.2,659.9 258.0,659.5 259.9,659.1 261.7,658.6 263.5,658.1 265.3,657.5 267.1,656.8 269.0,656.0 270.8,655.2 272.6,654.2 274.4,653.2
276.2,652.1 278.1,650.9 279.9,649.6 281.7,648.3 283.5,646.9 285.3,645.6 287.2,644.2 289.0,642.9 290.8,641.7 292.6,640.6 294.4,639.6 296.3,638.7 298.1,638.1 299.9,637.6 301.7,637.4 303.5,637.3
305.4,637.5 307.2,637.9 309.0,638.4 310.8,639.2 312.7,640.1 314.5,641.1 316.3,642.2 318.1,643.4 319.9,644.7 321.8,646.0 323.6,647.3 325.4,648.6 327.2,649.9 329.0,651.1 330.9,652.2 332.7,653.3
334.5,654.3 336.3,655.2 338.1,655.9 340.0,656.6 341.8,657.2 343.6,657.6 345.4,658.0 347.2,658.2 349.1,658.4 350.9,658.4 352.7,658.4 354.5,658.3 356.3,658.1 358.2,657.9 360.0,657.6 361.8,657.3
363.6,657.0 365.5,656.7 367.3,656.5 369.1,656.2 370.9,655.9 372.7,655.7 374.6,655.5 376.4,655.4 378.2,655.2 380.0,655.1 381.8,655.0 383.7,654.8 385.5,654.6 387.3,654.3 389.1,653.9 390.9,653.4
392.8,652.8 394.6,652.1 396.4,651.2 398.2,650.1 400.0,648.9 401.9,647.5 403.7,646.0 405.5,644.4 407.3,642.6 409.1,640.8 411.0,638.9 412.8,637.0 414.6,635.1 416.4,633.2 418.3,631.3 420.1,629.5
421.9,627.8 423.7,626.2 425.5,624.7 427.4,623.2 429.2,621.9 431.0,620.8 432.8,619.7 434.6,618.9 436.5,618.1 438.3,617.6 440.1,617.2 441.9,617.1 443.7,617.1 445.6,617.4 447.4,617.9 449.2,618.6
451.0,619.5 452.8,620.7 454.7,622.0 456.5,623.5 458.3,625.2 460.1,626.9 461.9,628.7 463.8,630.5 465.6,632.2 467.4,633.7 469.2,635.0 471.0,636.1 472.9,636.8 474.7,637.2 476.5,637.2 478.3,636.7
480.2,635.9 482.0,634.6 483.8,632.9 485.6,630.9 487.4,628.5 489.3,625.8 491.1,622.9 492.9,619.9 494.7,616.8 496.5,613.7 498.4,610.8 500.2,608.0 502.0,605.6 503.8,603.5 505.6,602.0 507.5,600.9
509.3,600.4 511.1,600.6 512.9,601.3 514.7,602.6 516.6,604.5 518.4,606.9 520.2,609.6 522.0,612.5 523.8,615.6 525.7,618.6 527.5,621.3 529.3,623.7 531.1,625.4 533.0,626.3 534.8,626.2 536.6,624.9
538.4,622.2 540.2,617.8 542.1,611.7 543.9,603.7 545.7,593.5 547.5,581.0 549.3,566.3 551.2,549.2 553.0,529.8 554.8,508.1 556.6,484.3 558.4,458.5 560.3,431.2 562.1,402.5 563.9,373.0 565.7,343.0
567.5,313.1 569.4,283.6 571.2,255.1 573.0,227.9 574.8,202.6 576.6,179.5 578.5,158.8 580.3,140.7 582.1,125.4 583.9,113.0 585.7,103.3 587.6,96.4 589.4,92.2 591.2,90.5 593.0,91.1 594.9,93.8
596.7,98.5 598.5,104.9 600.3,112.8 602.1,122.1 604.0,132.6 605.8,144.0 607.6,156.0 609.4,168.6 611.2,181.4 613.1,194.3 614.9,206.9 616.7,219.0 618.5,230.5 620.3,241.1 622.2,250.6 624.0,258.9
625.8,265.7 627.6,271.1 629.4,274.9 631.3,276.9 633.1,277.2 634.9,275.7 636.7,272.4 638.5,267.2 640.4,260.2 642.2,251.4 644.0,240.9 645.8,228.9 647.7,215.6 649.5,201.4 651.3,186.6 653.1,171.6
654.9,157.2 656.8,143.8 658.6,132.1 660.4,122.9 662.2,116.7 664.0,114.2 665.9,115.7 667.7,121.6 669.5,132.1 671.3,147.1 673.1,166.4 675.0,189.6 676.8,216.0 678.6,245.0 680.4,275.7 682.2,307.1
684.1,338.5 685.9,368.9 687.7,397.6 689.5,423.8 691.3,446.9 693.2,466.7 695.0,482.9 696.8,495.5 698.6,504.4 700.4,510.1 702.3,512.8 704.1,513.1 705.9,511.4 707.7,508.4 709.6,504.6 711.4,500.6
713.2,496.9 715.0,493.9 716.8,492.0 718.7,491.5 720.5,492.5 722.3,495.0 724.1,498.8 725.9,503.9 727.8,509.9 729.6,516.4 731.4,522.9 733.2,529.2 735.0,534.5 736.9,538.7 738.7,541.1 740.5,541.5
742.3,539.7 744.1,535.3 746.0,528.4 747.8,519.0 749.6,507.2 751.4,493.2 753.2,477.4 755.1,460.1 756.9,442.0 758.7,423.4 760.5,404.9 762.4,387.2 764.2,370.8 766.0,356.1 767.8,343.8 769.6,334.0
771.5,327.2 773.3,323.5 775.1,323.1 776.9,325.8 778.7,331.7 780.6,340.5 782.4,351.8 784.2,365.5 786.0,380.9 787.8,397.8 789.7,415.6 791.5,434.0 793.3,452.4 795.1,470.4 796.9,487.7 798.8,504.0
800.6,519.0 802.4,532.7 804.2,544.7 806.0,555.3 807.9,564.2 809.7,571.7 811.5,577.9 813.3,582.9 815.2,586.9 817.0,590.1 818.8,592.7 820.6,594.8 822.4,596.6 824.3,598.2 826.1,599.7 827.9,601.2
829.7,602.6 831.5,604.0 833.4,605.3 835.2,606.5 837.0,607.5 838.8,608.4 840.6,609.0 842.5,609.4 844.3,609.6 846.1,609.7 847.9,609.5 849.7,609.3 851.6,609.1 853.4,608.9 855.2,608.9 857.0,609.0
858.8,609.3 860.7,609.8 862.5,610.5 864.3,611.4 866.1,612.5 867.9,613.6 869.8,614.8 871.6,615.9 873.4,616.9 875.2,617.8 877.1,618.5 878.9,619.0 880.7,619.3 882.5,619.4 884.3,619.3 886.2,619.1
888.0,618.8 889.8,618.4 891.6,617.9 893.4,617.4 895.3,616.8 897.1,616.0 898.9,615.2 900.7,614.1 902.5,612.8 904.4,611.3 906.2,609.4 908.0,607.2 909.8,604.7 911.6,601.9 913.5,598.8 915.3,595.7
917.1,592.4 918.9,589.3 920.7,586.3 922.6,583.7 924.4,581.6 926.2,580.0 928.0,579.1 928.0,662.4 926.2,662.4 924.4,662.4 922.6,662.4 920.7,662.4 918.9,662.4 917.1,662.4 915.3,662.4 913.5,662.4
911.6,662.4 909.8,662.4 908.0,662.4 906.2,662.4 904.4,662.4 902.5,662.4 900.7,662.4 898.9,662.4 897.1,662.4 895.3,662.4 893.4,662.4 891.6,662.4 889.8,662.4 888.0,662.4 886.2,662.4 884.3,662.4
882.5,662.4 880.7,662.4 878.9,662.4 877.1,662.4 875.2,662.4 873.4,662.4 871.6,662.4 869.8,662.4 867.9,662.4 866.1,662.4 864.3,662.4 862.5,662.4 860.7,662.4 858.8,662.4 857.0,662.4 855.2,662.4
853.4,662.4 851.6,662.4 849.7,662.4 847.9,662.4 846.1,662.4 844.3,662.4 842.5,662.4 840.6,662.4 838.8,662.4 837.0,662.4 835.2,662.4 833.4,662.4 831.5,662.4 829.7,662.4 827.9,662.4 826.1,662.4
824.3,662.4 822.4,662.4 820.6,662.4 818.8,662.4 817.0,662.4 815.2,662.4 813.3,662.4 811.5,662.4 809.7,662.4 807.9,662.4 806.0,662.4 804.2,662.4 802.4,662.4 800.6,662.4 798.8,662.4 796.9,662.4
795.1,662.4 793.3,662.4 791.5,662.4 789.7,662.4 787.8,662.4 786.0,662.4 784.2,662.4 782.4,662.4 780.6,662.4 778.7,662.4 776.9,662.4 775.1,662.4 773.3,662.4 771.5,662.4 769.6,662.4 767.8,662.4
766.0,662.4 764.2,662.4 762.4,662.4 760.5,662.4 758.7,662.4 756.9,662.4 755.1,662.4 753.2,662.4 751.4,662.4 749.6,662.4 747.8,662.4 746.0,662.4 744.1,662.4 742.3,662.4 740.5,662.4 738.7,662.4
736.9,662.4 735.0,662.4 733.2,662.4 731.4,662.4 729.6,662.4 727.8,662.4 725.9,662.4 724.1,662.4 722.3,662.4 720.5,662.4 718.7,662.4 716.8,662.4 715.0,662.4 713.2,662.4 711.4,662.4 709.6,662.4
707.7,662.4 705.9,662.4 704.1,662.4 702.3,662.4 700.4,662.4 698.6,662.4 696.8,662.4 695.0,662.4 693.2,662.4 691.3,662.4 689.5,662.4 687.7,662.4 685.9,662.4 684.1,662.4 682.2,662.4 680.4,662.4
678.6,662.4 676.8,662.4 675.0,662.4 673.1,662.4 671.3,662.4 669.5,662.4 667.7,662.4 665.9,662.4 664.0,662.4 662.2,662.4 660.4,662.4 658.6,662.4 656.8,662.4 654.9,662.4 653.1,662.4 651.3,662.4
649.5,662.4 647.7,662.4 645.8,662.4 644.0,662.4 642.2,662.4 640.4,662.4 638.5,662.4 636.7,662.4 634.9,662.4 633.1,662.4 631.3,662.4 629.4,662.4 627.6,662.4 625.8,662.4 624.0,662.4 622.2,662.4
620.3,662.4 618.5,662.4 616.7,662.4 614.9,662.4 613.1,662.4 611.2,662.4 609.4,662.4 607.6,662.4 605.8,662.4 604.0,662.4 602.1,662.4 600.3,662.4 598.5,662.4 596.7,662.4 594.9,662.4 593.0,662.4
591.2,662.4 589.4,662.4 587.6,662.4 585.7,662.4 583.9,662.4 582.1,662.4 580.3,662.4 578.5,662.4 576.6,662.4 574.8,662.4 573.0,662.4 571.2,662.4 569.4,662.4 567.5,662.4 565.7,662.4 563.9,662.4
562.1,662.4 560.3,662.4 558.4,662.4 556.6,662.4 554.8,662.4 553.0,662.4 551.2,662.4 549.3,662.4 547.5,662.4 545.7,662.4 543.9,662.4 542.1,662.4 540.2,662.4 538.4,662.4 536.6,662.4 534.8,662.4
533.0,662.4 531.1,662.4 529.3,662.4 527.5,662.4 525.7,662.4 523.8,662.4 522.0,662.4 520.2,662.4 518.4,662.4 516.6,662.4 514.7,662.4 512.9,662.4 511.1,662.4 509.3,662.4 507.5,662.4 505.6,662.4
503.8,662.4 502.0,662.4 500.2,662.4 498.4,662.4 496.5,662.4 494.7,662.4 492.9,662.4 491.1,662.4 489.3,662.4 487.4,662.4 485.6,662.4 483.8,662.4 482.0,662.4 480.2,662.4 478.3,662.4 476.5,662.4
474.7,662.4 472.9,662.4 471.0,662.4 469.2,662.4 467.4,662.4 465.6,662.4 463.8,662.4 461.9,662.4 460.1,662.4 458.3,662.4 456.5,662.4 454.7,662.4 452.8,662.4 451.0,662.4 449.2,662.4 447.4,662.4
445.6,662.4 443.7,662.4 441.9,662.4 440.1,662.4 438.3,662.4 436.5,662.4 434.6,662.4 432.8,662.4 431.0,662.4 429.2,662.4 427.4,662.4 425.5,662.4 423.7,662.4 421.9,662.4 420.1,662.4 418.3,662.4
416.4,662.4 414.6,662.4 412.8,662.4 411.0,662.4 409.1,662.4 407.3,662.4 405.5,662.4 403.7,662.4 401.9,662.4 400.0,662.4 398.2,662.4 396.4,662.4 394.6,662.4 392.8,662.4 390.9,662.4 389.1,662.4
387.3,662.4 385.5,662.4 383.7,662.4 381.8,662.4 380.0,662.4 378.2,662.4 376.4,662.4 374.6,662.4 372.7,662.4 370.9,662.4 369.1,662.4 367.3,662.4 365.5,662.4 363.6,662.4 361.8,662.4 360.0,662.4
358.2,662.4 356.3,662.4 354.5,662.4 352.7,662.4 350.9,662.4 349.1,662.4 347.2,662.4 345.4,662.4 343.6,662.4 341.8,662.4 340.0,662.4 338.1,662.4 336.3,662.4 334.5,662.4 332.7,662.4 330.9,662.4
329.0,662.4 327.2,662.4 325.4,662.4 323.6,662.4 321.8,662.4 319.9,662.4 318.1,662.4 316.3,662.4 314.5,662.4 312.7,662.4 310.8,662.4 309.0,662.4 307.2,662.4 305.4,662.4 303.5,662.4 301.7,662.4
299.9,662.4 298.1,662.4 296.3,662.4 294.4,662.4 292.6,662.4 290.8,662.4 289.0,662.4 287.2,662.4 285.3,662.4 283.5,662.4 281.7,662.4 279.9,662.4 278.1,662.4 276.2,662.4 274.4,662.4 272.6,662.4
270.8,662.4 269.0,662.4 267.1,662.4 265.3,662.4 263.5,662.4 261.7,662.4 259.9,662.4 258.0,662.4 256.2,662.4 254.4,662.4 252.6,662.4 250.8,662.4 248.9,662.4 247.1,662.4 245.3,662.4 243.5,662.4
241.6,662.4 239.8,662.4 238.0,662.4 236.2,662.4 234.4,662.4 232.5,662.4 230.7,662.4 228.9,662.4 227.1,662.4 225.3,662.4 223.4,662.4 221.6,662.4 219.8,662.4 218.0,662.4 216.2,662.4 214.3,662.4
212.5,662.4 210.7,662.4 208.9,662.4 207.1,662.4 205.2,662.4 203.4,662.4 201.6,662.4 199.8,662.4 198.0,662.4 196.1,662.4 194.3,662.4 192.5,662.4 190.7,662.4 188.8,662.4 '/>
	</g>
</g>
	</g>
	<g id="gnuplot_plot_3" ><title>Point estimate</title>
<g fill="none" color="white" stroke="rgb( 31, 120, 180)" stroke-width="2.00" stroke-linecap="butt" stroke-linejoin="miter">
</g>
<g fill="none" color="black" stroke="currentColor" stroke-width="2.00" stroke-linecap="butt" stroke-linejoin="miter">
	<g transform="translate(1089.0,103.0)" stroke="none" fill="black" font-family="Helvetica" font-size="12.00"  text-anchor="start">
		<text><tspan font-family="Helvetica" >Point estimate</tspan></text>
	</g>
</g>
<g fill="none" color="black" stroke="currentColor" stroke-width="2.00" stroke-linecap="butt" stroke-linejoin="miter">
	<path stroke='rgb( 31, 120, 180)'  d='M1038.5,99.1 L1080.7,99.1 M653.7,662.4 L653.7,166.7  '/></g>
	</g>
<g fill="none" color="black" stroke="currentColor" stroke-width="2.00" stroke-linecap="butt" stroke-linejoin="miter">
</g>
<g fill="none" color="black" stroke="black" stroke-width="1.00" stroke-linecap="butt" stroke-linejoin="miter">
</g>
<g fill="none" color="black" stroke="currentColor" stroke-width="1.00" stroke-linecap="butt" stroke-linejoin="miter">
	<path stroke='black'  d='M105.1,54.1 L105.1,662.4 L1013.6,662.4 L1013.6,54.1 L105.1,54.1 Z  '/></g>
<g fill="none" color="black" stroke="currentColor" stroke-width="1.00" stroke-linecap="butt" stroke-linejoin="miter">
</g>
</g>
</svg>

