<?xml version="1.0" encoding="utf-8"  standalone="no"?>
<svg 
 viewBox="0 0 1280 720"
 xmlns="http://www.w3.org/2000/svg"
 xmlns:xlink="http://www.w3.org/1999/xlink"
>

<title>Gnuplot</title>
<desc>Produced by GNUPLOT 5.2 patchlevel 2 </desc>

<g id="gnuplot_canvas">

<rect x="0" y="0" width="1280" height="720" fill="none"/>
<defs>

	<circle id='gpDot' r='0.5' stroke-width='0.5'/>
	<path id='gpPt0' stroke-width='0.222' stroke='currentColor' d='M-1,0 h2 M0,-1 v2'/>
	<path id='gpPt1' stroke-width='0.222' stroke='currentColor' d='M-1,-1 L1,1 M1,-1 L-1,1'/>
	<path id='gpPt2' stroke-width='0.222' stroke='currentColor' d='M-1,0 L1,0 M0,-1 L0,1 M-1,-1 L1,1 M-1,1 L1,-1'/>
	<rect id='gpPt3' stroke-width='0.222' stroke='currentColor' x='-1' y='-1' width='2' height='2'/>
	<rect id='gpPt4' stroke-width='0.222' stroke='currentColor' fill='currentColor' x='-1' y='-1' width='2' height='2'/>
	<circle id='gpPt5' stroke-width='0.222' stroke='currentColor' cx='0' cy='0' r='1'/>
	<use xlink:href='#gpPt5' id='gpPt6' fill='currentColor' stroke='none'/>
	<path id='gpPt7' stroke-width='0.222' stroke='currentColor' d='M0,-1.33 L-1.33,0.67 L1.33,0.67 z'/>
	<use xlink:href='#gpPt7' id='gpPt8' fill='currentColor' stroke='none'/>
	<use xlink:href='#gpPt7' id='gpPt9' stroke='currentColor' transform='rotate(180)'/>
	<use xlink:href='#gpPt9' id='gpPt10' fill='currentColor' stroke='none'/>
	<use xlink:href='#gpPt3' id='gpPt11' stroke='currentColor' transform='rotate(45)'/>
	<use xlink:href='#gpPt11' id='gpPt12' fill='currentColor' stroke='none'/>
	<path id='gpPt13' stroke-width='0.222' stroke='currentColor' d='M0,1.330 L1.265,0.411 L0.782,-1.067 L-0.782,-1.076 L-1.265,0.411 z'/>
	<use xlink:href='#gpPt13' id='gpPt14' fill='currentColor' stroke='none'/>
	<filter id='textbox' filterUnits='objectBoundingBox' x='0' y='0' height='1' width='1'>
	  <feFlood flood-color='white' flood-opacity='1' result='bgnd'/>
	  <feComposite in='SourceGraphic' in2='bgnd' operator='atop'/>
	</filter>
	<filter id='greybox' filterUnits='objectBoundingBox' x='0' y='0' height='1' width='1'>
	  <feFlood flood-color='lightgrey' flood-opacity='1' result='grey'/>
	  <feComposite in='SourceGraphic' in2='grey' operator='atop'/>
	</filter>
</defs>
<g fill="none" color="white" stroke="currentColor" stroke-width="1.00" stroke-linecap="butt" stroke-linejoin="miter">
</g>
<g fill="none" color="black" stroke="currentColor" stroke-width="1.00" stroke-linecap="butt" stroke-linejoin="miter">
	<path stroke='black'  d='M71.9,662.4 L80.9,662.4  '/>	<g transform="translate(63.6,666.3)" stroke="none" fill="black" font-family="Helvetica" font-size="12.00"  text-anchor="end">
		<text><tspan font-family="Helvetica" > 0</tspan></text>
	</g>
</g>
<g fill="none" color="black" stroke="currentColor" stroke-width="1.00" stroke-linecap="butt" stroke-linejoin="miter">
	<path stroke='black'  d='M71.9,599.4 L80.9,599.4  '/>	<g transform="translate(63.6,603.3)" stroke="none" fill="black" font-family="Helvetica" font-size="12.00"  text-anchor="end">
		<text><tspan font-family="Helvetica" > 100</tspan></text>
	</g>
</g>
<g fill="none" color="black" stroke="currentColor" stroke-width="1.00" stroke-linecap="butt" stroke-linejoin="miter">
	<path stroke='black'  d='M71.9,536.4 L80.9,536.4  '/>	<g transform="translate(63.6,540.3)" stroke="none" fill="black" font-family="Helvetica" font-size="12.00"  text-anchor="end">
		<text><tspan font-family="Helvetica" > 200</tspan></text>
	</g>
</g>
<g fill="none" color="black" stroke="currentColor" stroke-width="1.00" stroke-linecap="butt" stroke-linejoin="miter">
	<path stroke='black'  d='M71.9,473.3 L80.9,473.3  '/>	<g transform="translate(63.6,477.2)" stroke="none" fill="black" font-family="Helvetica" font-size="12.00"  text-anchor="end">
		<text><tspan font-family="Helvetica" > 300</tspan></text>
	</g>
</g>
<g fill="none" color="black" stroke="currentColor" stroke-width="1.00" stroke-linecap="butt" stroke-linejoin="miter">
	<path stroke='black'  d='M71.9,410.3 L80.9,410.3  '/>	<g transform="translate(63.6,414.2)" stroke="none" fill="black" font-family="Helvetica" font-size="12.00"  text-anchor="end">
		<text><tspan font-family="Helvetica" > 400</tspan></text>
	</g>
</g>
<g fill="none" color="black" stroke="currentColor" stroke-width="1.00" stroke-linecap="butt" stroke-linejoin="miter">
	<path stroke='black'  d='M71.9,347.3 L80.9,347.3  '/>	<g transform="translate(63.6,351.2)" stroke="none" fill="black" font-family="Helvetica" font-size="12.00"  text-anchor="end">
		<text><tspan font-family="Helvetica" > 500</tspan></text>
	</g>
</g>
<g fill="none" color="black" stroke="currentColor" stroke-width="1.00" stroke-linecap="butt" stroke-linejoin="miter">
	<path stroke='black'  d='M71.9,284.3 L80.9,284.3  '/>	<g transform="translate(63.6,288.2)" stroke="none" fill="black" font-family="Helvetica" font-size="12.00"  text-anchor="end">
		<text><tspan font-family="Helvetica" > 600</tspan></text>
	</g>
</g>
<g fill="none" color="black" stroke="currentColor" stroke-width="1.00" stroke-linecap="butt" stroke-linejoin="miter">
	<path stroke='black'  d='M71.9,221.2 L80.9,221.2  '/>	<g transform="translate(63.6,225.1)" stroke="none" fill="black" font-family="Helvetica" font-size="12.00"  text-anchor="end">
		<text><tspan font-family="Helvetica" > 700</tspan></text>
	</g>
</g>
<g fill="none" color="black" stroke="currentColor" stroke-width="1.00" stroke-linecap="butt" stroke-linejoin="miter">
	<path stroke='black'  d='M71.9,158.2 L80.9,158.2  '/>	<g transform="translate(63.6,162.1)" stroke="none" fill="black" font-family="Helvetica" font-size="12.00"  text-anchor="end">
		<text><tspan font-family="Helvetica" > 800</tspan></text>
	</g>
</g>
<g fill="none" color="black" stroke="currentColor" stroke-width="1.00" stroke-linecap="butt" stroke-linejoin="miter">
	<path stroke='black'  d='M71.9,95.2 L80.9,95.2  '/>	<g transform="translate(63.6,99.1)" stroke="none" fill="black" font-family="Helvetica" font-size="12.00"  text-anchor="end">
		<text><tspan font-family="Helvetica" > 900</tspan></text>
	</g>
</g>
<g fill="none" color="black" stroke="currentColor" stroke-width="1.00" stroke-linecap="butt" stroke-linejoin="miter">
	<path stroke='black'  d='M102.5,662.4 L102.5,653.4  '/>	<g transform="translate(102.5,684.3)" stroke="none" fill="black" font-family="Helvetica" font-size="12.00"  text-anchor="middle">
		<text><tspan font-family="Helvetica" > 50000</tspan></text>
	</g>
</g>
<g fill="none" color="black" stroke="currentColor" stroke-width="1.00" stroke-linecap="butt" stroke-linejoin="miter">
	<path stroke='black'  d='M254.9,662.4 L254.9,653.4  '/>	<g transform="translate(254.9,684.3)" stroke="none" fill="black" font-family="Helvetica" font-size="12.00"  text-anchor="middle">
		<text><tspan font-family="Helvetica" > 55000</tspan></text>
	</g>
</g>
<g fill="none" color="black" stroke="currentColor" stroke-width="1.00" stroke-linecap="butt" stroke-linejoin="miter">
	<path stroke='black'  d='M407.4,662.4 L407.4,653.4  '/>	<g transform="translate(407.4,684.3)" stroke="none" fill="black" font-family="Helvetica" font-size="12.00"  text-anchor="middle">
		<text><tspan font-family="Helvetica" > 60000</tspan></text>
	</g>
</g>
<g fill="none" color="black" stroke="currentColor" stroke-width="1.00" stroke-linecap="butt" stroke-linejoin="miter">
	<path stroke='black'  d='M559.8,662.4 L559.8,653.4  '/>	<g transform="translate(559.8,684.3)" stroke="none" fill="black" font-family="Helvetica" font-size="12.00"  text-anchor="middle">
		<text><tspan font-family="Helvetica" > 65000</tspan></text>
	</g>
</g>
<g fill="none" color="black" stroke="currentColor" stroke-width="1.00" stroke-linecap="butt" stroke-linejoin="miter">
	<path stroke='black'  d='M712.3,662.4 L712.3,653.4  '/>	<g transform="translate(712.3,684.3)" stroke="none" fill="black" font-family="Helvetica" font-size="12.00"  text-anchor="middle">
		<text><tspan font-family="Helvetica" > 70000</tspan></text>
	</g>
</g>
<g fill="none" color="black" stroke="currentColor" stroke-width="1.00" stroke-linecap="butt" stroke-linejoin="miter">
	<path stroke='black'  d='M864.8,662.4 L864.8,653.4  '/>	<g transform="translate(864.8,684.3)" stroke="none" fill="black" font-family="Helvetica" font-size="12.00"  text-anchor="middle">
		<text><tspan font-family="Helvetica" > 75000</tspan></text>
	</g>
</g>
<g fill="none" color="black" stroke="currentColor" stroke-width="1.00" stroke-linecap="butt" stroke-linejoin="miter">
	<path stroke='black'  d='M970.7,662.4 L961.7,662.4  '/>	<g transform="translate(979.0,666.3)" stroke="none" fill="black" font-family="Helvetica" font-size="12.00"  text-anchor="start">
		<text><tspan font-family="Helvetica" > 0</tspan></text>
	</g>
</g>
<g fill="none" color="black" stroke="currentColor" stroke-width="1.00" stroke-linecap="butt" stroke-linejoin="miter">
	<path stroke='black'  d='M970.7,601.6 L961.7,601.6  '/>	<g transform="translate(979.0,605.5)" stroke="none" fill="black" font-family="Helvetica" font-size="12.00"  text-anchor="start">
		<text><tspan font-family="Helvetica" > 2x10</tspan><tspan font-family="Helvetica"  font-size="9.6" dy="-6.00px">-5</tspan><tspan font-size="12.0" dy="6.00"></tspan></text>
	</g>
</g>
<g fill="none" color="black" stroke="currentColor" stroke-width="1.00" stroke-linecap="butt" stroke-linejoin="miter">
	<path stroke='black'  d='M970.7,540.7 L961.7,540.7  '/>	<g transform="translate(979.0,544.6)" stroke="none" fill="black" font-family="Helvetica" font-size="12.00"  text-anchor="start">
		<text><tspan font-family="Helvetica" > 4x10</tspan><tspan font-family="Helvetica"  font-size="9.6" dy="-6.00px">-5</tspan><tspan font-size="12.0" dy="6.00"></tspan></text>
	</g>
</g>
<g fill="none" color="black" stroke="currentColor" stroke-width="1.00" stroke-linecap="butt" stroke-linejoin="miter">
	<path stroke='black'  d='M970.7,479.9 L961.7,479.9  '/>	<g transform="translate(979.0,483.8)" stroke="none" fill="black" font-family="Helvetica" font-size="12.00"  text-anchor="start">
		<text><tspan font-family="Helvetica" > 6x10</tspan><tspan font-family="Helvetica"  font-size="9.6" dy="-6.00px">-5</tspan><tspan font-size="12.0" dy="6.00"></tspan></text>
	</g>
</g>
<g fill="none" color="black" stroke="currentColor" stroke-width="1.00" stroke-linecap="butt" stroke-linejoin="miter">
	<path stroke='black'  d='M970.7,419.1 L961.7,419.1  '/>	<g transform="translate(979.0,423.0)" stroke="none" fill="black" font-family="Helvetica" font-size="12.00"  text-anchor="start">
		<text><tspan font-family="Helvetica" > 8x10</tspan><tspan font-family="Helvetica"  font-size="9.6" dy="-6.00px">-5</tspan><tspan font-size="12.0" dy="6.00"></tspan></text>
	</g>
</g>
<g fill="none" color="black" stroke="currentColor" stroke-width="1.00" stroke-linecap="butt" stroke-linejoin="miter">
	<path stroke='black'  d='M970.7,358.2 L961.7,358.2  '/>	<g transform="translate(979.0,362.1)" stroke="none" fill="black" font-family="Helvetica" font-size="12.00"  text-anchor="start">
		<text><tspan font-family="Helvetica" > 0.0001</tspan></text>
	</g>
</g>
<g fill="none" color="black" stroke="currentColor" stroke-width="1.00" stroke-linecap="butt" stroke-linejoin="miter">
	<path stroke='black'  d='M970.7,297.4 L961.7,297.4  '/>	<g transform="translate(979.0,301.3)" stroke="none" fill="black" font-family="Helvetica" font-size="12.00"  text-anchor="start">
		<text><tspan font-family="Helvetica" > 0.00012</tspan></text>
	</g>
</g>
<g fill="none" color="black" stroke="currentColor" stroke-width="1.00" stroke-linecap="butt" stroke-linejoin="miter">
	<path stroke='black'  d='M970.7,236.6 L961.7,236.6  '/>	<g transform="translate(979.0,240.5)" stroke="none" fill="black" font-family="Helvetica" font-size="12.00"  text-anchor="start">
		<text><tspan font-family="Helvetica" > 0.00014</tspan></text>
	</g>
</g>
<g fill="none" color="black" stroke="currentColor" stroke-width="1.00" stroke-linecap="butt" stroke-linejoin="miter">
	<path stroke='black'  d='M970.7,175.8 L961.7,175.8  '/>	<g transform="translate(979.0,179.7)" stroke="none" fill="black" font-family="Helvetica" font-size="12.00"  text-anchor="start">
		<text><tspan font-family="Helvetica" > 0.00016</tspan></text>
	</g>
</g>
<g fill="none" color="black" stroke="currentColor" stroke-width="1.00" stroke-linecap="butt" stroke-linejoin="miter">
	<path stroke='black'  d='M970.7,114.9 L961.7,114.9  '/>	<g transform="translate(979.0,118.8)" stroke="none" fill="black" font-family="Helvetica" font-size="12.00"  text-anchor="start">
		<text><tspan font-family="Helvetica" > 0.00018</tspan></text>
	</g>
</g>
<g fill="none" color="black" stroke="currentColor" stroke-width="1.00" stroke-linecap="butt" stroke-linejoin="miter">
	<path stroke='black'  d='M970.7,54.1 L961.7,54.1  '/>	<g transform="translate(979.0,58.0)" stroke="none" fill="black" font-family="Helvetica" font-size="12.00"  text-anchor="start">
		<text><tspan font-family="Helvetica" > 0.0002</tspan></text>
	</g>
</g>
<g fill="none" color="black" stroke="currentColor" stroke-width="1.00" stroke-linecap="butt" stroke-linejoin="miter">
</g>
<g fill="none" color="black" stroke="currentColor" stroke-width="1.00" stroke-linecap="butt" stroke-linejoin="miter">
	<path stroke='black'  d='M71.9,54.1 L71.9,662.4 L970.7,662.4 L970.7,54.1 L71.9,54.1 Z  '/></g>
<g fill="none" color="black" stroke="currentColor" stroke-width="1.00" stroke-linecap="butt" stroke-linejoin="miter">
	<g transform="translate(16.3,358.3) rotate(270)" stroke="none" fill="black" font-family="Helvetica" font-size="12.00"  text-anchor="middle">
		<text><tspan font-family="Helvetica" >Iterations (x 10</tspan><tspan font-family="Helvetica"  font-size="9.6" dy="-6.00px">3</tspan><tspan font-family="Helvetica"  font-size="12.0" dy="6.00px">)</tspan></text>
	</g>
</g>
<g fill="none" color="black" stroke="currentColor" stroke-width="1.00" stroke-linecap="butt" stroke-linejoin="miter">
	<g transform="translate(1074.2,358.3) rotate(270)" stroke="none" fill="black" font-family="Helvetica" font-size="12.00"  text-anchor="middle">
		<text><tspan font-family="Helvetica" >Density (a.u.)</tspan></text>
	</g>
</g>
<g fill="none" color="black" stroke="currentColor" stroke-width="1.00" stroke-linecap="butt" stroke-linejoin="miter">
	<g transform="translate(521.3,711.3)" stroke="none" fill="black" font-family="Helvetica" font-size="12.00"  text-anchor="middle">
		<text><tspan font-family="Helvetica" >Average time (cycles)</tspan></text>
	</g>
</g>
<g fill="none" color="black" stroke="currentColor" stroke-width="1.00" stroke-linecap="butt" stroke-linejoin="miter">
	<g transform="translate(521.3,31.0)" stroke="none" fill="black" font-family="Helvetica" font-size="12.00"  text-anchor="middle">
		<text><tspan font-family="Helvetica" >non_nested_compare/incremental calc/11</tspan></text>
	</g>
</g>
	<g id="gnuplot_plot_1" ><title>PDF</title>
<g fill="none" color="black" stroke="currentColor" stroke-width="1.00" stroke-linecap="butt" stroke-linejoin="miter">
	<g transform="translate(1147.1,67.0)" stroke="none" fill="black" font-family="Helvetica" font-size="12.00"  text-anchor="start">
		<text><tspan font-family="Helvetica" >PDF</tspan></text>
	</g>
</g>
<g fill="none" color="black" stroke="currentColor" stroke-width="1.00" stroke-linecap="butt" stroke-linejoin="miter">
	<g stroke='none' shape-rendering='crispEdges'>
		<polygon fill = 'rgb( 31, 120, 180)' fill-opacity = '0.250000' points = '1096.6,67.6 1138.8,67.6 1138.8,58.6 1096.6,58.6 '/>
		<polygon fill = 'rgb( 31, 120, 180)' fill-opacity = '0.250000' points = '71.9,662.2 73.7,662.2 75.5,662.1 77.3,662.1 79.1,662.1 80.9,662.0 82.7,662.0 84.5,661.9 86.3,661.9 88.1,661.8 89.9,661.8 91.7,661.7 93.5,661.6 95.3,661.5 97.1,661.4 98.9,661.3
100.7,661.2 102.5,661.1 104.3,661.0 106.1,660.8 107.9,660.7 109.7,660.5 111.5,660.3 113.3,660.1 115.1,659.9 116.9,659.7 118.7,659.5 120.5,659.2 122.3,659.0 124.1,658.7 125.9,658.4 127.7,658.1
129.5,657.7 131.3,657.4 133.1,657.0 134.9,656.6 136.7,656.2 138.5,655.8 140.3,655.4 142.1,654.9 143.9,654.5 145.7,654.0 147.6,653.5 149.4,653.0 151.2,652.4 153.0,651.9 154.8,651.3 156.6,650.7
158.4,650.1 160.2,649.6 162.0,649.0 163.8,648.3 165.6,647.7 167.4,647.1 169.2,646.5 171.0,645.9 172.8,645.2 174.6,644.6 176.4,644.0 178.2,643.4 180.0,642.8 181.8,642.2 183.6,641.6 185.4,641.1
187.2,640.5 189.0,640.0 190.8,639.5 192.6,639.0 194.4,638.5 196.2,638.1 198.0,637.7 199.8,637.3 201.6,636.9 203.4,636.6 205.2,636.3 207.0,636.0 208.8,635.8 210.6,635.6 212.4,635.4 214.2,635.3
216.0,635.2 217.8,635.1 219.6,635.1 221.4,635.1 223.2,635.1 225.0,635.2 226.8,635.2 228.6,635.4 230.4,635.5 232.2,635.7 234.0,635.9 235.8,636.1 237.6,636.4 239.4,636.6 241.2,636.9 243.0,637.3
244.8,637.6 246.6,637.9 248.4,638.3 250.2,638.7 252.0,639.1 253.8,639.5 255.6,639.9 257.4,640.3 259.2,640.8 261.0,641.2 262.8,641.7 264.6,642.1 266.4,642.6 268.2,643.0 270.0,643.5 271.8,644.0
273.6,644.4 275.4,644.9 277.2,645.3 279.0,645.8 280.8,646.2 282.6,646.7 284.4,647.1 286.2,647.5 288.0,648.0 289.8,648.4 291.6,648.8 293.4,649.2 295.2,649.6 297.1,650.0 298.9,650.3 300.7,650.7
302.5,651.1 304.3,651.4 306.1,651.7 307.9,652.1 309.7,652.4 311.5,652.7 313.3,652.9 315.1,653.2 316.9,653.5 318.7,653.7 320.5,653.9 322.3,654.1 324.1,654.3 325.9,654.5 327.7,654.7 329.5,654.8
331.3,654.9 333.1,655.0 334.9,655.1 336.7,655.2 338.5,655.3 340.3,655.3 342.1,655.3 343.9,655.3 345.7,655.3 347.5,655.3 349.3,655.3 351.1,655.2 352.9,655.1 354.7,655.0 356.5,654.9 358.3,654.8
360.1,654.6 361.9,654.5 363.7,654.3 365.5,654.1 367.3,653.9 369.1,653.7 370.9,653.5 372.7,653.3 374.5,653.0 376.3,652.8 378.1,652.6 379.9,652.3 381.7,652.0 383.5,651.8 385.3,651.5 387.1,651.3
388.9,651.0 390.7,650.7 392.5,650.5 394.3,650.2 396.1,650.0 397.9,649.7 399.7,649.5 401.5,649.2 403.3,649.0 405.1,648.8 406.9,648.6 408.7,648.4 410.5,648.2 412.3,648.0 414.1,647.9 415.9,647.7
417.7,647.6 419.5,647.4 421.3,647.3 423.1,647.2 424.9,647.1 426.7,647.0 428.5,646.9 430.3,646.8 432.1,646.8 433.9,646.7 435.7,646.6 437.5,646.6 439.3,646.5 441.1,646.4 442.9,646.3 444.7,646.2
446.6,646.1 448.4,646.0 450.2,645.9 452.0,645.7 453.8,645.5 455.6,645.2 457.4,645.0 459.2,644.6 461.0,644.2 462.8,643.8 464.6,643.3 466.4,642.7 468.2,642.0 470.0,641.2 471.8,640.3 473.6,639.3
475.4,638.2 477.2,637.0 479.0,635.6 480.8,634.1 482.6,632.4 484.4,630.5 486.2,628.5 488.0,626.2 489.8,623.8 491.6,621.1 493.4,618.2 495.2,615.0 497.0,611.6 498.8,608.0 500.6,604.0 502.4,599.8
504.2,595.3 506.0,590.4 507.8,585.3 509.6,579.8 511.4,574.0 513.2,567.8 515.0,561.3 516.8,554.5 518.6,547.3 520.4,539.7 522.2,531.7 524.0,523.4 525.8,514.8 527.6,505.8 529.4,496.4 531.2,486.7
533.0,476.6 534.8,466.3 536.6,455.6 538.4,444.6 540.2,433.3 542.0,421.7 543.8,409.9 545.6,397.9 547.4,385.7 549.2,373.2 551.0,360.7 552.8,348.0 554.6,335.2 556.4,322.4 558.2,309.5 560.0,296.6
561.8,283.8 563.6,271.1 565.4,258.4 567.2,245.9 569.0,233.6 570.8,221.5 572.6,209.7 574.4,198.2 576.2,187.0 578.0,176.2 579.8,165.8 581.6,155.8 583.4,146.3 585.2,137.3 587.0,128.8 588.8,120.9
590.6,113.6 592.4,106.9 594.2,100.8 596.0,95.3 597.9,90.5 599.7,86.4 601.5,83.0 603.3,80.3 605.1,78.3 606.9,77.0 608.7,76.4 610.5,76.5 612.3,77.3 614.1,78.8 615.9,80.9 617.7,83.7
619.5,87.2 621.3,91.3 623.1,96.1 624.9,101.4 626.7,107.2 628.5,113.7 630.3,120.6 632.1,128.0 633.9,135.9 635.7,144.3 637.5,153.0 639.3,162.1 641.1,171.5 642.9,181.3 644.7,191.3 646.5,201.5
648.3,212.0 650.1,222.6 651.9,233.4 653.7,244.3 655.5,255.4 657.3,266.4 659.1,277.5 660.9,288.6 662.7,299.7 664.5,310.7 666.3,321.7 668.1,332.6 669.9,343.4 671.7,354.0 673.5,364.5 675.3,374.9
677.1,385.0 678.9,395.0 680.7,404.7 682.5,414.3 684.3,423.6 686.1,432.7 687.9,441.6 689.7,450.2 691.5,458.5 693.3,466.6 695.1,474.5 696.9,482.0 698.7,489.3 700.5,496.4 702.3,503.2 704.1,509.7
705.9,516.0 707.7,522.0 709.5,527.7 711.3,533.2 713.1,538.5 714.9,543.5 716.7,548.2 718.5,552.8 720.3,557.0 722.1,561.1 723.9,565.0 725.7,568.6 727.5,572.0 729.3,575.3 731.1,578.3 732.9,581.1
734.7,583.7 736.5,586.2 738.3,588.5 740.1,590.6 741.9,592.5 743.7,594.3 745.5,595.9 747.4,597.4 749.2,598.7 751.0,599.9 752.8,601.0 754.6,601.9 756.4,602.7 758.2,603.4 760.0,603.9 761.8,604.3
763.6,604.7 765.4,604.9 767.2,605.0 769.0,605.1 770.8,605.1 772.6,604.9 774.4,604.7 776.2,604.5 778.0,604.1 779.8,603.7 781.6,603.3 783.4,602.8 785.2,602.3 787.0,601.7 788.8,601.1 790.6,600.5
792.4,599.9 794.2,599.2 796.0,598.6 797.8,597.9 799.6,597.3 801.4,596.7 803.2,596.1 805.0,595.5 806.8,595.0 808.6,594.5 810.4,594.1 812.2,593.7 814.0,593.4 815.8,593.1 817.6,592.9 819.4,592.7
821.2,592.6 823.0,592.6 824.8,592.7 826.6,592.9 828.4,593.1 830.2,593.4 832.0,593.8 833.8,594.3 835.6,594.9 837.4,595.5 839.2,596.3 841.0,597.1 842.8,598.0 844.6,598.9 846.4,600.0 848.2,601.1
850.0,602.2 851.8,603.5 853.6,604.7 855.4,606.1 857.2,607.5 859.0,608.9 860.8,610.4 862.6,611.9 864.4,613.4 866.2,615.0 868.0,616.5 869.8,618.1 871.6,619.7 873.4,621.3 875.2,622.9 877.0,624.5
878.8,626.1 880.6,627.7 882.4,629.3 884.2,630.8 886.0,632.3 887.8,633.8 889.6,635.2 891.4,636.7 893.2,638.0 895.0,639.4 896.9,640.7 898.7,641.9 900.5,643.2 902.3,644.3 904.1,645.5 905.9,646.5
907.7,647.6 909.5,648.6 911.3,649.5 913.1,650.4 914.9,651.2 916.7,652.1 918.5,652.8 920.3,653.5 922.1,654.2 923.9,654.9 925.7,655.5 927.5,656.0 929.3,656.6 931.1,657.0 932.9,657.5 934.7,657.9
936.5,658.3 938.3,658.7 940.1,659.0 941.9,659.3 943.7,659.6 945.5,659.9 947.3,660.1 949.1,660.4 950.9,660.6 952.7,660.7 954.5,660.9 956.3,661.1 958.1,661.2 959.9,661.3 961.7,661.4 963.5,661.6
965.3,661.6 967.1,661.7 968.9,661.8 970.7,661.9 970.7,662.4 968.9,662.4 967.1,662.4 965.3,662.4 963.5,662.4 961.7,662.4 959.9,662.4 958.1,662.4 956.3,662.4 954.5,662.4 952.7,662.4 950.9,662.4
949.1,662.4 947.3,662.4 945.5,662.4 943.7,662.4 941.9,662.4 940.1,662.4 938.3,662.4 936.5,662.4 934.7,662.4 932.9,662.4 931.1,662.4 929.3,662.4 927.5,662.4 925.7,662.4 923.9,662.4 922.1,662.4
920.3,662.4 918.5,662.4 916.7,662.4 914.9,662.4 913.1,662.4 911.3,662.4 909.5,662.4 907.7,662.4 905.9,662.4 904.1,662.4 902.3,662.4 900.5,662.4 898.7,662.4 896.9,662.4 895.0,662.4 893.2,662.4
891.4,662.4 889.6,662.4 887.8,662.4 886.0,662.4 884.2,662.4 882.4,662.4 880.6,662.4 878.8,662.4 877.0,662.4 875.2,662.4 873.4,662.4 871.6,662.4 869.8,662.4 868.0,662.4 866.2,662.4 864.4,662.4
862.6,662.4 860.8,662.4 859.0,662.4 857.2,662.4 855.4,662.4 853.6,662.4 851.8,662.4 850.0,662.4 848.2,662.4 846.4,662.4 844.6,662.4 842.8,662.4 841.0,662.4 839.2,662.4 837.4,662.4 835.6,662.4
833.8,662.4 832.0,662.4 830.2,662.4 828.4,662.4 826.6,662.4 824.8,662.4 823.0,662.4 821.2,662.4 819.4,662.4 817.6,662.4 815.8,662.4 814.0,662.4 812.2,662.4 810.4,662.4 808.6,662.4 806.8,662.4
805.0,662.4 803.2,662.4 801.4,662.4 799.6,662.4 797.8,662.4 796.0,662.4 794.2,662.4 792.4,662.4 790.6,662.4 788.8,662.4 787.0,662.4 785.2,662.4 783.4,662.4 781.6,662.4 779.8,662.4 778.0,662.4
776.2,662.4 774.4,662.4 772.6,662.4 770.8,662.4 769.0,662.4 767.2,662.4 765.4,662.4 763.6,662.4 761.8,662.4 760.0,662.4 758.2,662.4 756.4,662.4 754.6,662.4 752.8,662.4 751.0,662.4 749.2,662.4
747.4,662.4 745.5,662.4 743.7,662.4 741.9,662.4 740.1,662.4 738.3,662.4 736.5,662.4 734.7,662.4 732.9,662.4 731.1,662.4 729.3,662.4 727.5,662.4 725.7,662.4 723.9,662.4 722.1,662.4 720.3,662.4
718.5,662.4 716.7,662.4 714.9,662.4 713.1,662.4 711.3,662.4 709.5,662.4 707.7,662.4 705.9,662.4 704.1,662.4 702.3,662.4 700.5,662.4 698.7,662.4 696.9,662.4 695.1,662.4 693.3,662.4 691.5,662.4
689.7,662.4 687.9,662.4 686.1,662.4 684.3,662.4 682.5,662.4 680.7,662.4 678.9,662.4 677.1,662.4 675.3,662.4 673.5,662.4 671.7,662.4 669.9,662.4 668.1,662.4 666.3,662.4 664.5,662.4 662.7,662.4
660.9,662.4 659.1,662.4 657.3,662.4 655.5,662.4 653.7,662.4 651.9,662.4 650.1,662.4 648.3,662.4 646.5,662.4 644.7,662.4 642.9,662.4 641.1,662.4 639.3,662.4 637.5,662.4 635.7,662.4 633.9,662.4
632.1,662.4 630.3,662.4 628.5,662.4 626.7,662.4 624.9,662.4 623.1,662.4 621.3,662.4 619.5,662.4 617.7,662.4 615.9,662.4 614.1,662.4 612.3,662.4 610.5,662.4 608.7,662.4 606.9,662.4 605.1,662.4
603.3,662.4 601.5,662.4 599.7,662.4 597.9,662.4 596.0,662.4 594.2,662.4 592.4,662.4 590.6,662.4 588.8,662.4 587.0,662.4 585.2,662.4 583.4,662.4 581.6,662.4 579.8,662.4 578.0,662.4 576.2,662.4
574.4,662.4 572.6,662.4 570.8,662.4 569.0,662.4 567.2,662.4 565.4,662.4 563.6,662.4 561.8,662.4 560.0,662.4 558.2,662.4 556.4,662.4 554.6,662.4 552.8,662.4 551.0,662.4 549.2,662.4 547.4,662.4
545.6,662.4 543.8,662.4 542.0,662.4 540.2,662.4 538.4,662.4 536.6,662.4 534.8,662.4 533.0,662.4 531.2,662.4 529.4,662.4 527.6,662.4 525.8,662.4 524.0,662.4 522.2,662.4 520.4,662.4 518.6,662.4
516.8,662.4 515.0,662.4 513.2,662.4 511.4,662.4 509.6,662.4 507.8,662.4 506.0,662.4 504.2,662.4 502.4,662.4 500.6,662.4 498.8,662.4 497.0,662.4 495.2,662.4 493.4,662.4 491.6,662.4 489.8,662.4
488.0,662.4 486.2,662.4 484.4,662.4 482.6,662.4 480.8,662.4 479.0,662.4 477.2,662.4 475.4,662.4 473.6,662.4 471.8,662.4 470.0,662.4 468.2,662.4 466.4,662.4 464.6,662.4 462.8,662.4 461.0,662.4
459.2,662.4 457.4,662.4 455.6,662.4 453.8,662.4 452.0,662.4 450.2,662.4 448.4,662.4 446.6,662.4 444.7,662.4 442.9,662.4 441.1,662.4 439.3,662.4 437.5,662.4 435.7,662.4 433.9,662.4 432.1,662.4
430.3,662.4 428.5,662.4 426.7,662.4 424.9,662.4 423.1,662.4 421.3,662.4 419.5,662.4 417.7,662.4 415.9,662.4 414.1,662.4 412.3,662.4 410.5,662.4 408.7,662.4 406.9,662.4 405.1,662.4 403.3,662.4
401.5,662.4 399.7,662.4 397.9,662.4 396.1,662.4 394.3,662.4 392.5,662.4 390.7,662.4 388.9,662.4 387.1,662.4 385.3,662.4 383.5,662.4 381.7,662.4 379.9,662.4 378.1,662.4 376.3,662.4 374.5,662.4
372.7,662.4 370.9,662.4 369.1,662.4 367.3,662.4 365.5,662.4 363.7,662.4 361.9,662.4 360.1,662.4 358.3,662.4 356.5,662.4 354.7,662.4 352.9,662.4 351.1,662.4 349.3,662.4 347.5,662.4 345.7,662.4
343.9,662.4 342.1,662.4 340.3,662.4 338.5,662.4 336.7,662.4 334.9,662.4 333.1,662.4 331.3,662.4 329.5,662.4 327.7,662.4 325.9,662.4 324.1,662.4 322.3,662.4 320.5,662.4 318.7,662.4 316.9,662.4
315.1,662.4 313.3,662.4 311.5,662.4 309.7,662.4 307.9,662.4 306.1,662.4 304.3,662.4 302.5,662.4 300.7,662.4 298.9,662.4 297.1,662.4 295.2,662.4 293.4,662.4 291.6,662.4 289.8,662.4 288.0,662.4
286.2,662.4 284.4,662.4 282.6,662.4 280.8,662.4 279.0,662.4 277.2,662.4 275.4,662.4 273.6,662.4 271.8,662.4 270.0,662.4 268.2,662.4 266.4,662.4 264.6,662.4 262.8,662.4 261.0,662.4 259.2,662.4
257.4,662.4 255.6,662.4 253.8,662.4 252.0,662.4 250.2,662.4 248.4,662.4 246.6,662.4 244.8,662.4 243.0,662.4 241.2,662.4 239.4,662.4 237.6,662.4 235.8,662.4 234.0,662.4 232.2,662.4 230.4,662.4
228.6,662.4 226.8,662.4 225.0,662.4 223.2,662.4 221.4,662.4 219.6,662.4 217.8,662.4 216.0,662.4 214.2,662.4 212.4,662.4 210.6,662.4 208.8,662.4 207.0,662.4 205.2,662.4 203.4,662.4 201.6,662.4
199.8,662.4 198.0,662.4 196.2,662.4 194.4,662.4 192.6,662.4 190.8,662.4 189.0,662.4 187.2,662.4 185.4,662.4 183.6,662.4 181.8,662.4 180.0,662.4 178.2,662.4 176.4,662.4 174.6,662.4 172.8,662.4
171.0,662.4 169.2,662.4 167.4,662.4 165.6,662.4 163.8,662.4 162.0,662.4 160.2,662.4 158.4,662.4 156.6,662.4 154.8,662.4 153.0,662.4 151.2,662.4 149.4,662.4 147.6,662.4 145.7,662.4 143.9,662.4
142.1,662.4 140.3,662.4 138.5,662.4 136.7,662.4 134.9,662.4 133.1,662.4 131.3,662.4 129.5,662.4 127.7,662.4 125.9,662.4 124.1,662.4 122.3,662.4 120.5,662.4 118.7,662.4 116.9,662.4 115.1,662.4
113.3,662.4 111.5,662.4 109.7,662.4 107.9,662.4 106.1,662.4 104.3,662.4 102.5,662.4 100.7,662.4 98.9,662.4 97.1,662.4 95.3,662.4 93.5,662.4 91.7,662.4 89.9,662.4 88.1,662.4 86.3,662.4
84.5,662.4 82.7,662.4 80.9,662.4 79.1,662.4 77.3,662.4 75.5,662.4 73.7,662.4 71.9,662.4 '/>
	</g>
</g>
	</g>
	<g id="gnuplot_plot_2" ><title>Mean</title>
<g fill="none" color="white" stroke="rgb( 31, 120, 180)" stroke-width="2.00" stroke-linecap="butt" stroke-linejoin="miter">
</g>
<g fill="none" color="black" stroke="currentColor" stroke-width="2.00" stroke-linecap="butt" stroke-linejoin="miter">
	<g transform="translate(1147.1,85.0)" stroke="none" fill="black" font-family="Helvetica" font-size="12.00"  text-anchor="start">
		<text><tspan font-family="Helvetica" >Mean</tspan></text>
	</g>
</g>
<g fill="none" color="black" stroke="currentColor" stroke-width="2.00" stroke-linecap="butt" stroke-linejoin="miter">
	<path stroke='rgb( 31, 120, 180)'  d='M1096.6,81.1 L1138.8,81.1 M615.5,662.4 L615.5,54.1  '/></g>
	</g>
	<g id="gnuplot_plot_3" ><title>"Clean" sample</title>
<g fill="none" color="white" stroke="rgb( 31, 120, 180)" stroke-width="1.00" stroke-linecap="butt" stroke-linejoin="miter">
</g>
<g fill="none" color="black" stroke="currentColor" stroke-width="1.00" stroke-linecap="butt" stroke-linejoin="miter">
	<g transform="translate(1147.1,103.0)" stroke="none" fill="black" font-family="Helvetica" font-size="12.00"  text-anchor="start">
		<text><tspan font-family="Helvetica" >"Clean" sample</tspan></text>
	</g>
</g>
<g fill="none" color="black" stroke="currentColor" stroke-width="1.00" stroke-linecap="butt" stroke-linejoin="miter">
	<use xlink:href='#gpPt6' transform='translate(590.5,619.8) scale(3.38)' color='rgb( 31, 120, 180)'/>
	<use xlink:href='#gpPt6' transform='translate(686.7,613.7) scale(3.38)' color='rgb( 31, 120, 180)'/>
	<use xlink:href='#gpPt6' transform='translate(697.8,595.5) scale(3.38)' color='rgb( 31, 120, 180)'/>
	<use xlink:href='#gpPt6' transform='translate(675.1,589.4) scale(3.38)' color='rgb( 31, 120, 180)'/>
	<use xlink:href='#gpPt6' transform='translate(674.7,583.3) scale(3.38)' color='rgb( 31, 120, 180)'/>
	<use xlink:href='#gpPt6' transform='translate(656.8,577.2) scale(3.38)' color='rgb( 31, 120, 180)'/>
	<use xlink:href='#gpPt6' transform='translate(659.9,571.2) scale(3.38)' color='rgb( 31, 120, 180)'/>
	<use xlink:href='#gpPt6' transform='translate(642.6,565.1) scale(3.38)' color='rgb( 31, 120, 180)'/>
	<use xlink:href='#gpPt6' transform='translate(664.2,559.0) scale(3.38)' color='rgb( 31, 120, 180)'/>
	<use xlink:href='#gpPt6' transform='translate(640.8,552.9) scale(3.38)' color='rgb( 31, 120, 180)'/>
	<use xlink:href='#gpPt6' transform='translate(648.4,546.8) scale(3.38)' color='rgb( 31, 120, 180)'/>
	<use xlink:href='#gpPt6' transform='translate(644.5,540.7) scale(3.38)' color='rgb( 31, 120, 180)'/>
	<use xlink:href='#gpPt6' transform='translate(658.8,534.7) scale(3.38)' color='rgb( 31, 120, 180)'/>
	<use xlink:href='#gpPt6' transform='translate(664.1,528.6) scale(3.38)' color='rgb( 31, 120, 180)'/>
	<use xlink:href='#gpPt6' transform='translate(640.1,522.5) scale(3.38)' color='rgb( 31, 120, 180)'/>
	<use xlink:href='#gpPt6' transform='translate(647.6,516.4) scale(3.38)' color='rgb( 31, 120, 180)'/>
	<use xlink:href='#gpPt6' transform='translate(632.7,510.3) scale(3.38)' color='rgb( 31, 120, 180)'/>
	<use xlink:href='#gpPt6' transform='translate(637.3,504.2) scale(3.38)' color='rgb( 31, 120, 180)'/>
	<use xlink:href='#gpPt6' transform='translate(632.2,498.2) scale(3.38)' color='rgb( 31, 120, 180)'/>
	<use xlink:href='#gpPt6' transform='translate(637.8,492.1) scale(3.38)' color='rgb( 31, 120, 180)'/>
	<use xlink:href='#gpPt6' transform='translate(618.2,486.0) scale(3.38)' color='rgb( 31, 120, 180)'/>
	<use xlink:href='#gpPt6' transform='translate(614.5,479.9) scale(3.38)' color='rgb( 31, 120, 180)'/>
	<use xlink:href='#gpPt6' transform='translate(619.5,473.8) scale(3.38)' color='rgb( 31, 120, 180)'/>
	<use xlink:href='#gpPt6' transform='translate(624.2,467.7) scale(3.38)' color='rgb( 31, 120, 180)'/>
	<use xlink:href='#gpPt6' transform='translate(616.6,461.7) scale(3.38)' color='rgb( 31, 120, 180)'/>
	<use xlink:href='#gpPt6' transform='translate(629.1,455.6) scale(3.38)' color='rgb( 31, 120, 180)'/>
	<use xlink:href='#gpPt6' transform='translate(615.1,449.5) scale(3.38)' color='rgb( 31, 120, 180)'/>
	<use xlink:href='#gpPt6' transform='translate(619.0,443.4) scale(3.38)' color='rgb( 31, 120, 180)'/>
	<use xlink:href='#gpPt6' transform='translate(614.0,437.3) scale(3.38)' color='rgb( 31, 120, 180)'/>
	<use xlink:href='#gpPt6' transform='translate(612.0,431.2) scale(3.38)' color='rgb( 31, 120, 180)'/>
	<use xlink:href='#gpPt6' transform='translate(618.9,425.2) scale(3.38)' color='rgb( 31, 120, 180)'/>
	<use xlink:href='#gpPt6' transform='translate(603.8,419.1) scale(3.38)' color='rgb( 31, 120, 180)'/>
	<use xlink:href='#gpPt6' transform='translate(605.6,413.0) scale(3.38)' color='rgb( 31, 120, 180)'/>
	<use xlink:href='#gpPt6' transform='translate(614.2,406.9) scale(3.38)' color='rgb( 31, 120, 180)'/>
	<use xlink:href='#gpPt6' transform='translate(609.3,400.8) scale(3.38)' color='rgb( 31, 120, 180)'/>
	<use xlink:href='#gpPt6' transform='translate(621.8,394.7) scale(3.38)' color='rgb( 31, 120, 180)'/>
	<use xlink:href='#gpPt6' transform='translate(610.7,388.7) scale(3.38)' color='rgb( 31, 120, 180)'/>
	<use xlink:href='#gpPt6' transform='translate(616.7,382.6) scale(3.38)' color='rgb( 31, 120, 180)'/>
	<use xlink:href='#gpPt6' transform='translate(611.6,376.5) scale(3.38)' color='rgb( 31, 120, 180)'/>
	<use xlink:href='#gpPt6' transform='translate(609.5,370.4) scale(3.38)' color='rgb( 31, 120, 180)'/>
	<use xlink:href='#gpPt6' transform='translate(599.8,364.3) scale(3.38)' color='rgb( 31, 120, 180)'/>
	<use xlink:href='#gpPt6' transform='translate(609.9,358.2) scale(3.38)' color='rgb( 31, 120, 180)'/>
	<use xlink:href='#gpPt6' transform='translate(605.2,352.2) scale(3.38)' color='rgb( 31, 120, 180)'/>
	<use xlink:href='#gpPt6' transform='translate(603.5,346.1) scale(3.38)' color='rgb( 31, 120, 180)'/>
	<use xlink:href='#gpPt6' transform='translate(608.3,340.0) scale(3.38)' color='rgb( 31, 120, 180)'/>
	<use xlink:href='#gpPt6' transform='translate(605.6,333.9) scale(3.38)' color='rgb( 31, 120, 180)'/>
	<use xlink:href='#gpPt6' transform='translate(592.2,327.8) scale(3.38)' color='rgb( 31, 120, 180)'/>
	<use xlink:href='#gpPt6' transform='translate(584.9,321.8) scale(3.38)' color='rgb( 31, 120, 180)'/>
	<use xlink:href='#gpPt6' transform='translate(598.1,315.7) scale(3.38)' color='rgb( 31, 120, 180)'/>
	<use xlink:href='#gpPt6' transform='translate(615.6,309.6) scale(3.38)' color='rgb( 31, 120, 180)'/>
	<use xlink:href='#gpPt6' transform='translate(603.9,303.5) scale(3.38)' color='rgb( 31, 120, 180)'/>
	<use xlink:href='#gpPt6' transform='translate(611.5,297.4) scale(3.38)' color='rgb( 31, 120, 180)'/>
	<use xlink:href='#gpPt6' transform='translate(590.0,291.3) scale(3.38)' color='rgb( 31, 120, 180)'/>
	<use xlink:href='#gpPt6' transform='translate(595.5,285.3) scale(3.38)' color='rgb( 31, 120, 180)'/>
	<use xlink:href='#gpPt6' transform='translate(595.7,279.2) scale(3.38)' color='rgb( 31, 120, 180)'/>
	<use xlink:href='#gpPt6' transform='translate(606.3,273.1) scale(3.38)' color='rgb( 31, 120, 180)'/>
	<use xlink:href='#gpPt6' transform='translate(594.8,267.0) scale(3.38)' color='rgb( 31, 120, 180)'/>
	<use xlink:href='#gpPt6' transform='translate(581.0,260.9) scale(3.38)' color='rgb( 31, 120, 180)'/>
	<use xlink:href='#gpPt6' transform='translate(589.6,254.8) scale(3.38)' color='rgb( 31, 120, 180)'/>
	<use xlink:href='#gpPt6' transform='translate(597.2,248.8) scale(3.38)' color='rgb( 31, 120, 180)'/>
	<use xlink:href='#gpPt6' transform='translate(591.4,242.7) scale(3.38)' color='rgb( 31, 120, 180)'/>
	<use xlink:href='#gpPt6' transform='translate(590.5,236.6) scale(3.38)' color='rgb( 31, 120, 180)'/>
	<use xlink:href='#gpPt6' transform='translate(588.7,230.5) scale(3.38)' color='rgb( 31, 120, 180)'/>
	<use xlink:href='#gpPt6' transform='translate(596.2,224.4) scale(3.38)' color='rgb( 31, 120, 180)'/>
	<use xlink:href='#gpPt6' transform='translate(577.8,218.3) scale(3.38)' color='rgb( 31, 120, 180)'/>
	<use xlink:href='#gpPt6' transform='translate(579.7,212.3) scale(3.38)' color='rgb( 31, 120, 180)'/>
	<use xlink:href='#gpPt6' transform='translate(585.9,206.2) scale(3.38)' color='rgb( 31, 120, 180)'/>
	<use xlink:href='#gpPt6' transform='translate(584.3,200.1) scale(3.38)' color='rgb( 31, 120, 180)'/>
	<use xlink:href='#gpPt6' transform='translate(583.4,194.0) scale(3.38)' color='rgb( 31, 120, 180)'/>
	<use xlink:href='#gpPt6' transform='translate(596.0,187.9) scale(3.38)' color='rgb( 31, 120, 180)'/>
	<use xlink:href='#gpPt6' transform='translate(592.1,181.8) scale(3.38)' color='rgb( 31, 120, 180)'/>
	<use xlink:href='#gpPt6' transform='translate(582.2,175.8) scale(3.38)' color='rgb( 31, 120, 180)'/>
	<use xlink:href='#gpPt6' transform='translate(585.5,169.7) scale(3.38)' color='rgb( 31, 120, 180)'/>
	<use xlink:href='#gpPt6' transform='translate(584.7,163.6) scale(3.38)' color='rgb( 31, 120, 180)'/>
	<use xlink:href='#gpPt6' transform='translate(586.4,157.5) scale(3.38)' color='rgb( 31, 120, 180)'/>
	<use xlink:href='#gpPt6' transform='translate(593.7,151.4) scale(3.38)' color='rgb( 31, 120, 180)'/>
	<use xlink:href='#gpPt6' transform='translate(592.0,145.3) scale(3.38)' color='rgb( 31, 120, 180)'/>
	<use xlink:href='#gpPt6' transform='translate(598.4,139.3) scale(3.38)' color='rgb( 31, 120, 180)'/>
	<use xlink:href='#gpPt6' transform='translate(593.4,133.2) scale(3.38)' color='rgb( 31, 120, 180)'/>
	<use xlink:href='#gpPt6' transform='translate(584.2,127.1) scale(3.38)' color='rgb( 31, 120, 180)'/>
	<use xlink:href='#gpPt6' transform='translate(596.0,121.0) scale(3.38)' color='rgb( 31, 120, 180)'/>
	<use xlink:href='#gpPt6' transform='translate(586.3,114.9) scale(3.38)' color='rgb( 31, 120, 180)'/>
	<use xlink:href='#gpPt6' transform='translate(648.3,108.8) scale(3.38)' color='rgb( 31, 120, 180)'/>
	<use xlink:href='#gpPt6' transform='translate(1117.7,99.1) scale(3.38)' color='rgb( 31, 120, 180)'/>
</g>
	</g>
	<g id="gnuplot_plot_4" ><title>Mild outliers</title>
<g fill="none" color="black" stroke="currentColor" stroke-width="1.00" stroke-linecap="butt" stroke-linejoin="miter">
	<g transform="translate(1147.1,121.0)" stroke="none" fill="black" font-family="Helvetica" font-size="12.00"  text-anchor="start">
		<text><tspan font-family="Helvetica" >Mild outliers</tspan></text>
	</g>
</g>
<g fill="none" color="black" stroke="currentColor" stroke-width="1.00" stroke-linecap="butt" stroke-linejoin="miter">
	<use xlink:href='#gpPt6' transform='translate(448.3,656.3) scale(3.38)' color='rgb(255, 127,   0)'/>
	<use xlink:href='#gpPt6' transform='translate(725.6,607.7) scale(3.38)' color='rgb(255, 127,   0)'/>
	<use xlink:href='#gpPt6' transform='translate(737.7,601.6) scale(3.38)' color='rgb(255, 127,   0)'/>
	<use xlink:href='#gpPt6' transform='translate(756.0,102.8) scale(3.38)' color='rgb(255, 127,   0)'/>
	<use xlink:href='#gpPt6' transform='translate(1117.7,117.1) scale(3.38)' color='rgb(255, 127,   0)'/>
</g>
	</g>
	<g id="gnuplot_plot_5" ><title>Severe outliers</title>
<g fill="none" color="black" stroke="currentColor" stroke-width="1.00" stroke-linecap="butt" stroke-linejoin="miter">
	<g transform="translate(1147.1,139.0)" stroke="none" fill="black" font-family="Helvetica" font-size="12.00"  text-anchor="start">
		<text><tspan font-family="Helvetica" >Severe outliers</tspan></text>
	</g>
</g>
<g fill="none" color="black" stroke="currentColor" stroke-width="1.00" stroke-linecap="butt" stroke-linejoin="miter">
	<use xlink:href='#gpPt6' transform='translate(207.9,650.2) scale(3.38)' color='rgb(227,  26,  28)'/>
	<use xlink:href='#gpPt6' transform='translate(215.1,644.2) scale(3.38)' color='rgb(227,  26,  28)'/>
	<use xlink:href='#gpPt6' transform='translate(214.1,638.1) scale(3.38)' color='rgb(227,  26,  28)'/>
	<use xlink:href='#gpPt6' transform='translate(281.7,632.0) scale(3.38)' color='rgb(227,  26,  28)'/>
	<use xlink:href='#gpPt6' transform='translate(408.7,625.9) scale(3.38)' color='rgb(227,  26,  28)'/>
	<use xlink:href='#gpPt6' transform='translate(822.6,96.7) scale(3.38)' color='rgb(227,  26,  28)'/>
	<use xlink:href='#gpPt6' transform='translate(826.4,90.6) scale(3.38)' color='rgb(227,  26,  28)'/>
	<use xlink:href='#gpPt6' transform='translate(834.7,84.5) scale(3.38)' color='rgb(227,  26,  28)'/>
	<use xlink:href='#gpPt6' transform='translate(825.6,78.4) scale(3.38)' color='rgb(227,  26,  28)'/>
	<use xlink:href='#gpPt6' transform='translate(833.9,72.3) scale(3.38)' color='rgb(227,  26,  28)'/>
	<use xlink:href='#gpPt6' transform='translate(833.7,66.3) scale(3.38)' color='rgb(227,  26,  28)'/>
	<use xlink:href='#gpPt6' transform='translate(832.2,60.2) scale(3.38)' color='rgb(227,  26,  28)'/>
	<use xlink:href='#gpPt6' transform='translate(825.2,54.1) scale(3.38)' color='rgb(227,  26,  28)'/>
	<use xlink:href='#gpPt6' transform='translate(1117.7,135.1) scale(3.38)' color='rgb(227,  26,  28)'/>
</g>
	</g>
	<g id="gnuplot_plot_6" ><title>gnuplot_plot_6</title>
<g fill="none" color="white" stroke="rgb(227,  26,  28)" stroke-width="2.00" stroke-linecap="butt" stroke-linejoin="miter">
</g>
<g fill="none" color="black" stroke="currentColor" stroke-width="2.00" stroke-linecap="butt" stroke-linejoin="miter">
	<path stroke='rgb(255, 127,   0)'  d='M517.7,662.4 L517.7,54.1  '/></g>
	</g>
	<g id="gnuplot_plot_7" ><title>gnuplot_plot_7</title>
<g fill="none" color="black" stroke="currentColor" stroke-width="2.00" stroke-linecap="butt" stroke-linejoin="miter">
	<path stroke='rgb(255, 127,   0)'  d='M715.4,662.4 L715.4,54.1  '/></g>
	</g>
	<g id="gnuplot_plot_8" ><title>gnuplot_plot_8</title>
<g fill="none" color="black" stroke="currentColor" stroke-width="2.00" stroke-linecap="butt" stroke-linejoin="miter">
	<path stroke='rgb(227,  26,  28)'  d='M443.6,662.4 L443.6,54.1  '/></g>
	</g>
	<g id="gnuplot_plot_9" ><title>gnuplot_plot_9</title>
<g fill="none" color="black" stroke="currentColor" stroke-width="2.00" stroke-linecap="butt" stroke-linejoin="miter">
	<path stroke='rgb(227,  26,  28)'  d='M789.6,662.4 L789.6,54.1  '/></g>
	</g>
<g fill="none" color="black" stroke="currentColor" stroke-width="2.00" stroke-linecap="butt" stroke-linejoin="miter">
</g>
<g fill="none" color="black" stroke="black" stroke-width="1.00" stroke-linecap="butt" stroke-linejoin="miter">
</g>
<g fill="none" color="black" stroke="currentColor" stroke-width="1.00" stroke-linecap="butt" stroke-linejoin="miter">
	<path stroke='black'  d='M71.9,54.1 L71.9,662.4 L970.7,662.4 L970.7,54.1 L71.9,54.1 Z  '/></g>
<g fill="none" color="black" stroke="currentColor" stroke-width="1.00" stroke-linecap="butt" stroke-linejoin="miter">
</g>
</g>
</svg>

