<?xml version="1.0" encoding="utf-8"  standalone="no"?>
<svg 
 viewBox="0 0 1280 720"
 xmlns="http://www.w3.org/2000/svg"
 xmlns:xlink="http://www.w3.org/1999/xlink"
>

<title>Gnuplot</title>
<desc>Produced by GNUPLOT 5.2 patchlevel 2 </desc>

<g id="gnuplot_canvas">

<rect x="0" y="0" width="1280" height="720" fill="none"/>
<defs>

	<circle id='gpDot' r='0.5' stroke-width='0.5'/>
	<path id='gpPt0' stroke-width='0.222' stroke='currentColor' d='M-1,0 h2 M0,-1 v2'/>
	<path id='gpPt1' stroke-width='0.222' stroke='currentColor' d='M-1,-1 L1,1 M1,-1 L-1,1'/>
	<path id='gpPt2' stroke-width='0.222' stroke='currentColor' d='M-1,0 L1,0 M0,-1 L0,1 M-1,-1 L1,1 M-1,1 L1,-1'/>
	<rect id='gpPt3' stroke-width='0.222' stroke='currentColor' x='-1' y='-1' width='2' height='2'/>
	<rect id='gpPt4' stroke-width='0.222' stroke='currentColor' fill='currentColor' x='-1' y='-1' width='2' height='2'/>
	<circle id='gpPt5' stroke-width='0.222' stroke='currentColor' cx='0' cy='0' r='1'/>
	<use xlink:href='#gpPt5' id='gpPt6' fill='currentColor' stroke='none'/>
	<path id='gpPt7' stroke-width='0.222' stroke='currentColor' d='M0,-1.33 L-1.33,0.67 L1.33,0.67 z'/>
	<use xlink:href='#gpPt7' id='gpPt8' fill='currentColor' stroke='none'/>
	<use xlink:href='#gpPt7' id='gpPt9' stroke='currentColor' transform='rotate(180)'/>
	<use xlink:href='#gpPt9' id='gpPt10' fill='currentColor' stroke='none'/>
	<use xlink:href='#gpPt3' id='gpPt11' stroke='currentColor' transform='rotate(45)'/>
	<use xlink:href='#gpPt11' id='gpPt12' fill='currentColor' stroke='none'/>
	<path id='gpPt13' stroke-width='0.222' stroke='currentColor' d='M0,1.330 L1.265,0.411 L0.782,-1.067 L-0.782,-1.076 L-1.265,0.411 z'/>
	<use xlink:href='#gpPt13' id='gpPt14' fill='currentColor' stroke='none'/>
	<filter id='textbox' filterUnits='objectBoundingBox' x='0' y='0' height='1' width='1'>
	  <feFlood flood-color='white' flood-opacity='1' result='bgnd'/>
	  <feComposite in='SourceGraphic' in2='bgnd' operator='atop'/>
	</filter>
	<filter id='greybox' filterUnits='objectBoundingBox' x='0' y='0' height='1' width='1'>
	  <feFlood flood-color='lightgrey' flood-opacity='1' result='grey'/>
	  <feComposite in='SourceGraphic' in2='grey' operator='atop'/>
	</filter>
</defs>
<g fill="none" color="white" stroke="currentColor" stroke-width="1.00" stroke-linecap="butt" stroke-linejoin="miter">
</g>
<g fill="none" color="black" stroke="currentColor" stroke-width="1.00" stroke-linecap="butt" stroke-linejoin="miter">
	<path stroke='black'  d='M71.9,662.4 L80.9,662.4  '/>	<g transform="translate(63.6,666.3)" stroke="none" fill="black" font-family="Helvetica" font-size="12.00"  text-anchor="end">
		<text><tspan font-family="Helvetica" > 0</tspan></text>
	</g>
</g>
<g fill="none" color="black" stroke="currentColor" stroke-width="1.00" stroke-linecap="butt" stroke-linejoin="miter">
	<path stroke='black'  d='M71.9,534.1 L80.9,534.1  '/>	<g transform="translate(63.6,538.0)" stroke="none" fill="black" font-family="Helvetica" font-size="12.00"  text-anchor="end">
		<text><tspan font-family="Helvetica" > 50</tspan></text>
	</g>
</g>
<g fill="none" color="black" stroke="currentColor" stroke-width="1.00" stroke-linecap="butt" stroke-linejoin="miter">
	<path stroke='black'  d='M71.9,405.8 L80.9,405.8  '/>	<g transform="translate(63.6,409.7)" stroke="none" fill="black" font-family="Helvetica" font-size="12.00"  text-anchor="end">
		<text><tspan font-family="Helvetica" > 100</tspan></text>
	</g>
</g>
<g fill="none" color="black" stroke="currentColor" stroke-width="1.00" stroke-linecap="butt" stroke-linejoin="miter">
	<path stroke='black'  d='M71.9,277.6 L80.9,277.6  '/>	<g transform="translate(63.6,281.5)" stroke="none" fill="black" font-family="Helvetica" font-size="12.00"  text-anchor="end">
		<text><tspan font-family="Helvetica" > 150</tspan></text>
	</g>
</g>
<g fill="none" color="black" stroke="currentColor" stroke-width="1.00" stroke-linecap="butt" stroke-linejoin="miter">
	<path stroke='black'  d='M71.9,149.3 L80.9,149.3  '/>	<g transform="translate(63.6,153.2)" stroke="none" fill="black" font-family="Helvetica" font-size="12.00"  text-anchor="end">
		<text><tspan font-family="Helvetica" > 200</tspan></text>
	</g>
</g>
<g fill="none" color="black" stroke="currentColor" stroke-width="1.00" stroke-linecap="butt" stroke-linejoin="miter">
	<path stroke='black'  d='M131.5,662.4 L131.5,653.4  '/>	<g transform="translate(131.5,684.3)" stroke="none" fill="black" font-family="Helvetica" font-size="12.00"  text-anchor="middle">
		<text><tspan font-family="Helvetica" > 200000</tspan></text>
	</g>
</g>
<g fill="none" color="black" stroke="currentColor" stroke-width="1.00" stroke-linecap="butt" stroke-linejoin="miter">
	<path stroke='black'  d='M236.7,662.4 L236.7,653.4  '/>	<g transform="translate(236.7,684.3)" stroke="none" fill="black" font-family="Helvetica" font-size="12.00"  text-anchor="middle">
		<text><tspan font-family="Helvetica" > 300000</tspan></text>
	</g>
</g>
<g fill="none" color="black" stroke="currentColor" stroke-width="1.00" stroke-linecap="butt" stroke-linejoin="miter">
	<path stroke='black'  d='M342.0,662.4 L342.0,653.4  '/>	<g transform="translate(342.0,684.3)" stroke="none" fill="black" font-family="Helvetica" font-size="12.00"  text-anchor="middle">
		<text><tspan font-family="Helvetica" > 400000</tspan></text>
	</g>
</g>
<g fill="none" color="black" stroke="currentColor" stroke-width="1.00" stroke-linecap="butt" stroke-linejoin="miter">
	<path stroke='black'  d='M447.2,662.4 L447.2,653.4  '/>	<g transform="translate(447.2,684.3)" stroke="none" fill="black" font-family="Helvetica" font-size="12.00"  text-anchor="middle">
		<text><tspan font-family="Helvetica" > 500000</tspan></text>
	</g>
</g>
<g fill="none" color="black" stroke="currentColor" stroke-width="1.00" stroke-linecap="butt" stroke-linejoin="miter">
	<path stroke='black'  d='M552.4,662.4 L552.4,653.4  '/>	<g transform="translate(552.4,684.3)" stroke="none" fill="black" font-family="Helvetica" font-size="12.00"  text-anchor="middle">
		<text><tspan font-family="Helvetica" > 600000</tspan></text>
	</g>
</g>
<g fill="none" color="black" stroke="currentColor" stroke-width="1.00" stroke-linecap="butt" stroke-linejoin="miter">
	<path stroke='black'  d='M657.7,662.4 L657.7,653.4  '/>	<g transform="translate(657.7,684.3)" stroke="none" fill="black" font-family="Helvetica" font-size="12.00"  text-anchor="middle">
		<text><tspan font-family="Helvetica" > 700000</tspan></text>
	</g>
</g>
<g fill="none" color="black" stroke="currentColor" stroke-width="1.00" stroke-linecap="butt" stroke-linejoin="miter">
	<path stroke='black'  d='M762.9,662.4 L762.9,653.4  '/>	<g transform="translate(762.9,684.3)" stroke="none" fill="black" font-family="Helvetica" font-size="12.00"  text-anchor="middle">
		<text><tspan font-family="Helvetica" > 800000</tspan></text>
	</g>
</g>
<g fill="none" color="black" stroke="currentColor" stroke-width="1.00" stroke-linecap="butt" stroke-linejoin="miter">
	<path stroke='black'  d='M868.2,662.4 L868.2,653.4  '/>	<g transform="translate(868.2,684.3)" stroke="none" fill="black" font-family="Helvetica" font-size="12.00"  text-anchor="middle">
		<text><tspan font-family="Helvetica" > 900000</tspan></text>
	</g>
</g>
<g fill="none" color="black" stroke="currentColor" stroke-width="1.00" stroke-linecap="butt" stroke-linejoin="miter">
	<path stroke='black'  d='M973.4,662.4 L973.4,653.4  '/>	<g transform="translate(973.4,684.3)" stroke="none" fill="black" font-family="Helvetica" font-size="12.00"  text-anchor="middle">
		<text><tspan font-family="Helvetica" > 1x10</tspan><tspan font-family="Helvetica"  font-size="9.6" dy="-6.00px">6</tspan><tspan font-size="12.0" dy="6.00"></tspan></text>
	</g>
</g>
<g fill="none" color="black" stroke="currentColor" stroke-width="1.00" stroke-linecap="butt" stroke-linejoin="miter">
	<path stroke='black'  d='M987.3,662.4 L978.3,662.4  '/>	<g transform="translate(995.6,666.3)" stroke="none" fill="black" font-family="Helvetica" font-size="12.00"  text-anchor="start">
		<text><tspan font-family="Helvetica" > 0</tspan></text>
	</g>
</g>
<g fill="none" color="black" stroke="currentColor" stroke-width="1.00" stroke-linecap="butt" stroke-linejoin="miter">
	<path stroke='black'  d='M987.3,601.6 L978.3,601.6  '/>	<g transform="translate(995.6,605.5)" stroke="none" fill="black" font-family="Helvetica" font-size="12.00"  text-anchor="start">
		<text><tspan font-family="Helvetica" > 1x10</tspan><tspan font-family="Helvetica"  font-size="9.6" dy="-6.00px">-6</tspan><tspan font-size="12.0" dy="6.00"></tspan></text>
	</g>
</g>
<g fill="none" color="black" stroke="currentColor" stroke-width="1.00" stroke-linecap="butt" stroke-linejoin="miter">
	<path stroke='black'  d='M987.3,540.7 L978.3,540.7  '/>	<g transform="translate(995.6,544.6)" stroke="none" fill="black" font-family="Helvetica" font-size="12.00"  text-anchor="start">
		<text><tspan font-family="Helvetica" > 2x10</tspan><tspan font-family="Helvetica"  font-size="9.6" dy="-6.00px">-6</tspan><tspan font-size="12.0" dy="6.00"></tspan></text>
	</g>
</g>
<g fill="none" color="black" stroke="currentColor" stroke-width="1.00" stroke-linecap="butt" stroke-linejoin="miter">
	<path stroke='black'  d='M987.3,479.9 L978.3,479.9  '/>	<g transform="translate(995.6,483.8)" stroke="none" fill="black" font-family="Helvetica" font-size="12.00"  text-anchor="start">
		<text><tspan font-family="Helvetica" > 3x10</tspan><tspan font-family="Helvetica"  font-size="9.6" dy="-6.00px">-6</tspan><tspan font-size="12.0" dy="6.00"></tspan></text>
	</g>
</g>
<g fill="none" color="black" stroke="currentColor" stroke-width="1.00" stroke-linecap="butt" stroke-linejoin="miter">
	<path stroke='black'  d='M987.3,419.1 L978.3,419.1  '/>	<g transform="translate(995.6,423.0)" stroke="none" fill="black" font-family="Helvetica" font-size="12.00"  text-anchor="start">
		<text><tspan font-family="Helvetica" > 4x10</tspan><tspan font-family="Helvetica"  font-size="9.6" dy="-6.00px">-6</tspan><tspan font-size="12.0" dy="6.00"></tspan></text>
	</g>
</g>
<g fill="none" color="black" stroke="currentColor" stroke-width="1.00" stroke-linecap="butt" stroke-linejoin="miter">
	<path stroke='black'  d='M987.3,358.3 L978.3,358.3  '/>	<g transform="translate(995.6,362.2)" stroke="none" fill="black" font-family="Helvetica" font-size="12.00"  text-anchor="start">
		<text><tspan font-family="Helvetica" > 5x10</tspan><tspan font-family="Helvetica"  font-size="9.6" dy="-6.00px">-6</tspan><tspan font-size="12.0" dy="6.00"></tspan></text>
	</g>
</g>
<g fill="none" color="black" stroke="currentColor" stroke-width="1.00" stroke-linecap="butt" stroke-linejoin="miter">
	<path stroke='black'  d='M987.3,297.4 L978.3,297.4  '/>	<g transform="translate(995.6,301.3)" stroke="none" fill="black" font-family="Helvetica" font-size="12.00"  text-anchor="start">
		<text><tspan font-family="Helvetica" > 6x10</tspan><tspan font-family="Helvetica"  font-size="9.6" dy="-6.00px">-6</tspan><tspan font-size="12.0" dy="6.00"></tspan></text>
	</g>
</g>
<g fill="none" color="black" stroke="currentColor" stroke-width="1.00" stroke-linecap="butt" stroke-linejoin="miter">
	<path stroke='black'  d='M987.3,236.6 L978.3,236.6  '/>	<g transform="translate(995.6,240.5)" stroke="none" fill="black" font-family="Helvetica" font-size="12.00"  text-anchor="start">
		<text><tspan font-family="Helvetica" > 7x10</tspan><tspan font-family="Helvetica"  font-size="9.6" dy="-6.00px">-6</tspan><tspan font-size="12.0" dy="6.00"></tspan></text>
	</g>
</g>
<g fill="none" color="black" stroke="currentColor" stroke-width="1.00" stroke-linecap="butt" stroke-linejoin="miter">
	<path stroke='black'  d='M987.3,175.8 L978.3,175.8  '/>	<g transform="translate(995.6,179.7)" stroke="none" fill="black" font-family="Helvetica" font-size="12.00"  text-anchor="start">
		<text><tspan font-family="Helvetica" > 8x10</tspan><tspan font-family="Helvetica"  font-size="9.6" dy="-6.00px">-6</tspan><tspan font-size="12.0" dy="6.00"></tspan></text>
	</g>
</g>
<g fill="none" color="black" stroke="currentColor" stroke-width="1.00" stroke-linecap="butt" stroke-linejoin="miter">
	<path stroke='black'  d='M987.3,114.9 L978.3,114.9  '/>	<g transform="translate(995.6,118.8)" stroke="none" fill="black" font-family="Helvetica" font-size="12.00"  text-anchor="start">
		<text><tspan font-family="Helvetica" > 9x10</tspan><tspan font-family="Helvetica"  font-size="9.6" dy="-6.00px">-6</tspan><tspan font-size="12.0" dy="6.00"></tspan></text>
	</g>
</g>
<g fill="none" color="black" stroke="currentColor" stroke-width="1.00" stroke-linecap="butt" stroke-linejoin="miter">
	<path stroke='black'  d='M987.3,54.1 L978.3,54.1  '/>	<g transform="translate(995.6,58.0)" stroke="none" fill="black" font-family="Helvetica" font-size="12.00"  text-anchor="start">
		<text><tspan font-family="Helvetica" > 1x10</tspan><tspan font-family="Helvetica"  font-size="9.6" dy="-6.00px">-5</tspan><tspan font-size="12.0" dy="6.00"></tspan></text>
	</g>
</g>
<g fill="none" color="black" stroke="currentColor" stroke-width="1.00" stroke-linecap="butt" stroke-linejoin="miter">
</g>
<g fill="none" color="black" stroke="currentColor" stroke-width="1.00" stroke-linecap="butt" stroke-linejoin="miter">
	<path stroke='black'  d='M71.9,54.1 L71.9,662.4 L987.3,662.4 L987.3,54.1 L71.9,54.1 Z  '/></g>
<g fill="none" color="black" stroke="currentColor" stroke-width="1.00" stroke-linecap="butt" stroke-linejoin="miter">
	<g transform="translate(16.3,358.3) rotate(270)" stroke="none" fill="black" font-family="Helvetica" font-size="12.00"  text-anchor="middle">
		<text><tspan font-family="Helvetica" >Iterations (x 10</tspan><tspan font-family="Helvetica"  font-size="9.6" dy="-6.00px">3</tspan><tspan font-family="Helvetica"  font-size="12.0" dy="6.00px">)</tspan></text>
	</g>
</g>
<g fill="none" color="black" stroke="currentColor" stroke-width="1.00" stroke-linecap="butt" stroke-linejoin="miter">
	<g transform="translate(1074.2,358.3) rotate(270)" stroke="none" fill="black" font-family="Helvetica" font-size="12.00"  text-anchor="middle">
		<text><tspan font-family="Helvetica" >Density (a.u.)</tspan></text>
	</g>
</g>
<g fill="none" color="black" stroke="currentColor" stroke-width="1.00" stroke-linecap="butt" stroke-linejoin="miter">
	<g transform="translate(529.6,711.3)" stroke="none" fill="black" font-family="Helvetica" font-size="12.00"  text-anchor="middle">
		<text><tspan font-family="Helvetica" >Average time (cycles)</tspan></text>
	</g>
</g>
<g fill="none" color="black" stroke="currentColor" stroke-width="1.00" stroke-linecap="butt" stroke-linejoin="miter">
	<g transform="translate(529.6,31.0)" stroke="none" fill="black" font-family="Helvetica" font-size="12.00"  text-anchor="middle">
		<text><tspan font-family="Helvetica" >non_nested_compare/incremental calc/13</tspan></text>
	</g>
</g>
	<g id="gnuplot_plot_1" ><title>PDF</title>
<g fill="none" color="black" stroke="currentColor" stroke-width="1.00" stroke-linecap="butt" stroke-linejoin="miter">
	<g transform="translate(1147.1,67.0)" stroke="none" fill="black" font-family="Helvetica" font-size="12.00"  text-anchor="start">
		<text><tspan font-family="Helvetica" >PDF</tspan></text>
	</g>
</g>
<g fill="none" color="black" stroke="currentColor" stroke-width="1.00" stroke-linecap="butt" stroke-linejoin="miter">
	<g stroke='none' shape-rendering='crispEdges'>
		<polygon fill = 'rgb( 31, 120, 180)' fill-opacity = '0.250000' points = '1096.6,67.6 1138.8,67.6 1138.8,58.6 1096.6,58.6 '/>
		<polygon fill = 'rgb( 31, 120, 180)' fill-opacity = '0.250000' points = '71.9,662.3 73.7,662.2 75.6,662.2 77.4,662.2 79.2,662.1 81.1,662.1 82.9,662.0 84.7,662.0 86.6,661.9 88.4,661.8 90.2,661.7 92.1,661.6 93.9,661.5 95.7,661.3 97.6,661.2 99.4,661.0
101.3,660.7 103.1,660.5 104.9,660.2 106.8,659.8 108.6,659.5 110.4,659.0 112.3,658.5 114.1,657.9 115.9,657.3 117.8,656.6 119.6,655.8 121.4,654.8 123.3,653.8 125.1,652.7 126.9,651.4 128.8,649.9
130.6,648.3 132.4,646.5 134.3,644.6 136.1,642.4 137.9,640.0 139.8,637.3 141.6,634.4 143.4,631.2 145.3,627.7 147.1,623.9 148.9,619.8 150.8,615.3 152.6,610.4 154.5,605.1 156.3,599.4 158.1,593.3
160.0,586.7 161.8,579.7 163.6,572.2 165.5,564.2 167.3,555.8 169.1,546.8 171.0,537.3 172.8,527.3 174.6,516.8 176.5,505.9 178.3,494.4 180.1,482.4 182.0,470.0 183.8,457.1 185.6,443.8 187.5,430.1
189.3,416.1 191.1,401.7 193.0,387.0 194.8,372.1 196.6,357.0 198.5,341.8 200.3,326.5 202.1,311.1 204.0,295.7 205.8,280.5 207.7,265.4 209.5,250.5 211.3,235.8 213.2,221.6 215.0,207.7 216.8,194.3
218.7,181.5 220.5,169.2 222.3,157.6 224.2,146.7 226.0,136.6 227.8,127.4 229.7,119.0 231.5,111.4 233.3,104.9 235.2,99.3 237.0,94.8 238.8,91.2 240.7,88.7 242.5,87.3 244.3,86.9 246.2,87.6
248.0,89.3 249.8,92.0 251.7,95.8 253.5,100.6 255.3,106.3 257.2,113.0 259.0,120.5 260.9,128.9 262.7,138.1 264.5,148.1 266.4,158.8 268.2,170.1 270.0,182.0 271.9,194.4 273.7,207.4 275.5,220.7
277.4,234.4 279.2,248.3 281.0,262.5 282.9,276.9 284.7,291.4 286.5,306.0 288.4,320.5 290.2,335.0 292.0,349.4 293.9,363.7 295.7,377.8 297.5,391.7 299.4,405.3 301.2,418.6 303.0,431.6 304.9,444.2
306.7,456.5 308.5,468.4 310.4,479.8 312.2,490.9 314.0,501.5 315.9,511.6 317.7,521.3 319.6,530.6 321.4,539.4 323.2,547.8 325.1,555.7 326.9,563.2 328.7,570.3 330.6,577.0 332.4,583.2 334.2,589.1
336.1,594.6 337.9,599.8 339.7,604.6 341.6,609.1 343.4,613.3 345.2,617.2 347.1,620.8 348.9,624.1 350.7,627.2 352.6,630.1 354.4,632.8 356.2,635.2 358.1,637.5 359.9,639.6 361.7,641.5 363.6,643.2
365.4,644.9 367.2,646.4 369.1,647.8 370.9,649.0 372.8,650.2 374.6,651.2 376.4,652.2 378.3,653.1 380.1,653.9 381.9,654.7 383.8,655.4 385.6,656.0 387.4,656.6 389.3,657.1 391.1,657.6 392.9,658.1
394.8,658.5 396.6,658.9 398.4,659.2 400.3,659.5 402.1,659.8 403.9,660.0 405.8,660.2 407.6,660.4 409.4,660.6 411.3,660.8 413.1,660.9 414.9,661.0 416.8,661.1 418.6,661.2 420.4,661.3 422.3,661.4
424.1,661.4 426.0,661.4 427.8,661.5 429.6,661.5 431.5,661.5 433.3,661.4 435.1,661.4 437.0,661.4 438.8,661.3 440.6,661.3 442.5,661.2 444.3,661.1 446.1,661.0 448.0,660.9 449.8,660.8 451.6,660.7
453.5,660.6 455.3,660.5 457.1,660.3 459.0,660.2 460.8,660.0 462.6,659.8 464.5,659.7 466.3,659.5 468.1,659.3 470.0,659.1 471.8,658.9 473.6,658.7 475.5,658.5 477.3,658.3 479.2,658.1 481.0,658.0
482.8,657.8 484.7,657.6 486.5,657.4 488.3,657.2 490.2,657.0 492.0,656.8 493.8,656.7 495.7,656.5 497.5,656.4 499.3,656.2 501.2,656.1 503.0,656.0 504.8,655.9 506.7,655.8 508.5,655.7 510.3,655.7
512.2,655.7 514.0,655.6 515.8,655.6 517.7,655.6 519.5,655.7 521.3,655.7 523.2,655.8 525.0,655.8 526.8,655.9 528.7,656.0 530.5,656.1 532.4,656.3 534.2,656.4 536.0,656.5 537.9,656.7 539.7,656.9
541.5,657.0 543.4,657.2 545.2,657.4 547.0,657.6 548.9,657.8 550.7,658.0 552.5,658.2 554.4,658.4 556.2,658.6 558.0,658.8 559.9,659.0 561.7,659.2 563.5,659.4 565.4,659.6 567.2,659.7 569.0,659.9
570.9,660.1 572.7,660.2 574.5,660.4 576.4,660.6 578.2,660.7 580.0,660.8 581.9,661.0 583.7,661.1 585.6,661.2 587.4,661.3 589.2,661.4 591.1,661.5 592.9,661.6 594.7,661.7 596.6,661.7 598.4,661.8
600.2,661.9 602.1,661.9 603.9,662.0 605.7,662.0 607.6,662.1 609.4,662.1 611.2,662.1 613.1,662.2 614.9,662.2 616.7,662.2 618.6,662.2 620.4,662.3 622.2,662.3 624.1,662.3 625.9,662.3 627.7,662.3
629.6,662.3 631.4,662.3 633.2,662.3 635.1,662.4 636.9,662.4 638.8,662.4 640.6,662.4 642.4,662.4 644.3,662.4 646.1,662.4 647.9,662.4 649.8,662.4 651.6,662.4 653.4,662.4 655.3,662.4 657.1,662.4
658.9,662.4 660.8,662.4 662.6,662.4 664.4,662.4 666.3,662.4 668.1,662.4 669.9,662.4 671.8,662.4 673.6,662.3 675.4,662.3 677.3,662.3 679.1,662.3 680.9,662.3 682.8,662.3 684.6,662.3 686.4,662.3
688.3,662.2 690.1,662.2 692.0,662.2 693.8,662.2 695.6,662.1 697.5,662.1 699.3,662.1 701.1,662.0 703.0,662.0 704.8,661.9 706.6,661.9 708.5,661.8 710.3,661.7 712.1,661.7 714.0,661.6 715.8,661.5
717.6,661.4 719.5,661.3 721.3,661.2 723.1,661.1 725.0,661.0 726.8,660.9 728.6,660.7 730.5,660.6 732.3,660.4 734.1,660.3 736.0,660.1 737.8,659.9 739.6,659.8 741.5,659.6 743.3,659.4 745.2,659.2
747.0,659.0 748.8,658.8 750.7,658.6 752.5,658.4 754.3,658.2 756.2,658.0 758.0,657.8 759.8,657.6 761.7,657.4 763.5,657.2 765.3,657.0 767.2,656.8 769.0,656.6 770.8,656.4 772.7,656.2 774.5,656.1
776.3,655.9 778.2,655.8 780.0,655.6 781.8,655.5 783.7,655.4 785.5,655.3 787.3,655.2 789.2,655.1 791.0,655.0 792.8,655.0 794.7,654.9 796.5,654.9 798.3,654.8 800.2,654.8 802.0,654.8 803.9,654.8
805.7,654.8 807.5,654.8 809.4,654.8 811.2,654.8 813.0,654.8 814.9,654.8 816.7,654.9 818.5,654.9 820.4,654.9 822.2,654.9 824.0,654.9 825.9,654.9 827.7,655.0 829.5,655.0 831.4,655.0 833.2,655.0
835.0,655.0 836.9,655.0 838.7,654.9 840.5,654.9 842.4,654.9 844.2,654.9 846.0,654.9 847.9,654.9 849.7,654.9 851.5,654.8 853.4,654.8 855.2,654.8 857.1,654.8 858.9,654.8 860.7,654.8 862.6,654.8
864.4,654.8 866.2,654.8 868.1,654.8 869.9,654.9 871.7,654.9 873.6,655.0 875.4,655.1 877.2,655.1 879.1,655.2 880.9,655.3 882.7,655.4 884.6,655.5 886.4,655.7 888.2,655.8 890.1,656.0 891.9,656.1
893.7,656.3 895.6,656.5 897.4,656.7 899.2,656.8 901.1,657.0 902.9,657.2 904.7,657.4 906.6,657.6 908.4,657.9 910.3,658.1 912.1,658.3 913.9,658.5 915.8,658.7 917.6,658.9 919.4,659.1 921.3,659.3
923.1,659.5 924.9,659.6 926.8,659.8 928.6,660.0 930.4,660.2 932.3,660.3 934.1,660.5 935.9,660.6 937.8,660.8 939.6,660.9 941.4,661.0 943.3,661.1 945.1,661.2 946.9,661.3 948.8,661.4 950.6,661.5
952.4,661.6 954.3,661.7 956.1,661.8 957.9,661.8 959.8,661.9 961.6,661.9 963.5,662.0 965.3,662.0 967.1,662.1 969.0,662.1 970.8,662.1 972.6,662.2 974.5,662.2 976.3,662.2 978.1,662.2 980.0,662.3
981.8,662.3 983.6,662.3 985.5,662.3 987.3,662.3 987.3,662.4 985.5,662.4 983.6,662.4 981.8,662.4 980.0,662.4 978.1,662.4 976.3,662.4 974.5,662.4 972.6,662.4 970.8,662.4 969.0,662.4 967.1,662.4
965.3,662.4 963.5,662.4 961.6,662.4 959.8,662.4 957.9,662.4 956.1,662.4 954.3,662.4 952.4,662.4 950.6,662.4 948.8,662.4 946.9,662.4 945.1,662.4 943.3,662.4 941.4,662.4 939.6,662.4 937.8,662.4
935.9,662.4 934.1,662.4 932.3,662.4 930.4,662.4 928.6,662.4 926.8,662.4 924.9,662.4 923.1,662.4 921.3,662.4 919.4,662.4 917.6,662.4 915.8,662.4 913.9,662.4 912.1,662.4 910.3,662.4 908.4,662.4
906.6,662.4 904.7,662.4 902.9,662.4 901.1,662.4 899.2,662.4 897.4,662.4 895.6,662.4 893.7,662.4 891.9,662.4 890.1,662.4 888.2,662.4 886.4,662.4 884.6,662.4 882.7,662.4 880.9,662.4 879.1,662.4
877.2,662.4 875.4,662.4 873.6,662.4 871.7,662.4 869.9,662.4 868.1,662.4 866.2,662.4 864.4,662.4 862.6,662.4 860.7,662.4 858.9,662.4 857.1,662.4 855.2,662.4 853.4,662.4 851.5,662.4 849.7,662.4
847.9,662.4 846.0,662.4 844.2,662.4 842.4,662.4 840.5,662.4 838.7,662.4 836.9,662.4 835.0,662.4 833.2,662.4 831.4,662.4 829.5,662.4 827.7,662.4 825.9,662.4 824.0,662.4 822.2,662.4 820.4,662.4
818.5,662.4 816.7,662.4 814.9,662.4 813.0,662.4 811.2,662.4 809.4,662.4 807.5,662.4 805.7,662.4 803.9,662.4 802.0,662.4 800.2,662.4 798.3,662.4 796.5,662.4 794.7,662.4 792.8,662.4 791.0,662.4
789.2,662.4 787.3,662.4 785.5,662.4 783.7,662.4 781.8,662.4 780.0,662.4 778.2,662.4 776.3,662.4 774.5,662.4 772.7,662.4 770.8,662.4 769.0,662.4 767.2,662.4 765.3,662.4 763.5,662.4 761.7,662.4
759.8,662.4 758.0,662.4 756.2,662.4 754.3,662.4 752.5,662.4 750.7,662.4 748.8,662.4 747.0,662.4 745.2,662.4 743.3,662.4 741.5,662.4 739.6,662.4 737.8,662.4 736.0,662.4 734.1,662.4 732.3,662.4
730.5,662.4 728.6,662.4 726.8,662.4 725.0,662.4 723.1,662.4 721.3,662.4 719.5,662.4 717.6,662.4 715.8,662.4 714.0,662.4 712.1,662.4 710.3,662.4 708.5,662.4 706.6,662.4 704.8,662.4 703.0,662.4
701.1,662.4 699.3,662.4 697.5,662.4 695.6,662.4 693.8,662.4 692.0,662.4 690.1,662.4 688.3,662.4 686.4,662.4 684.6,662.4 682.8,662.4 680.9,662.4 679.1,662.4 677.3,662.4 675.4,662.4 673.6,662.4
671.8,662.4 669.9,662.4 668.1,662.4 666.3,662.4 664.4,662.4 662.6,662.4 660.8,662.4 658.9,662.4 657.1,662.4 655.3,662.4 653.4,662.4 651.6,662.4 649.8,662.4 647.9,662.4 646.1,662.4 644.3,662.4
642.4,662.4 640.6,662.4 638.8,662.4 636.9,662.4 635.1,662.4 633.2,662.4 631.4,662.4 629.6,662.4 627.7,662.4 625.9,662.4 624.1,662.4 622.2,662.4 620.4,662.4 618.6,662.4 616.7,662.4 614.9,662.4
613.1,662.4 611.2,662.4 609.4,662.4 607.6,662.4 605.7,662.4 603.9,662.4 602.1,662.4 600.2,662.4 598.4,662.4 596.6,662.4 594.7,662.4 592.9,662.4 591.1,662.4 589.2,662.4 587.4,662.4 585.6,662.4
583.7,662.4 581.9,662.4 580.0,662.4 578.2,662.4 576.4,662.4 574.5,662.4 572.7,662.4 570.9,662.4 569.0,662.4 567.2,662.4 565.4,662.4 563.5,662.4 561.7,662.4 559.9,662.4 558.0,662.4 556.2,662.4
554.4,662.4 552.5,662.4 550.7,662.4 548.9,662.4 547.0,662.4 545.2,662.4 543.4,662.4 541.5,662.4 539.7,662.4 537.9,662.4 536.0,662.4 534.2,662.4 532.4,662.4 530.5,662.4 528.7,662.4 526.8,662.4
525.0,662.4 523.2,662.4 521.3,662.4 519.5,662.4 517.7,662.4 515.8,662.4 514.0,662.4 512.2,662.4 510.3,662.4 508.5,662.4 506.7,662.4 504.8,662.4 503.0,662.4 501.2,662.4 499.3,662.4 497.5,662.4
495.7,662.4 493.8,662.4 492.0,662.4 490.2,662.4 488.3,662.4 486.5,662.4 484.7,662.4 482.8,662.4 481.0,662.4 479.2,662.4 477.3,662.4 475.5,662.4 473.6,662.4 471.8,662.4 470.0,662.4 468.1,662.4
466.3,662.4 464.5,662.4 462.6,662.4 460.8,662.4 459.0,662.4 457.1,662.4 455.3,662.4 453.5,662.4 451.6,662.4 449.8,662.4 448.0,662.4 446.1,662.4 444.3,662.4 442.5,662.4 440.6,662.4 438.8,662.4
437.0,662.4 435.1,662.4 433.3,662.4 431.5,662.4 429.6,662.4 427.8,662.4 426.0,662.4 424.1,662.4 422.3,662.4 420.4,662.4 418.6,662.4 416.8,662.4 414.9,662.4 413.1,662.4 411.3,662.4 409.4,662.4
407.6,662.4 405.8,662.4 403.9,662.4 402.1,662.4 400.3,662.4 398.4,662.4 396.6,662.4 394.8,662.4 392.9,662.4 391.1,662.4 389.3,662.4 387.4,662.4 385.6,662.4 383.8,662.4 381.9,662.4 380.1,662.4
378.3,662.4 376.4,662.4 374.6,662.4 372.8,662.4 370.9,662.4 369.1,662.4 367.2,662.4 365.4,662.4 363.6,662.4 361.7,662.4 359.9,662.4 358.1,662.4 356.2,662.4 354.4,662.4 352.6,662.4 350.7,662.4
348.9,662.4 347.1,662.4 345.2,662.4 343.4,662.4 341.6,662.4 339.7,662.4 337.9,662.4 336.1,662.4 334.2,662.4 332.4,662.4 330.6,662.4 328.7,662.4 326.9,662.4 325.1,662.4 323.2,662.4 321.4,662.4
319.6,662.4 317.7,662.4 315.9,662.4 314.0,662.4 312.2,662.4 310.4,662.4 308.5,662.4 306.7,662.4 304.9,662.4 303.0,662.4 301.2,662.4 299.4,662.4 297.5,662.4 295.7,662.4 293.9,662.4 292.0,662.4
290.2,662.4 288.4,662.4 286.5,662.4 284.7,662.4 282.9,662.4 281.0,662.4 279.2,662.4 277.4,662.4 275.5,662.4 273.7,662.4 271.9,662.4 270.0,662.4 268.2,662.4 266.4,662.4 264.5,662.4 262.7,662.4
260.9,662.4 259.0,662.4 257.2,662.4 255.3,662.4 253.5,662.4 251.7,662.4 249.8,662.4 248.0,662.4 246.2,662.4 244.3,662.4 242.5,662.4 240.7,662.4 238.8,662.4 237.0,662.4 235.2,662.4 233.3,662.4
231.5,662.4 229.7,662.4 227.8,662.4 226.0,662.4 224.2,662.4 222.3,662.4 220.5,662.4 218.7,662.4 216.8,662.4 215.0,662.4 213.2,662.4 211.3,662.4 209.5,662.4 207.7,662.4 205.8,662.4 204.0,662.4
202.1,662.4 200.3,662.4 198.5,662.4 196.6,662.4 194.8,662.4 193.0,662.4 191.1,662.4 189.3,662.4 187.5,662.4 185.6,662.4 183.8,662.4 182.0,662.4 180.1,662.4 178.3,662.4 176.5,662.4 174.6,662.4
172.8,662.4 171.0,662.4 169.1,662.4 167.3,662.4 165.5,662.4 163.6,662.4 161.8,662.4 160.0,662.4 158.1,662.4 156.3,662.4 154.5,662.4 152.6,662.4 150.8,662.4 148.9,662.4 147.1,662.4 145.3,662.4
143.4,662.4 141.6,662.4 139.8,662.4 137.9,662.4 136.1,662.4 134.3,662.4 132.4,662.4 130.6,662.4 128.8,662.4 126.9,662.4 125.1,662.4 123.3,662.4 121.4,662.4 119.6,662.4 117.8,662.4 115.9,662.4
114.1,662.4 112.3,662.4 110.4,662.4 108.6,662.4 106.8,662.4 104.9,662.4 103.1,662.4 101.3,662.4 99.4,662.4 97.6,662.4 95.7,662.4 93.9,662.4 92.1,662.4 90.2,662.4 88.4,662.4 86.6,662.4
84.7,662.4 82.9,662.4 81.1,662.4 79.2,662.4 77.4,662.4 75.6,662.4 73.7,662.4 71.9,662.4 '/>
	</g>
</g>
	</g>
	<g id="gnuplot_plot_2" ><title>Mean</title>
<g fill="none" color="white" stroke="rgb( 31, 120, 180)" stroke-width="2.00" stroke-linecap="butt" stroke-linejoin="miter">
</g>
<g fill="none" color="black" stroke="currentColor" stroke-width="2.00" stroke-linecap="butt" stroke-linejoin="miter">
	<g transform="translate(1147.1,85.0)" stroke="none" fill="black" font-family="Helvetica" font-size="12.00"  text-anchor="start">
		<text><tspan font-family="Helvetica" >Mean</tspan></text>
	</g>
</g>
<g fill="none" color="black" stroke="currentColor" stroke-width="2.00" stroke-linecap="butt" stroke-linejoin="miter">
	<path stroke='rgb( 31, 120, 180)'  d='M1096.6,81.1 L1138.8,81.1 M260.6,662.4 L260.6,54.1  '/></g>
	</g>
	<g id="gnuplot_plot_3" ><title>"Clean" sample</title>
<g fill="none" color="white" stroke="rgb( 31, 120, 180)" stroke-width="1.00" stroke-linecap="butt" stroke-linejoin="miter">
</g>
<g fill="none" color="black" stroke="currentColor" stroke-width="1.00" stroke-linecap="butt" stroke-linejoin="miter">
	<g transform="translate(1147.1,103.0)" stroke="none" fill="black" font-family="Helvetica" font-size="12.00"  text-anchor="start">
		<text><tspan font-family="Helvetica" >"Clean" sample</tspan></text>
	</g>
</g>
<g fill="none" color="black" stroke="currentColor" stroke-width="1.00" stroke-linecap="butt" stroke-linejoin="miter">
	<use xlink:href='#gpPt6' transform='translate(185.0,656.3) scale(3.38)' color='rgb( 31, 120, 180)'/>
	<use xlink:href='#gpPt6' transform='translate(225.1,650.2) scale(3.38)' color='rgb( 31, 120, 180)'/>
	<use xlink:href='#gpPt6' transform='translate(278.7,613.7) scale(3.38)' color='rgb( 31, 120, 180)'/>
	<use xlink:href='#gpPt6' transform='translate(276.7,607.7) scale(3.38)' color='rgb( 31, 120, 180)'/>
	<use xlink:href='#gpPt6' transform='translate(274.0,601.6) scale(3.38)' color='rgb( 31, 120, 180)'/>
	<use xlink:href='#gpPt6' transform='translate(271.9,595.5) scale(3.38)' color='rgb( 31, 120, 180)'/>
	<use xlink:href='#gpPt6' transform='translate(270.0,589.4) scale(3.38)' color='rgb( 31, 120, 180)'/>
	<use xlink:href='#gpPt6' transform='translate(269.7,583.3) scale(3.38)' color='rgb( 31, 120, 180)'/>
	<use xlink:href='#gpPt6' transform='translate(267.6,577.2) scale(3.38)' color='rgb( 31, 120, 180)'/>
	<use xlink:href='#gpPt6' transform='translate(267.9,571.2) scale(3.38)' color='rgb( 31, 120, 180)'/>
	<use xlink:href='#gpPt6' transform='translate(265.3,565.1) scale(3.38)' color='rgb( 31, 120, 180)'/>
	<use xlink:href='#gpPt6' transform='translate(269.0,559.0) scale(3.38)' color='rgb( 31, 120, 180)'/>
	<use xlink:href='#gpPt6' transform='translate(263.5,552.9) scale(3.38)' color='rgb( 31, 120, 180)'/>
	<use xlink:href='#gpPt6' transform='translate(262.3,546.8) scale(3.38)' color='rgb( 31, 120, 180)'/>
	<use xlink:href='#gpPt6' transform='translate(267.2,540.7) scale(3.38)' color='rgb( 31, 120, 180)'/>
	<use xlink:href='#gpPt6' transform='translate(266.0,534.7) scale(3.38)' color='rgb( 31, 120, 180)'/>
	<use xlink:href='#gpPt6' transform='translate(275.4,528.6) scale(3.38)' color='rgb( 31, 120, 180)'/>
	<use xlink:href='#gpPt6' transform='translate(273.0,522.5) scale(3.38)' color='rgb( 31, 120, 180)'/>
	<use xlink:href='#gpPt6' transform='translate(263.6,516.4) scale(3.38)' color='rgb( 31, 120, 180)'/>
	<use xlink:href='#gpPt6' transform='translate(262.9,510.3) scale(3.38)' color='rgb( 31, 120, 180)'/>
	<use xlink:href='#gpPt6' transform='translate(262.8,504.2) scale(3.38)' color='rgb( 31, 120, 180)'/>
	<use xlink:href='#gpPt6' transform='translate(261.3,498.2) scale(3.38)' color='rgb( 31, 120, 180)'/>
	<use xlink:href='#gpPt6' transform='translate(261.2,492.1) scale(3.38)' color='rgb( 31, 120, 180)'/>
	<use xlink:href='#gpPt6' transform='translate(260.1,486.0) scale(3.38)' color='rgb( 31, 120, 180)'/>
	<use xlink:href='#gpPt6' transform='translate(260.0,479.9) scale(3.38)' color='rgb( 31, 120, 180)'/>
	<use xlink:href='#gpPt6' transform='translate(261.3,473.8) scale(3.38)' color='rgb( 31, 120, 180)'/>
	<use xlink:href='#gpPt6' transform='translate(260.7,467.7) scale(3.38)' color='rgb( 31, 120, 180)'/>
	<use xlink:href='#gpPt6' transform='translate(263.3,461.7) scale(3.38)' color='rgb( 31, 120, 180)'/>
	<use xlink:href='#gpPt6' transform='translate(261.1,455.6) scale(3.38)' color='rgb( 31, 120, 180)'/>
	<use xlink:href='#gpPt6' transform='translate(259.5,449.5) scale(3.38)' color='rgb( 31, 120, 180)'/>
	<use xlink:href='#gpPt6' transform='translate(250.8,443.4) scale(3.38)' color='rgb( 31, 120, 180)'/>
	<use xlink:href='#gpPt6' transform='translate(221.2,437.3) scale(3.38)' color='rgb( 31, 120, 180)'/>
	<use xlink:href='#gpPt6' transform='translate(229.4,431.2) scale(3.38)' color='rgb( 31, 120, 180)'/>
	<use xlink:href='#gpPt6' transform='translate(230.0,425.2) scale(3.38)' color='rgb( 31, 120, 180)'/>
	<use xlink:href='#gpPt6' transform='translate(231.5,419.1) scale(3.38)' color='rgb( 31, 120, 180)'/>
	<use xlink:href='#gpPt6' transform='translate(235.6,413.0) scale(3.38)' color='rgb( 31, 120, 180)'/>
	<use xlink:href='#gpPt6' transform='translate(230.2,406.9) scale(3.38)' color='rgb( 31, 120, 180)'/>
	<use xlink:href='#gpPt6' transform='translate(229.4,400.8) scale(3.38)' color='rgb( 31, 120, 180)'/>
	<use xlink:href='#gpPt6' transform='translate(231.8,394.7) scale(3.38)' color='rgb( 31, 120, 180)'/>
	<use xlink:href='#gpPt6' transform='translate(232.3,388.7) scale(3.38)' color='rgb( 31, 120, 180)'/>
	<use xlink:href='#gpPt6' transform='translate(229.8,382.6) scale(3.38)' color='rgb( 31, 120, 180)'/>
	<use xlink:href='#gpPt6' transform='translate(231.1,376.5) scale(3.38)' color='rgb( 31, 120, 180)'/>
	<use xlink:href='#gpPt6' transform='translate(231.5,370.4) scale(3.38)' color='rgb( 31, 120, 180)'/>
	<use xlink:href='#gpPt6' transform='translate(231.0,364.3) scale(3.38)' color='rgb( 31, 120, 180)'/>
	<use xlink:href='#gpPt6' transform='translate(228.1,358.2) scale(3.38)' color='rgb( 31, 120, 180)'/>
	<use xlink:href='#gpPt6' transform='translate(230.8,352.2) scale(3.38)' color='rgb( 31, 120, 180)'/>
	<use xlink:href='#gpPt6' transform='translate(228.2,346.1) scale(3.38)' color='rgb( 31, 120, 180)'/>
	<use xlink:href='#gpPt6' transform='translate(229.3,340.0) scale(3.38)' color='rgb( 31, 120, 180)'/>
	<use xlink:href='#gpPt6' transform='translate(232.0,333.9) scale(3.38)' color='rgb( 31, 120, 180)'/>
	<use xlink:href='#gpPt6' transform='translate(231.2,327.8) scale(3.38)' color='rgb( 31, 120, 180)'/>
	<use xlink:href='#gpPt6' transform='translate(230.2,321.8) scale(3.38)' color='rgb( 31, 120, 180)'/>
	<use xlink:href='#gpPt6' transform='translate(228.1,315.7) scale(3.38)' color='rgb( 31, 120, 180)'/>
	<use xlink:href='#gpPt6' transform='translate(229.7,309.6) scale(3.38)' color='rgb( 31, 120, 180)'/>
	<use xlink:href='#gpPt6' transform='translate(231.4,303.5) scale(3.38)' color='rgb( 31, 120, 180)'/>
	<use xlink:href='#gpPt6' transform='translate(229.5,297.4) scale(3.38)' color='rgb( 31, 120, 180)'/>
	<use xlink:href='#gpPt6' transform='translate(230.5,291.3) scale(3.38)' color='rgb( 31, 120, 180)'/>
	<use xlink:href='#gpPt6' transform='translate(229.7,285.3) scale(3.38)' color='rgb( 31, 120, 180)'/>
	<use xlink:href='#gpPt6' transform='translate(231.7,279.2) scale(3.38)' color='rgb( 31, 120, 180)'/>
	<use xlink:href='#gpPt6' transform='translate(233.8,273.1) scale(3.38)' color='rgb( 31, 120, 180)'/>
	<use xlink:href='#gpPt6' transform='translate(230.7,267.0) scale(3.38)' color='rgb( 31, 120, 180)'/>
	<use xlink:href='#gpPt6' transform='translate(232.5,260.9) scale(3.38)' color='rgb( 31, 120, 180)'/>
	<use xlink:href='#gpPt6' transform='translate(229.0,254.8) scale(3.38)' color='rgb( 31, 120, 180)'/>
	<use xlink:href='#gpPt6' transform='translate(231.7,248.8) scale(3.38)' color='rgb( 31, 120, 180)'/>
	<use xlink:href='#gpPt6' transform='translate(231.4,242.7) scale(3.38)' color='rgb( 31, 120, 180)'/>
	<use xlink:href='#gpPt6' transform='translate(228.9,236.6) scale(3.38)' color='rgb( 31, 120, 180)'/>
	<use xlink:href='#gpPt6' transform='translate(231.9,230.5) scale(3.38)' color='rgb( 31, 120, 180)'/>
	<use xlink:href='#gpPt6' transform='translate(229.8,224.4) scale(3.38)' color='rgb( 31, 120, 180)'/>
	<use xlink:href='#gpPt6' transform='translate(231.7,218.3) scale(3.38)' color='rgb( 31, 120, 180)'/>
	<use xlink:href='#gpPt6' transform='translate(231.3,212.3) scale(3.38)' color='rgb( 31, 120, 180)'/>
	<use xlink:href='#gpPt6' transform='translate(230.1,206.2) scale(3.38)' color='rgb( 31, 120, 180)'/>
	<use xlink:href='#gpPt6' transform='translate(229.1,200.1) scale(3.38)' color='rgb( 31, 120, 180)'/>
	<use xlink:href='#gpPt6' transform='translate(230.2,194.0) scale(3.38)' color='rgb( 31, 120, 180)'/>
	<use xlink:href='#gpPt6' transform='translate(229.7,187.9) scale(3.38)' color='rgb( 31, 120, 180)'/>
	<use xlink:href='#gpPt6' transform='translate(230.8,181.8) scale(3.38)' color='rgb( 31, 120, 180)'/>
	<use xlink:href='#gpPt6' transform='translate(228.9,175.8) scale(3.38)' color='rgb( 31, 120, 180)'/>
	<use xlink:href='#gpPt6' transform='translate(230.1,169.7) scale(3.38)' color='rgb( 31, 120, 180)'/>
	<use xlink:href='#gpPt6' transform='translate(230.5,163.6) scale(3.38)' color='rgb( 31, 120, 180)'/>
	<use xlink:href='#gpPt6' transform='translate(229.9,157.5) scale(3.38)' color='rgb( 31, 120, 180)'/>
	<use xlink:href='#gpPt6' transform='translate(229.9,151.4) scale(3.38)' color='rgb( 31, 120, 180)'/>
	<use xlink:href='#gpPt6' transform='translate(228.1,145.3) scale(3.38)' color='rgb( 31, 120, 180)'/>
	<use xlink:href='#gpPt6' transform='translate(230.3,139.3) scale(3.38)' color='rgb( 31, 120, 180)'/>
	<use xlink:href='#gpPt6' transform='translate(228.7,133.2) scale(3.38)' color='rgb( 31, 120, 180)'/>
	<use xlink:href='#gpPt6' transform='translate(228.5,127.1) scale(3.38)' color='rgb( 31, 120, 180)'/>
	<use xlink:href='#gpPt6' transform='translate(249.3,121.0) scale(3.38)' color='rgb( 31, 120, 180)'/>
	<use xlink:href='#gpPt6' transform='translate(259.8,114.9) scale(3.38)' color='rgb( 31, 120, 180)'/>
	<use xlink:href='#gpPt6' transform='translate(275.1,108.8) scale(3.38)' color='rgb( 31, 120, 180)'/>
	<use xlink:href='#gpPt6' transform='translate(270.6,102.8) scale(3.38)' color='rgb( 31, 120, 180)'/>
	<use xlink:href='#gpPt6' transform='translate(269.0,96.7) scale(3.38)' color='rgb( 31, 120, 180)'/>
	<use xlink:href='#gpPt6' transform='translate(268.2,90.6) scale(3.38)' color='rgb( 31, 120, 180)'/>
	<use xlink:href='#gpPt6' transform='translate(261.1,84.5) scale(3.38)' color='rgb( 31, 120, 180)'/>
	<use xlink:href='#gpPt6' transform='translate(256.7,78.4) scale(3.38)' color='rgb( 31, 120, 180)'/>
	<use xlink:href='#gpPt6' transform='translate(258.1,72.3) scale(3.38)' color='rgb( 31, 120, 180)'/>
	<use xlink:href='#gpPt6' transform='translate(257.7,66.3) scale(3.38)' color='rgb( 31, 120, 180)'/>
	<use xlink:href='#gpPt6' transform='translate(255.6,60.2) scale(3.38)' color='rgb( 31, 120, 180)'/>
	<use xlink:href='#gpPt6' transform='translate(254.6,54.1) scale(3.38)' color='rgb( 31, 120, 180)'/>
	<use xlink:href='#gpPt6' transform='translate(1117.7,99.1) scale(3.38)' color='rgb( 31, 120, 180)'/>
</g>
	</g>
	<g id="gnuplot_plot_4" ><title>Mild outliers</title>
<g fill="none" color="black" stroke="currentColor" stroke-width="1.00" stroke-linecap="butt" stroke-linejoin="miter">
	<g transform="translate(1147.1,121.0)" stroke="none" fill="black" font-family="Helvetica" font-size="12.00"  text-anchor="start">
		<text><tspan font-family="Helvetica" >Mild outliers</tspan></text>
	</g>
</g>
<g fill="none" color="black" stroke="currentColor" stroke-width="1.00" stroke-linecap="butt" stroke-linejoin="miter">
	<use xlink:href='#gpPt6' transform='translate(334.6,644.2) scale(3.38)' color='rgb(255, 127,   0)'/>
	<use xlink:href='#gpPt6' transform='translate(323.2,638.1) scale(3.38)' color='rgb(255, 127,   0)'/>
	<use xlink:href='#gpPt6' transform='translate(1117.7,117.1) scale(3.38)' color='rgb(255, 127,   0)'/>
</g>
	</g>
	<g id="gnuplot_plot_5" ><title>Severe outliers</title>
<g fill="none" color="black" stroke="currentColor" stroke-width="1.00" stroke-linecap="butt" stroke-linejoin="miter">
	<g transform="translate(1147.1,139.0)" stroke="none" fill="black" font-family="Helvetica" font-size="12.00"  text-anchor="start">
		<text><tspan font-family="Helvetica" >Severe outliers</tspan></text>
	</g>
</g>
<g fill="none" color="black" stroke="currentColor" stroke-width="1.00" stroke-linecap="butt" stroke-linejoin="miter">
	<use xlink:href='#gpPt6' transform='translate(515.6,632.0) scale(3.38)' color='rgb(227,  26,  28)'/>
	<use xlink:href='#gpPt6' transform='translate(791.6,625.9) scale(3.38)' color='rgb(227,  26,  28)'/>
	<use xlink:href='#gpPt6' transform='translate(874.2,619.8) scale(3.38)' color='rgb(227,  26,  28)'/>
	<use xlink:href='#gpPt6' transform='translate(1117.7,135.1) scale(3.38)' color='rgb(227,  26,  28)'/>
</g>
	</g>
	<g id="gnuplot_plot_6" ><title>gnuplot_plot_6</title>
<g fill="none" color="white" stroke="rgb(227,  26,  28)" stroke-width="2.00" stroke-linecap="butt" stroke-linejoin="miter">
</g>
<g fill="none" color="black" stroke="currentColor" stroke-width="2.00" stroke-linecap="butt" stroke-linejoin="miter">
	<path stroke='rgb(255, 127,   0)'  d='M180.2,662.4 L180.2,54.1  '/></g>
	</g>
	<g id="gnuplot_plot_7" ><title>gnuplot_plot_7</title>
<g fill="none" color="black" stroke="currentColor" stroke-width="2.00" stroke-linecap="butt" stroke-linejoin="miter">
	<path stroke='rgb(255, 127,   0)'  d='M313.2,662.4 L313.2,54.1  '/></g>
	</g>
	<g id="gnuplot_plot_8" ><title>gnuplot_plot_8</title>
<g fill="none" color="black" stroke="currentColor" stroke-width="2.00" stroke-linecap="butt" stroke-linejoin="miter">
	<path stroke='rgb(227,  26,  28)'  d='M130.3,662.4 L130.3,54.1  '/></g>
	</g>
	<g id="gnuplot_plot_9" ><title>gnuplot_plot_9</title>
<g fill="none" color="black" stroke="currentColor" stroke-width="2.00" stroke-linecap="butt" stroke-linejoin="miter">
	<path stroke='rgb(227,  26,  28)'  d='M363.1,662.4 L363.1,54.1  '/></g>
	</g>
<g fill="none" color="black" stroke="currentColor" stroke-width="2.00" stroke-linecap="butt" stroke-linejoin="miter">
</g>
<g fill="none" color="black" stroke="black" stroke-width="1.00" stroke-linecap="butt" stroke-linejoin="miter">
</g>
<g fill="none" color="black" stroke="currentColor" stroke-width="1.00" stroke-linecap="butt" stroke-linejoin="miter">
	<path stroke='black'  d='M71.9,54.1 L71.9,662.4 L987.3,662.4 L987.3,54.1 L71.9,54.1 Z  '/></g>
<g fill="none" color="black" stroke="currentColor" stroke-width="1.00" stroke-linecap="butt" stroke-linejoin="miter">
</g>
</g>
</svg>

