<?xml version="1.0" encoding="utf-8"  standalone="no"?>
<svg 
 viewBox="0 0 1280 720"
 xmlns="http://www.w3.org/2000/svg"
 xmlns:xlink="http://www.w3.org/1999/xlink"
>

<title>Gnuplot</title>
<desc>Produced by GNUPLOT 5.2 patchlevel 2 </desc>

<g id="gnuplot_canvas">

<rect x="0" y="0" width="1280" height="720" fill="none"/>
<defs>

	<circle id='gpDot' r='0.5' stroke-width='0.5'/>
	<path id='gpPt0' stroke-width='0.222' stroke='currentColor' d='M-1,0 h2 M0,-1 v2'/>
	<path id='gpPt1' stroke-width='0.222' stroke='currentColor' d='M-1,-1 L1,1 M1,-1 L-1,1'/>
	<path id='gpPt2' stroke-width='0.222' stroke='currentColor' d='M-1,0 L1,0 M0,-1 L0,1 M-1,-1 L1,1 M-1,1 L1,-1'/>
	<rect id='gpPt3' stroke-width='0.222' stroke='currentColor' x='-1' y='-1' width='2' height='2'/>
	<rect id='gpPt4' stroke-width='0.222' stroke='currentColor' fill='currentColor' x='-1' y='-1' width='2' height='2'/>
	<circle id='gpPt5' stroke-width='0.222' stroke='currentColor' cx='0' cy='0' r='1'/>
	<use xlink:href='#gpPt5' id='gpPt6' fill='currentColor' stroke='none'/>
	<path id='gpPt7' stroke-width='0.222' stroke='currentColor' d='M0,-1.33 L-1.33,0.67 L1.33,0.67 z'/>
	<use xlink:href='#gpPt7' id='gpPt8' fill='currentColor' stroke='none'/>
	<use xlink:href='#gpPt7' id='gpPt9' stroke='currentColor' transform='rotate(180)'/>
	<use xlink:href='#gpPt9' id='gpPt10' fill='currentColor' stroke='none'/>
	<use xlink:href='#gpPt3' id='gpPt11' stroke='currentColor' transform='rotate(45)'/>
	<use xlink:href='#gpPt11' id='gpPt12' fill='currentColor' stroke='none'/>
	<path id='gpPt13' stroke-width='0.222' stroke='currentColor' d='M0,1.330 L1.265,0.411 L0.782,-1.067 L-0.782,-1.076 L-1.265,0.411 z'/>
	<use xlink:href='#gpPt13' id='gpPt14' fill='currentColor' stroke='none'/>
	<filter id='textbox' filterUnits='objectBoundingBox' x='0' y='0' height='1' width='1'>
	  <feFlood flood-color='white' flood-opacity='1' result='bgnd'/>
	  <feComposite in='SourceGraphic' in2='bgnd' operator='atop'/>
	</filter>
	<filter id='greybox' filterUnits='objectBoundingBox' x='0' y='0' height='1' width='1'>
	  <feFlood flood-color='lightgrey' flood-opacity='1' result='grey'/>
	  <feComposite in='SourceGraphic' in2='grey' operator='atop'/>
	</filter>
</defs>
<g fill="none" color="white" stroke="currentColor" stroke-width="1.00" stroke-linecap="butt" stroke-linejoin="miter">
</g>
<g fill="none" color="black" stroke="currentColor" stroke-width="1.00" stroke-linecap="butt" stroke-linejoin="miter">
	<path stroke='black'  d='M63.6,662.4 L72.6,662.4  '/>	<g transform="translate(55.3,666.3)" stroke="none" fill="black" font-family="Helvetica" font-size="12.00"  text-anchor="end">
		<text><tspan font-family="Helvetica" > 0</tspan></text>
	</g>
</g>
<g fill="none" color="black" stroke="currentColor" stroke-width="1.00" stroke-linecap="butt" stroke-linejoin="miter">
	<path stroke='black'  d='M63.6,547.6 L72.6,547.6  '/>	<g transform="translate(55.3,551.5)" stroke="none" fill="black" font-family="Helvetica" font-size="12.00"  text-anchor="end">
		<text><tspan font-family="Helvetica" > 10</tspan></text>
	</g>
</g>
<g fill="none" color="black" stroke="currentColor" stroke-width="1.00" stroke-linecap="butt" stroke-linejoin="miter">
	<path stroke='black'  d='M63.6,432.8 L72.6,432.8  '/>	<g transform="translate(55.3,436.7)" stroke="none" fill="black" font-family="Helvetica" font-size="12.00"  text-anchor="end">
		<text><tspan font-family="Helvetica" > 20</tspan></text>
	</g>
</g>
<g fill="none" color="black" stroke="currentColor" stroke-width="1.00" stroke-linecap="butt" stroke-linejoin="miter">
	<path stroke='black'  d='M63.6,318.0 L72.6,318.0  '/>	<g transform="translate(55.3,321.9)" stroke="none" fill="black" font-family="Helvetica" font-size="12.00"  text-anchor="end">
		<text><tspan font-family="Helvetica" > 30</tspan></text>
	</g>
</g>
<g fill="none" color="black" stroke="currentColor" stroke-width="1.00" stroke-linecap="butt" stroke-linejoin="miter">
	<path stroke='black'  d='M63.6,203.2 L72.6,203.2  '/>	<g transform="translate(55.3,207.1)" stroke="none" fill="black" font-family="Helvetica" font-size="12.00"  text-anchor="end">
		<text><tspan font-family="Helvetica" > 40</tspan></text>
	</g>
</g>
<g fill="none" color="black" stroke="currentColor" stroke-width="1.00" stroke-linecap="butt" stroke-linejoin="miter">
	<path stroke='black'  d='M63.6,88.4 L72.6,88.4  '/>	<g transform="translate(55.3,92.3)" stroke="none" fill="black" font-family="Helvetica" font-size="12.00"  text-anchor="end">
		<text><tspan font-family="Helvetica" > 50</tspan></text>
	</g>
</g>
<g fill="none" color="black" stroke="currentColor" stroke-width="1.00" stroke-linecap="butt" stroke-linejoin="miter">
	<path stroke='black'  d='M169.5,662.4 L169.5,653.4  '/>	<g transform="translate(169.5,684.3)" stroke="none" fill="black" font-family="Helvetica" font-size="12.00"  text-anchor="middle">
		<text><tspan font-family="Helvetica" > 1000</tspan></text>
	</g>
</g>
<g fill="none" color="black" stroke="currentColor" stroke-width="1.00" stroke-linecap="butt" stroke-linejoin="miter">
	<path stroke='black'  d='M280.5,662.4 L280.5,653.4  '/>	<g transform="translate(280.5,684.3)" stroke="none" fill="black" font-family="Helvetica" font-size="12.00"  text-anchor="middle">
		<text><tspan font-family="Helvetica" > 1500</tspan></text>
	</g>
</g>
<g fill="none" color="black" stroke="currentColor" stroke-width="1.00" stroke-linecap="butt" stroke-linejoin="miter">
	<path stroke='black'  d='M391.5,662.4 L391.5,653.4  '/>	<g transform="translate(391.5,684.3)" stroke="none" fill="black" font-family="Helvetica" font-size="12.00"  text-anchor="middle">
		<text><tspan font-family="Helvetica" > 2000</tspan></text>
	</g>
</g>
<g fill="none" color="black" stroke="currentColor" stroke-width="1.00" stroke-linecap="butt" stroke-linejoin="miter">
	<path stroke='black'  d='M502.5,662.4 L502.5,653.4  '/>	<g transform="translate(502.5,684.3)" stroke="none" fill="black" font-family="Helvetica" font-size="12.00"  text-anchor="middle">
		<text><tspan font-family="Helvetica" > 2500</tspan></text>
	</g>
</g>
<g fill="none" color="black" stroke="currentColor" stroke-width="1.00" stroke-linecap="butt" stroke-linejoin="miter">
	<path stroke='black'  d='M613.5,662.4 L613.5,653.4  '/>	<g transform="translate(613.5,684.3)" stroke="none" fill="black" font-family="Helvetica" font-size="12.00"  text-anchor="middle">
		<text><tspan font-family="Helvetica" > 3000</tspan></text>
	</g>
</g>
<g fill="none" color="black" stroke="currentColor" stroke-width="1.00" stroke-linecap="butt" stroke-linejoin="miter">
	<path stroke='black'  d='M724.5,662.4 L724.5,653.4  '/>	<g transform="translate(724.5,684.3)" stroke="none" fill="black" font-family="Helvetica" font-size="12.00"  text-anchor="middle">
		<text><tspan font-family="Helvetica" > 3500</tspan></text>
	</g>
</g>
<g fill="none" color="black" stroke="currentColor" stroke-width="1.00" stroke-linecap="butt" stroke-linejoin="miter">
	<path stroke='black'  d='M835.5,662.4 L835.5,653.4  '/>	<g transform="translate(835.5,684.3)" stroke="none" fill="black" font-family="Helvetica" font-size="12.00"  text-anchor="middle">
		<text><tspan font-family="Helvetica" > 4000</tspan></text>
	</g>
</g>
<g fill="none" color="black" stroke="currentColor" stroke-width="1.00" stroke-linecap="butt" stroke-linejoin="miter">
	<path stroke='black'  d='M946.5,662.4 L946.5,653.4  '/>	<g transform="translate(946.5,684.3)" stroke="none" fill="black" font-family="Helvetica" font-size="12.00"  text-anchor="middle">
		<text><tspan font-family="Helvetica" > 4500</tspan></text>
	</g>
</g>
<g fill="none" color="black" stroke="currentColor" stroke-width="1.00" stroke-linecap="butt" stroke-linejoin="miter">
	<path stroke='black'  d='M979.0,662.4 L970.0,662.4  '/>	<g transform="translate(987.3,666.3)" stroke="none" fill="black" font-family="Helvetica" font-size="12.00"  text-anchor="start">
		<text><tspan font-family="Helvetica" > 0</tspan></text>
	</g>
</g>
<g fill="none" color="black" stroke="currentColor" stroke-width="1.00" stroke-linecap="butt" stroke-linejoin="miter">
	<path stroke='black'  d='M979.0,575.5 L970.0,575.5  '/>	<g transform="translate(987.3,579.4)" stroke="none" fill="black" font-family="Helvetica" font-size="12.00"  text-anchor="start">
		<text><tspan font-family="Helvetica" > 0.0002</tspan></text>
	</g>
</g>
<g fill="none" color="black" stroke="currentColor" stroke-width="1.00" stroke-linecap="butt" stroke-linejoin="miter">
	<path stroke='black'  d='M979.0,488.6 L970.0,488.6  '/>	<g transform="translate(987.3,492.5)" stroke="none" fill="black" font-family="Helvetica" font-size="12.00"  text-anchor="start">
		<text><tspan font-family="Helvetica" > 0.0004</tspan></text>
	</g>
</g>
<g fill="none" color="black" stroke="currentColor" stroke-width="1.00" stroke-linecap="butt" stroke-linejoin="miter">
	<path stroke='black'  d='M979.0,401.7 L970.0,401.7  '/>	<g transform="translate(987.3,405.6)" stroke="none" fill="black" font-family="Helvetica" font-size="12.00"  text-anchor="start">
		<text><tspan font-family="Helvetica" > 0.0006</tspan></text>
	</g>
</g>
<g fill="none" color="black" stroke="currentColor" stroke-width="1.00" stroke-linecap="butt" stroke-linejoin="miter">
	<path stroke='black'  d='M979.0,314.8 L970.0,314.8  '/>	<g transform="translate(987.3,318.7)" stroke="none" fill="black" font-family="Helvetica" font-size="12.00"  text-anchor="start">
		<text><tspan font-family="Helvetica" > 0.0008</tspan></text>
	</g>
</g>
<g fill="none" color="black" stroke="currentColor" stroke-width="1.00" stroke-linecap="butt" stroke-linejoin="miter">
	<path stroke='black'  d='M979.0,227.9 L970.0,227.9  '/>	<g transform="translate(987.3,231.8)" stroke="none" fill="black" font-family="Helvetica" font-size="12.00"  text-anchor="start">
		<text><tspan font-family="Helvetica" > 0.001</tspan></text>
	</g>
</g>
<g fill="none" color="black" stroke="currentColor" stroke-width="1.00" stroke-linecap="butt" stroke-linejoin="miter">
	<path stroke='black'  d='M979.0,141.0 L970.0,141.0  '/>	<g transform="translate(987.3,144.9)" stroke="none" fill="black" font-family="Helvetica" font-size="12.00"  text-anchor="start">
		<text><tspan font-family="Helvetica" > 0.0012</tspan></text>
	</g>
</g>
<g fill="none" color="black" stroke="currentColor" stroke-width="1.00" stroke-linecap="butt" stroke-linejoin="miter">
	<path stroke='black'  d='M979.0,54.1 L970.0,54.1  '/>	<g transform="translate(987.3,58.0)" stroke="none" fill="black" font-family="Helvetica" font-size="12.00"  text-anchor="start">
		<text><tspan font-family="Helvetica" > 0.0014</tspan></text>
	</g>
</g>
<g fill="none" color="black" stroke="currentColor" stroke-width="1.00" stroke-linecap="butt" stroke-linejoin="miter">
</g>
<g fill="none" color="black" stroke="currentColor" stroke-width="1.00" stroke-linecap="butt" stroke-linejoin="miter">
	<path stroke='black'  d='M63.6,54.1 L63.6,662.4 L979.0,662.4 L979.0,54.1 L63.6,54.1 Z  '/></g>
<g fill="none" color="black" stroke="currentColor" stroke-width="1.00" stroke-linecap="butt" stroke-linejoin="miter">
	<g transform="translate(16.3,358.3) rotate(270)" stroke="none" fill="black" font-family="Helvetica" font-size="12.00"  text-anchor="middle">
		<text><tspan font-family="Helvetica" >Iterations (x 10</tspan><tspan font-family="Helvetica"  font-size="9.6" dy="-6.00px">6</tspan><tspan font-family="Helvetica"  font-size="12.0" dy="6.00px">)</tspan></text>
	</g>
</g>
<g fill="none" color="black" stroke="currentColor" stroke-width="1.00" stroke-linecap="butt" stroke-linejoin="miter">
	<g transform="translate(1074.2,358.3) rotate(270)" stroke="none" fill="black" font-family="Helvetica" font-size="12.00"  text-anchor="middle">
		<text><tspan font-family="Helvetica" >Density (a.u.)</tspan></text>
	</g>
</g>
<g fill="none" color="black" stroke="currentColor" stroke-width="1.00" stroke-linecap="butt" stroke-linejoin="miter">
	<g transform="translate(521.3,711.3)" stroke="none" fill="black" font-family="Helvetica" font-size="12.00"  text-anchor="middle">
		<text><tspan font-family="Helvetica" >Average time (cycles)</tspan></text>
	</g>
</g>
<g fill="none" color="black" stroke="currentColor" stroke-width="1.00" stroke-linecap="butt" stroke-linejoin="miter">
	<g transform="translate(521.3,31.0)" stroke="none" fill="black" font-family="Helvetica" font-size="12.00"  text-anchor="middle">
		<text><tspan font-family="Helvetica" >non_nested_compare/modified from scratch/5</tspan></text>
	</g>
</g>
	<g id="gnuplot_plot_1" ><title>PDF</title>
<g fill="none" color="black" stroke="currentColor" stroke-width="1.00" stroke-linecap="butt" stroke-linejoin="miter">
	<g transform="translate(1147.1,67.0)" stroke="none" fill="black" font-family="Helvetica" font-size="12.00"  text-anchor="start">
		<text><tspan font-family="Helvetica" >PDF</tspan></text>
	</g>
</g>
<g fill="none" color="black" stroke="currentColor" stroke-width="1.00" stroke-linecap="butt" stroke-linejoin="miter">
	<g stroke='none' shape-rendering='crispEdges'>
		<polygon fill = 'rgb( 31, 120, 180)' fill-opacity = '0.250000' points = '1096.6,67.6 1138.8,67.6 1138.8,58.6 1096.6,58.6 '/>
		<polygon fill = 'rgb( 31, 120, 180)' fill-opacity = '0.250000' points = '63.6,662.2 65.4,662.2 67.3,662.2 69.1,662.2 70.9,662.2 72.8,662.1 74.6,662.1 76.4,662.1 78.3,662.0 80.1,662.0 81.9,662.0 83.8,661.9 85.6,661.9 87.4,661.8 89.3,661.8 91.1,661.7
93.0,661.7 94.8,661.6 96.6,661.5 98.5,661.5 100.3,661.4 102.1,661.3 104.0,661.2 105.8,661.1 107.6,661.0 109.5,660.9 111.3,660.8 113.1,660.6 115.0,660.5 116.8,660.4 118.6,660.2 120.5,660.1
122.3,659.9 124.1,659.7 126.0,659.6 127.8,659.4 129.6,659.2 131.5,659.0 133.3,658.8 135.1,658.5 137.0,658.3 138.8,658.1 140.6,657.8 142.5,657.6 144.3,657.3 146.2,657.0 148.0,656.8 149.8,656.5
151.7,656.2 153.5,655.9 155.3,655.6 157.2,655.3 159.0,655.0 160.8,654.6 162.7,654.3 164.5,654.0 166.3,653.7 168.2,653.3 170.0,653.0 171.8,652.7 173.7,652.3 175.5,652.0 177.3,651.6 179.2,651.3
181.0,651.0 182.8,650.6 184.7,650.3 186.5,650.0 188.3,649.7 190.2,649.4 192.0,649.1 193.8,648.8 195.7,648.5 197.5,648.2 199.4,647.9 201.2,647.7 203.0,647.4 204.9,647.2 206.7,646.9 208.5,646.7
210.4,646.5 212.2,646.3 214.0,646.1 215.9,645.9 217.7,645.8 219.5,645.6 221.4,645.4 223.2,645.3 225.0,645.2 226.9,645.1 228.7,644.9 230.5,644.8 232.4,644.8 234.2,644.7 236.0,644.6 237.9,644.5
239.7,644.5 241.5,644.4 243.4,644.3 245.2,644.3 247.0,644.2 248.9,644.2 250.7,644.1 252.6,644.1 254.4,644.1 256.2,644.0 258.1,644.0 259.9,643.9 261.7,643.9 263.6,643.9 265.4,643.8 267.2,643.8
269.1,643.7 270.9,643.7 272.7,643.6 274.6,643.5 276.4,643.5 278.2,643.4 280.1,643.3 281.9,643.2 283.7,643.2 285.6,643.1 287.4,643.0 289.2,642.9 291.1,642.8 292.9,642.7 294.7,642.6 296.6,642.5
298.4,642.4 300.2,642.3 302.1,642.2 303.9,642.0 305.7,641.9 307.6,641.8 309.4,641.7 311.3,641.6 313.1,641.5 314.9,641.4 316.8,641.3 318.6,641.2 320.4,641.1 322.3,641.1 324.1,641.0 325.9,640.9
327.8,640.8 329.6,640.8 331.4,640.7 333.3,640.7 335.1,640.6 336.9,640.6 338.8,640.6 340.6,640.6 342.4,640.5 344.3,640.5 346.1,640.5 347.9,640.6 349.8,640.6 351.6,640.6 353.4,640.6 355.3,640.7
357.1,640.7 358.9,640.8 360.8,640.8 362.6,640.9 364.5,640.9 366.3,641.0 368.1,641.1 370.0,641.2 371.8,641.3 373.6,641.4 375.5,641.5 377.3,641.5 379.1,641.6 381.0,641.8 382.8,641.9 384.6,642.0
386.5,642.1 388.3,642.2 390.1,642.3 392.0,642.4 393.8,642.5 395.6,642.6 397.5,642.8 399.3,642.9 401.1,643.0 403.0,643.1 404.8,643.2 406.6,643.3 408.5,643.4 410.3,643.5 412.1,643.7 414.0,643.8
415.8,643.9 417.7,644.0 419.5,644.1 421.3,644.2 423.2,644.3 425.0,644.4 426.8,644.5 428.7,644.6 430.5,644.7 432.3,644.8 434.2,644.8 436.0,644.9 437.8,645.0 439.7,645.1 441.5,645.2 443.3,645.2
445.2,645.3 447.0,645.4 448.8,645.4 450.7,645.5 452.5,645.5 454.3,645.6 456.2,645.6 458.0,645.7 459.8,645.7 461.7,645.8 463.5,645.8 465.3,645.8 467.2,645.8 469.0,645.8 470.9,645.8 472.7,645.8
474.5,645.8 476.4,645.8 478.2,645.8 480.0,645.8 481.9,645.7 483.7,645.7 485.5,645.6 487.4,645.6 489.2,645.5 491.0,645.4 492.9,645.4 494.7,645.3 496.5,645.2 498.4,645.0 500.2,644.9 502.0,644.8
503.9,644.6 505.7,644.5 507.5,644.3 509.4,644.1 511.2,644.0 513.0,643.7 514.9,643.5 516.7,643.3 518.5,643.1 520.4,642.8 522.2,642.6 524.1,642.3 525.9,642.0 527.7,641.7 529.6,641.4 531.4,641.0
533.2,640.7 535.1,640.3 536.9,640.0 538.7,639.6 540.6,639.2 542.4,638.8 544.2,638.4 546.1,637.9 547.9,637.5 549.7,637.0 551.6,636.5 553.4,636.0 555.2,635.5 557.1,635.0 558.9,634.5 560.7,633.9
562.6,633.4 564.4,632.8 566.2,632.2 568.1,631.6 569.9,631.0 571.7,630.3 573.6,629.7 575.4,629.0 577.3,628.3 579.1,627.6 580.9,626.9 582.8,626.2 584.6,625.4 586.4,624.7 588.3,623.9 590.1,623.1
591.9,622.2 593.8,621.4 595.6,620.5 597.4,619.6 599.3,618.7 601.1,617.7 602.9,616.7 604.8,615.7 606.6,614.6 608.4,613.5 610.3,612.4 612.1,611.2 613.9,610.0 615.8,608.8 617.6,607.5 619.4,606.1
621.3,604.7 623.1,603.3 624.9,601.8 626.8,600.2 628.6,598.6 630.5,596.9 632.3,595.1 634.1,593.3 636.0,591.4 637.8,589.4 639.6,587.3 641.5,585.2 643.3,582.9 645.1,580.6 647.0,578.1 648.8,575.6
650.6,572.9 652.5,570.2 654.3,567.3 656.1,564.3 658.0,561.2 659.8,557.9 661.6,554.5 663.5,551.0 665.3,547.3 667.1,543.5 669.0,539.5 670.8,535.4 672.6,531.1 674.5,526.6 676.3,522.0 678.1,517.2
680.0,512.2 681.8,507.0 683.7,501.7 685.5,496.1 687.3,490.4 689.2,484.5 691.0,478.4 692.8,472.1 694.7,465.6 696.5,459.0 698.3,452.1 700.2,445.0 702.0,437.8 703.8,430.3 705.7,422.7 707.5,414.9
709.3,406.9 711.2,398.8 713.0,390.5 714.8,382.0 716.7,373.4 718.5,364.7 720.3,355.8 722.2,346.8 724.0,337.7 725.8,328.5 727.7,319.3 729.5,310.0 731.3,300.6 733.2,291.2 735.0,281.9 736.9,272.5
738.7,263.1 740.5,253.8 742.4,244.6 744.2,235.4 746.0,226.4 747.9,217.5 749.7,208.7 751.5,200.2 753.4,191.8 755.2,183.7 757.0,175.8 758.9,168.2 760.7,160.9 762.5,153.9 764.4,147.2 766.2,140.9
768.0,135.0 769.9,129.5 771.7,124.4 773.5,119.7 775.4,115.5 777.2,111.8 779.0,108.5 780.9,105.8 782.7,103.6 784.5,101.9 786.4,100.7 788.2,100.1 790.0,100.0 791.9,100.5 793.7,101.5 795.6,103.1
797.4,105.3 799.2,107.9 801.1,111.2 802.9,114.9 804.7,119.2 806.6,124.0 808.4,129.4 810.2,135.2 812.1,141.5 813.9,148.2 815.7,155.4 817.6,163.1 819.4,171.1 821.2,179.5 823.1,188.3 824.9,197.4
826.7,206.8 828.6,216.5 830.4,226.5 832.2,236.7 834.1,247.2 835.9,257.8 837.7,268.5 839.6,279.5 841.4,290.5 843.2,301.6 845.1,312.7 846.9,323.9 848.8,335.0 850.6,346.2 852.4,357.3 854.3,368.4
856.1,379.4 857.9,390.2 859.8,401.0 861.6,411.6 863.4,422.0 865.3,432.3 867.1,442.3 868.9,452.2 870.8,461.8 872.6,471.3 874.4,480.5 876.3,489.4 878.1,498.1 879.9,506.5 881.8,514.7 883.6,522.6
885.4,530.2 887.3,537.6 889.1,544.6 890.9,551.5 892.8,558.0 894.6,564.2 896.4,570.2 898.3,576.0 900.1,581.4 902.0,586.6 903.8,591.6 905.6,596.3 907.5,600.7 909.3,605.0 911.1,609.0 913.0,612.7
914.8,616.3 916.6,619.7 918.5,622.8 920.3,625.8 922.1,628.6 924.0,631.2 925.8,633.6 927.6,635.9 929.5,638.0 931.3,640.0 933.1,641.9 935.0,643.6 936.8,645.2 938.6,646.7 940.5,648.0 942.3,649.3
944.1,650.4 946.0,651.5 947.8,652.5 949.6,653.4 951.5,654.3 953.3,655.0 955.2,655.7 957.0,656.4 958.8,657.0 960.7,657.5 962.5,658.0 964.3,658.4 966.2,658.8 968.0,659.2 969.8,659.5 971.7,659.8
973.5,660.1 975.3,660.3 977.2,660.6 979.0,660.8 979.0,662.4 977.2,662.4 975.3,662.4 973.5,662.4 971.7,662.4 969.8,662.4 968.0,662.4 966.2,662.4 964.3,662.4 962.5,662.4 960.7,662.4 958.8,662.4
957.0,662.4 955.2,662.4 953.3,662.4 951.5,662.4 949.6,662.4 947.8,662.4 946.0,662.4 944.1,662.4 942.3,662.4 940.5,662.4 938.6,662.4 936.8,662.4 935.0,662.4 933.1,662.4 931.3,662.4 929.5,662.4
927.6,662.4 925.8,662.4 924.0,662.4 922.1,662.4 920.3,662.4 918.5,662.4 916.6,662.4 914.8,662.4 913.0,662.4 911.1,662.4 909.3,662.4 907.5,662.4 905.6,662.4 903.8,662.4 902.0,662.4 900.1,662.4
898.3,662.4 896.4,662.4 894.6,662.4 892.8,662.4 890.9,662.4 889.1,662.4 887.3,662.4 885.4,662.4 883.6,662.4 881.8,662.4 879.9,662.4 878.1,662.4 876.3,662.4 874.4,662.4 872.6,662.4 870.8,662.4
868.9,662.4 867.1,662.4 865.3,662.4 863.4,662.4 861.6,662.4 859.8,662.4 857.9,662.4 856.1,662.4 854.3,662.4 852.4,662.4 850.6,662.4 848.8,662.4 846.9,662.4 845.1,662.4 843.2,662.4 841.4,662.4
839.6,662.4 837.7,662.4 835.9,662.4 834.1,662.4 832.2,662.4 830.4,662.4 828.6,662.4 826.7,662.4 824.9,662.4 823.1,662.4 821.2,662.4 819.4,662.4 817.6,662.4 815.7,662.4 813.9,662.4 812.1,662.4
810.2,662.4 808.4,662.4 806.6,662.4 804.7,662.4 802.9,662.4 801.1,662.4 799.2,662.4 797.4,662.4 795.6,662.4 793.7,662.4 791.9,662.4 790.0,662.4 788.2,662.4 786.4,662.4 784.5,662.4 782.7,662.4
780.9,662.4 779.0,662.4 777.2,662.4 775.4,662.4 773.5,662.4 771.7,662.4 769.9,662.4 768.0,662.4 766.2,662.4 764.4,662.4 762.5,662.4 760.7,662.4 758.9,662.4 757.0,662.4 755.2,662.4 753.4,662.4
751.5,662.4 749.7,662.4 747.9,662.4 746.0,662.4 744.2,662.4 742.4,662.4 740.5,662.4 738.7,662.4 736.9,662.4 735.0,662.4 733.2,662.4 731.3,662.4 729.5,662.4 727.7,662.4 725.8,662.4 724.0,662.4
722.2,662.4 720.3,662.4 718.5,662.4 716.7,662.4 714.8,662.4 713.0,662.4 711.2,662.4 709.3,662.4 707.5,662.4 705.7,662.4 703.8,662.4 702.0,662.4 700.2,662.4 698.3,662.4 696.5,662.4 694.7,662.4
692.8,662.4 691.0,662.4 689.2,662.4 687.3,662.4 685.5,662.4 683.7,662.4 681.8,662.4 680.0,662.4 678.1,662.4 676.3,662.4 674.5,662.4 672.6,662.4 670.8,662.4 669.0,662.4 667.1,662.4 665.3,662.4
663.5,662.4 661.6,662.4 659.8,662.4 658.0,662.4 656.1,662.4 654.3,662.4 652.5,662.4 650.6,662.4 648.8,662.4 647.0,662.4 645.1,662.4 643.3,662.4 641.5,662.4 639.6,662.4 637.8,662.4 636.0,662.4
634.1,662.4 632.3,662.4 630.5,662.4 628.6,662.4 626.8,662.4 624.9,662.4 623.1,662.4 621.3,662.4 619.4,662.4 617.6,662.4 615.8,662.4 613.9,662.4 612.1,662.4 610.3,662.4 608.4,662.4 606.6,662.4
604.8,662.4 602.9,662.4 601.1,662.4 599.3,662.4 597.4,662.4 595.6,662.4 593.8,662.4 591.9,662.4 590.1,662.4 588.3,662.4 586.4,662.4 584.6,662.4 582.8,662.4 580.9,662.4 579.1,662.4 577.3,662.4
575.4,662.4 573.6,662.4 571.7,662.4 569.9,662.4 568.1,662.4 566.2,662.4 564.4,662.4 562.6,662.4 560.7,662.4 558.9,662.4 557.1,662.4 555.2,662.4 553.4,662.4 551.6,662.4 549.7,662.4 547.9,662.4
546.1,662.4 544.2,662.4 542.4,662.4 540.6,662.4 538.7,662.4 536.9,662.4 535.1,662.4 533.2,662.4 531.4,662.4 529.6,662.4 527.7,662.4 525.9,662.4 524.1,662.4 522.2,662.4 520.4,662.4 518.5,662.4
516.7,662.4 514.9,662.4 513.0,662.4 511.2,662.4 509.4,662.4 507.5,662.4 505.7,662.4 503.9,662.4 502.0,662.4 500.2,662.4 498.4,662.4 496.5,662.4 494.7,662.4 492.9,662.4 491.0,662.4 489.2,662.4
487.4,662.4 485.5,662.4 483.7,662.4 481.9,662.4 480.0,662.4 478.2,662.4 476.4,662.4 474.5,662.4 472.7,662.4 470.9,662.4 469.0,662.4 467.2,662.4 465.3,662.4 463.5,662.4 461.7,662.4 459.8,662.4
458.0,662.4 456.2,662.4 454.3,662.4 452.5,662.4 450.7,662.4 448.8,662.4 447.0,662.4 445.2,662.4 443.3,662.4 441.5,662.4 439.7,662.4 437.8,662.4 436.0,662.4 434.2,662.4 432.3,662.4 430.5,662.4
428.7,662.4 426.8,662.4 425.0,662.4 423.2,662.4 421.3,662.4 419.5,662.4 417.7,662.4 415.8,662.4 414.0,662.4 412.1,662.4 410.3,662.4 408.5,662.4 406.6,662.4 404.8,662.4 403.0,662.4 401.1,662.4
399.3,662.4 397.5,662.4 395.6,662.4 393.8,662.4 392.0,662.4 390.1,662.4 388.3,662.4 386.5,662.4 384.6,662.4 382.8,662.4 381.0,662.4 379.1,662.4 377.3,662.4 375.5,662.4 373.6,662.4 371.8,662.4
370.0,662.4 368.1,662.4 366.3,662.4 364.5,662.4 362.6,662.4 360.8,662.4 358.9,662.4 357.1,662.4 355.3,662.4 353.4,662.4 351.6,662.4 349.8,662.4 347.9,662.4 346.1,662.4 344.3,662.4 342.4,662.4
340.6,662.4 338.8,662.4 336.9,662.4 335.1,662.4 333.3,662.4 331.4,662.4 329.6,662.4 327.8,662.4 325.9,662.4 324.1,662.4 322.3,662.4 320.4,662.4 318.6,662.4 316.8,662.4 314.9,662.4 313.1,662.4
311.3,662.4 309.4,662.4 307.6,662.4 305.7,662.4 303.9,662.4 302.1,662.4 300.2,662.4 298.4,662.4 296.6,662.4 294.7,662.4 292.9,662.4 291.1,662.4 289.2,662.4 287.4,662.4 285.6,662.4 283.7,662.4
281.9,662.4 280.1,662.4 278.2,662.4 276.4,662.4 274.6,662.4 272.7,662.4 270.9,662.4 269.1,662.4 267.2,662.4 265.4,662.4 263.6,662.4 261.7,662.4 259.9,662.4 258.1,662.4 256.2,662.4 254.4,662.4
252.6,662.4 250.7,662.4 248.9,662.4 247.0,662.4 245.2,662.4 243.4,662.4 241.5,662.4 239.7,662.4 237.9,662.4 236.0,662.4 234.2,662.4 232.4,662.4 230.5,662.4 228.7,662.4 226.9,662.4 225.0,662.4
223.2,662.4 221.4,662.4 219.5,662.4 217.7,662.4 215.9,662.4 214.0,662.4 212.2,662.4 210.4,662.4 208.5,662.4 206.7,662.4 204.9,662.4 203.0,662.4 201.2,662.4 199.4,662.4 197.5,662.4 195.7,662.4
193.8,662.4 192.0,662.4 190.2,662.4 188.3,662.4 186.5,662.4 184.7,662.4 182.8,662.4 181.0,662.4 179.2,662.4 177.3,662.4 175.5,662.4 173.7,662.4 171.8,662.4 170.0,662.4 168.2,662.4 166.3,662.4
164.5,662.4 162.7,662.4 160.8,662.4 159.0,662.4 157.2,662.4 155.3,662.4 153.5,662.4 151.7,662.4 149.8,662.4 148.0,662.4 146.2,662.4 144.3,662.4 142.5,662.4 140.6,662.4 138.8,662.4 137.0,662.4
135.1,662.4 133.3,662.4 131.5,662.4 129.6,662.4 127.8,662.4 126.0,662.4 124.1,662.4 122.3,662.4 120.5,662.4 118.6,662.4 116.8,662.4 115.0,662.4 113.1,662.4 111.3,662.4 109.5,662.4 107.6,662.4
105.8,662.4 104.0,662.4 102.1,662.4 100.3,662.4 98.5,662.4 96.6,662.4 94.8,662.4 93.0,662.4 91.1,662.4 89.3,662.4 87.4,662.4 85.6,662.4 83.8,662.4 81.9,662.4 80.1,662.4 78.3,662.4
76.4,662.4 74.6,662.4 72.8,662.4 70.9,662.4 69.1,662.4 67.3,662.4 65.4,662.4 63.6,662.4 '/>
	</g>
</g>
	</g>
	<g id="gnuplot_plot_2" ><title>Mean</title>
<g fill="none" color="white" stroke="rgb( 31, 120, 180)" stroke-width="2.00" stroke-linecap="butt" stroke-linejoin="miter">
</g>
<g fill="none" color="black" stroke="currentColor" stroke-width="2.00" stroke-linecap="butt" stroke-linejoin="miter">
	<g transform="translate(1147.1,85.0)" stroke="none" fill="black" font-family="Helvetica" font-size="12.00"  text-anchor="start">
		<text><tspan font-family="Helvetica" >Mean</tspan></text>
	</g>
</g>
<g fill="none" color="black" stroke="currentColor" stroke-width="2.00" stroke-linecap="butt" stroke-linejoin="miter">
	<path stroke='rgb( 31, 120, 180)'  d='M1096.6,81.1 L1138.8,81.1 M743.2,662.4 L743.2,54.1  '/></g>
	</g>
	<g id="gnuplot_plot_3" ><title>"Clean" sample</title>
<g fill="none" color="white" stroke="rgb( 31, 120, 180)" stroke-width="1.00" stroke-linecap="butt" stroke-linejoin="miter">
</g>
<g fill="none" color="black" stroke="currentColor" stroke-width="1.00" stroke-linecap="butt" stroke-linejoin="miter">
	<g transform="translate(1147.1,103.0)" stroke="none" fill="black" font-family="Helvetica" font-size="12.00"  text-anchor="start">
		<text><tspan font-family="Helvetica" >"Clean" sample</tspan></text>
	</g>
</g>
<g fill="none" color="black" stroke="currentColor" stroke-width="1.00" stroke-linecap="butt" stroke-linejoin="miter">
	<use xlink:href='#gpPt6' transform='translate(674.0,583.3) scale(3.38)' color='rgb( 31, 120, 180)'/>
	<use xlink:href='#gpPt6' transform='translate(679.2,577.2) scale(3.38)' color='rgb( 31, 120, 180)'/>
	<use xlink:href='#gpPt6' transform='translate(692.4,571.2) scale(3.38)' color='rgb( 31, 120, 180)'/>
	<use xlink:href='#gpPt6' transform='translate(695.2,565.1) scale(3.38)' color='rgb( 31, 120, 180)'/>
	<use xlink:href='#gpPt6' transform='translate(709.6,559.0) scale(3.38)' color='rgb( 31, 120, 180)'/>
	<use xlink:href='#gpPt6' transform='translate(713.6,552.9) scale(3.38)' color='rgb( 31, 120, 180)'/>
	<use xlink:href='#gpPt6' transform='translate(721.1,546.8) scale(3.38)' color='rgb( 31, 120, 180)'/>
	<use xlink:href='#gpPt6' transform='translate(725.1,540.7) scale(3.38)' color='rgb( 31, 120, 180)'/>
	<use xlink:href='#gpPt6' transform='translate(735.4,534.7) scale(3.38)' color='rgb( 31, 120, 180)'/>
	<use xlink:href='#gpPt6' transform='translate(735.3,528.6) scale(3.38)' color='rgb( 31, 120, 180)'/>
	<use xlink:href='#gpPt6' transform='translate(737.5,522.5) scale(3.38)' color='rgb( 31, 120, 180)'/>
	<use xlink:href='#gpPt6' transform='translate(740.0,516.4) scale(3.38)' color='rgb( 31, 120, 180)'/>
	<use xlink:href='#gpPt6' transform='translate(748.1,510.3) scale(3.38)' color='rgb( 31, 120, 180)'/>
	<use xlink:href='#gpPt6' transform='translate(747.0,504.2) scale(3.38)' color='rgb( 31, 120, 180)'/>
	<use xlink:href='#gpPt6' transform='translate(755.4,498.2) scale(3.38)' color='rgb( 31, 120, 180)'/>
	<use xlink:href='#gpPt6' transform='translate(751.3,492.1) scale(3.38)' color='rgb( 31, 120, 180)'/>
	<use xlink:href='#gpPt6' transform='translate(750.9,486.0) scale(3.38)' color='rgb( 31, 120, 180)'/>
	<use xlink:href='#gpPt6' transform='translate(769.8,479.9) scale(3.38)' color='rgb( 31, 120, 180)'/>
	<use xlink:href='#gpPt6' transform='translate(767.9,473.8) scale(3.38)' color='rgb( 31, 120, 180)'/>
	<use xlink:href='#gpPt6' transform='translate(770.2,467.7) scale(3.38)' color='rgb( 31, 120, 180)'/>
	<use xlink:href='#gpPt6' transform='translate(762.4,461.7) scale(3.38)' color='rgb( 31, 120, 180)'/>
	<use xlink:href='#gpPt6' transform='translate(774.7,455.6) scale(3.38)' color='rgb( 31, 120, 180)'/>
	<use xlink:href='#gpPt6' transform='translate(771.6,449.5) scale(3.38)' color='rgb( 31, 120, 180)'/>
	<use xlink:href='#gpPt6' transform='translate(774.8,443.4) scale(3.38)' color='rgb( 31, 120, 180)'/>
	<use xlink:href='#gpPt6' transform='translate(767.4,437.3) scale(3.38)' color='rgb( 31, 120, 180)'/>
	<use xlink:href='#gpPt6' transform='translate(800.2,431.2) scale(3.38)' color='rgb( 31, 120, 180)'/>
	<use xlink:href='#gpPt6' transform='translate(778.9,425.2) scale(3.38)' color='rgb( 31, 120, 180)'/>
	<use xlink:href='#gpPt6' transform='translate(779.2,419.1) scale(3.38)' color='rgb( 31, 120, 180)'/>
	<use xlink:href='#gpPt6' transform='translate(770.3,413.0) scale(3.38)' color='rgb( 31, 120, 180)'/>
	<use xlink:href='#gpPt6' transform='translate(810.4,406.9) scale(3.38)' color='rgb( 31, 120, 180)'/>
	<use xlink:href='#gpPt6' transform='translate(787.4,400.8) scale(3.38)' color='rgb( 31, 120, 180)'/>
	<use xlink:href='#gpPt6' transform='translate(787.8,394.7) scale(3.38)' color='rgb( 31, 120, 180)'/>
	<use xlink:href='#gpPt6' transform='translate(787.4,388.7) scale(3.38)' color='rgb( 31, 120, 180)'/>
	<use xlink:href='#gpPt6' transform='translate(776.1,382.6) scale(3.38)' color='rgb( 31, 120, 180)'/>
	<use xlink:href='#gpPt6' transform='translate(794.5,376.5) scale(3.38)' color='rgb( 31, 120, 180)'/>
	<use xlink:href='#gpPt6' transform='translate(794.0,370.4) scale(3.38)' color='rgb( 31, 120, 180)'/>
	<use xlink:href='#gpPt6' transform='translate(789.7,364.3) scale(3.38)' color='rgb( 31, 120, 180)'/>
	<use xlink:href='#gpPt6' transform='translate(778.3,358.2) scale(3.38)' color='rgb( 31, 120, 180)'/>
	<use xlink:href='#gpPt6' transform='translate(816.5,352.2) scale(3.38)' color='rgb( 31, 120, 180)'/>
	<use xlink:href='#gpPt6' transform='translate(795.7,346.1) scale(3.38)' color='rgb( 31, 120, 180)'/>
	<use xlink:href='#gpPt6' transform='translate(789.5,340.0) scale(3.38)' color='rgb( 31, 120, 180)'/>
	<use xlink:href='#gpPt6' transform='translate(787.5,333.9) scale(3.38)' color='rgb( 31, 120, 180)'/>
	<use xlink:href='#gpPt6' transform='translate(812.6,327.8) scale(3.38)' color='rgb( 31, 120, 180)'/>
	<use xlink:href='#gpPt6' transform='translate(795.1,321.8) scale(3.38)' color='rgb( 31, 120, 180)'/>
	<use xlink:href='#gpPt6' transform='translate(801.6,315.7) scale(3.38)' color='rgb( 31, 120, 180)'/>
	<use xlink:href='#gpPt6' transform='translate(792.4,309.6) scale(3.38)' color='rgb( 31, 120, 180)'/>
	<use xlink:href='#gpPt6' transform='translate(786.4,303.5) scale(3.38)' color='rgb( 31, 120, 180)'/>
	<use xlink:href='#gpPt6' transform='translate(791.2,297.4) scale(3.38)' color='rgb( 31, 120, 180)'/>
	<use xlink:href='#gpPt6' transform='translate(793.5,291.3) scale(3.38)' color='rgb( 31, 120, 180)'/>
	<use xlink:href='#gpPt6' transform='translate(797.6,285.3) scale(3.38)' color='rgb( 31, 120, 180)'/>
	<use xlink:href='#gpPt6' transform='translate(789.2,279.2) scale(3.38)' color='rgb( 31, 120, 180)'/>
	<use xlink:href='#gpPt6' transform='translate(791.3,273.1) scale(3.38)' color='rgb( 31, 120, 180)'/>
	<use xlink:href='#gpPt6' transform='translate(799.7,267.0) scale(3.38)' color='rgb( 31, 120, 180)'/>
	<use xlink:href='#gpPt6' transform='translate(799.7,260.9) scale(3.38)' color='rgb( 31, 120, 180)'/>
	<use xlink:href='#gpPt6' transform='translate(790.5,254.8) scale(3.38)' color='rgb( 31, 120, 180)'/>
	<use xlink:href='#gpPt6' transform='translate(823.0,248.8) scale(3.38)' color='rgb( 31, 120, 180)'/>
	<use xlink:href='#gpPt6' transform='translate(808.5,242.7) scale(3.38)' color='rgb( 31, 120, 180)'/>
	<use xlink:href='#gpPt6' transform='translate(804.1,236.6) scale(3.38)' color='rgb( 31, 120, 180)'/>
	<use xlink:href='#gpPt6' transform='translate(803.8,230.5) scale(3.38)' color='rgb( 31, 120, 180)'/>
	<use xlink:href='#gpPt6' transform='translate(790.0,224.4) scale(3.38)' color='rgb( 31, 120, 180)'/>
	<use xlink:href='#gpPt6' transform='translate(820.0,218.3) scale(3.38)' color='rgb( 31, 120, 180)'/>
	<use xlink:href='#gpPt6' transform='translate(809.5,212.3) scale(3.38)' color='rgb( 31, 120, 180)'/>
	<use xlink:href='#gpPt6' transform='translate(805.0,206.2) scale(3.38)' color='rgb( 31, 120, 180)'/>
	<use xlink:href='#gpPt6' transform='translate(793.3,200.1) scale(3.38)' color='rgb( 31, 120, 180)'/>
	<use xlink:href='#gpPt6' transform='translate(820.7,194.0) scale(3.38)' color='rgb( 31, 120, 180)'/>
	<use xlink:href='#gpPt6' transform='translate(808.8,187.9) scale(3.38)' color='rgb( 31, 120, 180)'/>
	<use xlink:href='#gpPt6' transform='translate(803.2,181.8) scale(3.38)' color='rgb( 31, 120, 180)'/>
	<use xlink:href='#gpPt6' transform='translate(795.4,175.8) scale(3.38)' color='rgb( 31, 120, 180)'/>
	<use xlink:href='#gpPt6' transform='translate(820.3,169.7) scale(3.38)' color='rgb( 31, 120, 180)'/>
	<use xlink:href='#gpPt6' transform='translate(809.7,163.6) scale(3.38)' color='rgb( 31, 120, 180)'/>
	<use xlink:href='#gpPt6' transform='translate(798.7,157.5) scale(3.38)' color='rgb( 31, 120, 180)'/>
	<use xlink:href='#gpPt6' transform='translate(794.1,151.4) scale(3.38)' color='rgb( 31, 120, 180)'/>
	<use xlink:href='#gpPt6' transform='translate(796.7,145.3) scale(3.38)' color='rgb( 31, 120, 180)'/>
	<use xlink:href='#gpPt6' transform='translate(820.6,139.3) scale(3.38)' color='rgb( 31, 120, 180)'/>
	<use xlink:href='#gpPt6' transform='translate(806.3,133.2) scale(3.38)' color='rgb( 31, 120, 180)'/>
	<use xlink:href='#gpPt6' transform='translate(801.2,127.1) scale(3.38)' color='rgb( 31, 120, 180)'/>
	<use xlink:href='#gpPt6' transform='translate(797.0,121.0) scale(3.38)' color='rgb( 31, 120, 180)'/>
	<use xlink:href='#gpPt6' transform='translate(803.5,114.9) scale(3.38)' color='rgb( 31, 120, 180)'/>
	<use xlink:href='#gpPt6' transform='translate(812.9,108.8) scale(3.38)' color='rgb( 31, 120, 180)'/>
	<use xlink:href='#gpPt6' transform='translate(810.3,102.8) scale(3.38)' color='rgb( 31, 120, 180)'/>
	<use xlink:href='#gpPt6' transform='translate(794.4,96.7) scale(3.38)' color='rgb( 31, 120, 180)'/>
	<use xlink:href='#gpPt6' transform='translate(803.3,90.6) scale(3.38)' color='rgb( 31, 120, 180)'/>
	<use xlink:href='#gpPt6' transform='translate(814.0,84.5) scale(3.38)' color='rgb( 31, 120, 180)'/>
	<use xlink:href='#gpPt6' transform='translate(806.0,78.4) scale(3.38)' color='rgb( 31, 120, 180)'/>
	<use xlink:href='#gpPt6' transform='translate(800.8,72.3) scale(3.38)' color='rgb( 31, 120, 180)'/>
	<use xlink:href='#gpPt6' transform='translate(822.0,66.3) scale(3.38)' color='rgb( 31, 120, 180)'/>
	<use xlink:href='#gpPt6' transform='translate(805.1,60.2) scale(3.38)' color='rgb( 31, 120, 180)'/>
	<use xlink:href='#gpPt6' transform='translate(815.8,54.1) scale(3.38)' color='rgb( 31, 120, 180)'/>
	<use xlink:href='#gpPt6' transform='translate(1117.7,99.1) scale(3.38)' color='rgb( 31, 120, 180)'/>
</g>
	</g>
	<g id="gnuplot_plot_4" ><title>Mild outliers</title>
<g fill="none" color="black" stroke="currentColor" stroke-width="1.00" stroke-linecap="butt" stroke-linejoin="miter">
	<g transform="translate(1147.1,121.0)" stroke="none" fill="black" font-family="Helvetica" font-size="12.00"  text-anchor="start">
		<text><tspan font-family="Helvetica" >Mild outliers</tspan></text>
	</g>
</g>
<g fill="none" color="black" stroke="currentColor" stroke-width="1.00" stroke-linecap="butt" stroke-linejoin="miter">
	<use xlink:href='#gpPt6' transform='translate(590.7,607.7) scale(3.38)' color='rgb(255, 127,   0)'/>
	<use xlink:href='#gpPt6' transform='translate(611.2,601.6) scale(3.38)' color='rgb(255, 127,   0)'/>
	<use xlink:href='#gpPt6' transform='translate(638.7,595.5) scale(3.38)' color='rgb(255, 127,   0)'/>
	<use xlink:href='#gpPt6' transform='translate(652.9,589.4) scale(3.38)' color='rgb(255, 127,   0)'/>
	<use xlink:href='#gpPt6' transform='translate(1117.7,117.1) scale(3.38)' color='rgb(255, 127,   0)'/>
</g>
	</g>
	<g id="gnuplot_plot_5" ><title>Severe outliers</title>
<g fill="none" color="black" stroke="currentColor" stroke-width="1.00" stroke-linecap="butt" stroke-linejoin="miter">
	<g transform="translate(1147.1,139.0)" stroke="none" fill="black" font-family="Helvetica" font-size="12.00"  text-anchor="start">
		<text><tspan font-family="Helvetica" >Severe outliers</tspan></text>
	</g>
</g>
<g fill="none" color="black" stroke="currentColor" stroke-width="1.00" stroke-linecap="butt" stroke-linejoin="miter">
	<use xlink:href='#gpPt6' transform='translate(221.5,656.3) scale(3.38)' color='rgb(227,  26,  28)'/>
	<use xlink:href='#gpPt6' transform='translate(219.6,650.2) scale(3.38)' color='rgb(227,  26,  28)'/>
	<use xlink:href='#gpPt6' transform='translate(320.4,644.2) scale(3.38)' color='rgb(227,  26,  28)'/>
	<use xlink:href='#gpPt6' transform='translate(328.2,638.1) scale(3.38)' color='rgb(227,  26,  28)'/>
	<use xlink:href='#gpPt6' transform='translate(383.9,632.0) scale(3.38)' color='rgb(227,  26,  28)'/>
	<use xlink:href='#gpPt6' transform='translate(434.7,625.9) scale(3.38)' color='rgb(227,  26,  28)'/>
	<use xlink:href='#gpPt6' transform='translate(497.7,619.8) scale(3.38)' color='rgb(227,  26,  28)'/>
	<use xlink:href='#gpPt6' transform='translate(566.1,613.7) scale(3.38)' color='rgb(227,  26,  28)'/>
	<use xlink:href='#gpPt6' transform='translate(1117.7,135.1) scale(3.38)' color='rgb(227,  26,  28)'/>
</g>
	</g>
	<g id="gnuplot_plot_6" ><title>gnuplot_plot_6</title>
<g fill="none" color="white" stroke="rgb(227,  26,  28)" stroke-width="2.00" stroke-linecap="butt" stroke-linejoin="miter">
</g>
<g fill="none" color="black" stroke="currentColor" stroke-width="2.00" stroke-linecap="butt" stroke-linejoin="miter">
	<path stroke='rgb(255, 127,   0)'  d='M664.8,662.4 L664.8,54.1  '/></g>
	</g>
	<g id="gnuplot_plot_7" ><title>gnuplot_plot_7</title>
<g fill="none" color="black" stroke="currentColor" stroke-width="2.00" stroke-linecap="butt" stroke-linejoin="miter">
	<path stroke='rgb(255, 127,   0)'  d='M886.2,662.4 L886.2,54.1  '/></g>
	</g>
	<g id="gnuplot_plot_8" ><title>gnuplot_plot_8</title>
<g fill="none" color="black" stroke="currentColor" stroke-width="2.00" stroke-linecap="butt" stroke-linejoin="miter">
	<path stroke='rgb(227,  26,  28)'  d='M581.7,662.4 L581.7,54.1  '/></g>
	</g>
	<g id="gnuplot_plot_9" ><title>gnuplot_plot_9</title>
<g fill="none" color="black" stroke="currentColor" stroke-width="2.00" stroke-linecap="butt" stroke-linejoin="miter">
	<path stroke='rgb(227,  26,  28)'  d='M969.3,662.4 L969.3,54.1  '/></g>
	</g>
<g fill="none" color="black" stroke="currentColor" stroke-width="2.00" stroke-linecap="butt" stroke-linejoin="miter">
</g>
<g fill="none" color="black" stroke="black" stroke-width="1.00" stroke-linecap="butt" stroke-linejoin="miter">
</g>
<g fill="none" color="black" stroke="currentColor" stroke-width="1.00" stroke-linecap="butt" stroke-linejoin="miter">
	<path stroke='black'  d='M63.6,54.1 L63.6,662.4 L979.0,662.4 L979.0,54.1 L63.6,54.1 Z  '/></g>
<g fill="none" color="black" stroke="currentColor" stroke-width="1.00" stroke-linecap="butt" stroke-linejoin="miter">
</g>
</g>
</svg>

