<?xml version="1.0" encoding="utf-8"  standalone="no"?>
<svg 
 viewBox="0 0 1280 720"
 xmlns="http://www.w3.org/2000/svg"
 xmlns:xlink="http://www.w3.org/1999/xlink"
>

<title>Gnuplot</title>
<desc>Produced by GNUPLOT 5.2 patchlevel 2 </desc>

<g id="gnuplot_canvas">

<rect x="0" y="0" width="1280" height="720" fill="none"/>
<defs>

	<circle id='gpDot' r='0.5' stroke-width='0.5'/>
	<path id='gpPt0' stroke-width='0.222' stroke='currentColor' d='M-1,0 h2 M0,-1 v2'/>
	<path id='gpPt1' stroke-width='0.222' stroke='currentColor' d='M-1,-1 L1,1 M1,-1 L-1,1'/>
	<path id='gpPt2' stroke-width='0.222' stroke='currentColor' d='M-1,0 L1,0 M0,-1 L0,1 M-1,-1 L1,1 M-1,1 L1,-1'/>
	<rect id='gpPt3' stroke-width='0.222' stroke='currentColor' x='-1' y='-1' width='2' height='2'/>
	<rect id='gpPt4' stroke-width='0.222' stroke='currentColor' fill='currentColor' x='-1' y='-1' width='2' height='2'/>
	<circle id='gpPt5' stroke-width='0.222' stroke='currentColor' cx='0' cy='0' r='1'/>
	<use xlink:href='#gpPt5' id='gpPt6' fill='currentColor' stroke='none'/>
	<path id='gpPt7' stroke-width='0.222' stroke='currentColor' d='M0,-1.33 L-1.33,0.67 L1.33,0.67 z'/>
	<use xlink:href='#gpPt7' id='gpPt8' fill='currentColor' stroke='none'/>
	<use xlink:href='#gpPt7' id='gpPt9' stroke='currentColor' transform='rotate(180)'/>
	<use xlink:href='#gpPt9' id='gpPt10' fill='currentColor' stroke='none'/>
	<use xlink:href='#gpPt3' id='gpPt11' stroke='currentColor' transform='rotate(45)'/>
	<use xlink:href='#gpPt11' id='gpPt12' fill='currentColor' stroke='none'/>
	<path id='gpPt13' stroke-width='0.222' stroke='currentColor' d='M0,1.330 L1.265,0.411 L0.782,-1.067 L-0.782,-1.076 L-1.265,0.411 z'/>
	<use xlink:href='#gpPt13' id='gpPt14' fill='currentColor' stroke='none'/>
	<filter id='textbox' filterUnits='objectBoundingBox' x='0' y='0' height='1' width='1'>
	  <feFlood flood-color='white' flood-opacity='1' result='bgnd'/>
	  <feComposite in='SourceGraphic' in2='bgnd' operator='atop'/>
	</filter>
	<filter id='greybox' filterUnits='objectBoundingBox' x='0' y='0' height='1' width='1'>
	  <feFlood flood-color='lightgrey' flood-opacity='1' result='grey'/>
	  <feComposite in='SourceGraphic' in2='grey' operator='atop'/>
	</filter>
</defs>
<g fill="none" color="white" stroke="currentColor" stroke-width="1.00" stroke-linecap="butt" stroke-linejoin="miter">
</g>
<g fill="none" color="black" stroke="currentColor" stroke-width="1.00" stroke-linecap="butt" stroke-linejoin="miter">
	<path stroke='black'  d='M105.1,662.4 L114.1,662.4  '/>	<g transform="translate(96.8,666.3)" stroke="none" fill="black" font-family="Helvetica" font-size="12.00"  text-anchor="end">
		<text><tspan font-family="Helvetica" > 0</tspan></text>
	</g>
</g>
<g fill="none" color="black" stroke="currentColor" stroke-width="1.00" stroke-linecap="butt" stroke-linejoin="miter">
	<path stroke='black'  d='M105.1,601.6 L114.1,601.6  '/>	<g transform="translate(96.8,605.5)" stroke="none" fill="black" font-family="Helvetica" font-size="12.00"  text-anchor="end">
		<text><tspan font-family="Helvetica" > 2x10</tspan><tspan font-family="Helvetica"  font-size="9.6" dy="-6.00px">-7</tspan><tspan font-size="12.0" dy="6.00"></tspan></text>
	</g>
</g>
<g fill="none" color="black" stroke="currentColor" stroke-width="1.00" stroke-linecap="butt" stroke-linejoin="miter">
	<path stroke='black'  d='M105.1,540.7 L114.1,540.7  '/>	<g transform="translate(96.8,544.6)" stroke="none" fill="black" font-family="Helvetica" font-size="12.00"  text-anchor="end">
		<text><tspan font-family="Helvetica" > 4x10</tspan><tspan font-family="Helvetica"  font-size="9.6" dy="-6.00px">-7</tspan><tspan font-size="12.0" dy="6.00"></tspan></text>
	</g>
</g>
<g fill="none" color="black" stroke="currentColor" stroke-width="1.00" stroke-linecap="butt" stroke-linejoin="miter">
	<path stroke='black'  d='M105.1,479.9 L114.1,479.9  '/>	<g transform="translate(96.8,483.8)" stroke="none" fill="black" font-family="Helvetica" font-size="12.00"  text-anchor="end">
		<text><tspan font-family="Helvetica" > 6x10</tspan><tspan font-family="Helvetica"  font-size="9.6" dy="-6.00px">-7</tspan><tspan font-size="12.0" dy="6.00"></tspan></text>
	</g>
</g>
<g fill="none" color="black" stroke="currentColor" stroke-width="1.00" stroke-linecap="butt" stroke-linejoin="miter">
	<path stroke='black'  d='M105.1,419.1 L114.1,419.1  '/>	<g transform="translate(96.8,423.0)" stroke="none" fill="black" font-family="Helvetica" font-size="12.00"  text-anchor="end">
		<text><tspan font-family="Helvetica" > 8x10</tspan><tspan font-family="Helvetica"  font-size="9.6" dy="-6.00px">-7</tspan><tspan font-size="12.0" dy="6.00"></tspan></text>
	</g>
</g>
<g fill="none" color="black" stroke="currentColor" stroke-width="1.00" stroke-linecap="butt" stroke-linejoin="miter">
	<path stroke='black'  d='M105.1,358.2 L114.1,358.2  '/>	<g transform="translate(96.8,362.1)" stroke="none" fill="black" font-family="Helvetica" font-size="12.00"  text-anchor="end">
		<text><tspan font-family="Helvetica" > 1x10</tspan><tspan font-family="Helvetica"  font-size="9.6" dy="-6.00px">-6</tspan><tspan font-size="12.0" dy="6.00"></tspan></text>
	</g>
</g>
<g fill="none" color="black" stroke="currentColor" stroke-width="1.00" stroke-linecap="butt" stroke-linejoin="miter">
	<path stroke='black'  d='M105.1,297.4 L114.1,297.4  '/>	<g transform="translate(96.8,301.3)" stroke="none" fill="black" font-family="Helvetica" font-size="12.00"  text-anchor="end">
		<text><tspan font-family="Helvetica" > 1.2x10</tspan><tspan font-family="Helvetica"  font-size="9.6" dy="-6.00px">-6</tspan><tspan font-size="12.0" dy="6.00"></tspan></text>
	</g>
</g>
<g fill="none" color="black" stroke="currentColor" stroke-width="1.00" stroke-linecap="butt" stroke-linejoin="miter">
	<path stroke='black'  d='M105.1,236.6 L114.1,236.6  '/>	<g transform="translate(96.8,240.5)" stroke="none" fill="black" font-family="Helvetica" font-size="12.00"  text-anchor="end">
		<text><tspan font-family="Helvetica" > 1.4x10</tspan><tspan font-family="Helvetica"  font-size="9.6" dy="-6.00px">-6</tspan><tspan font-size="12.0" dy="6.00"></tspan></text>
	</g>
</g>
<g fill="none" color="black" stroke="currentColor" stroke-width="1.00" stroke-linecap="butt" stroke-linejoin="miter">
	<path stroke='black'  d='M105.1,175.8 L114.1,175.8  '/>	<g transform="translate(96.8,179.7)" stroke="none" fill="black" font-family="Helvetica" font-size="12.00"  text-anchor="end">
		<text><tspan font-family="Helvetica" > 1.6x10</tspan><tspan font-family="Helvetica"  font-size="9.6" dy="-6.00px">-6</tspan><tspan font-size="12.0" dy="6.00"></tspan></text>
	</g>
</g>
<g fill="none" color="black" stroke="currentColor" stroke-width="1.00" stroke-linecap="butt" stroke-linejoin="miter">
	<path stroke='black'  d='M105.1,114.9 L114.1,114.9  '/>	<g transform="translate(96.8,118.8)" stroke="none" fill="black" font-family="Helvetica" font-size="12.00"  text-anchor="end">
		<text><tspan font-family="Helvetica" > 1.8x10</tspan><tspan font-family="Helvetica"  font-size="9.6" dy="-6.00px">-6</tspan><tspan font-size="12.0" dy="6.00"></tspan></text>
	</g>
</g>
<g fill="none" color="black" stroke="currentColor" stroke-width="1.00" stroke-linecap="butt" stroke-linejoin="miter">
	<path stroke='black'  d='M105.1,54.1 L114.1,54.1  '/>	<g transform="translate(96.8,58.0)" stroke="none" fill="black" font-family="Helvetica" font-size="12.00"  text-anchor="end">
		<text><tspan font-family="Helvetica" > 2x10</tspan><tspan font-family="Helvetica"  font-size="9.6" dy="-6.00px">-6</tspan><tspan font-size="12.0" dy="6.00"></tspan></text>
	</g>
</g>
<g fill="none" color="black" stroke="currentColor" stroke-width="1.00" stroke-linecap="butt" stroke-linejoin="miter">
	<path stroke='black'  d='M190.7,662.4 L190.7,653.4  '/>	<g transform="translate(190.7,684.3)" stroke="none" fill="black" font-family="Helvetica" font-size="12.00"  text-anchor="middle">
		<text><tspan font-family="Helvetica" > 1.13x10</tspan><tspan font-family="Helvetica"  font-size="9.6" dy="-6.00px">7</tspan><tspan font-size="12.0" dy="6.00"></tspan></text>
	</g>
</g>
<g fill="none" color="black" stroke="currentColor" stroke-width="1.00" stroke-linecap="butt" stroke-linejoin="miter">
	<path stroke='black'  d='M284.5,662.4 L284.5,653.4  '/>	<g transform="translate(284.5,684.3)" stroke="none" fill="black" font-family="Helvetica" font-size="12.00"  text-anchor="middle">
		<text><tspan font-family="Helvetica" > 1.14x10</tspan><tspan font-family="Helvetica"  font-size="9.6" dy="-6.00px">7</tspan><tspan font-size="12.0" dy="6.00"></tspan></text>
	</g>
</g>
<g fill="none" color="black" stroke="currentColor" stroke-width="1.00" stroke-linecap="butt" stroke-linejoin="miter">
	<path stroke='black'  d='M378.3,662.4 L378.3,653.4  '/>	<g transform="translate(378.3,684.3)" stroke="none" fill="black" font-family="Helvetica" font-size="12.00"  text-anchor="middle">
		<text><tspan font-family="Helvetica" > 1.15x10</tspan><tspan font-family="Helvetica"  font-size="9.6" dy="-6.00px">7</tspan><tspan font-size="12.0" dy="6.00"></tspan></text>
	</g>
</g>
<g fill="none" color="black" stroke="currentColor" stroke-width="1.00" stroke-linecap="butt" stroke-linejoin="miter">
	<path stroke='black'  d='M472.2,662.4 L472.2,653.4  '/>	<g transform="translate(472.2,684.3)" stroke="none" fill="black" font-family="Helvetica" font-size="12.00"  text-anchor="middle">
		<text><tspan font-family="Helvetica" > 1.16x10</tspan><tspan font-family="Helvetica"  font-size="9.6" dy="-6.00px">7</tspan><tspan font-size="12.0" dy="6.00"></tspan></text>
	</g>
</g>
<g fill="none" color="black" stroke="currentColor" stroke-width="1.00" stroke-linecap="butt" stroke-linejoin="miter">
	<path stroke='black'  d='M566.0,662.4 L566.0,653.4  '/>	<g transform="translate(566.0,684.3)" stroke="none" fill="black" font-family="Helvetica" font-size="12.00"  text-anchor="middle">
		<text><tspan font-family="Helvetica" > 1.17x10</tspan><tspan font-family="Helvetica"  font-size="9.6" dy="-6.00px">7</tspan><tspan font-size="12.0" dy="6.00"></tspan></text>
	</g>
</g>
<g fill="none" color="black" stroke="currentColor" stroke-width="1.00" stroke-linecap="butt" stroke-linejoin="miter">
	<path stroke='black'  d='M659.8,662.4 L659.8,653.4  '/>	<g transform="translate(659.8,684.3)" stroke="none" fill="black" font-family="Helvetica" font-size="12.00"  text-anchor="middle">
		<text><tspan font-family="Helvetica" > 1.18x10</tspan><tspan font-family="Helvetica"  font-size="9.6" dy="-6.00px">7</tspan><tspan font-size="12.0" dy="6.00"></tspan></text>
	</g>
</g>
<g fill="none" color="black" stroke="currentColor" stroke-width="1.00" stroke-linecap="butt" stroke-linejoin="miter">
	<path stroke='black'  d='M753.6,662.4 L753.6,653.4  '/>	<g transform="translate(753.6,684.3)" stroke="none" fill="black" font-family="Helvetica" font-size="12.00"  text-anchor="middle">
		<text><tspan font-family="Helvetica" > 1.19x10</tspan><tspan font-family="Helvetica"  font-size="9.6" dy="-6.00px">7</tspan><tspan font-size="12.0" dy="6.00"></tspan></text>
	</g>
</g>
<g fill="none" color="black" stroke="currentColor" stroke-width="1.00" stroke-linecap="butt" stroke-linejoin="miter">
	<path stroke='black'  d='M847.5,662.4 L847.5,653.4  '/>	<g transform="translate(847.5,684.3)" stroke="none" fill="black" font-family="Helvetica" font-size="12.00"  text-anchor="middle">
		<text><tspan font-family="Helvetica" > 1.2x10</tspan><tspan font-family="Helvetica"  font-size="9.6" dy="-6.00px">7</tspan><tspan font-size="12.0" dy="6.00"></tspan></text>
	</g>
</g>
<g fill="none" color="black" stroke="currentColor" stroke-width="1.00" stroke-linecap="butt" stroke-linejoin="miter">
	<path stroke='black'  d='M941.3,662.4 L941.3,653.4  '/>	<g transform="translate(941.3,684.3)" stroke="none" fill="black" font-family="Helvetica" font-size="12.00"  text-anchor="middle">
		<text><tspan font-family="Helvetica" > 1.21x10</tspan><tspan font-family="Helvetica"  font-size="9.6" dy="-6.00px">7</tspan><tspan font-size="12.0" dy="6.00"></tspan></text>
	</g>
</g>
<g fill="none" color="black" stroke="currentColor" stroke-width="1.00" stroke-linecap="butt" stroke-linejoin="miter">
</g>
<g fill="none" color="black" stroke="currentColor" stroke-width="1.00" stroke-linecap="butt" stroke-linejoin="miter">
	<path stroke='black'  d='M105.1,54.1 L105.1,662.4 L1013.6,662.4 L1013.6,54.1 L105.1,54.1 Z  '/></g>
<g fill="none" color="black" stroke="currentColor" stroke-width="1.00" stroke-linecap="butt" stroke-linejoin="miter">
	<g transform="translate(16.3,358.3) rotate(270)" stroke="none" fill="black" font-family="Helvetica" font-size="12.00"  text-anchor="middle">
		<text><tspan font-family="Helvetica" >Density (a.u.)</tspan></text>
	</g>
</g>
<g fill="none" color="black" stroke="currentColor" stroke-width="1.00" stroke-linecap="butt" stroke-linejoin="miter">
	<g transform="translate(559.3,711.3)" stroke="none" fill="black" font-family="Helvetica" font-size="12.00"  text-anchor="middle">
		<text><tspan font-family="Helvetica" >Average time (cycles)</tspan></text>
	</g>
</g>
<g fill="none" color="black" stroke="currentColor" stroke-width="1.00" stroke-linecap="butt" stroke-linejoin="miter">
	<g transform="translate(559.3,31.0)" stroke="none" fill="black" font-family="Helvetica" font-size="12.00"  text-anchor="middle">
		<text><tspan font-family="Helvetica" >non_nested_compare/incremental calc/16: mean</tspan></text>
	</g>
</g>
	<g id="gnuplot_plot_1" ><title>Bootstrap distribution</title>
<g fill="none" color="white" stroke="black" stroke-width="2.00" stroke-linecap="butt" stroke-linejoin="miter">
</g>
<g fill="none" color="black" stroke="currentColor" stroke-width="2.00" stroke-linecap="butt" stroke-linejoin="miter">
	<g transform="translate(1089.0,67.0)" stroke="none" fill="black" font-family="Helvetica" font-size="12.00"  text-anchor="start">
		<text><tspan font-family="Helvetica" >Bootstrap distribution</tspan></text>
	</g>
</g>
<g fill="none" color="black" stroke="currentColor" stroke-width="2.00" stroke-linecap="butt" stroke-linejoin="miter">
	<path stroke='rgb( 31, 120, 180)'  d='M1038.5,63.1 L1080.7,63.1 M105.1,628.4 L106.9,627.8 L108.7,627.1 L110.6,626.4 L112.4,625.8 L114.2,625.0
		L116.0,624.3 L117.8,623.5 L119.7,622.7 L121.5,621.9 L123.3,621.0 L125.1,620.1 L126.9,619.1 L128.8,618.2
		L130.6,617.2 L132.4,616.1 L134.2,615.1 L136.1,614.0 L137.9,612.9 L139.7,611.7 L141.5,610.6 L143.3,609.4
		L145.2,608.1 L147.0,606.9 L148.8,605.6 L150.6,604.3 L152.4,603.0 L154.3,601.7 L156.1,600.4 L157.9,599.1
		L159.7,597.7 L161.5,596.3 L163.4,595.0 L165.2,593.6 L167.0,592.2 L168.8,590.8 L170.6,589.4 L172.5,588.0
		L174.3,586.6 L176.1,585.1 L177.9,583.7 L179.7,582.2 L181.6,580.8 L183.4,579.3 L185.2,577.8 L187.0,576.3
		L188.8,574.8 L190.7,573.2 L192.5,571.7 L194.3,570.1 L196.1,568.5 L198.0,566.9 L199.8,565.3 L201.6,563.6
		L203.4,562.0 L205.2,560.3 L207.1,558.6 L208.9,556.9 L210.7,555.2 L212.5,553.5 L214.3,551.7 L216.2,549.9
		L218.0,548.1 L219.8,546.3 L221.6,544.4 L223.4,542.6 L225.3,540.6 L227.1,538.7 L228.9,536.8 L230.7,534.8
		L232.5,532.7 L234.4,530.7 L236.2,528.6 L238.0,526.5 L239.8,524.3 L241.6,522.2 L243.5,519.9 L245.3,517.7
		L247.1,515.4 L248.9,513.1 L250.8,510.7 L252.6,508.3 L254.4,505.9 L256.2,503.4 L258.0,500.9 L259.9,498.3
		L261.7,495.8 L263.5,493.2 L265.3,490.5 L267.1,487.9 L269.0,485.2 L270.8,482.6 L272.6,479.9 L274.4,477.2
		L276.2,474.5 L278.1,471.8 L279.9,469.1 L281.7,466.4 L283.5,463.7 L285.3,461.0 L287.2,458.3 L289.0,455.7
		L290.8,453.0 L292.6,450.3 L294.4,447.7 L296.3,445.0 L298.1,442.3 L299.9,439.6 L301.7,436.9 L303.5,434.2
		L305.4,431.4 L307.2,428.7 L309.0,425.9 L310.8,423.0 L312.7,420.2 L314.5,417.2 L316.3,414.3 L318.1,411.3
		L319.9,408.3 L321.8,405.3 L323.6,402.2 L325.4,399.1 L327.2,395.9 L329.0,392.8 L330.9,389.6 L332.7,386.3
		L334.5,383.1 L336.3,379.8 L338.1,376.5 L340.0,373.2 L341.8,369.9 L343.6,366.5 L345.4,363.1 L347.2,359.8
		L349.1,356.3 L350.9,352.9 L352.7,349.5 L354.5,346.1 L356.3,342.6 L358.2,339.1 L360.0,335.7 L361.8,332.2
		L363.6,328.7 L365.5,325.2 L367.3,321.6 L369.1,318.1 L370.9,314.6 L372.7,311.0 L374.6,307.5 L376.4,303.9
		L378.2,300.3 L380.0,296.8 L381.8,293.2 L383.7,289.6 L385.5,286.0 L387.3,282.4 L389.1,278.7 L390.9,275.1
		L392.8,271.5 L394.6,267.8 L396.4,264.2 L398.2,260.6 L400.0,256.9 L401.9,253.3 L403.7,249.6 L405.5,246.0
		L407.3,242.4 L409.1,238.8 L411.0,235.2 L412.8,231.7 L414.6,228.1 L416.4,224.6 L418.3,221.2 L420.1,217.8
		L421.9,214.4 L423.7,211.1 L425.5,207.8 L427.4,204.6 L429.2,201.5 L431.0,198.4 L432.8,195.4 L434.6,192.5
		L436.5,189.7 L438.3,186.9 L440.1,184.3 L441.9,181.7 L443.7,179.2 L445.6,176.8 L447.4,174.4 L449.2,172.1
		L451.0,169.9 L452.8,167.8 L454.7,165.6 L456.5,163.6 L458.3,161.5 L460.1,159.5 L461.9,157.4 L463.8,155.4
		L465.6,153.3 L467.4,151.2 L469.2,149.1 L471.0,147.0 L472.9,144.8 L474.7,142.6 L476.5,140.4 L478.3,138.1
		L480.2,135.8 L482.0,133.4 L483.8,131.1 L485.6,128.8 L487.4,126.4 L489.3,124.1 L491.1,121.8 L492.9,119.5
		L494.7,117.2 L496.5,115.0 L498.4,112.8 L500.2,110.7 L502.0,108.7 L503.8,106.6 L505.6,104.7 L507.5,102.7
		L509.3,100.9 L511.1,99.0 L512.9,97.2 L514.7,95.4 L516.6,93.7 L518.4,92.0 L520.2,90.3 L522.0,88.6
		L523.8,86.9 L525.7,85.3 L527.5,83.6 L529.3,82.0 L531.1,80.4 L533.0,78.8 L534.8,77.3 L536.6,75.7
		L538.4,74.2 L540.2,72.8 L542.1,71.3 L543.9,70.0 L545.7,68.7 L547.5,67.5 L549.3,66.4 L551.2,65.3
		L553.0,64.4 L554.8,63.5 L556.6,62.8 L558.4,62.1 L560.3,61.6 L562.1,61.2 L563.9,60.9 L565.7,60.6
		L567.5,60.5 L569.4,60.4 L571.2,60.5 L573.0,60.6 L574.8,60.8 L576.6,61.1 L578.5,61.4 L580.3,61.8
		L582.1,62.3 L583.9,62.7 L585.7,63.3 L587.6,63.9 L589.4,64.5 L591.2,65.1 L593.0,65.9 L594.9,66.6
		L596.7,67.4 L598.5,68.2 L600.3,69.1 L602.1,70.1 L604.0,71.1 L605.8,72.1 L607.6,73.2 L609.4,74.4
		L611.2,75.6 L613.1,76.9 L614.9,78.2 L616.7,79.6 L618.5,81.1 L620.3,82.6 L622.2,84.2 L624.0,85.9
		L625.8,87.6 L627.6,89.4 L629.4,91.3 L631.3,93.2 L633.1,95.2 L634.9,97.3 L636.7,99.4 L638.5,101.6
		L640.4,103.9 L642.2,106.2 L644.0,108.6 L645.8,111.0 L647.7,113.5 L649.5,116.0 L651.3,118.5 L653.1,121.1
		L654.9,123.7 L656.8,126.4 L658.6,129.0 L660.4,131.7 L662.2,134.4 L664.0,137.0 L665.9,139.7 L667.7,142.4
		L669.5,145.1 L671.3,147.9 L673.1,150.6 L675.0,153.3 L676.8,156.1 L678.6,158.8 L680.4,161.6 L682.2,164.4
		L684.1,167.3 L685.9,170.2 L687.7,173.1 L689.5,176.0 L691.3,179.0 L693.2,182.0 L695.0,185.0 L696.8,188.0
		L698.6,191.1 L700.4,194.2 L702.3,197.3 L704.1,200.4 L705.9,203.5 L707.7,206.6 L709.6,209.7 L711.4,212.8
		L713.2,215.8 L715.0,218.9 L716.8,221.9 L718.7,224.9 L720.5,227.9 L722.3,230.9 L724.1,233.8 L725.9,236.7
		L727.8,239.6 L729.6,242.5 L731.4,245.4 L733.2,248.3 L735.0,251.2 L736.9,254.2 L738.7,257.1 L740.5,260.1
		L742.3,263.1 L744.1,266.2 L746.0,269.3 L747.8,272.5 L749.6,275.7 L751.4,279.0 L753.2,282.4 L755.1,285.8
		L756.9,289.3 L758.7,292.9 L760.5,296.5 L762.4,300.2 L764.2,304.0 L766.0,307.8 L767.8,311.6 L769.6,315.5
		L771.5,319.4 L773.3,323.4 L775.1,327.4 L776.9,331.3 L778.7,335.3 L780.6,339.3 L782.4,343.3 L784.2,347.3
		L786.0,351.2 L787.8,355.1 L789.7,359.0 L791.5,362.9 L793.3,366.8 L795.1,370.6 L796.9,374.5 L798.8,378.3
		L800.6,382.0 L802.4,385.8 L804.2,389.5 L806.0,393.3 L807.9,397.0 L809.7,400.7 L811.5,404.3 L813.3,408.0
		L815.2,411.6 L817.0,415.2 L818.8,418.7 L820.6,422.2 L822.4,425.7 L824.3,429.1 L826.1,432.4 L827.9,435.6
		L829.7,438.8 L831.5,441.9 L833.4,444.9 L835.2,447.8 L837.0,450.6 L838.8,453.4 L840.6,456.0 L842.5,458.6
		L844.3,461.1 L846.1,463.5 L847.9,465.8 L849.7,468.1 L851.6,470.3 L853.4,472.5 L855.2,474.6 L857.0,476.7
		L858.8,478.8 L860.7,480.8 L862.5,482.9 L864.3,484.9 L866.1,487.0 L867.9,489.0 L869.8,491.1 L871.6,493.2
		L873.4,495.3 L875.2,497.4 L877.1,499.6 L878.9,501.8 L880.7,504.0 L882.5,506.2 L884.3,508.4 L886.2,510.7
		L888.0,513.0 L889.8,515.3 L891.6,517.6 L893.4,519.9 L895.3,522.3 L897.1,524.6 L898.9,527.0 L900.7,529.3
		L902.5,531.6 L904.4,534.0 L906.2,536.3 L908.0,538.6 L909.8,540.9 L911.6,543.2 L913.5,545.5 L915.3,547.7
		L917.1,549.9 L918.9,552.1 L920.7,554.3 L922.6,556.4 L924.4,558.5 L926.2,560.5 L928.0,562.6 L929.9,564.5
		L931.7,566.5 L933.5,568.4 L935.3,570.3 L937.1,572.2 L939.0,574.0 L940.8,575.8 L942.6,577.6 L944.4,579.4
		L946.2,581.1 L948.1,582.8 L949.9,584.5 L951.7,586.2 L953.5,587.9 L955.3,589.5 L957.2,591.2 L959.0,592.8
		L960.8,594.4 L962.6,596.0 L964.4,597.6 L966.3,599.1 L968.1,600.6 L969.9,602.1 L971.7,603.6 L973.5,605.0
		L975.4,606.4 L977.2,607.8 L979.0,609.1 L980.8,610.4 L982.6,611.7 L984.5,612.9 L986.3,614.1 L988.1,615.3
		L989.9,616.4 L991.8,617.5 L993.6,618.5 L995.4,619.5 L997.2,620.5 L999.0,621.4 L1000.9,622.3 L1002.7,623.2
		L1004.5,624.1 L1006.3,624.9 L1008.1,625.7 L1010.0,626.5 L1011.8,627.3 L1013.6,628.1  '/></g>
	</g>
	<g id="gnuplot_plot_2" ><title>Confidence interval</title>
<g fill="none" color="white" stroke="rgb( 31, 120, 180)" stroke-width="1.00" stroke-linecap="butt" stroke-linejoin="miter">
</g>
<g fill="none" color="black" stroke="currentColor" stroke-width="1.00" stroke-linecap="butt" stroke-linejoin="miter">
	<g transform="translate(1089.0,85.0)" stroke="none" fill="black" font-family="Helvetica" font-size="12.00"  text-anchor="start">
		<text><tspan font-family="Helvetica" >Confidence interval</tspan></text>
	</g>
</g>
<g fill="none" color="black" stroke="currentColor" stroke-width="1.00" stroke-linecap="butt" stroke-linejoin="miter">
	<g stroke='none' shape-rendering='crispEdges'>
		<polygon fill = 'rgb( 31, 120, 180)' fill-opacity = '0.250000' points = '1038.5,85.6 1080.7,85.6 1080.7,76.6 1038.5,76.6 '/>
		<polygon fill = 'rgb( 31, 120, 180)' fill-opacity = '0.250000' points = '188.8,574.8 190.7,573.2 192.5,571.7 194.3,570.1 196.1,568.5 198.0,566.9 199.8,565.3 201.6,563.6 203.4,562.0 205.2,560.3 207.1,558.6 208.9,556.9 210.7,555.2 212.5,553.5 214.3,551.7 216.2,549.9
218.0,548.1 219.8,546.3 221.6,544.4 223.4,542.6 225.3,540.6 227.1,538.7 228.9,536.8 230.7,534.8 232.5,532.7 234.4,530.7 236.2,528.6 238.0,526.5 239.8,524.3 241.6,522.2 243.5,519.9 245.3,517.7
247.1,515.4 248.9,513.1 250.8,510.7 252.6,508.3 254.4,505.9 256.2,503.4 258.0,500.9 259.9,498.3 261.7,495.8 263.5,493.2 265.3,490.5 267.1,487.9 269.0,485.2 270.8,482.6 272.6,479.9 274.4,477.2
276.2,474.5 278.1,471.8 279.9,469.1 281.7,466.4 283.5,463.7 285.3,461.0 287.2,458.3 289.0,455.7 290.8,453.0 292.6,450.3 294.4,447.7 296.3,445.0 298.1,442.3 299.9,439.6 301.7,436.9 303.5,434.2
305.4,431.4 307.2,428.7 309.0,425.9 310.8,423.0 312.7,420.2 314.5,417.2 316.3,414.3 318.1,411.3 319.9,408.3 321.8,405.3 323.6,402.2 325.4,399.1 327.2,395.9 329.0,392.8 330.9,389.6 332.7,386.3
334.5,383.1 336.3,379.8 338.1,376.5 340.0,373.2 341.8,369.9 343.6,366.5 345.4,363.1 347.2,359.8 349.1,356.3 350.9,352.9 352.7,349.5 354.5,346.1 356.3,342.6 358.2,339.1 360.0,335.7 361.8,332.2
363.6,328.7 365.5,325.2 367.3,321.6 369.1,318.1 370.9,314.6 372.7,311.0 374.6,307.5 376.4,303.9 378.2,300.3 380.0,296.8 381.8,293.2 383.7,289.6 385.5,286.0 387.3,282.4 389.1,278.7 390.9,275.1
392.8,271.5 394.6,267.8 396.4,264.2 398.2,260.6 400.0,256.9 401.9,253.3 403.7,249.6 405.5,246.0 407.3,242.4 409.1,238.8 411.0,235.2 412.8,231.7 414.6,228.1 416.4,224.6 418.3,221.2 420.1,217.8
421.9,214.4 423.7,211.1 425.5,207.8 427.4,204.6 429.2,201.5 431.0,198.4 432.8,195.4 434.6,192.5 436.5,189.7 438.3,186.9 440.1,184.3 441.9,181.7 443.7,179.2 445.6,176.8 447.4,174.4 449.2,172.1
451.0,169.9 452.8,167.8 454.7,165.6 456.5,163.6 458.3,161.5 460.1,159.5 461.9,157.4 463.8,155.4 465.6,153.3 467.4,151.2 469.2,149.1 471.0,147.0 472.9,144.8 474.7,142.6 476.5,140.4 478.3,138.1
480.2,135.8 482.0,133.4 483.8,131.1 485.6,128.8 487.4,126.4 489.3,124.1 491.1,121.8 492.9,119.5 494.7,117.2 496.5,115.0 498.4,112.8 500.2,110.7 502.0,108.7 503.8,106.6 505.6,104.7 507.5,102.7
509.3,100.9 511.1,99.0 512.9,97.2 514.7,95.4 516.6,93.7 518.4,92.0 520.2,90.3 522.0,88.6 523.8,86.9 525.7,85.3 527.5,83.6 529.3,82.0 531.1,80.4 533.0,78.8 534.8,77.3 536.6,75.7
538.4,74.2 540.2,72.8 542.1,71.3 543.9,70.0 545.7,68.7 547.5,67.5 549.3,66.4 551.2,65.3 553.0,64.4 554.8,63.5 556.6,62.8 558.4,62.1 560.3,61.6 562.1,61.2 563.9,60.9 565.7,60.6
567.5,60.5 569.4,60.4 571.2,60.5 573.0,60.6 574.8,60.8 576.6,61.1 578.5,61.4 580.3,61.8 582.1,62.3 583.9,62.7 585.7,63.3 587.6,63.9 589.4,64.5 591.2,65.1 593.0,65.9 594.9,66.6
596.7,67.4 598.5,68.2 600.3,69.1 602.1,70.1 604.0,71.1 605.8,72.1 607.6,73.2 609.4,74.4 611.2,75.6 613.1,76.9 614.9,78.2 616.7,79.6 618.5,81.1 620.3,82.6 622.2,84.2 624.0,85.9
625.8,87.6 627.6,89.4 629.4,91.3 631.3,93.2 633.1,95.2 634.9,97.3 636.7,99.4 638.5,101.6 640.4,103.9 642.2,106.2 644.0,108.6 645.8,111.0 647.7,113.5 649.5,116.0 651.3,118.5 653.1,121.1
654.9,123.7 656.8,126.4 658.6,129.0 660.4,131.7 662.2,134.4 664.0,137.0 665.9,139.7 667.7,142.4 669.5,145.1 671.3,147.9 673.1,150.6 675.0,153.3 676.8,156.1 678.6,158.8 680.4,161.6 682.2,164.4
684.1,167.3 685.9,170.2 687.7,173.1 689.5,176.0 691.3,179.0 693.2,182.0 695.0,185.0 696.8,188.0 698.6,191.1 700.4,194.2 702.3,197.3 704.1,200.4 705.9,203.5 707.7,206.6 709.6,209.7 711.4,212.8
713.2,215.8 715.0,218.9 716.8,221.9 718.7,224.9 720.5,227.9 722.3,230.9 724.1,233.8 725.9,236.7 727.8,239.6 729.6,242.5 731.4,245.4 733.2,248.3 735.0,251.2 736.9,254.2 738.7,257.1 740.5,260.1
742.3,263.1 744.1,266.2 746.0,269.3 747.8,272.5 749.6,275.7 751.4,279.0 753.2,282.4 755.1,285.8 756.9,289.3 758.7,292.9 760.5,296.5 762.4,300.2 764.2,304.0 766.0,307.8 767.8,311.6 769.6,315.5
771.5,319.4 773.3,323.4 775.1,327.4 776.9,331.3 778.7,335.3 780.6,339.3 782.4,343.3 784.2,347.3 786.0,351.2 787.8,355.1 789.7,359.0 791.5,362.9 793.3,366.8 795.1,370.6 796.9,374.5 798.8,378.3
800.6,382.0 802.4,385.8 804.2,389.5 806.0,393.3 807.9,397.0 809.7,400.7 811.5,404.3 813.3,408.0 815.2,411.6 817.0,415.2 818.8,418.7 820.6,422.2 822.4,425.7 824.3,429.1 826.1,432.4 827.9,435.6
829.7,438.8 831.5,441.9 833.4,444.9 835.2,447.8 837.0,450.6 838.8,453.4 840.6,456.0 842.5,458.6 844.3,461.1 846.1,463.5 847.9,465.8 849.7,468.1 851.6,470.3 853.4,472.5 855.2,474.6 857.0,476.7
858.8,478.8 860.7,480.8 862.5,482.9 864.3,484.9 866.1,487.0 867.9,489.0 869.8,491.1 871.6,493.2 873.4,495.3 875.2,497.4 877.1,499.6 878.9,501.8 880.7,504.0 882.5,506.2 884.3,508.4 886.2,510.7
888.0,513.0 889.8,515.3 891.6,517.6 893.4,519.9 895.3,522.3 897.1,524.6 898.9,527.0 900.7,529.3 902.5,531.6 904.4,534.0 906.2,536.3 908.0,538.6 909.8,540.9 911.6,543.2 913.5,545.5 915.3,547.7
917.1,549.9 918.9,552.1 920.7,554.3 922.6,556.4 924.4,558.5 926.2,560.5 928.0,562.6 928.0,662.4 926.2,662.4 924.4,662.4 922.6,662.4 920.7,662.4 918.9,662.4 917.1,662.4 915.3,662.4 913.5,662.4
911.6,662.4 909.8,662.4 908.0,662.4 906.2,662.4 904.4,662.4 902.5,662.4 900.7,662.4 898.9,662.4 897.1,662.4 895.3,662.4 893.4,662.4 891.6,662.4 889.8,662.4 888.0,662.4 886.2,662.4 884.3,662.4
882.5,662.4 880.7,662.4 878.9,662.4 877.1,662.4 875.2,662.4 873.4,662.4 871.6,662.4 869.8,662.4 867.9,662.4 866.1,662.4 864.3,662.4 862.5,662.4 860.7,662.4 858.8,662.4 857.0,662.4 855.2,662.4
853.4,662.4 851.6,662.4 849.7,662.4 847.9,662.4 846.1,662.4 844.3,662.4 842.5,662.4 840.6,662.4 838.8,662.4 837.0,662.4 835.2,662.4 833.4,662.4 831.5,662.4 829.7,662.4 827.9,662.4 826.1,662.4
824.3,662.4 822.4,662.4 820.6,662.4 818.8,662.4 817.0,662.4 815.2,662.4 813.3,662.4 811.5,662.4 809.7,662.4 807.9,662.4 806.0,662.4 804.2,662.4 802.4,662.4 800.6,662.4 798.8,662.4 796.9,662.4
795.1,662.4 793.3,662.4 791.5,662.4 789.7,662.4 787.8,662.4 786.0,662.4 784.2,662.4 782.4,662.4 780.6,662.4 778.7,662.4 776.9,662.4 775.1,662.4 773.3,662.4 771.5,662.4 769.6,662.4 767.8,662.4
766.0,662.4 764.2,662.4 762.4,662.4 760.5,662.4 758.7,662.4 756.9,662.4 755.1,662.4 753.2,662.4 751.4,662.4 749.6,662.4 747.8,662.4 746.0,662.4 744.1,662.4 742.3,662.4 740.5,662.4 738.7,662.4
736.9,662.4 735.0,662.4 733.2,662.4 731.4,662.4 729.6,662.4 727.8,662.4 725.9,662.4 724.1,662.4 722.3,662.4 720.5,662.4 718.7,662.4 716.8,662.4 715.0,662.4 713.2,662.4 711.4,662.4 709.6,662.4
707.7,662.4 705.9,662.4 704.1,662.4 702.3,662.4 700.4,662.4 698.6,662.4 696.8,662.4 695.0,662.4 693.2,662.4 691.3,662.4 689.5,662.4 687.7,662.4 685.9,662.4 684.1,662.4 682.2,662.4 680.4,662.4
678.6,662.4 676.8,662.4 675.0,662.4 673.1,662.4 671.3,662.4 669.5,662.4 667.7,662.4 665.9,662.4 664.0,662.4 662.2,662.4 660.4,662.4 658.6,662.4 656.8,662.4 654.9,662.4 653.1,662.4 651.3,662.4
649.5,662.4 647.7,662.4 645.8,662.4 644.0,662.4 642.2,662.4 640.4,662.4 638.5,662.4 636.7,662.4 634.9,662.4 633.1,662.4 631.3,662.4 629.4,662.4 627.6,662.4 625.8,662.4 624.0,662.4 622.2,662.4
620.3,662.4 618.5,662.4 616.7,662.4 614.9,662.4 613.1,662.4 611.2,662.4 609.4,662.4 607.6,662.4 605.8,662.4 604.0,662.4 602.1,662.4 600.3,662.4 598.5,662.4 596.7,662.4 594.9,662.4 593.0,662.4
591.2,662.4 589.4,662.4 587.6,662.4 585.7,662.4 583.9,662.4 582.1,662.4 580.3,662.4 578.5,662.4 576.6,662.4 574.8,662.4 573.0,662.4 571.2,662.4 569.4,662.4 567.5,662.4 565.7,662.4 563.9,662.4
562.1,662.4 560.3,662.4 558.4,662.4 556.6,662.4 554.8,662.4 553.0,662.4 551.2,662.4 549.3,662.4 547.5,662.4 545.7,662.4 543.9,662.4 542.1,662.4 540.2,662.4 538.4,662.4 536.6,662.4 534.8,662.4
533.0,662.4 531.1,662.4 529.3,662.4 527.5,662.4 525.7,662.4 523.8,662.4 522.0,662.4 520.2,662.4 518.4,662.4 516.6,662.4 514.7,662.4 512.9,662.4 511.1,662.4 509.3,662.4 507.5,662.4 505.6,662.4
503.8,662.4 502.0,662.4 500.2,662.4 498.4,662.4 496.5,662.4 494.7,662.4 492.9,662.4 491.1,662.4 489.3,662.4 487.4,662.4 485.6,662.4 483.8,662.4 482.0,662.4 480.2,662.4 478.3,662.4 476.5,662.4
474.7,662.4 472.9,662.4 471.0,662.4 469.2,662.4 467.4,662.4 465.6,662.4 463.8,662.4 461.9,662.4 460.1,662.4 458.3,662.4 456.5,662.4 454.7,662.4 452.8,662.4 451.0,662.4 449.2,662.4 447.4,662.4
445.6,662.4 443.7,662.4 441.9,662.4 440.1,662.4 438.3,662.4 436.5,662.4 434.6,662.4 432.8,662.4 431.0,662.4 429.2,662.4 427.4,662.4 425.5,662.4 423.7,662.4 421.9,662.4 420.1,662.4 418.3,662.4
416.4,662.4 414.6,662.4 412.8,662.4 411.0,662.4 409.1,662.4 407.3,662.4 405.5,662.4 403.7,662.4 401.9,662.4 400.0,662.4 398.2,662.4 396.4,662.4 394.6,662.4 392.8,662.4 390.9,662.4 389.1,662.4
387.3,662.4 385.5,662.4 383.7,662.4 381.8,662.4 380.0,662.4 378.2,662.4 376.4,662.4 374.6,662.4 372.7,662.4 370.9,662.4 369.1,662.4 367.3,662.4 365.5,662.4 363.6,662.4 361.8,662.4 360.0,662.4
358.2,662.4 356.3,662.4 354.5,662.4 352.7,662.4 350.9,662.4 349.1,662.4 347.2,662.4 345.4,662.4 343.6,662.4 341.8,662.4 340.0,662.4 338.1,662.4 336.3,662.4 334.5,662.4 332.7,662.4 330.9,662.4
329.0,662.4 327.2,662.4 325.4,662.4 323.6,662.4 321.8,662.4 319.9,662.4 318.1,662.4 316.3,662.4 314.5,662.4 312.7,662.4 310.8,662.4 309.0,662.4 307.2,662.4 305.4,662.4 303.5,662.4 301.7,662.4
299.9,662.4 298.1,662.4 296.3,662.4 294.4,662.4 292.6,662.4 290.8,662.4 289.0,662.4 287.2,662.4 285.3,662.4 283.5,662.4 281.7,662.4 279.9,662.4 278.1,662.4 276.2,662.4 274.4,662.4 272.6,662.4
270.8,662.4 269.0,662.4 267.1,662.4 265.3,662.4 263.5,662.4 261.7,662.4 259.9,662.4 258.0,662.4 256.2,662.4 254.4,662.4 252.6,662.4 250.8,662.4 248.9,662.4 247.1,662.4 245.3,662.4 243.5,662.4
241.6,662.4 239.8,662.4 238.0,662.4 236.2,662.4 234.4,662.4 232.5,662.4 230.7,662.4 228.9,662.4 227.1,662.4 225.3,662.4 223.4,662.4 221.6,662.4 219.8,662.4 218.0,662.4 216.2,662.4 214.3,662.4
212.5,662.4 210.7,662.4 208.9,662.4 207.1,662.4 205.2,662.4 203.4,662.4 201.6,662.4 199.8,662.4 198.0,662.4 196.1,662.4 194.3,662.4 192.5,662.4 190.7,662.4 188.8,662.4 '/>
	</g>
</g>
	</g>
	<g id="gnuplot_plot_3" ><title>Point estimate</title>
<g fill="none" color="white" stroke="rgb( 31, 120, 180)" stroke-width="2.00" stroke-linecap="butt" stroke-linejoin="miter">
</g>
<g fill="none" color="black" stroke="currentColor" stroke-width="2.00" stroke-linecap="butt" stroke-linejoin="miter">
	<g transform="translate(1089.0,103.0)" stroke="none" fill="black" font-family="Helvetica" font-size="12.00"  text-anchor="start">
		<text><tspan font-family="Helvetica" >Point estimate</tspan></text>
	</g>
</g>
<g fill="none" color="black" stroke="currentColor" stroke-width="2.00" stroke-linecap="butt" stroke-linejoin="miter">
	<path stroke='rgb( 31, 120, 180)'  d='M1038.5,99.1 L1080.7,99.1 M566.1,662.4 L566.1,60.6  '/></g>
	</g>
<g fill="none" color="black" stroke="currentColor" stroke-width="2.00" stroke-linecap="butt" stroke-linejoin="miter">
</g>
<g fill="none" color="black" stroke="black" stroke-width="1.00" stroke-linecap="butt" stroke-linejoin="miter">
</g>
<g fill="none" color="black" stroke="currentColor" stroke-width="1.00" stroke-linecap="butt" stroke-linejoin="miter">
	<path stroke='black'  d='M105.1,54.1 L105.1,662.4 L1013.6,662.4 L1013.6,54.1 L105.1,54.1 Z  '/></g>
<g fill="none" color="black" stroke="currentColor" stroke-width="1.00" stroke-linecap="butt" stroke-linejoin="miter">
</g>
</g>
</svg>

