<?xml version="1.0" encoding="utf-8"  standalone="no"?>
<svg 
 viewBox="0 0 1280 720"
 xmlns="http://www.w3.org/2000/svg"
 xmlns:xlink="http://www.w3.org/1999/xlink"
>

<title>Gnuplot</title>
<desc>Produced by GNUPLOT 5.2 patchlevel 2 </desc>

<g id="gnuplot_canvas">

<rect x="0" y="0" width="1280" height="720" fill="none"/>
<defs>

	<circle id='gpDot' r='0.5' stroke-width='0.5'/>
	<path id='gpPt0' stroke-width='0.222' stroke='currentColor' d='M-1,0 h2 M0,-1 v2'/>
	<path id='gpPt1' stroke-width='0.222' stroke='currentColor' d='M-1,-1 L1,1 M1,-1 L-1,1'/>
	<path id='gpPt2' stroke-width='0.222' stroke='currentColor' d='M-1,0 L1,0 M0,-1 L0,1 M-1,-1 L1,1 M-1,1 L1,-1'/>
	<rect id='gpPt3' stroke-width='0.222' stroke='currentColor' x='-1' y='-1' width='2' height='2'/>
	<rect id='gpPt4' stroke-width='0.222' stroke='currentColor' fill='currentColor' x='-1' y='-1' width='2' height='2'/>
	<circle id='gpPt5' stroke-width='0.222' stroke='currentColor' cx='0' cy='0' r='1'/>
	<use xlink:href='#gpPt5' id='gpPt6' fill='currentColor' stroke='none'/>
	<path id='gpPt7' stroke-width='0.222' stroke='currentColor' d='M0,-1.33 L-1.33,0.67 L1.33,0.67 z'/>
	<use xlink:href='#gpPt7' id='gpPt8' fill='currentColor' stroke='none'/>
	<use xlink:href='#gpPt7' id='gpPt9' stroke='currentColor' transform='rotate(180)'/>
	<use xlink:href='#gpPt9' id='gpPt10' fill='currentColor' stroke='none'/>
	<use xlink:href='#gpPt3' id='gpPt11' stroke='currentColor' transform='rotate(45)'/>
	<use xlink:href='#gpPt11' id='gpPt12' fill='currentColor' stroke='none'/>
	<path id='gpPt13' stroke-width='0.222' stroke='currentColor' d='M0,1.330 L1.265,0.411 L0.782,-1.067 L-0.782,-1.076 L-1.265,0.411 z'/>
	<use xlink:href='#gpPt13' id='gpPt14' fill='currentColor' stroke='none'/>
	<filter id='textbox' filterUnits='objectBoundingBox' x='0' y='0' height='1' width='1'>
	  <feFlood flood-color='white' flood-opacity='1' result='bgnd'/>
	  <feComposite in='SourceGraphic' in2='bgnd' operator='atop'/>
	</filter>
	<filter id='greybox' filterUnits='objectBoundingBox' x='0' y='0' height='1' width='1'>
	  <feFlood flood-color='lightgrey' flood-opacity='1' result='grey'/>
	  <feComposite in='SourceGraphic' in2='grey' operator='atop'/>
	</filter>
</defs>
<g fill="none" color="white" stroke="currentColor" stroke-width="1.00" stroke-linecap="butt" stroke-linejoin="miter">
</g>
<g fill="none" color="black" stroke="currentColor" stroke-width="1.00" stroke-linecap="butt" stroke-linejoin="miter">
	<path stroke='black'  d='M88.5,662.4 L97.5,662.4  '/>	<g transform="translate(80.2,666.3)" stroke="none" fill="black" font-family="Helvetica" font-size="12.00"  text-anchor="end">
		<text><tspan font-family="Helvetica" > 0</tspan></text>
	</g>
</g>
<g fill="none" color="black" stroke="currentColor" stroke-width="1.00" stroke-linecap="butt" stroke-linejoin="miter">
	<path stroke='black'  d='M88.5,561.0 L97.5,561.0  '/>	<g transform="translate(80.2,564.9)" stroke="none" fill="black" font-family="Helvetica" font-size="12.00"  text-anchor="end">
		<text><tspan font-family="Helvetica" > 0.001</tspan></text>
	</g>
</g>
<g fill="none" color="black" stroke="currentColor" stroke-width="1.00" stroke-linecap="butt" stroke-linejoin="miter">
	<path stroke='black'  d='M88.5,459.6 L97.5,459.6  '/>	<g transform="translate(80.2,463.5)" stroke="none" fill="black" font-family="Helvetica" font-size="12.00"  text-anchor="end">
		<text><tspan font-family="Helvetica" > 0.002</tspan></text>
	</g>
</g>
<g fill="none" color="black" stroke="currentColor" stroke-width="1.00" stroke-linecap="butt" stroke-linejoin="miter">
	<path stroke='black'  d='M88.5,358.2 L97.5,358.2  '/>	<g transform="translate(80.2,362.1)" stroke="none" fill="black" font-family="Helvetica" font-size="12.00"  text-anchor="end">
		<text><tspan font-family="Helvetica" > 0.003</tspan></text>
	</g>
</g>
<g fill="none" color="black" stroke="currentColor" stroke-width="1.00" stroke-linecap="butt" stroke-linejoin="miter">
	<path stroke='black'  d='M88.5,256.9 L97.5,256.9  '/>	<g transform="translate(80.2,260.8)" stroke="none" fill="black" font-family="Helvetica" font-size="12.00"  text-anchor="end">
		<text><tspan font-family="Helvetica" > 0.004</tspan></text>
	</g>
</g>
<g fill="none" color="black" stroke="currentColor" stroke-width="1.00" stroke-linecap="butt" stroke-linejoin="miter">
	<path stroke='black'  d='M88.5,155.5 L97.5,155.5  '/>	<g transform="translate(80.2,159.4)" stroke="none" fill="black" font-family="Helvetica" font-size="12.00"  text-anchor="end">
		<text><tspan font-family="Helvetica" > 0.005</tspan></text>
	</g>
</g>
<g fill="none" color="black" stroke="currentColor" stroke-width="1.00" stroke-linecap="butt" stroke-linejoin="miter">
	<path stroke='black'  d='M88.5,54.1 L97.5,54.1  '/>	<g transform="translate(80.2,58.0)" stroke="none" fill="black" font-family="Helvetica" font-size="12.00"  text-anchor="end">
		<text><tspan font-family="Helvetica" > 0.006</tspan></text>
	</g>
</g>
<g fill="none" color="black" stroke="currentColor" stroke-width="1.00" stroke-linecap="butt" stroke-linejoin="miter">
	<path stroke='black'  d='M216.6,662.4 L216.6,653.4  '/>	<g transform="translate(216.6,684.3)" stroke="none" fill="black" font-family="Helvetica" font-size="12.00"  text-anchor="middle">
		<text><tspan font-family="Helvetica" > 600</tspan></text>
	</g>
</g>
<g fill="none" color="black" stroke="currentColor" stroke-width="1.00" stroke-linecap="butt" stroke-linejoin="miter">
	<path stroke='black'  d='M371.9,662.4 L371.9,653.4  '/>	<g transform="translate(371.9,684.3)" stroke="none" fill="black" font-family="Helvetica" font-size="12.00"  text-anchor="middle">
		<text><tspan font-family="Helvetica" > 700</tspan></text>
	</g>
</g>
<g fill="none" color="black" stroke="currentColor" stroke-width="1.00" stroke-linecap="butt" stroke-linejoin="miter">
	<path stroke='black'  d='M527.2,662.4 L527.2,653.4  '/>	<g transform="translate(527.2,684.3)" stroke="none" fill="black" font-family="Helvetica" font-size="12.00"  text-anchor="middle">
		<text><tspan font-family="Helvetica" > 800</tspan></text>
	</g>
</g>
<g fill="none" color="black" stroke="currentColor" stroke-width="1.00" stroke-linecap="butt" stroke-linejoin="miter">
	<path stroke='black'  d='M682.5,662.4 L682.5,653.4  '/>	<g transform="translate(682.5,684.3)" stroke="none" fill="black" font-family="Helvetica" font-size="12.00"  text-anchor="middle">
		<text><tspan font-family="Helvetica" > 900</tspan></text>
	</g>
</g>
<g fill="none" color="black" stroke="currentColor" stroke-width="1.00" stroke-linecap="butt" stroke-linejoin="miter">
	<path stroke='black'  d='M837.8,662.4 L837.8,653.4  '/>	<g transform="translate(837.8,684.3)" stroke="none" fill="black" font-family="Helvetica" font-size="12.00"  text-anchor="middle">
		<text><tspan font-family="Helvetica" > 1000</tspan></text>
	</g>
</g>
<g fill="none" color="black" stroke="currentColor" stroke-width="1.00" stroke-linecap="butt" stroke-linejoin="miter">
	<path stroke='black'  d='M993.1,662.4 L993.1,653.4  '/>	<g transform="translate(993.1,684.3)" stroke="none" fill="black" font-family="Helvetica" font-size="12.00"  text-anchor="middle">
		<text><tspan font-family="Helvetica" > 1100</tspan></text>
	</g>
</g>
<g fill="none" color="black" stroke="currentColor" stroke-width="1.00" stroke-linecap="butt" stroke-linejoin="miter">
</g>
<g fill="none" color="black" stroke="currentColor" stroke-width="1.00" stroke-linecap="butt" stroke-linejoin="miter">
	<path stroke='black'  d='M88.5,54.1 L88.5,662.4 L1013.6,662.4 L1013.6,54.1 L88.5,54.1 Z  '/></g>
<g fill="none" color="black" stroke="currentColor" stroke-width="1.00" stroke-linecap="butt" stroke-linejoin="miter">
	<g transform="translate(16.3,358.3) rotate(270)" stroke="none" fill="black" font-family="Helvetica" font-size="12.00"  text-anchor="middle">
		<text><tspan font-family="Helvetica" >Density (a.u.)</tspan></text>
	</g>
</g>
<g fill="none" color="black" stroke="currentColor" stroke-width="1.00" stroke-linecap="butt" stroke-linejoin="miter">
	<g transform="translate(551.0,711.3)" stroke="none" fill="black" font-family="Helvetica" font-size="12.00"  text-anchor="middle">
		<text><tspan font-family="Helvetica" >Average time (cycles)</tspan></text>
	</g>
</g>
<g fill="none" color="black" stroke="currentColor" stroke-width="1.00" stroke-linecap="butt" stroke-linejoin="miter">
	<g transform="translate(551.0,31.0)" stroke="none" fill="black" font-family="Helvetica" font-size="12.00"  text-anchor="middle">
		<text><tspan font-family="Helvetica" >non_nested_compare/modified from scratch/7: MAD</tspan></text>
	</g>
</g>
	<g id="gnuplot_plot_1" ><title>Bootstrap distribution</title>
<g fill="none" color="white" stroke="black" stroke-width="2.00" stroke-linecap="butt" stroke-linejoin="miter">
</g>
<g fill="none" color="black" stroke="currentColor" stroke-width="2.00" stroke-linecap="butt" stroke-linejoin="miter">
	<g transform="translate(1089.0,67.0)" stroke="none" fill="black" font-family="Helvetica" font-size="12.00"  text-anchor="start">
		<text><tspan font-family="Helvetica" >Bootstrap distribution</tspan></text>
	</g>
</g>
<g fill="none" color="black" stroke="currentColor" stroke-width="2.00" stroke-linecap="butt" stroke-linejoin="miter">
	<path stroke='rgb( 31, 120, 180)'  d='M1038.5,63.1 L1080.7,63.1 M88.5,641.9 L90.4,641.1 L92.2,640.3 L94.1,639.5 L95.9,638.6 L97.8,637.8
		L99.6,636.9 L101.5,636.0 L103.3,635.1 L105.2,634.2 L107.0,633.3 L108.9,632.4 L110.7,631.6 L112.6,630.8
		L114.5,630.0 L116.3,629.3 L118.2,628.6 L120.0,628.0 L121.9,627.4 L123.7,626.9 L125.6,626.4 L127.4,626.0
		L129.3,625.6 L131.1,625.3 L133.0,625.0 L134.8,624.7 L136.7,624.4 L138.6,624.2 L140.4,623.9 L142.3,623.7
		L144.1,623.4 L146.0,623.1 L147.8,622.8 L149.7,622.5 L151.5,622.2 L153.4,621.8 L155.2,621.4 L157.1,621.0
		L158.9,620.5 L160.8,620.0 L162.7,619.5 L164.5,618.9 L166.4,618.2 L168.2,617.6 L170.1,616.9 L171.9,616.1
		L173.8,615.3 L175.6,614.5 L177.5,613.6 L179.3,612.7 L181.2,611.7 L183.0,610.7 L184.9,609.6 L186.8,608.5
		L188.6,607.4 L190.5,606.2 L192.3,604.9 L194.2,603.7 L196.0,602.4 L197.9,601.1 L199.7,599.7 L201.6,598.4
		L203.4,597.1 L205.3,595.8 L207.2,594.5 L209.0,593.3 L210.9,592.2 L212.7,591.2 L214.6,590.2 L216.4,589.4
		L218.3,588.6 L220.1,588.0 L222.0,587.6 L223.8,587.2 L225.7,587.0 L227.5,586.9 L229.4,587.0 L231.3,587.1
		L233.1,587.3 L235.0,587.6 L236.8,587.9 L238.7,588.3 L240.5,588.6 L242.4,588.9 L244.2,589.2 L246.1,589.4
		L247.9,589.5 L249.8,589.5 L251.6,589.4 L253.5,589.2 L255.4,588.8 L257.2,588.4 L259.1,587.8 L260.9,587.1
		L262.8,586.3 L264.6,585.4 L266.5,584.5 L268.3,583.5 L270.2,582.6 L272.0,581.7 L273.9,580.8 L275.7,580.0
		L277.6,579.2 L279.5,578.5 L281.3,577.8 L283.2,577.2 L285.0,576.7 L286.9,576.1 L288.7,575.6 L290.6,575.2
		L292.4,574.7 L294.3,574.1 L296.1,573.6 L298.0,573.0 L299.8,572.3 L301.7,571.7 L303.6,571.0 L305.4,570.3
		L307.3,569.5 L309.1,568.8 L311.0,568.2 L312.8,567.6 L314.7,567.1 L316.5,566.7 L318.4,566.5 L320.2,566.3
		L322.1,566.4 L323.9,566.5 L325.8,566.9 L327.7,567.3 L329.5,567.9 L331.4,568.6 L333.2,569.4 L335.1,570.3
		L336.9,571.1 L338.8,572.0 L340.6,572.8 L342.5,573.6 L344.3,574.3 L346.2,574.8 L348.0,575.2 L349.9,575.4
		L351.8,575.4 L353.6,575.2 L355.5,574.9 L357.3,574.3 L359.2,573.5 L361.0,572.6 L362.9,571.5 L364.7,570.3
		L366.6,569.1 L368.4,567.7 L370.3,566.3 L372.1,564.9 L374.0,563.6 L375.9,562.2 L377.7,561.0 L379.6,559.8
		L381.4,558.7 L383.3,557.6 L385.1,556.6 L387.0,555.7 L388.8,554.9 L390.7,554.1 L392.5,553.3 L394.4,552.4
		L396.2,551.6 L398.1,550.7 L400.0,549.7 L401.8,548.7 L403.7,547.6 L405.5,546.4 L407.4,545.1 L409.2,543.8
		L411.1,542.3 L412.9,540.8 L414.8,539.3 L416.6,537.7 L418.5,536.0 L420.3,534.4 L422.2,532.7 L424.1,531.0
		L425.9,529.3 L427.8,527.5 L429.6,525.8 L431.5,524.0 L433.3,522.2 L435.2,520.3 L437.0,518.3 L438.9,516.2
		L440.7,514.1 L442.6,511.8 L444.5,509.5 L446.3,507.0 L448.2,504.4 L450.0,501.6 L451.9,498.7 L453.7,495.7
		L455.6,492.6 L457.4,489.3 L459.3,485.9 L461.1,482.5 L463.0,478.9 L464.8,475.3 L466.7,471.7 L468.6,467.9
		L470.4,464.2 L472.3,460.4 L474.1,456.7 L476.0,452.8 L477.8,449.0 L479.7,445.1 L481.5,441.1 L483.4,437.1
		L485.2,433.0 L487.1,428.8 L488.9,424.4 L490.8,419.8 L492.7,415.1 L494.5,410.2 L496.4,405.0 L498.2,399.7
		L500.1,394.3 L501.9,388.6 L503.8,382.8 L505.6,377.0 L507.5,371.0 L509.3,365.1 L511.2,359.2 L513.0,353.3
		L514.9,347.6 L516.8,341.9 L518.6,336.4 L520.5,331.1 L522.3,325.9 L524.2,320.9 L526.0,316.0 L527.9,311.2
		L529.7,306.5 L531.6,301.8 L533.4,297.2 L535.3,292.5 L537.1,287.8 L539.0,283.0 L540.9,278.1 L542.7,273.1
		L544.6,268.0 L546.4,262.8 L548.3,257.5 L550.1,252.2 L552.0,246.9 L553.8,241.7 L555.7,236.6 L557.5,231.6
		L559.4,226.8 L561.2,222.3 L563.1,218.1 L565.0,214.2 L566.8,210.8 L568.7,207.8 L570.5,205.2 L572.4,203.2
		L574.2,201.6 L576.1,200.4 L577.9,199.8 L579.8,199.6 L581.6,199.8 L583.5,200.3 L585.3,201.3 L587.2,202.5
		L589.1,204.0 L590.9,205.7 L592.8,207.6 L594.6,209.6 L596.5,211.7 L598.3,213.8 L600.2,215.8 L602.0,217.9
		L603.9,219.7 L605.7,221.5 L607.6,223.0 L609.4,224.2 L611.3,225.2 L613.2,225.8 L615.0,226.0 L616.9,225.8
		L618.7,225.1 L620.6,224.0 L622.4,222.4 L624.3,220.3 L626.1,217.7 L628.0,214.6 L629.8,211.0 L631.7,207.1
		L633.5,202.8 L635.4,198.2 L637.3,193.4 L639.1,188.4 L641.0,183.4 L642.8,178.3 L644.7,173.4 L646.5,168.6
		L648.4,164.1 L650.2,159.9 L652.1,156.1 L653.9,152.7 L655.8,149.7 L657.6,147.3 L659.5,145.4 L661.4,144.0
		L663.2,143.1 L665.1,142.7 L666.9,142.8 L668.8,143.4 L670.6,144.5 L672.5,146.0 L674.3,148.1 L676.2,150.5
		L678.0,153.5 L679.9,156.9 L681.8,160.8 L683.6,165.3 L685.5,170.3 L687.3,175.8 L689.2,181.9 L691.0,188.7
		L692.9,196.0 L694.7,203.9 L696.6,212.4 L698.4,221.4 L700.3,231.0 L702.1,240.9 L704.0,251.3 L705.9,262.0
		L707.7,272.9 L709.6,284.0 L711.4,295.1 L713.3,306.3 L715.1,317.3 L717.0,328.2 L718.8,338.8 L720.7,349.2
		L722.5,359.2 L724.4,368.9 L726.2,378.2 L728.1,387.2 L730.0,395.7 L731.8,403.9 L733.7,411.8 L735.5,419.3
		L737.4,426.5 L739.2,433.4 L741.1,440.1 L742.9,446.5 L744.8,452.7 L746.6,458.8 L748.5,464.7 L750.3,470.4
		L752.2,476.1 L754.1,481.5 L755.9,486.9 L757.8,492.1 L759.6,497.3 L761.5,502.2 L763.3,507.1 L765.2,511.8
		L767.0,516.4 L768.9,520.8 L770.7,525.1 L772.6,529.2 L774.4,533.2 L776.3,537.1 L778.2,540.8 L780.0,544.5
		L781.9,548.1 L783.7,551.5 L785.6,554.9 L787.4,558.3 L789.3,561.6 L791.1,564.8 L793.0,568.1 L794.8,571.3
		L796.7,574.4 L798.5,577.5 L800.4,580.6 L802.3,583.7 L804.1,586.6 L806.0,589.5 L807.8,592.3 L809.7,595.0
		L811.5,597.6 L813.4,600.1 L815.2,602.4 L817.1,604.6 L818.9,606.7 L820.8,608.6 L822.6,610.4 L824.5,612.1
		L826.4,613.6 L828.2,615.0 L830.1,616.3 L831.9,617.5 L833.8,618.6 L835.6,619.7 L837.5,620.7 L839.3,621.6
		L841.2,622.5 L843.0,623.3 L844.9,624.1 L846.7,624.9 L848.6,625.7 L850.5,626.4 L852.3,627.0 L854.2,627.6
		L856.0,628.2 L857.9,628.8 L859.7,629.3 L861.6,629.8 L863.4,630.2 L865.3,630.7 L867.1,631.0 L869.0,631.4
		L870.8,631.7 L872.7,632.0 L874.6,632.3 L876.4,632.6 L878.3,632.9 L880.1,633.1 L882.0,633.4 L883.8,633.7
		L885.7,633.9 L887.5,634.2 L889.4,634.4 L891.2,634.7 L893.1,634.9 L894.9,635.1 L896.8,635.3 L898.7,635.6
		L900.5,635.7 L902.4,635.9 L904.2,636.1 L906.1,636.2 L907.9,636.4 L909.8,636.5 L911.6,636.6 L913.5,636.7
		L915.3,636.8 L917.2,636.9 L919.1,636.9 L920.9,637.0 L922.8,637.1 L924.6,637.2 L926.5,637.3 L928.3,637.4
		L930.2,637.5 L932.0,637.6 L933.9,637.8 L935.7,637.9 L937.6,638.1 L939.4,638.4 L941.3,638.6 L943.2,638.9
		L945.0,639.2 L946.9,639.5 L948.7,639.8 L950.6,640.2 L952.4,640.5 L954.3,640.9 L956.1,641.3 L958.0,641.6
		L959.8,642.0 L961.7,642.3 L963.5,642.6 L965.4,643.0 L967.3,643.3 L969.1,643.6 L971.0,643.8 L972.8,644.1
		L974.7,644.3 L976.5,644.5 L978.4,644.7 L980.2,644.9 L982.1,645.1 L983.9,645.2 L985.8,645.4 L987.6,645.5
		L989.5,645.7 L991.4,645.8 L993.2,645.9 L995.1,646.0 L996.9,646.1 L998.8,646.3 L1000.6,646.4 L1002.5,646.5
		L1004.3,646.6 L1006.2,646.7 L1008.0,646.9 L1009.9,647.0 L1011.7,647.2 L1013.6,647.4  '/></g>
	</g>
	<g id="gnuplot_plot_2" ><title>Confidence interval</title>
<g fill="none" color="white" stroke="rgb( 31, 120, 180)" stroke-width="1.00" stroke-linecap="butt" stroke-linejoin="miter">
</g>
<g fill="none" color="black" stroke="currentColor" stroke-width="1.00" stroke-linecap="butt" stroke-linejoin="miter">
	<g transform="translate(1089.0,85.0)" stroke="none" fill="black" font-family="Helvetica" font-size="12.00"  text-anchor="start">
		<text><tspan font-family="Helvetica" >Confidence interval</tspan></text>
	</g>
</g>
<g fill="none" color="black" stroke="currentColor" stroke-width="1.00" stroke-linecap="butt" stroke-linejoin="miter">
	<g stroke='none' shape-rendering='crispEdges'>
		<polygon fill = 'rgb( 31, 120, 180)' fill-opacity = '0.250000' points = '1038.5,85.6 1080.7,85.6 1080.7,76.6 1038.5,76.6 '/>
		<polygon fill = 'rgb( 31, 120, 180)' fill-opacity = '0.250000' points = '173.8,615.3 175.6,614.5 177.5,613.6 179.3,612.7 181.2,611.7 183.0,610.7 184.9,609.6 186.8,608.5 188.6,607.4 190.5,606.2 192.3,604.9 194.2,603.7 196.0,602.4 197.9,601.1 199.7,599.7 201.6,598.4
203.4,597.1 205.3,595.8 207.2,594.5 209.0,593.3 210.9,592.2 212.7,591.2 214.6,590.2 216.4,589.4 218.3,588.6 220.1,588.0 222.0,587.6 223.8,587.2 225.7,587.0 227.5,586.9 229.4,587.0 231.3,587.1
233.1,587.3 235.0,587.6 236.8,587.9 238.7,588.3 240.5,588.6 242.4,588.9 244.2,589.2 246.1,589.4 247.9,589.5 249.8,589.5 251.6,589.4 253.5,589.2 255.4,588.8 257.2,588.4 259.1,587.8 260.9,587.1
262.8,586.3 264.6,585.4 266.5,584.5 268.3,583.5 270.2,582.6 272.0,581.7 273.9,580.8 275.7,580.0 277.6,579.2 279.5,578.5 281.3,577.8 283.2,577.2 285.0,576.7 286.9,576.1 288.7,575.6 290.6,575.2
292.4,574.7 294.3,574.1 296.1,573.6 298.0,573.0 299.8,572.3 301.7,571.7 303.6,571.0 305.4,570.3 307.3,569.5 309.1,568.8 311.0,568.2 312.8,567.6 314.7,567.1 316.5,566.7 318.4,566.5 320.2,566.3
322.1,566.4 323.9,566.5 325.8,566.9 327.7,567.3 329.5,567.9 331.4,568.6 333.2,569.4 335.1,570.3 336.9,571.1 338.8,572.0 340.6,572.8 342.5,573.6 344.3,574.3 346.2,574.8 348.0,575.2 349.9,575.4
351.8,575.4 353.6,575.2 355.5,574.9 357.3,574.3 359.2,573.5 361.0,572.6 362.9,571.5 364.7,570.3 366.6,569.1 368.4,567.7 370.3,566.3 372.1,564.9 374.0,563.6 375.9,562.2 377.7,561.0 379.6,559.8
381.4,558.7 383.3,557.6 385.1,556.6 387.0,555.7 388.8,554.9 390.7,554.1 392.5,553.3 394.4,552.4 396.2,551.6 398.1,550.7 400.0,549.7 401.8,548.7 403.7,547.6 405.5,546.4 407.4,545.1 409.2,543.8
411.1,542.3 412.9,540.8 414.8,539.3 416.6,537.7 418.5,536.0 420.3,534.4 422.2,532.7 424.1,531.0 425.9,529.3 427.8,527.5 429.6,525.8 431.5,524.0 433.3,522.2 435.2,520.3 437.0,518.3 438.9,516.2
440.7,514.1 442.6,511.8 444.5,509.5 446.3,507.0 448.2,504.4 450.0,501.6 451.9,498.7 453.7,495.7 455.6,492.6 457.4,489.3 459.3,485.9 461.1,482.5 463.0,478.9 464.8,475.3 466.7,471.7 468.6,467.9
470.4,464.2 472.3,460.4 474.1,456.7 476.0,452.8 477.8,449.0 479.7,445.1 481.5,441.1 483.4,437.1 485.2,433.0 487.1,428.8 488.9,424.4 490.8,419.8 492.7,415.1 494.5,410.2 496.4,405.0 498.2,399.7
500.1,394.3 501.9,388.6 503.8,382.8 505.6,377.0 507.5,371.0 509.3,365.1 511.2,359.2 513.0,353.3 514.9,347.6 516.8,341.9 518.6,336.4 520.5,331.1 522.3,325.9 524.2,320.9 526.0,316.0 527.9,311.2
529.7,306.5 531.6,301.8 533.4,297.2 535.3,292.5 537.1,287.8 539.0,283.0 540.9,278.1 542.7,273.1 544.6,268.0 546.4,262.8 548.3,257.5 550.1,252.2 552.0,246.9 553.8,241.7 555.7,236.6 557.5,231.6
559.4,226.8 561.2,222.3 563.1,218.1 565.0,214.2 566.8,210.8 568.7,207.8 570.5,205.2 572.4,203.2 574.2,201.6 576.1,200.4 577.9,199.8 579.8,199.6 581.6,199.8 583.5,200.3 585.3,201.3 587.2,202.5
589.1,204.0 590.9,205.7 592.8,207.6 594.6,209.6 596.5,211.7 598.3,213.8 600.2,215.8 602.0,217.9 603.9,219.7 605.7,221.5 607.6,223.0 609.4,224.2 611.3,225.2 613.2,225.8 615.0,226.0 616.9,225.8
618.7,225.1 620.6,224.0 622.4,222.4 624.3,220.3 626.1,217.7 628.0,214.6 629.8,211.0 631.7,207.1 633.5,202.8 635.4,198.2 637.3,193.4 639.1,188.4 641.0,183.4 642.8,178.3 644.7,173.4 646.5,168.6
648.4,164.1 650.2,159.9 652.1,156.1 653.9,152.7 655.8,149.7 657.6,147.3 659.5,145.4 661.4,144.0 663.2,143.1 665.1,142.7 666.9,142.8 668.8,143.4 670.6,144.5 672.5,146.0 674.3,148.1 676.2,150.5
678.0,153.5 679.9,156.9 681.8,160.8 683.6,165.3 685.5,170.3 687.3,175.8 689.2,181.9 691.0,188.7 692.9,196.0 694.7,203.9 696.6,212.4 698.4,221.4 700.3,231.0 702.1,240.9 704.0,251.3 705.9,262.0
707.7,272.9 709.6,284.0 711.4,295.1 713.3,306.3 715.1,317.3 717.0,328.2 718.8,338.8 720.7,349.2 722.5,359.2 724.4,368.9 726.2,378.2 728.1,387.2 730.0,395.7 731.8,403.9 733.7,411.8 735.5,419.3
737.4,426.5 739.2,433.4 741.1,440.1 742.9,446.5 744.8,452.7 746.6,458.8 748.5,464.7 750.3,470.4 752.2,476.1 754.1,481.5 755.9,486.9 757.8,492.1 759.6,497.3 761.5,502.2 763.3,507.1 765.2,511.8
767.0,516.4 768.9,520.8 770.7,525.1 772.6,529.2 774.4,533.2 776.3,537.1 778.2,540.8 780.0,544.5 781.9,548.1 783.7,551.5 785.6,554.9 787.4,558.3 789.3,561.6 791.1,564.8 793.0,568.1 794.8,571.3
796.7,574.4 798.5,577.5 800.4,580.6 802.3,583.7 804.1,586.6 806.0,589.5 807.8,592.3 809.7,595.0 811.5,597.6 813.4,600.1 815.2,602.4 817.1,604.6 818.9,606.7 820.8,608.6 822.6,610.4 824.5,612.1
826.4,613.6 828.2,615.0 830.1,616.3 831.9,617.5 833.8,618.6 835.6,619.7 837.5,620.7 839.3,621.6 841.2,622.5 843.0,623.3 844.9,624.1 846.7,624.9 848.6,625.7 850.5,626.4 852.3,627.0 854.2,627.6
856.0,628.2 857.9,628.8 859.7,629.3 861.6,629.8 863.4,630.2 865.3,630.7 867.1,631.0 869.0,631.4 870.8,631.7 872.7,632.0 874.6,632.3 876.4,632.6 878.3,632.9 880.1,633.1 882.0,633.4 883.8,633.7
885.7,633.9 887.5,634.2 889.4,634.4 891.2,634.7 893.1,634.9 894.9,635.1 896.8,635.3 898.7,635.6 900.5,635.7 902.4,635.9 904.2,636.1 906.1,636.2 907.9,636.4 909.8,636.5 911.6,636.6 913.5,636.7
915.3,636.8 917.2,636.9 919.1,636.9 920.9,637.0 922.8,637.1 924.6,637.2 926.5,637.3 926.5,662.4 924.6,662.4 922.8,662.4 920.9,662.4 919.1,662.4 917.2,662.4 915.3,662.4 913.5,662.4 911.6,662.4
909.8,662.4 907.9,662.4 906.1,662.4 904.2,662.4 902.4,662.4 900.5,662.4 898.7,662.4 896.8,662.4 894.9,662.4 893.1,662.4 891.2,662.4 889.4,662.4 887.5,662.4 885.7,662.4 883.8,662.4 882.0,662.4
880.1,662.4 878.3,662.4 876.4,662.4 874.6,662.4 872.7,662.4 870.8,662.4 869.0,662.4 867.1,662.4 865.3,662.4 863.4,662.4 861.6,662.4 859.7,662.4 857.9,662.4 856.0,662.4 854.2,662.4 852.3,662.4
850.5,662.4 848.6,662.4 846.7,662.4 844.9,662.4 843.0,662.4 841.2,662.4 839.3,662.4 837.5,662.4 835.6,662.4 833.8,662.4 831.9,662.4 830.1,662.4 828.2,662.4 826.4,662.4 824.5,662.4 822.6,662.4
820.8,662.4 818.9,662.4 817.1,662.4 815.2,662.4 813.4,662.4 811.5,662.4 809.7,662.4 807.8,662.4 806.0,662.4 804.1,662.4 802.3,662.4 800.4,662.4 798.5,662.4 796.7,662.4 794.8,662.4 793.0,662.4
791.1,662.4 789.3,662.4 787.4,662.4 785.6,662.4 783.7,662.4 781.9,662.4 780.0,662.4 778.2,662.4 776.3,662.4 774.4,662.4 772.6,662.4 770.7,662.4 768.9,662.4 767.0,662.4 765.2,662.4 763.3,662.4
761.5,662.4 759.6,662.4 757.8,662.4 755.9,662.4 754.1,662.4 752.2,662.4 750.3,662.4 748.5,662.4 746.6,662.4 744.8,662.4 742.9,662.4 741.1,662.4 739.2,662.4 737.4,662.4 735.5,662.4 733.7,662.4
731.8,662.4 730.0,662.4 728.1,662.4 726.2,662.4 724.4,662.4 722.5,662.4 720.7,662.4 718.8,662.4 717.0,662.4 715.1,662.4 713.3,662.4 711.4,662.4 709.6,662.4 707.7,662.4 705.9,662.4 704.0,662.4
702.1,662.4 700.3,662.4 698.4,662.4 696.6,662.4 694.7,662.4 692.9,662.4 691.0,662.4 689.2,662.4 687.3,662.4 685.5,662.4 683.6,662.4 681.8,662.4 679.9,662.4 678.0,662.4 676.2,662.4 674.3,662.4
672.5,662.4 670.6,662.4 668.8,662.4 666.9,662.4 665.1,662.4 663.2,662.4 661.4,662.4 659.5,662.4 657.6,662.4 655.8,662.4 653.9,662.4 652.1,662.4 650.2,662.4 648.4,662.4 646.5,662.4 644.7,662.4
642.8,662.4 641.0,662.4 639.1,662.4 637.3,662.4 635.4,662.4 633.5,662.4 631.7,662.4 629.8,662.4 628.0,662.4 626.1,662.4 624.3,662.4 622.4,662.4 620.6,662.4 618.7,662.4 616.9,662.4 615.0,662.4
613.2,662.4 611.3,662.4 609.4,662.4 607.6,662.4 605.7,662.4 603.9,662.4 602.0,662.4 600.2,662.4 598.3,662.4 596.5,662.4 594.6,662.4 592.8,662.4 590.9,662.4 589.1,662.4 587.2,662.4 585.3,662.4
583.5,662.4 581.6,662.4 579.8,662.4 577.9,662.4 576.1,662.4 574.2,662.4 572.4,662.4 570.5,662.4 568.7,662.4 566.8,662.4 565.0,662.4 563.1,662.4 561.2,662.4 559.4,662.4 557.5,662.4 555.7,662.4
553.8,662.4 552.0,662.4 550.1,662.4 548.3,662.4 546.4,662.4 544.6,662.4 542.7,662.4 540.9,662.4 539.0,662.4 537.1,662.4 535.3,662.4 533.4,662.4 531.6,662.4 529.7,662.4 527.9,662.4 526.0,662.4
524.2,662.4 522.3,662.4 520.5,662.4 518.6,662.4 516.8,662.4 514.9,662.4 513.0,662.4 511.2,662.4 509.3,662.4 507.5,662.4 505.6,662.4 503.8,662.4 501.9,662.4 500.1,662.4 498.2,662.4 496.4,662.4
494.5,662.4 492.7,662.4 490.8,662.4 488.9,662.4 487.1,662.4 485.2,662.4 483.4,662.4 481.5,662.4 479.7,662.4 477.8,662.4 476.0,662.4 474.1,662.4 472.3,662.4 470.4,662.4 468.6,662.4 466.7,662.4
464.8,662.4 463.0,662.4 461.1,662.4 459.3,662.4 457.4,662.4 455.6,662.4 453.7,662.4 451.9,662.4 450.0,662.4 448.2,662.4 446.3,662.4 444.5,662.4 442.6,662.4 440.7,662.4 438.9,662.4 437.0,662.4
435.2,662.4 433.3,662.4 431.5,662.4 429.6,662.4 427.8,662.4 425.9,662.4 424.1,662.4 422.2,662.4 420.3,662.4 418.5,662.4 416.6,662.4 414.8,662.4 412.9,662.4 411.1,662.4 409.2,662.4 407.4,662.4
405.5,662.4 403.7,662.4 401.8,662.4 400.0,662.4 398.1,662.4 396.2,662.4 394.4,662.4 392.5,662.4 390.7,662.4 388.8,662.4 387.0,662.4 385.1,662.4 383.3,662.4 381.4,662.4 379.6,662.4 377.7,662.4
375.9,662.4 374.0,662.4 372.1,662.4 370.3,662.4 368.4,662.4 366.6,662.4 364.7,662.4 362.9,662.4 361.0,662.4 359.2,662.4 357.3,662.4 355.5,662.4 353.6,662.4 351.8,662.4 349.9,662.4 348.0,662.4
346.2,662.4 344.3,662.4 342.5,662.4 340.6,662.4 338.8,662.4 336.9,662.4 335.1,662.4 333.2,662.4 331.4,662.4 329.5,662.4 327.7,662.4 325.8,662.4 323.9,662.4 322.1,662.4 320.2,662.4 318.4,662.4
316.5,662.4 314.7,662.4 312.8,662.4 311.0,662.4 309.1,662.4 307.3,662.4 305.4,662.4 303.6,662.4 301.7,662.4 299.8,662.4 298.0,662.4 296.1,662.4 294.3,662.4 292.4,662.4 290.6,662.4 288.7,662.4
286.9,662.4 285.0,662.4 283.2,662.4 281.3,662.4 279.5,662.4 277.6,662.4 275.7,662.4 273.9,662.4 272.0,662.4 270.2,662.4 268.3,662.4 266.5,662.4 264.6,662.4 262.8,662.4 260.9,662.4 259.1,662.4
257.2,662.4 255.4,662.4 253.5,662.4 251.6,662.4 249.8,662.4 247.9,662.4 246.1,662.4 244.2,662.4 242.4,662.4 240.5,662.4 238.7,662.4 236.8,662.4 235.0,662.4 233.1,662.4 231.3,662.4 229.4,662.4
227.5,662.4 225.7,662.4 223.8,662.4 222.0,662.4 220.1,662.4 218.3,662.4 216.4,662.4 214.6,662.4 212.7,662.4 210.9,662.4 209.0,662.4 207.2,662.4 205.3,662.4 203.4,662.4 201.6,662.4 199.7,662.4
197.9,662.4 196.0,662.4 194.2,662.4 192.3,662.4 190.5,662.4 188.6,662.4 186.8,662.4 184.9,662.4 183.0,662.4 181.2,662.4 179.3,662.4 177.5,662.4 175.6,662.4 173.8,662.4 '/>
	</g>
</g>
	</g>
	<g id="gnuplot_plot_3" ><title>Point estimate</title>
<g fill="none" color="white" stroke="rgb( 31, 120, 180)" stroke-width="2.00" stroke-linecap="butt" stroke-linejoin="miter">
</g>
<g fill="none" color="black" stroke="currentColor" stroke-width="2.00" stroke-linecap="butt" stroke-linejoin="miter">
	<g transform="translate(1089.0,103.0)" stroke="none" fill="black" font-family="Helvetica" font-size="12.00"  text-anchor="start">
		<text><tspan font-family="Helvetica" >Point estimate</tspan></text>
	</g>
</g>
<g fill="none" color="black" stroke="currentColor" stroke-width="2.00" stroke-linecap="butt" stroke-linejoin="miter">
	<path stroke='rgb( 31, 120, 180)'  d='M1038.5,99.1 L1080.7,99.1 M603.5,662.4 L603.5,219.4  '/></g>
	</g>
<g fill="none" color="black" stroke="currentColor" stroke-width="2.00" stroke-linecap="butt" stroke-linejoin="miter">
</g>
<g fill="none" color="black" stroke="black" stroke-width="1.00" stroke-linecap="butt" stroke-linejoin="miter">
</g>
<g fill="none" color="black" stroke="currentColor" stroke-width="1.00" stroke-linecap="butt" stroke-linejoin="miter">
	<path stroke='black'  d='M88.5,54.1 L88.5,662.4 L1013.6,662.4 L1013.6,54.1 L88.5,54.1 Z  '/></g>
<g fill="none" color="black" stroke="currentColor" stroke-width="1.00" stroke-linecap="butt" stroke-linejoin="miter">
</g>
</g>
</svg>

