<?xml version="1.0" encoding="utf-8"  standalone="no"?>
<svg 
 viewBox="0 0 1280 720"
 xmlns="http://www.w3.org/2000/svg"
 xmlns:xlink="http://www.w3.org/1999/xlink"
>

<title>Gnuplot</title>
<desc>Produced by GNUPLOT 5.2 patchlevel 2 </desc>

<g id="gnuplot_canvas">

<rect x="0" y="0" width="1280" height="720" fill="none"/>
<defs>

	<circle id='gpDot' r='0.5' stroke-width='0.5'/>
	<path id='gpPt0' stroke-width='0.222' stroke='currentColor' d='M-1,0 h2 M0,-1 v2'/>
	<path id='gpPt1' stroke-width='0.222' stroke='currentColor' d='M-1,-1 L1,1 M1,-1 L-1,1'/>
	<path id='gpPt2' stroke-width='0.222' stroke='currentColor' d='M-1,0 L1,0 M0,-1 L0,1 M-1,-1 L1,1 M-1,1 L1,-1'/>
	<rect id='gpPt3' stroke-width='0.222' stroke='currentColor' x='-1' y='-1' width='2' height='2'/>
	<rect id='gpPt4' stroke-width='0.222' stroke='currentColor' fill='currentColor' x='-1' y='-1' width='2' height='2'/>
	<circle id='gpPt5' stroke-width='0.222' stroke='currentColor' cx='0' cy='0' r='1'/>
	<use xlink:href='#gpPt5' id='gpPt6' fill='currentColor' stroke='none'/>
	<path id='gpPt7' stroke-width='0.222' stroke='currentColor' d='M0,-1.33 L-1.33,0.67 L1.33,0.67 z'/>
	<use xlink:href='#gpPt7' id='gpPt8' fill='currentColor' stroke='none'/>
	<use xlink:href='#gpPt7' id='gpPt9' stroke='currentColor' transform='rotate(180)'/>
	<use xlink:href='#gpPt9' id='gpPt10' fill='currentColor' stroke='none'/>
	<use xlink:href='#gpPt3' id='gpPt11' stroke='currentColor' transform='rotate(45)'/>
	<use xlink:href='#gpPt11' id='gpPt12' fill='currentColor' stroke='none'/>
	<path id='gpPt13' stroke-width='0.222' stroke='currentColor' d='M0,1.330 L1.265,0.411 L0.782,-1.067 L-0.782,-1.076 L-1.265,0.411 z'/>
	<use xlink:href='#gpPt13' id='gpPt14' fill='currentColor' stroke='none'/>
	<filter id='textbox' filterUnits='objectBoundingBox' x='0' y='0' height='1' width='1'>
	  <feFlood flood-color='white' flood-opacity='1' result='bgnd'/>
	  <feComposite in='SourceGraphic' in2='bgnd' operator='atop'/>
	</filter>
	<filter id='greybox' filterUnits='objectBoundingBox' x='0' y='0' height='1' width='1'>
	  <feFlood flood-color='lightgrey' flood-opacity='1' result='grey'/>
	  <feComposite in='SourceGraphic' in2='grey' operator='atop'/>
	</filter>
</defs>
<g fill="none" color="white" stroke="currentColor" stroke-width="1.00" stroke-linecap="butt" stroke-linejoin="miter">
</g>
<g fill="none" color="black" stroke="currentColor" stroke-width="1.00" stroke-linecap="butt" stroke-linejoin="miter">
	<path stroke='black'  d='M88.5,662.4 L97.5,662.4  '/>	<g transform="translate(80.2,666.3)" stroke="none" fill="black" font-family="Helvetica" font-size="12.00"  text-anchor="end">
		<text><tspan font-family="Helvetica" > 0</tspan></text>
	</g>
</g>
<g fill="none" color="black" stroke="currentColor" stroke-width="1.00" stroke-linecap="butt" stroke-linejoin="miter">
	<path stroke='black'  d='M88.5,586.4 L97.5,586.4  '/>	<g transform="translate(80.2,590.3)" stroke="none" fill="black" font-family="Helvetica" font-size="12.00"  text-anchor="end">
		<text><tspan font-family="Helvetica" > 0.001</tspan></text>
	</g>
</g>
<g fill="none" color="black" stroke="currentColor" stroke-width="1.00" stroke-linecap="butt" stroke-linejoin="miter">
	<path stroke='black'  d='M88.5,510.3 L97.5,510.3  '/>	<g transform="translate(80.2,514.2)" stroke="none" fill="black" font-family="Helvetica" font-size="12.00"  text-anchor="end">
		<text><tspan font-family="Helvetica" > 0.002</tspan></text>
	</g>
</g>
<g fill="none" color="black" stroke="currentColor" stroke-width="1.00" stroke-linecap="butt" stroke-linejoin="miter">
	<path stroke='black'  d='M88.5,434.3 L97.5,434.3  '/>	<g transform="translate(80.2,438.2)" stroke="none" fill="black" font-family="Helvetica" font-size="12.00"  text-anchor="end">
		<text><tspan font-family="Helvetica" > 0.003</tspan></text>
	</g>
</g>
<g fill="none" color="black" stroke="currentColor" stroke-width="1.00" stroke-linecap="butt" stroke-linejoin="miter">
	<path stroke='black'  d='M88.5,358.2 L97.5,358.2  '/>	<g transform="translate(80.2,362.1)" stroke="none" fill="black" font-family="Helvetica" font-size="12.00"  text-anchor="end">
		<text><tspan font-family="Helvetica" > 0.004</tspan></text>
	</g>
</g>
<g fill="none" color="black" stroke="currentColor" stroke-width="1.00" stroke-linecap="butt" stroke-linejoin="miter">
	<path stroke='black'  d='M88.5,282.2 L97.5,282.2  '/>	<g transform="translate(80.2,286.1)" stroke="none" fill="black" font-family="Helvetica" font-size="12.00"  text-anchor="end">
		<text><tspan font-family="Helvetica" > 0.005</tspan></text>
	</g>
</g>
<g fill="none" color="black" stroke="currentColor" stroke-width="1.00" stroke-linecap="butt" stroke-linejoin="miter">
	<path stroke='black'  d='M88.5,206.2 L97.5,206.2  '/>	<g transform="translate(80.2,210.1)" stroke="none" fill="black" font-family="Helvetica" font-size="12.00"  text-anchor="end">
		<text><tspan font-family="Helvetica" > 0.006</tspan></text>
	</g>
</g>
<g fill="none" color="black" stroke="currentColor" stroke-width="1.00" stroke-linecap="butt" stroke-linejoin="miter">
	<path stroke='black'  d='M88.5,130.1 L97.5,130.1  '/>	<g transform="translate(80.2,134.0)" stroke="none" fill="black" font-family="Helvetica" font-size="12.00"  text-anchor="end">
		<text><tspan font-family="Helvetica" > 0.007</tspan></text>
	</g>
</g>
<g fill="none" color="black" stroke="currentColor" stroke-width="1.00" stroke-linecap="butt" stroke-linejoin="miter">
	<path stroke='black'  d='M88.5,54.1 L97.5,54.1  '/>	<g transform="translate(80.2,58.0)" stroke="none" fill="black" font-family="Helvetica" font-size="12.00"  text-anchor="end">
		<text><tspan font-family="Helvetica" > 0.008</tspan></text>
	</g>
</g>
<g fill="none" color="black" stroke="currentColor" stroke-width="1.00" stroke-linecap="butt" stroke-linejoin="miter">
	<path stroke='black'  d='M104.8,662.4 L104.8,653.4  '/>	<g transform="translate(104.8,684.3)" stroke="none" fill="black" font-family="Helvetica" font-size="12.00"  text-anchor="middle">
		<text><tspan font-family="Helvetica" > 19800</tspan></text>
	</g>
</g>
<g fill="none" color="black" stroke="currentColor" stroke-width="1.00" stroke-linecap="butt" stroke-linejoin="miter">
	<path stroke='black'  d='M281.2,662.4 L281.2,653.4  '/>	<g transform="translate(281.2,684.3)" stroke="none" fill="black" font-family="Helvetica" font-size="12.00"  text-anchor="middle">
		<text><tspan font-family="Helvetica" > 19900</tspan></text>
	</g>
</g>
<g fill="none" color="black" stroke="currentColor" stroke-width="1.00" stroke-linecap="butt" stroke-linejoin="miter">
	<path stroke='black'  d='M457.7,662.4 L457.7,653.4  '/>	<g transform="translate(457.7,684.3)" stroke="none" fill="black" font-family="Helvetica" font-size="12.00"  text-anchor="middle">
		<text><tspan font-family="Helvetica" > 20000</tspan></text>
	</g>
</g>
<g fill="none" color="black" stroke="currentColor" stroke-width="1.00" stroke-linecap="butt" stroke-linejoin="miter">
	<path stroke='black'  d='M634.1,662.4 L634.1,653.4  '/>	<g transform="translate(634.1,684.3)" stroke="none" fill="black" font-family="Helvetica" font-size="12.00"  text-anchor="middle">
		<text><tspan font-family="Helvetica" > 20100</tspan></text>
	</g>
</g>
<g fill="none" color="black" stroke="currentColor" stroke-width="1.00" stroke-linecap="butt" stroke-linejoin="miter">
	<path stroke='black'  d='M810.5,662.4 L810.5,653.4  '/>	<g transform="translate(810.5,684.3)" stroke="none" fill="black" font-family="Helvetica" font-size="12.00"  text-anchor="middle">
		<text><tspan font-family="Helvetica" > 20200</tspan></text>
	</g>
</g>
<g fill="none" color="black" stroke="currentColor" stroke-width="1.00" stroke-linecap="butt" stroke-linejoin="miter">
	<path stroke='black'  d='M986.9,662.4 L986.9,653.4  '/>	<g transform="translate(986.9,684.3)" stroke="none" fill="black" font-family="Helvetica" font-size="12.00"  text-anchor="middle">
		<text><tspan font-family="Helvetica" > 20300</tspan></text>
	</g>
</g>
<g fill="none" color="black" stroke="currentColor" stroke-width="1.00" stroke-linecap="butt" stroke-linejoin="miter">
</g>
<g fill="none" color="black" stroke="currentColor" stroke-width="1.00" stroke-linecap="butt" stroke-linejoin="miter">
	<path stroke='black'  d='M88.5,54.1 L88.5,662.4 L1013.6,662.4 L1013.6,54.1 L88.5,54.1 Z  '/></g>
<g fill="none" color="black" stroke="currentColor" stroke-width="1.00" stroke-linecap="butt" stroke-linejoin="miter">
	<g transform="translate(16.3,358.3) rotate(270)" stroke="none" fill="black" font-family="Helvetica" font-size="12.00"  text-anchor="middle">
		<text><tspan font-family="Helvetica" >Density (a.u.)</tspan></text>
	</g>
</g>
<g fill="none" color="black" stroke="currentColor" stroke-width="1.00" stroke-linecap="butt" stroke-linejoin="miter">
	<g transform="translate(551.0,711.3)" stroke="none" fill="black" font-family="Helvetica" font-size="12.00"  text-anchor="middle">
		<text><tspan font-family="Helvetica" >Average time (cycles)</tspan></text>
	</g>
</g>
<g fill="none" color="black" stroke="currentColor" stroke-width="1.00" stroke-linecap="butt" stroke-linejoin="miter">
	<g transform="translate(551.0,31.0)" stroke="none" fill="black" font-family="Helvetica" font-size="12.00"  text-anchor="middle">
		<text><tspan font-family="Helvetica" >non_nested_compare/modified from scratch/7: median</tspan></text>
	</g>
</g>
	<g id="gnuplot_plot_1" ><title>Bootstrap distribution</title>
<g fill="none" color="white" stroke="black" stroke-width="2.00" stroke-linecap="butt" stroke-linejoin="miter">
</g>
<g fill="none" color="black" stroke="currentColor" stroke-width="2.00" stroke-linecap="butt" stroke-linejoin="miter">
	<g transform="translate(1089.0,67.0)" stroke="none" fill="black" font-family="Helvetica" font-size="12.00"  text-anchor="start">
		<text><tspan font-family="Helvetica" >Bootstrap distribution</tspan></text>
	</g>
</g>
<g fill="none" color="black" stroke="currentColor" stroke-width="2.00" stroke-linecap="butt" stroke-linejoin="miter">
	<path stroke='rgb( 31, 120, 180)'  d='M1038.5,63.1 L1080.7,63.1 M88.5,650.3 L90.4,650.0 L92.2,649.8 L94.1,649.7 L95.9,649.6 L97.8,649.6
		L99.6,649.7 L101.5,649.9 L103.3,650.1 L105.2,650.4 L107.0,650.7 L108.9,651.0 L110.7,651.2 L112.6,651.5
		L114.5,651.6 L116.3,651.7 L118.2,651.7 L120.0,651.6 L121.9,651.4 L123.7,651.0 L125.6,650.5 L127.4,649.9
		L129.3,649.1 L131.1,648.2 L133.0,647.1 L134.8,645.9 L136.7,644.6 L138.6,643.2 L140.4,641.7 L142.3,640.2
		L144.1,638.6 L146.0,637.1 L147.8,635.7 L149.7,634.3 L151.5,633.0 L153.4,631.8 L155.2,630.7 L157.1,629.9
		L158.9,629.2 L160.8,628.7 L162.7,628.3 L164.5,628.2 L166.4,628.3 L168.2,628.5 L170.1,628.9 L171.9,629.4
		L173.8,630.0 L175.6,630.6 L177.5,631.3 L179.3,632.1 L181.2,632.7 L183.0,633.4 L184.9,633.9 L186.8,634.4
		L188.6,634.7 L190.5,634.8 L192.3,634.9 L194.2,634.8 L196.0,634.5 L197.9,634.2 L199.7,633.7 L201.6,633.1
		L203.4,632.5 L205.3,631.8 L207.2,631.2 L209.0,630.5 L210.9,629.9 L212.7,629.3 L214.6,628.7 L216.4,628.3
		L218.3,627.9 L220.1,627.6 L222.0,627.3 L223.8,627.1 L225.7,626.9 L227.5,626.7 L229.4,626.5 L231.3,626.2
		L233.1,625.8 L235.0,625.4 L236.8,624.9 L238.7,624.2 L240.5,623.4 L242.4,622.5 L244.2,621.4 L246.1,620.2
		L247.9,618.8 L249.8,617.3 L251.6,615.8 L253.5,614.1 L255.4,612.4 L257.2,610.7 L259.1,608.9 L260.9,607.2
		L262.8,605.5 L264.6,603.8 L266.5,602.2 L268.3,600.7 L270.2,599.3 L272.0,598.1 L273.9,596.9 L275.7,595.8
		L277.6,594.9 L279.5,594.1 L281.3,593.4 L283.2,592.8 L285.0,592.3 L286.9,591.9 L288.7,591.6 L290.6,591.4
		L292.4,591.1 L294.3,591.0 L296.1,590.8 L298.0,590.6 L299.8,590.5 L301.7,590.3 L303.6,590.1 L305.4,589.8
		L307.3,589.5 L309.1,589.1 L311.0,588.7 L312.8,588.1 L314.7,587.5 L316.5,586.8 L318.4,586.0 L320.2,585.1
		L322.1,584.2 L323.9,583.1 L325.8,582.0 L327.7,580.8 L329.5,579.6 L331.4,578.4 L333.2,577.1 L335.1,575.8
		L336.9,574.5 L338.8,573.2 L340.6,571.9 L342.5,570.7 L344.3,569.5 L346.2,568.3 L348.0,567.1 L349.9,565.8
		L351.8,564.6 L353.6,563.3 L355.5,562.0 L357.3,560.5 L359.2,558.9 L361.0,557.1 L362.9,555.1 L364.7,552.9
		L366.6,550.3 L368.4,547.4 L370.3,544.0 L372.1,540.2 L374.0,535.8 L375.9,530.8 L377.7,525.2 L379.6,518.8
		L381.4,511.5 L383.3,503.5 L385.1,494.4 L387.0,484.4 L388.8,473.4 L390.7,461.5 L392.5,448.5 L394.4,434.5
		L396.2,419.7 L398.1,404.1 L400.0,387.8 L401.8,370.9 L403.7,353.7 L405.5,336.2 L407.4,318.7 L409.2,301.3
		L411.1,284.2 L412.9,267.6 L414.8,251.6 L416.6,236.5 L418.5,222.3 L420.3,209.2 L422.2,197.3 L424.1,186.6
		L425.9,177.4 L427.8,169.6 L429.6,163.4 L431.5,158.7 L433.3,155.6 L435.2,154.2 L437.0,154.4 L438.9,156.3
		L440.7,159.9 L442.6,165.1 L444.5,171.9 L446.3,180.1 L448.2,189.7 L450.0,200.4 L451.9,212.2 L453.7,224.9
		L455.6,238.1 L457.4,251.6 L459.3,265.3 L461.1,278.9 L463.0,292.1 L464.8,304.8 L466.7,316.7 L468.6,327.7
		L470.4,337.7 L472.3,346.5 L474.1,354.3 L476.0,360.8 L477.8,366.3 L479.7,370.6 L481.5,374.0 L483.4,376.3
		L485.2,377.8 L487.1,378.3 L488.9,378.0 L490.8,376.9 L492.7,374.8 L494.5,371.9 L496.4,367.9 L498.2,362.8
		L500.1,356.6 L501.9,349.1 L503.8,340.3 L505.6,330.1 L507.5,318.5 L509.3,305.5 L511.2,291.1 L513.0,275.6
		L514.9,259.0 L516.8,241.6 L518.6,223.6 L520.5,205.3 L522.3,187.0 L524.2,169.0 L526.0,151.7 L527.9,135.4
		L529.7,120.3 L531.6,106.8 L533.4,95.0 L535.3,85.1 L537.1,77.4 L539.0,71.8 L540.9,68.5 L542.7,67.4
		L544.6,68.6 L546.4,71.8 L548.3,77.1 L550.1,84.3 L552.0,93.3 L553.8,103.8 L555.7,115.8 L557.5,129.0
		L559.4,143.3 L561.2,158.6 L563.1,174.5 L565.0,191.1 L566.8,208.1 L568.7,225.3 L570.5,242.7 L572.4,260.1
		L574.2,277.4 L576.1,294.5 L577.9,311.3 L579.8,327.6 L581.6,343.5 L583.5,358.8 L585.3,373.4 L587.2,387.4
		L589.1,400.6 L590.9,413.1 L592.8,424.9 L594.6,436.0 L596.5,446.3 L598.3,455.9 L600.2,464.8 L602.0,473.1
		L603.9,480.8 L605.7,487.9 L607.6,494.4 L609.4,500.5 L611.3,506.2 L613.2,511.4 L615.0,516.2 L616.9,520.6
		L618.7,524.7 L620.6,528.5 L622.4,532.0 L624.3,535.2 L626.1,538.1 L628.0,540.9 L629.8,543.5 L631.7,545.8
		L633.5,548.1 L635.4,550.3 L637.3,552.3 L639.1,554.4 L641.0,556.4 L642.8,558.3 L644.7,560.3 L646.5,562.2
		L648.4,564.1 L650.2,566.0 L652.1,567.8 L653.9,569.6 L655.8,571.2 L657.6,572.7 L659.5,574.0 L661.4,575.1
		L663.2,576.1 L665.1,576.8 L666.9,577.2 L668.8,577.5 L670.6,577.5 L672.5,577.3 L674.3,577.0 L676.2,576.6
		L678.0,576.1 L679.9,575.5 L681.8,575.1 L683.6,574.7 L685.5,574.4 L687.3,574.3 L689.2,574.5 L691.0,574.9
		L692.9,575.5 L694.7,576.4 L696.6,577.6 L698.4,579.0 L700.3,580.5 L702.1,582.2 L704.0,584.0 L705.9,585.9
		L707.7,587.7 L709.6,589.4 L711.4,591.0 L713.3,592.4 L715.1,593.6 L717.0,594.5 L718.8,595.1 L720.7,595.5
		L722.5,595.5 L724.4,595.3 L726.2,594.7 L728.1,594.0 L730.0,593.0 L731.8,591.8 L733.7,590.5 L735.5,589.0
		L737.4,587.5 L739.2,586.0 L741.1,584.5 L742.9,583.0 L744.8,581.7 L746.6,580.4 L748.5,579.3 L750.3,578.2
		L752.2,577.4 L754.1,576.7 L755.9,576.1 L757.8,575.8 L759.6,575.5 L761.5,575.5 L763.3,575.5 L765.2,575.7
		L767.0,576.1 L768.9,576.5 L770.7,577.1 L772.6,577.7 L774.4,578.4 L776.3,579.2 L778.2,580.0 L780.0,580.9
		L781.9,581.7 L783.7,582.6 L785.6,583.5 L787.4,584.4 L789.3,585.3 L791.1,586.2 L793.0,587.1 L794.8,588.0
		L796.7,588.9 L798.5,589.8 L800.4,590.7 L802.3,591.6 L804.1,592.5 L806.0,593.5 L807.8,594.4 L809.7,595.3
		L811.5,596.1 L813.4,596.9 L815.2,597.6 L817.1,598.3 L818.9,598.9 L820.8,599.4 L822.6,599.8 L824.5,600.1
		L826.4,600.4 L828.2,600.6 L830.1,600.7 L831.9,600.8 L833.8,600.9 L835.6,600.9 L837.5,601.0 L839.3,601.2
		L841.2,601.3 L843.0,601.5 L844.9,601.8 L846.7,602.0 L848.6,602.2 L850.5,602.3 L852.3,602.3 L854.2,602.2
		L856.0,601.8 L857.9,601.2 L859.7,600.3 L861.6,599.0 L863.4,597.3 L865.3,595.3 L867.1,592.9 L869.0,590.1
		L870.8,587.0 L872.7,583.7 L874.6,580.1 L876.4,576.5 L878.3,572.8 L880.1,569.3 L882.0,565.9 L883.8,562.9
		L885.7,560.3 L887.5,558.2 L889.4,556.6 L891.2,555.7 L893.1,555.4 L894.9,555.8 L896.8,556.9 L898.7,558.6
		L900.5,560.9 L902.4,563.8 L904.2,567.1 L906.1,570.8 L907.9,574.8 L909.8,579.0 L911.6,583.4 L913.5,587.7
		L915.3,592.0 L917.2,596.2 L919.1,600.2 L920.9,604.0 L922.8,607.5 L924.6,610.7 L926.5,613.7 L928.3,616.3
		L930.2,618.7 L932.0,620.8 L933.9,622.7 L935.7,624.4 L937.6,625.8 L939.4,627.1 L941.3,628.3 L943.2,629.3
		L945.0,630.2 L946.9,631.1 L948.7,631.8 L950.6,632.5 L952.4,633.1 L954.3,633.7 L956.1,634.2 L958.0,634.7
		L959.8,635.1 L961.7,635.5 L963.5,635.8 L965.4,636.1 L967.3,636.4 L969.1,636.6 L971.0,636.8 L972.8,637.0
		L974.7,637.2 L976.5,637.3 L978.4,637.5 L980.2,637.7 L982.1,637.9 L983.9,638.1 L985.8,638.4 L987.6,638.6
		L989.5,638.9 L991.4,639.3 L993.2,639.6 L995.1,640.0 L996.9,640.5 L998.8,640.9 L1000.6,641.4 L1002.5,641.9
		L1004.3,642.5 L1006.2,643.0 L1008.0,643.6 L1009.9,644.2 L1011.7,644.8 L1013.6,645.4  '/></g>
	</g>
	<g id="gnuplot_plot_2" ><title>Confidence interval</title>
<g fill="none" color="white" stroke="rgb( 31, 120, 180)" stroke-width="1.00" stroke-linecap="butt" stroke-linejoin="miter">
</g>
<g fill="none" color="black" stroke="currentColor" stroke-width="1.00" stroke-linecap="butt" stroke-linejoin="miter">
	<g transform="translate(1089.0,85.0)" stroke="none" fill="black" font-family="Helvetica" font-size="12.00"  text-anchor="start">
		<text><tspan font-family="Helvetica" >Confidence interval</tspan></text>
	</g>
</g>
<g fill="none" color="black" stroke="currentColor" stroke-width="1.00" stroke-linecap="butt" stroke-linejoin="miter">
	<g stroke='none' shape-rendering='crispEdges'>
		<polygon fill = 'rgb( 31, 120, 180)' fill-opacity = '0.250000' points = '1038.5,85.6 1080.7,85.6 1080.7,76.6 1038.5,76.6 '/>
		<polygon fill = 'rgb( 31, 120, 180)' fill-opacity = '0.250000' points = '173.8,630.0 175.6,630.6 177.5,631.3 179.3,632.1 181.2,632.7 183.0,633.4 184.9,633.9 186.8,634.4 188.6,634.7 190.5,634.8 192.3,634.9 194.2,634.8 196.0,634.5 197.9,634.2 199.7,633.7 201.6,633.1
203.4,632.5 205.3,631.8 207.2,631.2 209.0,630.5 210.9,629.9 212.7,629.3 214.6,628.7 216.4,628.3 218.3,627.9 220.1,627.6 222.0,627.3 223.8,627.1 225.7,626.9 227.5,626.7 229.4,626.5 231.3,626.2
233.1,625.8 235.0,625.4 236.8,624.9 238.7,624.2 240.5,623.4 242.4,622.5 244.2,621.4 246.1,620.2 247.9,618.8 249.8,617.3 251.6,615.8 253.5,614.1 255.4,612.4 257.2,610.7 259.1,608.9 260.9,607.2
262.8,605.5 264.6,603.8 266.5,602.2 268.3,600.7 270.2,599.3 272.0,598.1 273.9,596.9 275.7,595.8 277.6,594.9 279.5,594.1 281.3,593.4 283.2,592.8 285.0,592.3 286.9,591.9 288.7,591.6 290.6,591.4
292.4,591.1 294.3,591.0 296.1,590.8 298.0,590.6 299.8,590.5 301.7,590.3 303.6,590.1 305.4,589.8 307.3,589.5 309.1,589.1 311.0,588.7 312.8,588.1 314.7,587.5 316.5,586.8 318.4,586.0 320.2,585.1
322.1,584.2 323.9,583.1 325.8,582.0 327.7,580.8 329.5,579.6 331.4,578.4 333.2,577.1 335.1,575.8 336.9,574.5 338.8,573.2 340.6,571.9 342.5,570.7 344.3,569.5 346.2,568.3 348.0,567.1 349.9,565.8
351.8,564.6 353.6,563.3 355.5,562.0 357.3,560.5 359.2,558.9 361.0,557.1 362.9,555.1 364.7,552.9 366.6,550.3 368.4,547.4 370.3,544.0 372.1,540.2 374.0,535.8 375.9,530.8 377.7,525.2 379.6,518.8
381.4,511.5 383.3,503.5 385.1,494.4 387.0,484.4 388.8,473.4 390.7,461.5 392.5,448.5 394.4,434.5 396.2,419.7 398.1,404.1 400.0,387.8 401.8,370.9 403.7,353.7 405.5,336.2 407.4,318.7 409.2,301.3
411.1,284.2 412.9,267.6 414.8,251.6 416.6,236.5 418.5,222.3 420.3,209.2 422.2,197.3 424.1,186.6 425.9,177.4 427.8,169.6 429.6,163.4 431.5,158.7 433.3,155.6 435.2,154.2 437.0,154.4 438.9,156.3
440.7,159.9 442.6,165.1 444.5,171.9 446.3,180.1 448.2,189.7 450.0,200.4 451.9,212.2 453.7,224.9 455.6,238.1 457.4,251.6 459.3,265.3 461.1,278.9 463.0,292.1 464.8,304.8 466.7,316.7 468.6,327.7
470.4,337.7 472.3,346.5 474.1,354.3 476.0,360.8 477.8,366.3 479.7,370.6 481.5,374.0 483.4,376.3 485.2,377.8 487.1,378.3 488.9,378.0 490.8,376.9 492.7,374.8 494.5,371.9 496.4,367.9 498.2,362.8
500.1,356.6 501.9,349.1 503.8,340.3 505.6,330.1 507.5,318.5 509.3,305.5 511.2,291.1 513.0,275.6 514.9,259.0 516.8,241.6 518.6,223.6 520.5,205.3 522.3,187.0 524.2,169.0 526.0,151.7 527.9,135.4
529.7,120.3 531.6,106.8 533.4,95.0 535.3,85.1 537.1,77.4 539.0,71.8 540.9,68.5 542.7,67.4 544.6,68.6 546.4,71.8 548.3,77.1 550.1,84.3 552.0,93.3 553.8,103.8 555.7,115.8 557.5,129.0
559.4,143.3 561.2,158.6 563.1,174.5 565.0,191.1 566.8,208.1 568.7,225.3 570.5,242.7 572.4,260.1 574.2,277.4 576.1,294.5 577.9,311.3 579.8,327.6 581.6,343.5 583.5,358.8 585.3,373.4 587.2,387.4
589.1,400.6 590.9,413.1 592.8,424.9 594.6,436.0 596.5,446.3 598.3,455.9 600.2,464.8 602.0,473.1 603.9,480.8 605.7,487.9 607.6,494.4 609.4,500.5 611.3,506.2 613.2,511.4 615.0,516.2 616.9,520.6
618.7,524.7 620.6,528.5 622.4,532.0 624.3,535.2 626.1,538.1 628.0,540.9 629.8,543.5 631.7,545.8 633.5,548.1 635.4,550.3 637.3,552.3 639.1,554.4 641.0,556.4 642.8,558.3 644.7,560.3 646.5,562.2
648.4,564.1 650.2,566.0 652.1,567.8 653.9,569.6 655.8,571.2 657.6,572.7 659.5,574.0 661.4,575.1 663.2,576.1 665.1,576.8 666.9,577.2 668.8,577.5 670.6,577.5 672.5,577.3 674.3,577.0 676.2,576.6
678.0,576.1 679.9,575.5 681.8,575.1 683.6,574.7 685.5,574.4 687.3,574.3 689.2,574.5 691.0,574.9 692.9,575.5 694.7,576.4 696.6,577.6 698.4,579.0 700.3,580.5 702.1,582.2 704.0,584.0 705.9,585.9
707.7,587.7 709.6,589.4 711.4,591.0 713.3,592.4 715.1,593.6 717.0,594.5 718.8,595.1 720.7,595.5 722.5,595.5 724.4,595.3 726.2,594.7 728.1,594.0 730.0,593.0 731.8,591.8 733.7,590.5 735.5,589.0
737.4,587.5 739.2,586.0 741.1,584.5 742.9,583.0 744.8,581.7 746.6,580.4 748.5,579.3 750.3,578.2 752.2,577.4 754.1,576.7 755.9,576.1 757.8,575.8 759.6,575.5 761.5,575.5 763.3,575.5 765.2,575.7
767.0,576.1 768.9,576.5 770.7,577.1 772.6,577.7 774.4,578.4 776.3,579.2 778.2,580.0 780.0,580.9 781.9,581.7 783.7,582.6 785.6,583.5 787.4,584.4 789.3,585.3 791.1,586.2 793.0,587.1 794.8,588.0
796.7,588.9 798.5,589.8 800.4,590.7 802.3,591.6 804.1,592.5 806.0,593.5 807.8,594.4 809.7,595.3 811.5,596.1 813.4,596.9 815.2,597.6 817.1,598.3 818.9,598.9 820.8,599.4 822.6,599.8 824.5,600.1
826.4,600.4 828.2,600.6 830.1,600.7 831.9,600.8 833.8,600.9 835.6,600.9 837.5,601.0 839.3,601.2 841.2,601.3 843.0,601.5 844.9,601.8 846.7,602.0 848.6,602.2 850.5,602.3 852.3,602.3 854.2,602.2
856.0,601.8 857.9,601.2 859.7,600.3 861.6,599.0 863.4,597.3 865.3,595.3 867.1,592.9 869.0,590.1 870.8,587.0 872.7,583.7 874.6,580.1 876.4,576.5 878.3,572.8 880.1,569.3 882.0,565.9 883.8,562.9
885.7,560.3 887.5,558.2 889.4,556.6 891.2,555.7 893.1,555.4 894.9,555.8 896.8,556.9 898.7,558.6 900.5,560.9 902.4,563.8 904.2,567.1 906.1,570.8 907.9,574.8 909.8,579.0 911.6,583.4 913.5,587.7
915.3,592.0 917.2,596.2 919.1,600.2 920.9,604.0 922.8,607.5 924.6,610.7 926.5,613.7 926.5,662.4 924.6,662.4 922.8,662.4 920.9,662.4 919.1,662.4 917.2,662.4 915.3,662.4 913.5,662.4 911.6,662.4
909.8,662.4 907.9,662.4 906.1,662.4 904.2,662.4 902.4,662.4 900.5,662.4 898.7,662.4 896.8,662.4 894.9,662.4 893.1,662.4 891.2,662.4 889.4,662.4 887.5,662.4 885.7,662.4 883.8,662.4 882.0,662.4
880.1,662.4 878.3,662.4 876.4,662.4 874.6,662.4 872.7,662.4 870.8,662.4 869.0,662.4 867.1,662.4 865.3,662.4 863.4,662.4 861.6,662.4 859.7,662.4 857.9,662.4 856.0,662.4 854.2,662.4 852.3,662.4
850.5,662.4 848.6,662.4 846.7,662.4 844.9,662.4 843.0,662.4 841.2,662.4 839.3,662.4 837.5,662.4 835.6,662.4 833.8,662.4 831.9,662.4 830.1,662.4 828.2,662.4 826.4,662.4 824.5,662.4 822.6,662.4
820.8,662.4 818.9,662.4 817.1,662.4 815.2,662.4 813.4,662.4 811.5,662.4 809.7,662.4 807.8,662.4 806.0,662.4 804.1,662.4 802.3,662.4 800.4,662.4 798.5,662.4 796.7,662.4 794.8,662.4 793.0,662.4
791.1,662.4 789.3,662.4 787.4,662.4 785.6,662.4 783.7,662.4 781.9,662.4 780.0,662.4 778.2,662.4 776.3,662.4 774.4,662.4 772.6,662.4 770.7,662.4 768.9,662.4 767.0,662.4 765.2,662.4 763.3,662.4
761.5,662.4 759.6,662.4 757.8,662.4 755.9,662.4 754.1,662.4 752.2,662.4 750.3,662.4 748.5,662.4 746.6,662.4 744.8,662.4 742.9,662.4 741.1,662.4 739.2,662.4 737.4,662.4 735.5,662.4 733.7,662.4
731.8,662.4 730.0,662.4 728.1,662.4 726.2,662.4 724.4,662.4 722.5,662.4 720.7,662.4 718.8,662.4 717.0,662.4 715.1,662.4 713.3,662.4 711.4,662.4 709.6,662.4 707.7,662.4 705.9,662.4 704.0,662.4
702.1,662.4 700.3,662.4 698.4,662.4 696.6,662.4 694.7,662.4 692.9,662.4 691.0,662.4 689.2,662.4 687.3,662.4 685.5,662.4 683.6,662.4 681.8,662.4 679.9,662.4 678.0,662.4 676.2,662.4 674.3,662.4
672.5,662.4 670.6,662.4 668.8,662.4 666.9,662.4 665.1,662.4 663.2,662.4 661.4,662.4 659.5,662.4 657.6,662.4 655.8,662.4 653.9,662.4 652.1,662.4 650.2,662.4 648.4,662.4 646.5,662.4 644.7,662.4
642.8,662.4 641.0,662.4 639.1,662.4 637.3,662.4 635.4,662.4 633.5,662.4 631.7,662.4 629.8,662.4 628.0,662.4 626.1,662.4 624.3,662.4 622.4,662.4 620.6,662.4 618.7,662.4 616.9,662.4 615.0,662.4
613.2,662.4 611.3,662.4 609.4,662.4 607.6,662.4 605.7,662.4 603.9,662.4 602.0,662.4 600.2,662.4 598.3,662.4 596.5,662.4 594.6,662.4 592.8,662.4 590.9,662.4 589.1,662.4 587.2,662.4 585.3,662.4
583.5,662.4 581.6,662.4 579.8,662.4 577.9,662.4 576.1,662.4 574.2,662.4 572.4,662.4 570.5,662.4 568.7,662.4 566.8,662.4 565.0,662.4 563.1,662.4 561.2,662.4 559.4,662.4 557.5,662.4 555.7,662.4
553.8,662.4 552.0,662.4 550.1,662.4 548.3,662.4 546.4,662.4 544.6,662.4 542.7,662.4 540.9,662.4 539.0,662.4 537.1,662.4 535.3,662.4 533.4,662.4 531.6,662.4 529.7,662.4 527.9,662.4 526.0,662.4
524.2,662.4 522.3,662.4 520.5,662.4 518.6,662.4 516.8,662.4 514.9,662.4 513.0,662.4 511.2,662.4 509.3,662.4 507.5,662.4 505.6,662.4 503.8,662.4 501.9,662.4 500.1,662.4 498.2,662.4 496.4,662.4
494.5,662.4 492.7,662.4 490.8,662.4 488.9,662.4 487.1,662.4 485.2,662.4 483.4,662.4 481.5,662.4 479.7,662.4 477.8,662.4 476.0,662.4 474.1,662.4 472.3,662.4 470.4,662.4 468.6,662.4 466.7,662.4
464.8,662.4 463.0,662.4 461.1,662.4 459.3,662.4 457.4,662.4 455.6,662.4 453.7,662.4 451.9,662.4 450.0,662.4 448.2,662.4 446.3,662.4 444.5,662.4 442.6,662.4 440.7,662.4 438.9,662.4 437.0,662.4
435.2,662.4 433.3,662.4 431.5,662.4 429.6,662.4 427.8,662.4 425.9,662.4 424.1,662.4 422.2,662.4 420.3,662.4 418.5,662.4 416.6,662.4 414.8,662.4 412.9,662.4 411.1,662.4 409.2,662.4 407.4,662.4
405.5,662.4 403.7,662.4 401.8,662.4 400.0,662.4 398.1,662.4 396.2,662.4 394.4,662.4 392.5,662.4 390.7,662.4 388.8,662.4 387.0,662.4 385.1,662.4 383.3,662.4 381.4,662.4 379.6,662.4 377.7,662.4
375.9,662.4 374.0,662.4 372.1,662.4 370.3,662.4 368.4,662.4 366.6,662.4 364.7,662.4 362.9,662.4 361.0,662.4 359.2,662.4 357.3,662.4 355.5,662.4 353.6,662.4 351.8,662.4 349.9,662.4 348.0,662.4
346.2,662.4 344.3,662.4 342.5,662.4 340.6,662.4 338.8,662.4 336.9,662.4 335.1,662.4 333.2,662.4 331.4,662.4 329.5,662.4 327.7,662.4 325.8,662.4 323.9,662.4 322.1,662.4 320.2,662.4 318.4,662.4
316.5,662.4 314.7,662.4 312.8,662.4 311.0,662.4 309.1,662.4 307.3,662.4 305.4,662.4 303.6,662.4 301.7,662.4 299.8,662.4 298.0,662.4 296.1,662.4 294.3,662.4 292.4,662.4 290.6,662.4 288.7,662.4
286.9,662.4 285.0,662.4 283.2,662.4 281.3,662.4 279.5,662.4 277.6,662.4 275.7,662.4 273.9,662.4 272.0,662.4 270.2,662.4 268.3,662.4 266.5,662.4 264.6,662.4 262.8,662.4 260.9,662.4 259.1,662.4
257.2,662.4 255.4,662.4 253.5,662.4 251.6,662.4 249.8,662.4 247.9,662.4 246.1,662.4 244.2,662.4 242.4,662.4 240.5,662.4 238.7,662.4 236.8,662.4 235.0,662.4 233.1,662.4 231.3,662.4 229.4,662.4
227.5,662.4 225.7,662.4 223.8,662.4 222.0,662.4 220.1,662.4 218.3,662.4 216.4,662.4 214.6,662.4 212.7,662.4 210.9,662.4 209.0,662.4 207.2,662.4 205.3,662.4 203.4,662.4 201.6,662.4 199.7,662.4
197.9,662.4 196.0,662.4 194.2,662.4 192.3,662.4 190.5,662.4 188.6,662.4 186.8,662.4 184.9,662.4 183.0,662.4 181.2,662.4 179.3,662.4 177.5,662.4 175.6,662.4 173.8,662.4 '/>
	</g>
</g>
	</g>
	<g id="gnuplot_plot_3" ><title>Point estimate</title>
<g fill="none" color="white" stroke="rgb( 31, 120, 180)" stroke-width="2.00" stroke-linecap="butt" stroke-linejoin="miter">
</g>
<g fill="none" color="black" stroke="currentColor" stroke-width="2.00" stroke-linecap="butt" stroke-linejoin="miter">
	<g transform="translate(1089.0,103.0)" stroke="none" fill="black" font-family="Helvetica" font-size="12.00"  text-anchor="start">
		<text><tspan font-family="Helvetica" >Point estimate</tspan></text>
	</g>
</g>
<g fill="none" color="black" stroke="currentColor" stroke-width="2.00" stroke-linecap="butt" stroke-linejoin="miter">
	<path stroke='rgb( 31, 120, 180)'  d='M1038.5,99.1 L1080.7,99.1 M527.5,662.4 L527.5,138.4  '/></g>
	</g>
<g fill="none" color="black" stroke="currentColor" stroke-width="2.00" stroke-linecap="butt" stroke-linejoin="miter">
</g>
<g fill="none" color="black" stroke="black" stroke-width="1.00" stroke-linecap="butt" stroke-linejoin="miter">
</g>
<g fill="none" color="black" stroke="currentColor" stroke-width="1.00" stroke-linecap="butt" stroke-linejoin="miter">
	<path stroke='black'  d='M88.5,54.1 L88.5,662.4 L1013.6,662.4 L1013.6,54.1 L88.5,54.1 Z  '/></g>
<g fill="none" color="black" stroke="currentColor" stroke-width="1.00" stroke-linecap="butt" stroke-linejoin="miter">
</g>
</g>
</svg>

