<?xml version="1.0" encoding="utf-8"  standalone="no"?>
<svg 
 viewBox="0 0 1280 720"
 xmlns="http://www.w3.org/2000/svg"
 xmlns:xlink="http://www.w3.org/1999/xlink"
>

<title>Gnuplot</title>
<desc>Produced by GNUPLOT 5.2 patchlevel 2 </desc>

<g id="gnuplot_canvas">

<rect x="0" y="0" width="1280" height="720" fill="none"/>
<defs>

	<circle id='gpDot' r='0.5' stroke-width='0.5'/>
	<path id='gpPt0' stroke-width='0.222' stroke='currentColor' d='M-1,0 h2 M0,-1 v2'/>
	<path id='gpPt1' stroke-width='0.222' stroke='currentColor' d='M-1,-1 L1,1 M1,-1 L-1,1'/>
	<path id='gpPt2' stroke-width='0.222' stroke='currentColor' d='M-1,0 L1,0 M0,-1 L0,1 M-1,-1 L1,1 M-1,1 L1,-1'/>
	<rect id='gpPt3' stroke-width='0.222' stroke='currentColor' x='-1' y='-1' width='2' height='2'/>
	<rect id='gpPt4' stroke-width='0.222' stroke='currentColor' fill='currentColor' x='-1' y='-1' width='2' height='2'/>
	<circle id='gpPt5' stroke-width='0.222' stroke='currentColor' cx='0' cy='0' r='1'/>
	<use xlink:href='#gpPt5' id='gpPt6' fill='currentColor' stroke='none'/>
	<path id='gpPt7' stroke-width='0.222' stroke='currentColor' d='M0,-1.33 L-1.33,0.67 L1.33,0.67 z'/>
	<use xlink:href='#gpPt7' id='gpPt8' fill='currentColor' stroke='none'/>
	<use xlink:href='#gpPt7' id='gpPt9' stroke='currentColor' transform='rotate(180)'/>
	<use xlink:href='#gpPt9' id='gpPt10' fill='currentColor' stroke='none'/>
	<use xlink:href='#gpPt3' id='gpPt11' stroke='currentColor' transform='rotate(45)'/>
	<use xlink:href='#gpPt11' id='gpPt12' fill='currentColor' stroke='none'/>
	<path id='gpPt13' stroke-width='0.222' stroke='currentColor' d='M0,1.330 L1.265,0.411 L0.782,-1.067 L-0.782,-1.076 L-1.265,0.411 z'/>
	<use xlink:href='#gpPt13' id='gpPt14' fill='currentColor' stroke='none'/>
	<filter id='textbox' filterUnits='objectBoundingBox' x='0' y='0' height='1' width='1'>
	  <feFlood flood-color='white' flood-opacity='1' result='bgnd'/>
	  <feComposite in='SourceGraphic' in2='bgnd' operator='atop'/>
	</filter>
	<filter id='greybox' filterUnits='objectBoundingBox' x='0' y='0' height='1' width='1'>
	  <feFlood flood-color='lightgrey' flood-opacity='1' result='grey'/>
	  <feComposite in='SourceGraphic' in2='grey' operator='atop'/>
	</filter>
</defs>
<g fill="none" color="white" stroke="currentColor" stroke-width="1.00" stroke-linecap="butt" stroke-linejoin="miter">
</g>
<g fill="none" color="black" stroke="currentColor" stroke-width="1.00" stroke-linecap="butt" stroke-linejoin="miter">
	<path stroke='black'  d='M88.5,662.4 L97.5,662.4  '/>	<g transform="translate(80.2,666.3)" stroke="none" fill="black" font-family="Helvetica" font-size="12.00"  text-anchor="end">
		<text><tspan font-family="Helvetica" > 0</tspan></text>
	</g>
</g>
<g fill="none" color="black" stroke="currentColor" stroke-width="1.00" stroke-linecap="butt" stroke-linejoin="miter">
	<path stroke='black'  d='M88.5,586.4 L97.5,586.4  '/>	<g transform="translate(80.2,590.3)" stroke="none" fill="black" font-family="Helvetica" font-size="12.00"  text-anchor="end">
		<text><tspan font-family="Helvetica" > 0.001</tspan></text>
	</g>
</g>
<g fill="none" color="black" stroke="currentColor" stroke-width="1.00" stroke-linecap="butt" stroke-linejoin="miter">
	<path stroke='black'  d='M88.5,510.3 L97.5,510.3  '/>	<g transform="translate(80.2,514.2)" stroke="none" fill="black" font-family="Helvetica" font-size="12.00"  text-anchor="end">
		<text><tspan font-family="Helvetica" > 0.002</tspan></text>
	</g>
</g>
<g fill="none" color="black" stroke="currentColor" stroke-width="1.00" stroke-linecap="butt" stroke-linejoin="miter">
	<path stroke='black'  d='M88.5,434.3 L97.5,434.3  '/>	<g transform="translate(80.2,438.2)" stroke="none" fill="black" font-family="Helvetica" font-size="12.00"  text-anchor="end">
		<text><tspan font-family="Helvetica" > 0.003</tspan></text>
	</g>
</g>
<g fill="none" color="black" stroke="currentColor" stroke-width="1.00" stroke-linecap="butt" stroke-linejoin="miter">
	<path stroke='black'  d='M88.5,358.2 L97.5,358.2  '/>	<g transform="translate(80.2,362.1)" stroke="none" fill="black" font-family="Helvetica" font-size="12.00"  text-anchor="end">
		<text><tspan font-family="Helvetica" > 0.004</tspan></text>
	</g>
</g>
<g fill="none" color="black" stroke="currentColor" stroke-width="1.00" stroke-linecap="butt" stroke-linejoin="miter">
	<path stroke='black'  d='M88.5,282.2 L97.5,282.2  '/>	<g transform="translate(80.2,286.1)" stroke="none" fill="black" font-family="Helvetica" font-size="12.00"  text-anchor="end">
		<text><tspan font-family="Helvetica" > 0.005</tspan></text>
	</g>
</g>
<g fill="none" color="black" stroke="currentColor" stroke-width="1.00" stroke-linecap="butt" stroke-linejoin="miter">
	<path stroke='black'  d='M88.5,206.2 L97.5,206.2  '/>	<g transform="translate(80.2,210.1)" stroke="none" fill="black" font-family="Helvetica" font-size="12.00"  text-anchor="end">
		<text><tspan font-family="Helvetica" > 0.006</tspan></text>
	</g>
</g>
<g fill="none" color="black" stroke="currentColor" stroke-width="1.00" stroke-linecap="butt" stroke-linejoin="miter">
	<path stroke='black'  d='M88.5,130.1 L97.5,130.1  '/>	<g transform="translate(80.2,134.0)" stroke="none" fill="black" font-family="Helvetica" font-size="12.00"  text-anchor="end">
		<text><tspan font-family="Helvetica" > 0.007</tspan></text>
	</g>
</g>
<g fill="none" color="black" stroke="currentColor" stroke-width="1.00" stroke-linecap="butt" stroke-linejoin="miter">
	<path stroke='black'  d='M88.5,54.1 L97.5,54.1  '/>	<g transform="translate(80.2,58.0)" stroke="none" fill="black" font-family="Helvetica" font-size="12.00"  text-anchor="end">
		<text><tspan font-family="Helvetica" > 0.008</tspan></text>
	</g>
</g>
<g fill="none" color="black" stroke="currentColor" stroke-width="1.00" stroke-linecap="butt" stroke-linejoin="miter">
	<path stroke='black'  d='M132.1,662.4 L132.1,653.4  '/>	<g transform="translate(132.1,684.3)" stroke="none" fill="black" font-family="Helvetica" font-size="12.00"  text-anchor="middle">
		<text><tspan font-family="Helvetica" > 3250</tspan></text>
	</g>
</g>
<g fill="none" color="black" stroke="currentColor" stroke-width="1.00" stroke-linecap="butt" stroke-linejoin="miter">
	<path stroke='black'  d='M307.8,662.4 L307.8,653.4  '/>	<g transform="translate(307.8,684.3)" stroke="none" fill="black" font-family="Helvetica" font-size="12.00"  text-anchor="middle">
		<text><tspan font-family="Helvetica" > 3300</tspan></text>
	</g>
</g>
<g fill="none" color="black" stroke="currentColor" stroke-width="1.00" stroke-linecap="butt" stroke-linejoin="miter">
	<path stroke='black'  d='M483.5,662.4 L483.5,653.4  '/>	<g transform="translate(483.5,684.3)" stroke="none" fill="black" font-family="Helvetica" font-size="12.00"  text-anchor="middle">
		<text><tspan font-family="Helvetica" > 3350</tspan></text>
	</g>
</g>
<g fill="none" color="black" stroke="currentColor" stroke-width="1.00" stroke-linecap="butt" stroke-linejoin="miter">
	<path stroke='black'  d='M659.1,662.4 L659.1,653.4  '/>	<g transform="translate(659.1,684.3)" stroke="none" fill="black" font-family="Helvetica" font-size="12.00"  text-anchor="middle">
		<text><tspan font-family="Helvetica" > 3400</tspan></text>
	</g>
</g>
<g fill="none" color="black" stroke="currentColor" stroke-width="1.00" stroke-linecap="butt" stroke-linejoin="miter">
	<path stroke='black'  d='M834.8,662.4 L834.8,653.4  '/>	<g transform="translate(834.8,684.3)" stroke="none" fill="black" font-family="Helvetica" font-size="12.00"  text-anchor="middle">
		<text><tspan font-family="Helvetica" > 3450</tspan></text>
	</g>
</g>
<g fill="none" color="black" stroke="currentColor" stroke-width="1.00" stroke-linecap="butt" stroke-linejoin="miter">
	<path stroke='black'  d='M1010.5,662.4 L1010.5,653.4  '/>	<g transform="translate(1010.5,684.3)" stroke="none" fill="black" font-family="Helvetica" font-size="12.00"  text-anchor="middle">
		<text><tspan font-family="Helvetica" > 3500</tspan></text>
	</g>
</g>
<g fill="none" color="black" stroke="currentColor" stroke-width="1.00" stroke-linecap="butt" stroke-linejoin="miter">
</g>
<g fill="none" color="black" stroke="currentColor" stroke-width="1.00" stroke-linecap="butt" stroke-linejoin="miter">
	<path stroke='black'  d='M88.5,54.1 L88.5,662.4 L1013.6,662.4 L1013.6,54.1 L88.5,54.1 Z  '/></g>
<g fill="none" color="black" stroke="currentColor" stroke-width="1.00" stroke-linecap="butt" stroke-linejoin="miter">
	<g transform="translate(16.3,358.3) rotate(270)" stroke="none" fill="black" font-family="Helvetica" font-size="12.00"  text-anchor="middle">
		<text><tspan font-family="Helvetica" >Density (a.u.)</tspan></text>
	</g>
</g>
<g fill="none" color="black" stroke="currentColor" stroke-width="1.00" stroke-linecap="butt" stroke-linejoin="miter">
	<g transform="translate(551.0,711.3)" stroke="none" fill="black" font-family="Helvetica" font-size="12.00"  text-anchor="middle">
		<text><tspan font-family="Helvetica" >Average time (cycles)</tspan></text>
	</g>
</g>
<g fill="none" color="black" stroke="currentColor" stroke-width="1.00" stroke-linecap="butt" stroke-linejoin="miter">
	<g transform="translate(551.0,31.0)" stroke="none" fill="black" font-family="Helvetica" font-size="12.00"  text-anchor="middle">
		<text><tspan font-family="Helvetica" >non_nested_compare/incremental calc/5: mean</tspan></text>
	</g>
</g>
	<g id="gnuplot_plot_1" ><title>Bootstrap distribution</title>
<g fill="none" color="white" stroke="black" stroke-width="2.00" stroke-linecap="butt" stroke-linejoin="miter">
</g>
<g fill="none" color="black" stroke="currentColor" stroke-width="2.00" stroke-linecap="butt" stroke-linejoin="miter">
	<g transform="translate(1089.0,67.0)" stroke="none" fill="black" font-family="Helvetica" font-size="12.00"  text-anchor="start">
		<text><tspan font-family="Helvetica" >Bootstrap distribution</tspan></text>
	</g>
</g>
<g fill="none" color="black" stroke="currentColor" stroke-width="2.00" stroke-linecap="butt" stroke-linejoin="miter">
	<path stroke='rgb( 31, 120, 180)'  d='M1038.5,63.1 L1080.7,63.1 M88.5,632.5 L90.4,631.9 L92.2,631.3 L94.1,630.7 L95.9,630.1 L97.8,629.4
		L99.6,628.7 L101.5,628.1 L103.3,627.4 L105.2,626.7 L107.0,625.9 L108.9,625.2 L110.7,624.5 L112.6,623.7
		L114.5,623.0 L116.3,622.2 L118.2,621.5 L120.0,620.7 L121.9,619.9 L123.7,619.1 L125.6,618.3 L127.4,617.5
		L129.3,616.7 L131.1,615.9 L133.0,615.0 L134.8,614.2 L136.7,613.3 L138.6,612.4 L140.4,611.5 L142.3,610.5
		L144.1,609.6 L146.0,608.6 L147.8,607.7 L149.7,606.7 L151.5,605.7 L153.4,604.7 L155.2,603.6 L157.1,602.6
		L158.9,601.6 L160.8,600.5 L162.7,599.5 L164.5,598.4 L166.4,597.3 L168.2,596.2 L170.1,595.1 L171.9,594.0
		L173.8,592.9 L175.6,591.7 L177.5,590.6 L179.3,589.4 L181.2,588.2 L183.0,587.0 L184.9,585.7 L186.8,584.5
		L188.6,583.2 L190.5,581.9 L192.3,580.5 L194.2,579.2 L196.0,577.8 L197.9,576.4 L199.7,574.9 L201.6,573.5
		L203.4,572.0 L205.3,570.5 L207.2,569.0 L209.0,567.4 L210.9,565.9 L212.7,564.3 L214.6,562.8 L216.4,561.2
		L218.3,559.6 L220.1,558.0 L222.0,556.5 L223.8,554.9 L225.7,553.3 L227.5,551.7 L229.4,550.0 L231.3,548.4
		L233.1,546.8 L235.0,545.2 L236.8,543.5 L238.7,541.9 L240.5,540.2 L242.4,538.5 L244.2,536.8 L246.1,535.1
		L247.9,533.3 L249.8,531.5 L251.6,529.7 L253.5,527.9 L255.4,526.1 L257.2,524.2 L259.1,522.3 L260.9,520.4
		L262.8,518.5 L264.6,516.6 L266.5,514.6 L268.3,512.6 L270.2,510.6 L272.0,508.6 L273.9,506.5 L275.7,504.5
		L277.6,502.4 L279.5,500.3 L281.3,498.2 L283.2,496.1 L285.0,494.0 L286.9,491.9 L288.7,489.8 L290.6,487.6
		L292.4,485.5 L294.3,483.3 L296.1,481.2 L298.0,479.0 L299.8,476.8 L301.7,474.6 L303.6,472.4 L305.4,470.2
		L307.3,467.9 L309.1,465.6 L311.0,463.3 L312.8,461.0 L314.7,458.7 L316.5,456.3 L318.4,453.9 L320.2,451.5
		L322.1,449.1 L323.9,446.6 L325.8,444.1 L327.7,441.7 L329.5,439.2 L331.4,436.7 L333.2,434.3 L335.1,431.8
		L336.9,429.3 L338.8,426.9 L340.6,424.5 L342.5,422.0 L344.3,419.6 L346.2,417.2 L348.0,414.7 L349.9,412.3
		L351.8,409.8 L353.6,407.4 L355.5,404.8 L357.3,402.3 L359.2,399.7 L361.0,397.1 L362.9,394.3 L364.7,391.6
		L366.6,388.8 L368.4,385.9 L370.3,382.9 L372.1,379.9 L374.0,376.8 L375.9,373.7 L377.7,370.5 L379.6,367.2
		L381.4,363.9 L383.3,360.6 L385.1,357.3 L387.0,354.0 L388.8,350.6 L390.7,347.3 L392.5,343.9 L394.4,340.6
		L396.2,337.4 L398.1,334.1 L400.0,330.9 L401.8,327.8 L403.7,324.7 L405.5,321.6 L407.4,318.6 L409.2,315.7
		L411.1,312.8 L412.9,309.9 L414.8,307.1 L416.6,304.3 L418.5,301.5 L420.3,298.8 L422.2,296.1 L424.1,293.4
		L425.9,290.7 L427.8,288.0 L429.6,285.3 L431.5,282.6 L433.3,279.8 L435.2,277.1 L437.0,274.4 L438.9,271.7
		L440.7,269.0 L442.6,266.3 L444.5,263.6 L446.3,260.9 L448.2,258.3 L450.0,255.6 L451.9,253.0 L453.7,250.4
		L455.6,247.8 L457.4,245.2 L459.3,242.7 L461.1,240.1 L463.0,237.6 L464.8,235.1 L466.7,232.5 L468.6,229.9
		L470.4,227.4 L472.3,224.8 L474.1,222.2 L476.0,219.5 L477.8,216.8 L479.7,214.1 L481.5,211.4 L483.4,208.6
		L485.2,205.8 L487.1,203.0 L488.9,200.1 L490.8,197.2 L492.7,194.4 L494.5,191.5 L496.4,188.6 L498.2,185.7
		L500.1,182.8 L501.9,179.9 L503.8,177.1 L505.6,174.3 L507.5,171.5 L509.3,168.8 L511.2,166.1 L513.0,163.5
		L514.9,161.0 L516.8,158.6 L518.6,156.3 L520.5,154.1 L522.3,152.0 L524.2,150.0 L526.0,148.2 L527.9,146.5
		L529.7,145.0 L531.6,143.6 L533.4,142.4 L535.3,141.4 L537.1,140.4 L539.0,139.7 L540.9,139.0 L542.7,138.5
		L544.6,138.0 L546.4,137.6 L548.3,137.3 L550.1,137.0 L552.0,136.8 L553.8,136.5 L555.7,136.3 L557.5,136.0
		L559.4,135.7 L561.2,135.3 L563.1,134.9 L565.0,134.5 L566.8,133.9 L568.7,133.4 L570.5,132.8 L572.4,132.1
		L574.2,131.4 L576.1,130.7 L577.9,129.9 L579.8,129.2 L581.6,128.4 L583.5,127.6 L585.3,126.8 L587.2,126.0
		L589.1,125.3 L590.9,124.5 L592.8,123.8 L594.6,123.1 L596.5,122.4 L598.3,121.7 L600.2,121.1 L602.0,120.5
		L603.9,119.9 L605.7,119.4 L607.6,118.9 L609.4,118.4 L611.3,118.1 L613.2,117.7 L615.0,117.5 L616.9,117.4
		L618.7,117.3 L620.6,117.4 L622.4,117.5 L624.3,117.8 L626.1,118.2 L628.0,118.7 L629.8,119.3 L631.7,120.1
		L633.5,121.0 L635.4,122.0 L637.3,123.1 L639.1,124.3 L641.0,125.6 L642.8,127.0 L644.7,128.5 L646.5,130.0
		L648.4,131.6 L650.2,133.2 L652.1,134.9 L653.9,136.5 L655.8,138.2 L657.6,139.8 L659.5,141.4 L661.4,142.9
		L663.2,144.4 L665.1,145.9 L666.9,147.3 L668.8,148.6 L670.6,149.9 L672.5,151.1 L674.3,152.3 L676.2,153.4
		L678.0,154.5 L679.9,155.6 L681.8,156.6 L683.6,157.7 L685.5,158.8 L687.3,160.0 L689.2,161.3 L691.0,162.6
		L692.9,164.0 L694.7,165.5 L696.6,167.2 L698.4,168.9 L700.3,170.8 L702.1,172.9 L704.0,175.1 L705.9,177.4
		L707.7,179.8 L709.6,182.4 L711.4,185.1 L713.3,187.8 L715.1,190.7 L717.0,193.7 L718.8,196.7 L720.7,199.7
		L722.5,202.9 L724.4,206.0 L726.2,209.1 L728.1,212.3 L730.0,215.5 L731.8,218.7 L733.7,221.8 L735.5,225.0
		L737.4,228.2 L739.2,231.4 L741.1,234.6 L742.9,237.8 L744.8,241.0 L746.6,244.3 L748.5,247.5 L750.3,250.8
		L752.2,254.2 L754.1,257.6 L755.9,261.0 L757.8,264.5 L759.6,268.0 L761.5,271.5 L763.3,275.2 L765.2,278.8
		L767.0,282.5 L768.9,286.2 L770.7,289.9 L772.6,293.6 L774.4,297.3 L776.3,301.1 L778.2,304.8 L780.0,308.6
		L781.9,312.3 L783.7,316.0 L785.6,319.7 L787.4,323.4 L789.3,327.1 L791.1,330.7 L793.0,334.3 L794.8,337.9
		L796.7,341.4 L798.5,345.0 L800.4,348.5 L802.3,352.0 L804.1,355.4 L806.0,358.9 L807.8,362.3 L809.7,365.7
		L811.5,369.1 L813.4,372.5 L815.2,375.8 L817.1,379.1 L818.9,382.4 L820.8,385.7 L822.6,389.0 L824.5,392.2
		L826.4,395.4 L828.2,398.5 L830.1,401.7 L831.9,404.8 L833.8,407.9 L835.6,410.9 L837.5,414.0 L839.3,417.0
		L841.2,420.0 L843.0,422.9 L844.9,425.9 L846.7,428.8 L848.6,431.7 L850.5,434.7 L852.3,437.6 L854.2,440.5
		L856.0,443.5 L857.9,446.4 L859.7,449.4 L861.6,452.4 L863.4,455.4 L865.3,458.5 L867.1,461.5 L869.0,464.6
		L870.8,467.7 L872.7,470.8 L874.6,473.9 L876.4,477.0 L878.3,480.2 L880.1,483.3 L882.0,486.5 L883.8,489.6
		L885.7,492.7 L887.5,495.8 L889.4,498.9 L891.2,501.9 L893.1,505.0 L894.9,508.0 L896.8,511.0 L898.7,513.9
		L900.5,516.8 L902.4,519.7 L904.2,522.6 L906.1,525.4 L907.9,528.2 L909.8,531.0 L911.6,533.7 L913.5,536.4
		L915.3,539.0 L917.2,541.6 L919.1,544.2 L920.9,546.7 L922.8,549.2 L924.6,551.7 L926.5,554.1 L928.3,556.4
		L930.2,558.7 L932.0,561.0 L933.9,563.2 L935.7,565.4 L937.6,567.5 L939.4,569.6 L941.3,571.7 L943.2,573.7
		L945.0,575.7 L946.9,577.7 L948.7,579.6 L950.6,581.5 L952.4,583.4 L954.3,585.3 L956.1,587.1 L958.0,589.0
		L959.8,590.8 L961.7,592.5 L963.5,594.3 L965.4,596.0 L967.3,597.7 L969.1,599.4 L971.0,601.1 L972.8,602.7
		L974.7,604.3 L976.5,605.8 L978.4,607.3 L980.2,608.8 L982.1,610.3 L983.9,611.7 L985.8,613.1 L987.6,614.5
		L989.5,615.8 L991.4,617.1 L993.2,618.4 L995.1,619.6 L996.9,620.8 L998.8,622.0 L1000.6,623.1 L1002.5,624.3
		L1004.3,625.4 L1006.2,626.4 L1008.0,627.5 L1009.9,628.5 L1011.7,629.5 L1013.6,630.4  '/></g>
	</g>
	<g id="gnuplot_plot_2" ><title>Confidence interval</title>
<g fill="none" color="white" stroke="rgb( 31, 120, 180)" stroke-width="1.00" stroke-linecap="butt" stroke-linejoin="miter">
</g>
<g fill="none" color="black" stroke="currentColor" stroke-width="1.00" stroke-linecap="butt" stroke-linejoin="miter">
	<g transform="translate(1089.0,85.0)" stroke="none" fill="black" font-family="Helvetica" font-size="12.00"  text-anchor="start">
		<text><tspan font-family="Helvetica" >Confidence interval</tspan></text>
	</g>
</g>
<g fill="none" color="black" stroke="currentColor" stroke-width="1.00" stroke-linecap="butt" stroke-linejoin="miter">
	<g stroke='none' shape-rendering='crispEdges'>
		<polygon fill = 'rgb( 31, 120, 180)' fill-opacity = '0.250000' points = '1038.5,85.6 1080.7,85.6 1080.7,76.6 1038.5,76.6 '/>
		<polygon fill = 'rgb( 31, 120, 180)' fill-opacity = '0.250000' points = '173.8,592.9 175.6,591.7 177.5,590.6 179.3,589.4 181.2,588.2 183.0,587.0 184.9,585.7 186.8,584.5 188.6,583.2 190.5,581.9 192.3,580.5 194.2,579.2 196.0,577.8 197.9,576.4 199.7,574.9 201.6,573.5
203.4,572.0 205.3,570.5 207.2,569.0 209.0,567.4 210.9,565.9 212.7,564.3 214.6,562.8 216.4,561.2 218.3,559.6 220.1,558.0 222.0,556.5 223.8,554.9 225.7,553.3 227.5,551.7 229.4,550.0 231.3,548.4
233.1,546.8 235.0,545.2 236.8,543.5 238.7,541.9 240.5,540.2 242.4,538.5 244.2,536.8 246.1,535.1 247.9,533.3 249.8,531.5 251.6,529.7 253.5,527.9 255.4,526.1 257.2,524.2 259.1,522.3 260.9,520.4
262.8,518.5 264.6,516.6 266.5,514.6 268.3,512.6 270.2,510.6 272.0,508.6 273.9,506.5 275.7,504.5 277.6,502.4 279.5,500.3 281.3,498.2 283.2,496.1 285.0,494.0 286.9,491.9 288.7,489.8 290.6,487.6
292.4,485.5 294.3,483.3 296.1,481.2 298.0,479.0 299.8,476.8 301.7,474.6 303.6,472.4 305.4,470.2 307.3,467.9 309.1,465.6 311.0,463.3 312.8,461.0 314.7,458.7 316.5,456.3 318.4,453.9 320.2,451.5
322.1,449.1 323.9,446.6 325.8,444.1 327.7,441.7 329.5,439.2 331.4,436.7 333.2,434.3 335.1,431.8 336.9,429.3 338.8,426.9 340.6,424.5 342.5,422.0 344.3,419.6 346.2,417.2 348.0,414.7 349.9,412.3
351.8,409.8 353.6,407.4 355.5,404.8 357.3,402.3 359.2,399.7 361.0,397.1 362.9,394.3 364.7,391.6 366.6,388.8 368.4,385.9 370.3,382.9 372.1,379.9 374.0,376.8 375.9,373.7 377.7,370.5 379.6,367.2
381.4,363.9 383.3,360.6 385.1,357.3 387.0,354.0 388.8,350.6 390.7,347.3 392.5,343.9 394.4,340.6 396.2,337.4 398.1,334.1 400.0,330.9 401.8,327.8 403.7,324.7 405.5,321.6 407.4,318.6 409.2,315.7
411.1,312.8 412.9,309.9 414.8,307.1 416.6,304.3 418.5,301.5 420.3,298.8 422.2,296.1 424.1,293.4 425.9,290.7 427.8,288.0 429.6,285.3 431.5,282.6 433.3,279.8 435.2,277.1 437.0,274.4 438.9,271.7
440.7,269.0 442.6,266.3 444.5,263.6 446.3,260.9 448.2,258.3 450.0,255.6 451.9,253.0 453.7,250.4 455.6,247.8 457.4,245.2 459.3,242.7 461.1,240.1 463.0,237.6 464.8,235.1 466.7,232.5 468.6,229.9
470.4,227.4 472.3,224.8 474.1,222.2 476.0,219.5 477.8,216.8 479.7,214.1 481.5,211.4 483.4,208.6 485.2,205.8 487.1,203.0 488.9,200.1 490.8,197.2 492.7,194.4 494.5,191.5 496.4,188.6 498.2,185.7
500.1,182.8 501.9,179.9 503.8,177.1 505.6,174.3 507.5,171.5 509.3,168.8 511.2,166.1 513.0,163.5 514.9,161.0 516.8,158.6 518.6,156.3 520.5,154.1 522.3,152.0 524.2,150.0 526.0,148.2 527.9,146.5
529.7,145.0 531.6,143.6 533.4,142.4 535.3,141.4 537.1,140.4 539.0,139.7 540.9,139.0 542.7,138.5 544.6,138.0 546.4,137.6 548.3,137.3 550.1,137.0 552.0,136.8 553.8,136.5 555.7,136.3 557.5,136.0
559.4,135.7 561.2,135.3 563.1,134.9 565.0,134.5 566.8,133.9 568.7,133.4 570.5,132.8 572.4,132.1 574.2,131.4 576.1,130.7 577.9,129.9 579.8,129.2 581.6,128.4 583.5,127.6 585.3,126.8 587.2,126.0
589.1,125.3 590.9,124.5 592.8,123.8 594.6,123.1 596.5,122.4 598.3,121.7 600.2,121.1 602.0,120.5 603.9,119.9 605.7,119.4 607.6,118.9 609.4,118.4 611.3,118.1 613.2,117.7 615.0,117.5 616.9,117.4
618.7,117.3 620.6,117.4 622.4,117.5 624.3,117.8 626.1,118.2 628.0,118.7 629.8,119.3 631.7,120.1 633.5,121.0 635.4,122.0 637.3,123.1 639.1,124.3 641.0,125.6 642.8,127.0 644.7,128.5 646.5,130.0
648.4,131.6 650.2,133.2 652.1,134.9 653.9,136.5 655.8,138.2 657.6,139.8 659.5,141.4 661.4,142.9 663.2,144.4 665.1,145.9 666.9,147.3 668.8,148.6 670.6,149.9 672.5,151.1 674.3,152.3 676.2,153.4
678.0,154.5 679.9,155.6 681.8,156.6 683.6,157.7 685.5,158.8 687.3,160.0 689.2,161.3 691.0,162.6 692.9,164.0 694.7,165.5 696.6,167.2 698.4,168.9 700.3,170.8 702.1,172.9 704.0,175.1 705.9,177.4
707.7,179.8 709.6,182.4 711.4,185.1 713.3,187.8 715.1,190.7 717.0,193.7 718.8,196.7 720.7,199.7 722.5,202.9 724.4,206.0 726.2,209.1 728.1,212.3 730.0,215.5 731.8,218.7 733.7,221.8 735.5,225.0
737.4,228.2 739.2,231.4 741.1,234.6 742.9,237.8 744.8,241.0 746.6,244.3 748.5,247.5 750.3,250.8 752.2,254.2 754.1,257.6 755.9,261.0 757.8,264.5 759.6,268.0 761.5,271.5 763.3,275.2 765.2,278.8
767.0,282.5 768.9,286.2 770.7,289.9 772.6,293.6 774.4,297.3 776.3,301.1 778.2,304.8 780.0,308.6 781.9,312.3 783.7,316.0 785.6,319.7 787.4,323.4 789.3,327.1 791.1,330.7 793.0,334.3 794.8,337.9
796.7,341.4 798.5,345.0 800.4,348.5 802.3,352.0 804.1,355.4 806.0,358.9 807.8,362.3 809.7,365.7 811.5,369.1 813.4,372.5 815.2,375.8 817.1,379.1 818.9,382.4 820.8,385.7 822.6,389.0 824.5,392.2
826.4,395.4 828.2,398.5 830.1,401.7 831.9,404.8 833.8,407.9 835.6,410.9 837.5,414.0 839.3,417.0 841.2,420.0 843.0,422.9 844.9,425.9 846.7,428.8 848.6,431.7 850.5,434.7 852.3,437.6 854.2,440.5
856.0,443.5 857.9,446.4 859.7,449.4 861.6,452.4 863.4,455.4 865.3,458.5 867.1,461.5 869.0,464.6 870.8,467.7 872.7,470.8 874.6,473.9 876.4,477.0 878.3,480.2 880.1,483.3 882.0,486.5 883.8,489.6
885.7,492.7 887.5,495.8 889.4,498.9 891.2,501.9 893.1,505.0 894.9,508.0 896.8,511.0 898.7,513.9 900.5,516.8 902.4,519.7 904.2,522.6 906.1,525.4 907.9,528.2 909.8,531.0 911.6,533.7 913.5,536.4
915.3,539.0 917.2,541.6 919.1,544.2 920.9,546.7 922.8,549.2 924.6,551.7 926.5,554.1 926.5,662.4 924.6,662.4 922.8,662.4 920.9,662.4 919.1,662.4 917.2,662.4 915.3,662.4 913.5,662.4 911.6,662.4
909.8,662.4 907.9,662.4 906.1,662.4 904.2,662.4 902.4,662.4 900.5,662.4 898.7,662.4 896.8,662.4 894.9,662.4 893.1,662.4 891.2,662.4 889.4,662.4 887.5,662.4 885.7,662.4 883.8,662.4 882.0,662.4
880.1,662.4 878.3,662.4 876.4,662.4 874.6,662.4 872.7,662.4 870.8,662.4 869.0,662.4 867.1,662.4 865.3,662.4 863.4,662.4 861.6,662.4 859.7,662.4 857.9,662.4 856.0,662.4 854.2,662.4 852.3,662.4
850.5,662.4 848.6,662.4 846.7,662.4 844.9,662.4 843.0,662.4 841.2,662.4 839.3,662.4 837.5,662.4 835.6,662.4 833.8,662.4 831.9,662.4 830.1,662.4 828.2,662.4 826.4,662.4 824.5,662.4 822.6,662.4
820.8,662.4 818.9,662.4 817.1,662.4 815.2,662.4 813.4,662.4 811.5,662.4 809.7,662.4 807.8,662.4 806.0,662.4 804.1,662.4 802.3,662.4 800.4,662.4 798.5,662.4 796.7,662.4 794.8,662.4 793.0,662.4
791.1,662.4 789.3,662.4 787.4,662.4 785.6,662.4 783.7,662.4 781.9,662.4 780.0,662.4 778.2,662.4 776.3,662.4 774.4,662.4 772.6,662.4 770.7,662.4 768.9,662.4 767.0,662.4 765.2,662.4 763.3,662.4
761.5,662.4 759.6,662.4 757.8,662.4 755.9,662.4 754.1,662.4 752.2,662.4 750.3,662.4 748.5,662.4 746.6,662.4 744.8,662.4 742.9,662.4 741.1,662.4 739.2,662.4 737.4,662.4 735.5,662.4 733.7,662.4
731.8,662.4 730.0,662.4 728.1,662.4 726.2,662.4 724.4,662.4 722.5,662.4 720.7,662.4 718.8,662.4 717.0,662.4 715.1,662.4 713.3,662.4 711.4,662.4 709.6,662.4 707.7,662.4 705.9,662.4 704.0,662.4
702.1,662.4 700.3,662.4 698.4,662.4 696.6,662.4 694.7,662.4 692.9,662.4 691.0,662.4 689.2,662.4 687.3,662.4 685.5,662.4 683.6,662.4 681.8,662.4 679.9,662.4 678.0,662.4 676.2,662.4 674.3,662.4
672.5,662.4 670.6,662.4 668.8,662.4 666.9,662.4 665.1,662.4 663.2,662.4 661.4,662.4 659.5,662.4 657.6,662.4 655.8,662.4 653.9,662.4 652.1,662.4 650.2,662.4 648.4,662.4 646.5,662.4 644.7,662.4
642.8,662.4 641.0,662.4 639.1,662.4 637.3,662.4 635.4,662.4 633.5,662.4 631.7,662.4 629.8,662.4 628.0,662.4 626.1,662.4 624.3,662.4 622.4,662.4 620.6,662.4 618.7,662.4 616.9,662.4 615.0,662.4
613.2,662.4 611.3,662.4 609.4,662.4 607.6,662.4 605.7,662.4 603.9,662.4 602.0,662.4 600.2,662.4 598.3,662.4 596.5,662.4 594.6,662.4 592.8,662.4 590.9,662.4 589.1,662.4 587.2,662.4 585.3,662.4
583.5,662.4 581.6,662.4 579.8,662.4 577.9,662.4 576.1,662.4 574.2,662.4 572.4,662.4 570.5,662.4 568.7,662.4 566.8,662.4 565.0,662.4 563.1,662.4 561.2,662.4 559.4,662.4 557.5,662.4 555.7,662.4
553.8,662.4 552.0,662.4 550.1,662.4 548.3,662.4 546.4,662.4 544.6,662.4 542.7,662.4 540.9,662.4 539.0,662.4 537.1,662.4 535.3,662.4 533.4,662.4 531.6,662.4 529.7,662.4 527.9,662.4 526.0,662.4
524.2,662.4 522.3,662.4 520.5,662.4 518.6,662.4 516.8,662.4 514.9,662.4 513.0,662.4 511.2,662.4 509.3,662.4 507.5,662.4 505.6,662.4 503.8,662.4 501.9,662.4 500.1,662.4 498.2,662.4 496.4,662.4
494.5,662.4 492.7,662.4 490.8,662.4 488.9,662.4 487.1,662.4 485.2,662.4 483.4,662.4 481.5,662.4 479.7,662.4 477.8,662.4 476.0,662.4 474.1,662.4 472.3,662.4 470.4,662.4 468.6,662.4 466.7,662.4
464.8,662.4 463.0,662.4 461.1,662.4 459.3,662.4 457.4,662.4 455.6,662.4 453.7,662.4 451.9,662.4 450.0,662.4 448.2,662.4 446.3,662.4 444.5,662.4 442.6,662.4 440.7,662.4 438.9,662.4 437.0,662.4
435.2,662.4 433.3,662.4 431.5,662.4 429.6,662.4 427.8,662.4 425.9,662.4 424.1,662.4 422.2,662.4 420.3,662.4 418.5,662.4 416.6,662.4 414.8,662.4 412.9,662.4 411.1,662.4 409.2,662.4 407.4,662.4
405.5,662.4 403.7,662.4 401.8,662.4 400.0,662.4 398.1,662.4 396.2,662.4 394.4,662.4 392.5,662.4 390.7,662.4 388.8,662.4 387.0,662.4 385.1,662.4 383.3,662.4 381.4,662.4 379.6,662.4 377.7,662.4
375.9,662.4 374.0,662.4 372.1,662.4 370.3,662.4 368.4,662.4 366.6,662.4 364.7,662.4 362.9,662.4 361.0,662.4 359.2,662.4 357.3,662.4 355.5,662.4 353.6,662.4 351.8,662.4 349.9,662.4 348.0,662.4
346.2,662.4 344.3,662.4 342.5,662.4 340.6,662.4 338.8,662.4 336.9,662.4 335.1,662.4 333.2,662.4 331.4,662.4 329.5,662.4 327.7,662.4 325.8,662.4 323.9,662.4 322.1,662.4 320.2,662.4 318.4,662.4
316.5,662.4 314.7,662.4 312.8,662.4 311.0,662.4 309.1,662.4 307.3,662.4 305.4,662.4 303.6,662.4 301.7,662.4 299.8,662.4 298.0,662.4 296.1,662.4 294.3,662.4 292.4,662.4 290.6,662.4 288.7,662.4
286.9,662.4 285.0,662.4 283.2,662.4 281.3,662.4 279.5,662.4 277.6,662.4 275.7,662.4 273.9,662.4 272.0,662.4 270.2,662.4 268.3,662.4 266.5,662.4 264.6,662.4 262.8,662.4 260.9,662.4 259.1,662.4
257.2,662.4 255.4,662.4 253.5,662.4 251.6,662.4 249.8,662.4 247.9,662.4 246.1,662.4 244.2,662.4 242.4,662.4 240.5,662.4 238.7,662.4 236.8,662.4 235.0,662.4 233.1,662.4 231.3,662.4 229.4,662.4
227.5,662.4 225.7,662.4 223.8,662.4 222.0,662.4 220.1,662.4 218.3,662.4 216.4,662.4 214.6,662.4 212.7,662.4 210.9,662.4 209.0,662.4 207.2,662.4 205.3,662.4 203.4,662.4 201.6,662.4 199.7,662.4
197.9,662.4 196.0,662.4 194.2,662.4 192.3,662.4 190.5,662.4 188.6,662.4 186.8,662.4 184.9,662.4 183.0,662.4 181.2,662.4 179.3,662.4 177.5,662.4 175.6,662.4 173.8,662.4 '/>
	</g>
</g>
	</g>
	<g id="gnuplot_plot_3" ><title>Point estimate</title>
<g fill="none" color="white" stroke="rgb( 31, 120, 180)" stroke-width="2.00" stroke-linecap="butt" stroke-linejoin="miter">
</g>
<g fill="none" color="black" stroke="currentColor" stroke-width="2.00" stroke-linecap="butt" stroke-linejoin="miter">
	<g transform="translate(1089.0,103.0)" stroke="none" fill="black" font-family="Helvetica" font-size="12.00"  text-anchor="start">
		<text><tspan font-family="Helvetica" >Point estimate</tspan></text>
	</g>
</g>
<g fill="none" color="black" stroke="currentColor" stroke-width="2.00" stroke-linecap="butt" stroke-linejoin="miter">
	<path stroke='rgb( 31, 120, 180)'  d='M1038.5,99.1 L1080.7,99.1 M578.1,662.4 L578.1,129.9  '/></g>
	</g>
<g fill="none" color="black" stroke="currentColor" stroke-width="2.00" stroke-linecap="butt" stroke-linejoin="miter">
</g>
<g fill="none" color="black" stroke="black" stroke-width="1.00" stroke-linecap="butt" stroke-linejoin="miter">
</g>
<g fill="none" color="black" stroke="currentColor" stroke-width="1.00" stroke-linecap="butt" stroke-linejoin="miter">
	<path stroke='black'  d='M88.5,54.1 L88.5,662.4 L1013.6,662.4 L1013.6,54.1 L88.5,54.1 Z  '/></g>
<g fill="none" color="black" stroke="currentColor" stroke-width="1.00" stroke-linecap="butt" stroke-linejoin="miter">
</g>
</g>
</svg>

