<?xml version="1.0" encoding="utf-8"  standalone="no"?>
<svg 
 viewBox="0 0 1280 720"
 xmlns="http://www.w3.org/2000/svg"
 xmlns:xlink="http://www.w3.org/1999/xlink"
>

<title>Gnuplot</title>
<desc>Produced by GNUPLOT 5.2 patchlevel 2 </desc>

<g id="gnuplot_canvas">

<rect x="0" y="0" width="1280" height="720" fill="none"/>
<defs>

	<circle id='gpDot' r='0.5' stroke-width='0.5'/>
	<path id='gpPt0' stroke-width='0.222' stroke='currentColor' d='M-1,0 h2 M0,-1 v2'/>
	<path id='gpPt1' stroke-width='0.222' stroke='currentColor' d='M-1,-1 L1,1 M1,-1 L-1,1'/>
	<path id='gpPt2' stroke-width='0.222' stroke='currentColor' d='M-1,0 L1,0 M0,-1 L0,1 M-1,-1 L1,1 M-1,1 L1,-1'/>
	<rect id='gpPt3' stroke-width='0.222' stroke='currentColor' x='-1' y='-1' width='2' height='2'/>
	<rect id='gpPt4' stroke-width='0.222' stroke='currentColor' fill='currentColor' x='-1' y='-1' width='2' height='2'/>
	<circle id='gpPt5' stroke-width='0.222' stroke='currentColor' cx='0' cy='0' r='1'/>
	<use xlink:href='#gpPt5' id='gpPt6' fill='currentColor' stroke='none'/>
	<path id='gpPt7' stroke-width='0.222' stroke='currentColor' d='M0,-1.33 L-1.33,0.67 L1.33,0.67 z'/>
	<use xlink:href='#gpPt7' id='gpPt8' fill='currentColor' stroke='none'/>
	<use xlink:href='#gpPt7' id='gpPt9' stroke='currentColor' transform='rotate(180)'/>
	<use xlink:href='#gpPt9' id='gpPt10' fill='currentColor' stroke='none'/>
	<use xlink:href='#gpPt3' id='gpPt11' stroke='currentColor' transform='rotate(45)'/>
	<use xlink:href='#gpPt11' id='gpPt12' fill='currentColor' stroke='none'/>
	<path id='gpPt13' stroke-width='0.222' stroke='currentColor' d='M0,1.330 L1.265,0.411 L0.782,-1.067 L-0.782,-1.076 L-1.265,0.411 z'/>
	<use xlink:href='#gpPt13' id='gpPt14' fill='currentColor' stroke='none'/>
	<filter id='textbox' filterUnits='objectBoundingBox' x='0' y='0' height='1' width='1'>
	  <feFlood flood-color='white' flood-opacity='1' result='bgnd'/>
	  <feComposite in='SourceGraphic' in2='bgnd' operator='atop'/>
	</filter>
	<filter id='greybox' filterUnits='objectBoundingBox' x='0' y='0' height='1' width='1'>
	  <feFlood flood-color='lightgrey' flood-opacity='1' result='grey'/>
	  <feComposite in='SourceGraphic' in2='grey' operator='atop'/>
	</filter>
</defs>
<g fill="none" color="white" stroke="currentColor" stroke-width="1.00" stroke-linecap="butt" stroke-linejoin="miter">
</g>
<g fill="none" color="black" stroke="currentColor" stroke-width="1.00" stroke-linecap="butt" stroke-linejoin="miter">
	<path stroke='black'  d='M80.2,662.4 L89.2,662.4  '/>	<g transform="translate(71.9,666.3)" stroke="none" fill="black" font-family="Helvetica" font-size="12.00"  text-anchor="end">
		<text><tspan font-family="Helvetica" > 0</tspan></text>
	</g>
</g>
<g fill="none" color="black" stroke="currentColor" stroke-width="1.00" stroke-linecap="butt" stroke-linejoin="miter">
	<path stroke='black'  d='M80.2,575.5 L89.2,575.5  '/>	<g transform="translate(71.9,579.4)" stroke="none" fill="black" font-family="Helvetica" font-size="12.00"  text-anchor="end">
		<text><tspan font-family="Helvetica" > 0.01</tspan></text>
	</g>
</g>
<g fill="none" color="black" stroke="currentColor" stroke-width="1.00" stroke-linecap="butt" stroke-linejoin="miter">
	<path stroke='black'  d='M80.2,488.6 L89.2,488.6  '/>	<g transform="translate(71.9,492.5)" stroke="none" fill="black" font-family="Helvetica" font-size="12.00"  text-anchor="end">
		<text><tspan font-family="Helvetica" > 0.02</tspan></text>
	</g>
</g>
<g fill="none" color="black" stroke="currentColor" stroke-width="1.00" stroke-linecap="butt" stroke-linejoin="miter">
	<path stroke='black'  d='M80.2,401.7 L89.2,401.7  '/>	<g transform="translate(71.9,405.6)" stroke="none" fill="black" font-family="Helvetica" font-size="12.00"  text-anchor="end">
		<text><tspan font-family="Helvetica" > 0.03</tspan></text>
	</g>
</g>
<g fill="none" color="black" stroke="currentColor" stroke-width="1.00" stroke-linecap="butt" stroke-linejoin="miter">
	<path stroke='black'  d='M80.2,314.8 L89.2,314.8  '/>	<g transform="translate(71.9,318.7)" stroke="none" fill="black" font-family="Helvetica" font-size="12.00"  text-anchor="end">
		<text><tspan font-family="Helvetica" > 0.04</tspan></text>
	</g>
</g>
<g fill="none" color="black" stroke="currentColor" stroke-width="1.00" stroke-linecap="butt" stroke-linejoin="miter">
	<path stroke='black'  d='M80.2,227.9 L89.2,227.9  '/>	<g transform="translate(71.9,231.8)" stroke="none" fill="black" font-family="Helvetica" font-size="12.00"  text-anchor="end">
		<text><tspan font-family="Helvetica" > 0.05</tspan></text>
	</g>
</g>
<g fill="none" color="black" stroke="currentColor" stroke-width="1.00" stroke-linecap="butt" stroke-linejoin="miter">
	<path stroke='black'  d='M80.2,141.0 L89.2,141.0  '/>	<g transform="translate(71.9,144.9)" stroke="none" fill="black" font-family="Helvetica" font-size="12.00"  text-anchor="end">
		<text><tspan font-family="Helvetica" > 0.06</tspan></text>
	</g>
</g>
<g fill="none" color="black" stroke="currentColor" stroke-width="1.00" stroke-linecap="butt" stroke-linejoin="miter">
	<path stroke='black'  d='M80.2,54.1 L89.2,54.1  '/>	<g transform="translate(71.9,58.0)" stroke="none" fill="black" font-family="Helvetica" font-size="12.00"  text-anchor="end">
		<text><tspan font-family="Helvetica" > 0.07</tspan></text>
	</g>
</g>
<g fill="none" color="black" stroke="currentColor" stroke-width="1.00" stroke-linecap="butt" stroke-linejoin="miter">
	<path stroke='black'  d='M162.7,662.4 L162.7,653.4  '/>	<g transform="translate(162.7,684.3)" stroke="none" fill="black" font-family="Helvetica" font-size="12.00"  text-anchor="middle">
		<text><tspan font-family="Helvetica" > 3540</tspan></text>
	</g>
</g>
<g fill="none" color="black" stroke="currentColor" stroke-width="1.00" stroke-linecap="butt" stroke-linejoin="miter">
	<path stroke='black'  d='M298.6,662.4 L298.6,653.4  '/>	<g transform="translate(298.6,684.3)" stroke="none" fill="black" font-family="Helvetica" font-size="12.00"  text-anchor="middle">
		<text><tspan font-family="Helvetica" > 3550</tspan></text>
	</g>
</g>
<g fill="none" color="black" stroke="currentColor" stroke-width="1.00" stroke-linecap="butt" stroke-linejoin="miter">
	<path stroke='black'  d='M434.6,662.4 L434.6,653.4  '/>	<g transform="translate(434.6,684.3)" stroke="none" fill="black" font-family="Helvetica" font-size="12.00"  text-anchor="middle">
		<text><tspan font-family="Helvetica" > 3560</tspan></text>
	</g>
</g>
<g fill="none" color="black" stroke="currentColor" stroke-width="1.00" stroke-linecap="butt" stroke-linejoin="miter">
	<path stroke='black'  d='M570.5,662.4 L570.5,653.4  '/>	<g transform="translate(570.5,684.3)" stroke="none" fill="black" font-family="Helvetica" font-size="12.00"  text-anchor="middle">
		<text><tspan font-family="Helvetica" > 3570</tspan></text>
	</g>
</g>
<g fill="none" color="black" stroke="currentColor" stroke-width="1.00" stroke-linecap="butt" stroke-linejoin="miter">
	<path stroke='black'  d='M706.4,662.4 L706.4,653.4  '/>	<g transform="translate(706.4,684.3)" stroke="none" fill="black" font-family="Helvetica" font-size="12.00"  text-anchor="middle">
		<text><tspan font-family="Helvetica" > 3580</tspan></text>
	</g>
</g>
<g fill="none" color="black" stroke="currentColor" stroke-width="1.00" stroke-linecap="butt" stroke-linejoin="miter">
	<path stroke='black'  d='M842.3,662.4 L842.3,653.4  '/>	<g transform="translate(842.3,684.3)" stroke="none" fill="black" font-family="Helvetica" font-size="12.00"  text-anchor="middle">
		<text><tspan font-family="Helvetica" > 3590</tspan></text>
	</g>
</g>
<g fill="none" color="black" stroke="currentColor" stroke-width="1.00" stroke-linecap="butt" stroke-linejoin="miter">
	<path stroke='black'  d='M978.2,662.4 L978.2,653.4  '/>	<g transform="translate(978.2,684.3)" stroke="none" fill="black" font-family="Helvetica" font-size="12.00"  text-anchor="middle">
		<text><tspan font-family="Helvetica" > 3600</tspan></text>
	</g>
</g>
<g fill="none" color="black" stroke="currentColor" stroke-width="1.00" stroke-linecap="butt" stroke-linejoin="miter">
</g>
<g fill="none" color="black" stroke="currentColor" stroke-width="1.00" stroke-linecap="butt" stroke-linejoin="miter">
	<path stroke='black'  d='M80.2,54.1 L80.2,662.4 L1013.6,662.4 L1013.6,54.1 L80.2,54.1 Z  '/></g>
<g fill="none" color="black" stroke="currentColor" stroke-width="1.00" stroke-linecap="butt" stroke-linejoin="miter">
	<g transform="translate(16.3,358.3) rotate(270)" stroke="none" fill="black" font-family="Helvetica" font-size="12.00"  text-anchor="middle">
		<text><tspan font-family="Helvetica" >Density (a.u.)</tspan></text>
	</g>
</g>
<g fill="none" color="black" stroke="currentColor" stroke-width="1.00" stroke-linecap="butt" stroke-linejoin="miter">
	<g transform="translate(546.9,711.3)" stroke="none" fill="black" font-family="Helvetica" font-size="12.00"  text-anchor="middle">
		<text><tspan font-family="Helvetica" >Average time (cycles)</tspan></text>
	</g>
</g>
<g fill="none" color="black" stroke="currentColor" stroke-width="1.00" stroke-linecap="butt" stroke-linejoin="miter">
	<g transform="translate(546.9,31.0)" stroke="none" fill="black" font-family="Helvetica" font-size="12.00"  text-anchor="middle">
		<text><tspan font-family="Helvetica" >non_nested_compare/incremental calc/5: median</tspan></text>
	</g>
</g>
	<g id="gnuplot_plot_1" ><title>Bootstrap distribution</title>
<g fill="none" color="white" stroke="black" stroke-width="2.00" stroke-linecap="butt" stroke-linejoin="miter">
</g>
<g fill="none" color="black" stroke="currentColor" stroke-width="2.00" stroke-linecap="butt" stroke-linejoin="miter">
	<g transform="translate(1089.0,67.0)" stroke="none" fill="black" font-family="Helvetica" font-size="12.00"  text-anchor="start">
		<text><tspan font-family="Helvetica" >Bootstrap distribution</tspan></text>
	</g>
</g>
<g fill="none" color="black" stroke="currentColor" stroke-width="2.00" stroke-linecap="butt" stroke-linejoin="miter">
	<path stroke='rgb( 31, 120, 180)'  d='M1038.5,63.1 L1080.7,63.1 M80.2,636.1 L82.1,636.7 L83.9,637.3 L85.8,638.0 L87.7,638.8 L89.6,639.6
		L91.4,640.4 L93.3,641.2 L95.2,642.0 L97.0,642.7 L98.9,643.3 L100.8,643.8 L102.6,644.2 L104.5,644.5
		L106.4,644.8 L108.3,644.9 L110.1,645.0 L112.0,645.0 L113.9,645.0 L115.7,644.9 L117.6,644.9 L119.5,644.9
		L121.4,645.0 L123.2,645.0 L125.1,645.1 L127.0,645.3 L128.8,645.5 L130.7,645.6 L132.6,645.8 L134.4,646.0
		L136.3,646.1 L138.2,646.2 L140.1,646.2 L141.9,646.1 L143.8,646.0 L145.7,645.7 L147.5,645.4 L149.4,645.1
		L151.3,644.7 L153.2,644.3 L155.0,643.9 L156.9,643.5 L158.8,643.1 L160.6,642.8 L162.5,642.6 L164.4,642.5
		L166.2,642.5 L168.1,642.5 L170.0,642.7 L171.9,642.9 L173.7,643.1 L175.6,643.4 L177.5,643.7 L179.3,644.0
		L181.2,644.3 L183.1,644.5 L185.0,644.6 L186.8,644.6 L188.7,644.5 L190.6,644.3 L192.4,644.1 L194.3,643.7
		L196.2,643.4 L198.0,642.9 L199.9,642.5 L201.8,642.1 L203.7,641.8 L205.5,641.4 L207.4,641.2 L209.3,641.0
		L211.1,640.9 L213.0,640.9 L214.9,640.9 L216.7,640.9 L218.6,641.0 L220.5,641.0 L222.4,641.0 L224.2,641.0
		L226.1,640.9 L228.0,640.6 L229.8,640.3 L231.7,639.9 L233.6,639.4 L235.5,638.7 L237.3,638.0 L239.2,637.3
		L241.1,636.5 L242.9,635.8 L244.8,635.1 L246.7,634.5 L248.5,634.0 L250.4,633.6 L252.3,633.3 L254.2,633.2
		L256.0,633.2 L257.9,633.4 L259.8,633.7 L261.6,634.0 L263.5,634.5 L265.4,634.9 L267.3,635.3 L269.1,635.7
		L271.0,635.9 L272.9,636.1 L274.7,636.1 L276.6,635.9 L278.5,635.6 L280.3,635.1 L282.2,634.4 L284.1,633.7
		L286.0,632.8 L287.8,631.9 L289.7,631.0 L291.6,630.0 L293.4,629.1 L295.3,628.4 L297.2,627.7 L299.1,627.1
		L300.9,626.7 L302.8,626.5 L304.7,626.4 L306.5,626.3 L308.4,626.4 L310.3,626.6 L312.1,626.7 L314.0,626.8
		L315.9,626.7 L317.8,626.6 L319.6,626.2 L321.5,625.6 L323.4,624.7 L325.2,623.5 L327.1,622.0 L329.0,620.2
		L330.9,618.1 L332.7,615.7 L334.6,613.1 L336.5,610.2 L338.3,607.2 L340.2,604.0 L342.1,600.8 L343.9,597.6
		L345.8,594.5 L347.7,591.5 L349.6,588.8 L351.4,586.2 L353.3,584.0 L355.2,582.0 L357.0,580.4 L358.9,579.2
		L360.8,578.3 L362.7,577.8 L364.5,577.7 L366.4,577.8 L368.3,578.3 L370.1,578.9 L372.0,579.8 L373.9,580.8
		L375.7,581.9 L377.6,583.1 L379.5,584.2 L381.4,585.2 L383.2,586.2 L385.1,587.0 L387.0,587.7 L388.8,588.2
		L390.7,588.4 L392.6,588.6 L394.5,588.5 L396.3,588.3 L398.2,587.9 L400.1,587.4 L401.9,586.7 L403.8,586.0
		L405.7,585.2 L407.5,584.2 L409.4,583.2 L411.3,582.1 L413.2,581.0 L415.0,579.7 L416.9,578.4 L418.8,577.0
		L420.6,575.5 L422.5,574.0 L424.4,572.5 L426.3,570.9 L428.1,569.3 L430.0,567.7 L431.9,566.1 L433.7,564.5
		L435.6,563.0 L437.5,561.5 L439.3,560.0 L441.2,558.6 L443.1,557.1 L445.0,555.5 L446.8,553.8 L448.7,552.0
		L450.6,549.9 L452.4,547.6 L454.3,545.1 L456.2,542.1 L458.0,538.7 L459.9,534.9 L461.8,530.7 L463.7,525.9
		L465.5,520.6 L467.4,514.7 L469.3,508.3 L471.1,501.4 L473.0,493.9 L474.9,486.1 L476.8,477.8 L478.6,469.3
		L480.5,460.5 L482.4,451.7 L484.2,442.9 L486.1,434.3 L488.0,425.9 L489.8,417.9 L491.7,410.4 L493.6,403.4
		L495.5,397.1 L497.3,391.3 L499.2,386.1 L501.1,381.5 L502.9,377.3 L504.8,373.4 L506.7,369.6 L508.6,365.8
		L510.4,361.8 L512.3,357.4 L514.2,352.4 L516.0,346.7 L517.9,339.9 L519.8,332.1 L521.6,323.2 L523.5,312.9
		L525.4,301.4 L527.3,288.7 L529.1,274.9 L531.0,260.0 L532.9,244.3 L534.7,228.0 L536.6,211.5 L538.5,194.9
		L540.4,178.6 L542.2,163.0 L544.1,148.3 L546.0,134.8 L547.8,122.9 L549.7,112.6 L551.6,104.1 L553.4,97.7
		L555.3,93.2 L557.2,90.6 L559.1,90.0 L560.9,91.2 L562.8,94.1 L564.7,98.6 L566.5,104.4 L568.4,111.6
		L570.3,120.0 L572.2,129.5 L574.0,140.1 L575.9,151.7 L577.8,164.3 L579.6,178.0 L581.5,192.8 L583.4,208.6
		L585.2,225.5 L587.1,243.3 L589.0,262.2 L590.9,281.8 L592.7,302.1 L594.6,322.9 L596.5,343.9 L598.3,364.8
		L600.2,385.4 L602.1,405.3 L604.0,424.2 L605.8,441.9 L607.7,458.0 L609.6,472.3 L611.4,484.7 L613.3,495.0
		L615.2,503.2 L617.0,509.2 L618.9,513.3 L620.8,515.4 L622.7,515.9 L624.5,514.8 L626.4,512.6 L628.3,509.5
		L630.1,505.9 L632.0,502.0 L633.9,498.2 L635.8,494.8 L637.6,492.0 L639.5,490.0 L641.4,489.0 L643.2,489.1
		L645.1,490.2 L647.0,492.5 L648.8,495.7 L650.7,499.8 L652.6,504.5 L654.5,509.6 L656.3,514.8 L658.2,519.8
		L660.1,524.4 L661.9,528.2 L663.8,531.0 L665.7,532.6 L667.5,532.6 L669.4,531.1 L671.3,527.8 L673.2,522.8
		L675.0,516.0 L676.9,507.5 L678.8,497.5 L680.6,486.2 L682.5,473.9 L684.4,460.7 L686.3,447.1 L688.1,433.3
		L690.0,419.8 L691.9,406.8 L693.7,394.6 L695.6,383.6 L697.5,373.9 L699.3,365.9 L701.2,359.5 L703.1,355.0
		L705.0,352.2 L706.8,351.3 L708.7,352.1 L710.6,354.4 L712.4,358.2 L714.3,363.1 L716.2,369.1 L718.1,375.9
		L719.9,383.3 L721.8,391.0 L723.7,398.9 L725.5,406.7 L727.4,414.4 L729.3,421.8 L731.1,428.7 L733.0,435.2
		L734.9,441.0 L736.8,446.3 L738.6,450.9 L740.5,454.8 L742.4,458.1 L744.2,460.7 L746.1,462.8 L748.0,464.3
		L749.9,465.3 L751.7,465.9 L753.6,466.2 L755.5,466.2 L757.3,466.0 L759.2,465.8 L761.1,465.6 L762.9,465.6
		L764.8,465.8 L766.7,466.4 L768.6,467.5 L770.4,469.1 L772.3,471.3 L774.2,474.1 L776.0,477.7 L777.9,481.9
		L779.8,486.9 L781.7,492.5 L783.5,498.7 L785.4,505.5 L787.3,512.8 L789.1,520.4 L791.0,528.4 L792.9,536.5
		L794.7,544.8 L796.6,553.0 L798.5,561.1 L800.4,569.0 L802.2,576.5 L804.1,583.7 L806.0,590.5 L807.8,596.7
		L809.7,602.3 L811.6,607.3 L813.5,611.7 L815.3,615.4 L817.2,618.5 L819.1,620.9 L820.9,622.7 L822.8,623.9
		L824.7,624.5 L826.5,624.6 L828.4,624.2 L830.3,623.4 L832.2,622.4 L834.0,621.1 L835.9,619.6 L837.8,618.1
		L839.6,616.5 L841.5,615.1 L843.4,613.8 L845.3,612.7 L847.1,611.9 L849.0,611.3 L850.9,611.1 L852.7,611.3
		L854.6,611.8 L856.5,612.6 L858.3,613.8 L860.2,615.2 L862.1,616.9 L864.0,618.8 L865.8,620.8 L867.7,622.9
		L869.6,625.0 L871.4,627.1 L873.3,629.0 L875.2,630.8 L877.1,632.3 L878.9,633.6 L880.8,634.6 L882.7,635.2
		L884.5,635.5 L886.4,635.4 L888.3,635.0 L890.1,634.2 L892.0,633.1 L893.9,631.7 L895.8,630.0 L897.6,628.0
		L899.5,625.9 L901.4,623.7 L903.2,621.3 L905.1,619.0 L907.0,616.6 L908.8,614.3 L910.7,612.0 L912.6,610.0
		L914.5,608.0 L916.3,606.3 L918.2,604.8 L920.1,603.6 L921.9,602.5 L923.8,601.8 L925.7,601.3 L927.6,601.0
		L929.4,601.0 L931.3,601.3 L933.2,601.8 L935.0,602.5 L936.9,603.4 L938.8,604.5 L940.6,605.8 L942.5,607.3
		L944.4,609.0 L946.3,610.8 L948.1,612.7 L950.0,614.6 L951.9,616.7 L953.7,618.8 L955.6,621.0 L957.5,623.1
		L959.4,625.3 L961.2,627.4 L963.1,629.4 L965.0,631.3 L966.8,633.2 L968.7,634.9 L970.6,636.5 L972.4,638.0
		L974.3,639.4 L976.2,640.6 L978.1,641.7 L979.9,642.7 L981.8,643.6 L983.7,644.4 L985.5,645.1 L987.4,645.7
		L989.3,646.2 L991.2,646.7 L993.0,647.1 L994.9,647.5 L996.8,647.8 L998.6,648.0 L1000.5,648.3 L1002.4,648.5
		L1004.2,648.7 L1006.1,648.8 L1008.0,648.9 L1009.9,649.1 L1011.7,649.2 L1013.6,649.3  '/></g>
	</g>
	<g id="gnuplot_plot_2" ><title>Confidence interval</title>
<g fill="none" color="white" stroke="rgb( 31, 120, 180)" stroke-width="1.00" stroke-linecap="butt" stroke-linejoin="miter">
</g>
<g fill="none" color="black" stroke="currentColor" stroke-width="1.00" stroke-linecap="butt" stroke-linejoin="miter">
	<g transform="translate(1089.0,85.0)" stroke="none" fill="black" font-family="Helvetica" font-size="12.00"  text-anchor="start">
		<text><tspan font-family="Helvetica" >Confidence interval</tspan></text>
	</g>
</g>
<g fill="none" color="black" stroke="currentColor" stroke-width="1.00" stroke-linecap="butt" stroke-linejoin="miter">
	<g stroke='none' shape-rendering='crispEdges'>
		<polygon fill = 'rgb( 31, 120, 180)' fill-opacity = '0.250000' points = '1038.5,85.6 1080.7,85.6 1080.7,76.6 1038.5,76.6 '/>
		<polygon fill = 'rgb( 31, 120, 180)' fill-opacity = '0.250000' points = '166.2,642.5 168.1,642.5 170.0,642.7 171.9,642.9 173.7,643.1 175.6,643.4 177.5,643.7 179.3,644.0 181.2,644.3 183.1,644.5 185.0,644.6 186.8,644.6 188.7,644.5 190.6,644.3 192.4,644.1 194.3,643.7
196.2,643.4 198.0,642.9 199.9,642.5 201.8,642.1 203.7,641.8 205.5,641.4 207.4,641.2 209.3,641.0 211.1,640.9 213.0,640.9 214.9,640.9 216.7,640.9 218.6,641.0 220.5,641.0 222.4,641.0 224.2,641.0
226.1,640.9 228.0,640.6 229.8,640.3 231.7,639.9 233.6,639.4 235.5,638.7 237.3,638.0 239.2,637.3 241.1,636.5 242.9,635.8 244.8,635.1 246.7,634.5 248.5,634.0 250.4,633.6 252.3,633.3 254.2,633.2
256.0,633.2 257.9,633.4 259.8,633.7 261.6,634.0 263.5,634.5 265.4,634.9 267.3,635.3 269.1,635.7 271.0,635.9 272.9,636.1 274.7,636.1 276.6,635.9 278.5,635.6 280.3,635.1 282.2,634.4 284.1,633.7
286.0,632.8 287.8,631.9 289.7,631.0 291.6,630.0 293.4,629.1 295.3,628.4 297.2,627.7 299.1,627.1 300.9,626.7 302.8,626.5 304.7,626.4 306.5,626.3 308.4,626.4 310.3,626.6 312.1,626.7 314.0,626.8
315.9,626.7 317.8,626.6 319.6,626.2 321.5,625.6 323.4,624.7 325.2,623.5 327.1,622.0 329.0,620.2 330.9,618.1 332.7,615.7 334.6,613.1 336.5,610.2 338.3,607.2 340.2,604.0 342.1,600.8 343.9,597.6
345.8,594.5 347.7,591.5 349.6,588.8 351.4,586.2 353.3,584.0 355.2,582.0 357.0,580.4 358.9,579.2 360.8,578.3 362.7,577.8 364.5,577.7 366.4,577.8 368.3,578.3 370.1,578.9 372.0,579.8 373.9,580.8
375.7,581.9 377.6,583.1 379.5,584.2 381.4,585.2 383.2,586.2 385.1,587.0 387.0,587.7 388.8,588.2 390.7,588.4 392.6,588.6 394.5,588.5 396.3,588.3 398.2,587.9 400.1,587.4 401.9,586.7 403.8,586.0
405.7,585.2 407.5,584.2 409.4,583.2 411.3,582.1 413.2,581.0 415.0,579.7 416.9,578.4 418.8,577.0 420.6,575.5 422.5,574.0 424.4,572.5 426.3,570.9 428.1,569.3 430.0,567.7 431.9,566.1 433.7,564.5
435.6,563.0 437.5,561.5 439.3,560.0 441.2,558.6 443.1,557.1 445.0,555.5 446.8,553.8 448.7,552.0 450.6,549.9 452.4,547.6 454.3,545.1 456.2,542.1 458.0,538.7 459.9,534.9 461.8,530.7 463.7,525.9
465.5,520.6 467.4,514.7 469.3,508.3 471.1,501.4 473.0,493.9 474.9,486.1 476.8,477.8 478.6,469.3 480.5,460.5 482.4,451.7 484.2,442.9 486.1,434.3 488.0,425.9 489.8,417.9 491.7,410.4 493.6,403.4
495.5,397.1 497.3,391.3 499.2,386.1 501.1,381.5 502.9,377.3 504.8,373.4 506.7,369.6 508.6,365.8 510.4,361.8 512.3,357.4 514.2,352.4 516.0,346.7 517.9,339.9 519.8,332.1 521.6,323.2 523.5,312.9
525.4,301.4 527.3,288.7 529.1,274.9 531.0,260.0 532.9,244.3 534.7,228.0 536.6,211.5 538.5,194.9 540.4,178.6 542.2,163.0 544.1,148.3 546.0,134.8 547.8,122.9 549.7,112.6 551.6,104.1 553.4,97.7
555.3,93.2 557.2,90.6 559.1,90.0 560.9,91.2 562.8,94.1 564.7,98.6 566.5,104.4 568.4,111.6 570.3,120.0 572.2,129.5 574.0,140.1 575.9,151.7 577.8,164.3 579.6,178.0 581.5,192.8 583.4,208.6
585.2,225.5 587.1,243.3 589.0,262.2 590.9,281.8 592.7,302.1 594.6,322.9 596.5,343.9 598.3,364.8 600.2,385.4 602.1,405.3 604.0,424.2 605.8,441.9 607.7,458.0 609.6,472.3 611.4,484.7 613.3,495.0
615.2,503.2 617.0,509.2 618.9,513.3 620.8,515.4 622.7,515.9 624.5,514.8 626.4,512.6 628.3,509.5 630.1,505.9 632.0,502.0 633.9,498.2 635.8,494.8 637.6,492.0 639.5,490.0 641.4,489.0 643.2,489.1
645.1,490.2 647.0,492.5 648.8,495.7 650.7,499.8 652.6,504.5 654.5,509.6 656.3,514.8 658.2,519.8 660.1,524.4 661.9,528.2 663.8,531.0 665.7,532.6 667.5,532.6 669.4,531.1 671.3,527.8 673.2,522.8
675.0,516.0 676.9,507.5 678.8,497.5 680.6,486.2 682.5,473.9 684.4,460.7 686.3,447.1 688.1,433.3 690.0,419.8 691.9,406.8 693.7,394.6 695.6,383.6 697.5,373.9 699.3,365.9 701.2,359.5 703.1,355.0
705.0,352.2 706.8,351.3 708.7,352.1 710.6,354.4 712.4,358.2 714.3,363.1 716.2,369.1 718.1,375.9 719.9,383.3 721.8,391.0 723.7,398.9 725.5,406.7 727.4,414.4 729.3,421.8 731.1,428.7 733.0,435.2
734.9,441.0 736.8,446.3 738.6,450.9 740.5,454.8 742.4,458.1 744.2,460.7 746.1,462.8 748.0,464.3 749.9,465.3 751.7,465.9 753.6,466.2 755.5,466.2 757.3,466.0 759.2,465.8 761.1,465.6 762.9,465.6
764.8,465.8 766.7,466.4 768.6,467.5 770.4,469.1 772.3,471.3 774.2,474.1 776.0,477.7 777.9,481.9 779.8,486.9 781.7,492.5 783.5,498.7 785.4,505.5 787.3,512.8 789.1,520.4 791.0,528.4 792.9,536.5
794.7,544.8 796.6,553.0 798.5,561.1 800.4,569.0 802.2,576.5 804.1,583.7 806.0,590.5 807.8,596.7 809.7,602.3 811.6,607.3 813.5,611.7 815.3,615.4 817.2,618.5 819.1,620.9 820.9,622.7 822.8,623.9
824.7,624.5 826.5,624.6 828.4,624.2 830.3,623.4 832.2,622.4 834.0,621.1 835.9,619.6 837.8,618.1 839.6,616.5 841.5,615.1 843.4,613.8 845.3,612.7 847.1,611.9 849.0,611.3 850.9,611.1 852.7,611.3
854.6,611.8 856.5,612.6 858.3,613.8 860.2,615.2 862.1,616.9 864.0,618.8 865.8,620.8 867.7,622.9 869.6,625.0 871.4,627.1 873.3,629.0 875.2,630.8 877.1,632.3 878.9,633.6 880.8,634.6 882.7,635.2
884.5,635.5 886.4,635.4 888.3,635.0 890.1,634.2 892.0,633.1 893.9,631.7 895.8,630.0 897.6,628.0 899.5,625.9 901.4,623.7 903.2,621.3 905.1,619.0 907.0,616.6 908.8,614.3 910.7,612.0 912.6,610.0
914.5,608.0 916.3,606.3 918.2,604.8 920.1,603.6 921.9,602.5 923.8,601.8 925.7,601.3 925.7,662.4 923.8,662.4 921.9,662.4 920.1,662.4 918.2,662.4 916.3,662.4 914.5,662.4 912.6,662.4 910.7,662.4
908.8,662.4 907.0,662.4 905.1,662.4 903.2,662.4 901.4,662.4 899.5,662.4 897.6,662.4 895.8,662.4 893.9,662.4 892.0,662.4 890.1,662.4 888.3,662.4 886.4,662.4 884.5,662.4 882.7,662.4 880.8,662.4
878.9,662.4 877.1,662.4 875.2,662.4 873.3,662.4 871.4,662.4 869.6,662.4 867.7,662.4 865.8,662.4 864.0,662.4 862.1,662.4 860.2,662.4 858.3,662.4 856.5,662.4 854.6,662.4 852.7,662.4 850.9,662.4
849.0,662.4 847.1,662.4 845.3,662.4 843.4,662.4 841.5,662.4 839.6,662.4 837.8,662.4 835.9,662.4 834.0,662.4 832.2,662.4 830.3,662.4 828.4,662.4 826.5,662.4 824.7,662.4 822.8,662.4 820.9,662.4
819.1,662.4 817.2,662.4 815.3,662.4 813.5,662.4 811.6,662.4 809.7,662.4 807.8,662.4 806.0,662.4 804.1,662.4 802.2,662.4 800.4,662.4 798.5,662.4 796.6,662.4 794.7,662.4 792.9,662.4 791.0,662.4
789.1,662.4 787.3,662.4 785.4,662.4 783.5,662.4 781.7,662.4 779.8,662.4 777.9,662.4 776.0,662.4 774.2,662.4 772.3,662.4 770.4,662.4 768.6,662.4 766.7,662.4 764.8,662.4 762.9,662.4 761.1,662.4
759.2,662.4 757.3,662.4 755.5,662.4 753.6,662.4 751.7,662.4 749.9,662.4 748.0,662.4 746.1,662.4 744.2,662.4 742.4,662.4 740.5,662.4 738.6,662.4 736.8,662.4 734.9,662.4 733.0,662.4 731.1,662.4
729.3,662.4 727.4,662.4 725.5,662.4 723.7,662.4 721.8,662.4 719.9,662.4 718.1,662.4 716.2,662.4 714.3,662.4 712.4,662.4 710.6,662.4 708.7,662.4 706.8,662.4 705.0,662.4 703.1,662.4 701.2,662.4
699.3,662.4 697.5,662.4 695.6,662.4 693.7,662.4 691.9,662.4 690.0,662.4 688.1,662.4 686.3,662.4 684.4,662.4 682.5,662.4 680.6,662.4 678.8,662.4 676.9,662.4 675.0,662.4 673.2,662.4 671.3,662.4
669.4,662.4 667.5,662.4 665.7,662.4 663.8,662.4 661.9,662.4 660.1,662.4 658.2,662.4 656.3,662.4 654.5,662.4 652.6,662.4 650.7,662.4 648.8,662.4 647.0,662.4 645.1,662.4 643.2,662.4 641.4,662.4
639.5,662.4 637.6,662.4 635.8,662.4 633.9,662.4 632.0,662.4 630.1,662.4 628.3,662.4 626.4,662.4 624.5,662.4 622.7,662.4 620.8,662.4 618.9,662.4 617.0,662.4 615.2,662.4 613.3,662.4 611.4,662.4
609.6,662.4 607.7,662.4 605.8,662.4 604.0,662.4 602.1,662.4 600.2,662.4 598.3,662.4 596.5,662.4 594.6,662.4 592.7,662.4 590.9,662.4 589.0,662.4 587.1,662.4 585.2,662.4 583.4,662.4 581.5,662.4
579.6,662.4 577.8,662.4 575.9,662.4 574.0,662.4 572.2,662.4 570.3,662.4 568.4,662.4 566.5,662.4 564.7,662.4 562.8,662.4 560.9,662.4 559.1,662.4 557.2,662.4 555.3,662.4 553.4,662.4 551.6,662.4
549.7,662.4 547.8,662.4 546.0,662.4 544.1,662.4 542.2,662.4 540.4,662.4 538.5,662.4 536.6,662.4 534.7,662.4 532.9,662.4 531.0,662.4 529.1,662.4 527.3,662.4 525.4,662.4 523.5,662.4 521.6,662.4
519.8,662.4 517.9,662.4 516.0,662.4 514.2,662.4 512.3,662.4 510.4,662.4 508.6,662.4 506.7,662.4 504.8,662.4 502.9,662.4 501.1,662.4 499.2,662.4 497.3,662.4 495.5,662.4 493.6,662.4 491.7,662.4
489.8,662.4 488.0,662.4 486.1,662.4 484.2,662.4 482.4,662.4 480.5,662.4 478.6,662.4 476.8,662.4 474.9,662.4 473.0,662.4 471.1,662.4 469.3,662.4 467.4,662.4 465.5,662.4 463.7,662.4 461.8,662.4
459.9,662.4 458.0,662.4 456.2,662.4 454.3,662.4 452.4,662.4 450.6,662.4 448.7,662.4 446.8,662.4 445.0,662.4 443.1,662.4 441.2,662.4 439.3,662.4 437.5,662.4 435.6,662.4 433.7,662.4 431.9,662.4
430.0,662.4 428.1,662.4 426.3,662.4 424.4,662.4 422.5,662.4 420.6,662.4 418.8,662.4 416.9,662.4 415.0,662.4 413.2,662.4 411.3,662.4 409.4,662.4 407.5,662.4 405.7,662.4 403.8,662.4 401.9,662.4
400.1,662.4 398.2,662.4 396.3,662.4 394.5,662.4 392.6,662.4 390.7,662.4 388.8,662.4 387.0,662.4 385.1,662.4 383.2,662.4 381.4,662.4 379.5,662.4 377.6,662.4 375.7,662.4 373.9,662.4 372.0,662.4
370.1,662.4 368.3,662.4 366.4,662.4 364.5,662.4 362.7,662.4 360.8,662.4 358.9,662.4 357.0,662.4 355.2,662.4 353.3,662.4 351.4,662.4 349.6,662.4 347.7,662.4 345.8,662.4 343.9,662.4 342.1,662.4
340.2,662.4 338.3,662.4 336.5,662.4 334.6,662.4 332.7,662.4 330.9,662.4 329.0,662.4 327.1,662.4 325.2,662.4 323.4,662.4 321.5,662.4 319.6,662.4 317.8,662.4 315.9,662.4 314.0,662.4 312.1,662.4
310.3,662.4 308.4,662.4 306.5,662.4 304.7,662.4 302.8,662.4 300.9,662.4 299.1,662.4 297.2,662.4 295.3,662.4 293.4,662.4 291.6,662.4 289.7,662.4 287.8,662.4 286.0,662.4 284.1,662.4 282.2,662.4
280.3,662.4 278.5,662.4 276.6,662.4 274.7,662.4 272.9,662.4 271.0,662.4 269.1,662.4 267.3,662.4 265.4,662.4 263.5,662.4 261.6,662.4 259.8,662.4 257.9,662.4 256.0,662.4 254.2,662.4 252.3,662.4
250.4,662.4 248.5,662.4 246.7,662.4 244.8,662.4 242.9,662.4 241.1,662.4 239.2,662.4 237.3,662.4 235.5,662.4 233.6,662.4 231.7,662.4 229.8,662.4 228.0,662.4 226.1,662.4 224.2,662.4 222.4,662.4
220.5,662.4 218.6,662.4 216.7,662.4 214.9,662.4 213.0,662.4 211.1,662.4 209.3,662.4 207.4,662.4 205.5,662.4 203.7,662.4 201.8,662.4 199.9,662.4 198.0,662.4 196.2,662.4 194.3,662.4 192.4,662.4
190.6,662.4 188.7,662.4 186.8,662.4 185.0,662.4 183.1,662.4 181.2,662.4 179.3,662.4 177.5,662.4 175.6,662.4 173.7,662.4 171.9,662.4 170.0,662.4 168.1,662.4 166.2,662.4 '/>
	</g>
</g>
	</g>
	<g id="gnuplot_plot_3" ><title>Point estimate</title>
<g fill="none" color="white" stroke="rgb( 31, 120, 180)" stroke-width="2.00" stroke-linecap="butt" stroke-linejoin="miter">
</g>
<g fill="none" color="black" stroke="currentColor" stroke-width="2.00" stroke-linecap="butt" stroke-linejoin="miter">
	<g transform="translate(1089.0,103.0)" stroke="none" fill="black" font-family="Helvetica" font-size="12.00"  text-anchor="start">
		<text><tspan font-family="Helvetica" >Point estimate</tspan></text>
	</g>
</g>
<g fill="none" color="black" stroke="currentColor" stroke-width="2.00" stroke-linecap="butt" stroke-linejoin="miter">
	<path stroke='rgb( 31, 120, 180)'  d='M1038.5,99.1 L1080.7,99.1 M573.4,662.4 L573.4,136.6  '/></g>
	</g>
<g fill="none" color="black" stroke="currentColor" stroke-width="2.00" stroke-linecap="butt" stroke-linejoin="miter">
</g>
<g fill="none" color="black" stroke="black" stroke-width="1.00" stroke-linecap="butt" stroke-linejoin="miter">
</g>
<g fill="none" color="black" stroke="currentColor" stroke-width="1.00" stroke-linecap="butt" stroke-linejoin="miter">
	<path stroke='black'  d='M80.2,54.1 L80.2,662.4 L1013.6,662.4 L1013.6,54.1 L80.2,54.1 Z  '/></g>
<g fill="none" color="black" stroke="currentColor" stroke-width="1.00" stroke-linecap="butt" stroke-linejoin="miter">
</g>
</g>
</svg>

