<?xml version="1.0" encoding="utf-8"  standalone="no"?>
<svg 
 viewBox="0 0 1280 720"
 xmlns="http://www.w3.org/2000/svg"
 xmlns:xlink="http://www.w3.org/1999/xlink"
>

<title>Gnuplot</title>
<desc>Produced by GNUPLOT 5.2 patchlevel 2 </desc>

<g id="gnuplot_canvas">

<rect x="0" y="0" width="1280" height="720" fill="none"/>
<defs>

	<circle id='gpDot' r='0.5' stroke-width='0.5'/>
	<path id='gpPt0' stroke-width='0.222' stroke='currentColor' d='M-1,0 h2 M0,-1 v2'/>
	<path id='gpPt1' stroke-width='0.222' stroke='currentColor' d='M-1,-1 L1,1 M1,-1 L-1,1'/>
	<path id='gpPt2' stroke-width='0.222' stroke='currentColor' d='M-1,0 L1,0 M0,-1 L0,1 M-1,-1 L1,1 M-1,1 L1,-1'/>
	<rect id='gpPt3' stroke-width='0.222' stroke='currentColor' x='-1' y='-1' width='2' height='2'/>
	<rect id='gpPt4' stroke-width='0.222' stroke='currentColor' fill='currentColor' x='-1' y='-1' width='2' height='2'/>
	<circle id='gpPt5' stroke-width='0.222' stroke='currentColor' cx='0' cy='0' r='1'/>
	<use xlink:href='#gpPt5' id='gpPt6' fill='currentColor' stroke='none'/>
	<path id='gpPt7' stroke-width='0.222' stroke='currentColor' d='M0,-1.33 L-1.33,0.67 L1.33,0.67 z'/>
	<use xlink:href='#gpPt7' id='gpPt8' fill='currentColor' stroke='none'/>
	<use xlink:href='#gpPt7' id='gpPt9' stroke='currentColor' transform='rotate(180)'/>
	<use xlink:href='#gpPt9' id='gpPt10' fill='currentColor' stroke='none'/>
	<use xlink:href='#gpPt3' id='gpPt11' stroke='currentColor' transform='rotate(45)'/>
	<use xlink:href='#gpPt11' id='gpPt12' fill='currentColor' stroke='none'/>
	<path id='gpPt13' stroke-width='0.222' stroke='currentColor' d='M0,1.330 L1.265,0.411 L0.782,-1.067 L-0.782,-1.076 L-1.265,0.411 z'/>
	<use xlink:href='#gpPt13' id='gpPt14' fill='currentColor' stroke='none'/>
	<filter id='textbox' filterUnits='objectBoundingBox' x='0' y='0' height='1' width='1'>
	  <feFlood flood-color='white' flood-opacity='1' result='bgnd'/>
	  <feComposite in='SourceGraphic' in2='bgnd' operator='atop'/>
	</filter>
	<filter id='greybox' filterUnits='objectBoundingBox' x='0' y='0' height='1' width='1'>
	  <feFlood flood-color='lightgrey' flood-opacity='1' result='grey'/>
	  <feComposite in='SourceGraphic' in2='grey' operator='atop'/>
	</filter>
</defs>
<g fill="none" color="white" stroke="currentColor" stroke-width="1.00" stroke-linecap="butt" stroke-linejoin="miter">
</g>
<g fill="none" color="black" stroke="currentColor" stroke-width="1.00" stroke-linecap="butt" stroke-linejoin="miter">
	<path stroke='black'  d='M88.5,662.4 L97.5,662.4  '/>	<g transform="translate(80.2,666.3)" stroke="none" fill="black" font-family="Helvetica" font-size="12.00"  text-anchor="end">
		<text><tspan font-family="Helvetica" > 0</tspan></text>
	</g>
</g>
<g fill="none" color="black" stroke="currentColor" stroke-width="1.00" stroke-linecap="butt" stroke-linejoin="miter">
	<path stroke='black'  d='M88.5,575.5 L97.5,575.5  '/>	<g transform="translate(80.2,579.4)" stroke="none" fill="black" font-family="Helvetica" font-size="12.00"  text-anchor="end">
		<text><tspan font-family="Helvetica" > 1x10</tspan><tspan font-family="Helvetica"  font-size="9.6" dy="-6.00px">-7</tspan><tspan font-size="12.0" dy="6.00"></tspan></text>
	</g>
</g>
<g fill="none" color="black" stroke="currentColor" stroke-width="1.00" stroke-linecap="butt" stroke-linejoin="miter">
	<path stroke='black'  d='M88.5,488.6 L97.5,488.6  '/>	<g transform="translate(80.2,492.5)" stroke="none" fill="black" font-family="Helvetica" font-size="12.00"  text-anchor="end">
		<text><tspan font-family="Helvetica" > 2x10</tspan><tspan font-family="Helvetica"  font-size="9.6" dy="-6.00px">-7</tspan><tspan font-size="12.0" dy="6.00"></tspan></text>
	</g>
</g>
<g fill="none" color="black" stroke="currentColor" stroke-width="1.00" stroke-linecap="butt" stroke-linejoin="miter">
	<path stroke='black'  d='M88.5,401.7 L97.5,401.7  '/>	<g transform="translate(80.2,405.6)" stroke="none" fill="black" font-family="Helvetica" font-size="12.00"  text-anchor="end">
		<text><tspan font-family="Helvetica" > 3x10</tspan><tspan font-family="Helvetica"  font-size="9.6" dy="-6.00px">-7</tspan><tspan font-size="12.0" dy="6.00"></tspan></text>
	</g>
</g>
<g fill="none" color="black" stroke="currentColor" stroke-width="1.00" stroke-linecap="butt" stroke-linejoin="miter">
	<path stroke='black'  d='M88.5,314.8 L97.5,314.8  '/>	<g transform="translate(80.2,318.7)" stroke="none" fill="black" font-family="Helvetica" font-size="12.00"  text-anchor="end">
		<text><tspan font-family="Helvetica" > 4x10</tspan><tspan font-family="Helvetica"  font-size="9.6" dy="-6.00px">-7</tspan><tspan font-size="12.0" dy="6.00"></tspan></text>
	</g>
</g>
<g fill="none" color="black" stroke="currentColor" stroke-width="1.00" stroke-linecap="butt" stroke-linejoin="miter">
	<path stroke='black'  d='M88.5,227.9 L97.5,227.9  '/>	<g transform="translate(80.2,231.8)" stroke="none" fill="black" font-family="Helvetica" font-size="12.00"  text-anchor="end">
		<text><tspan font-family="Helvetica" > 5x10</tspan><tspan font-family="Helvetica"  font-size="9.6" dy="-6.00px">-7</tspan><tspan font-size="12.0" dy="6.00"></tspan></text>
	</g>
</g>
<g fill="none" color="black" stroke="currentColor" stroke-width="1.00" stroke-linecap="butt" stroke-linejoin="miter">
	<path stroke='black'  d='M88.5,141.0 L97.5,141.0  '/>	<g transform="translate(80.2,144.9)" stroke="none" fill="black" font-family="Helvetica" font-size="12.00"  text-anchor="end">
		<text><tspan font-family="Helvetica" > 6x10</tspan><tspan font-family="Helvetica"  font-size="9.6" dy="-6.00px">-7</tspan><tspan font-size="12.0" dy="6.00"></tspan></text>
	</g>
</g>
<g fill="none" color="black" stroke="currentColor" stroke-width="1.00" stroke-linecap="butt" stroke-linejoin="miter">
	<path stroke='black'  d='M88.5,54.1 L97.5,54.1  '/>	<g transform="translate(80.2,58.0)" stroke="none" fill="black" font-family="Helvetica" font-size="12.00"  text-anchor="end">
		<text><tspan font-family="Helvetica" > 7x10</tspan><tspan font-family="Helvetica"  font-size="9.6" dy="-6.00px">-7</tspan><tspan font-size="12.0" dy="6.00"></tspan></text>
	</g>
</g>
<g fill="none" color="black" stroke="currentColor" stroke-width="1.00" stroke-linecap="butt" stroke-linejoin="miter">
	<path stroke='black'  d='M211.6,662.4 L211.6,653.4  '/>	<g transform="translate(211.6,684.3)" stroke="none" fill="black" font-family="Helvetica" font-size="12.00"  text-anchor="middle">
		<text><tspan font-family="Helvetica" > 1.6x10</tspan><tspan font-family="Helvetica"  font-size="9.6" dy="-6.00px">7</tspan><tspan font-size="12.0" dy="6.00"></tspan></text>
	</g>
</g>
<g fill="none" color="black" stroke="currentColor" stroke-width="1.00" stroke-linecap="butt" stroke-linejoin="miter">
	<path stroke='black'  d='M372.5,662.4 L372.5,653.4  '/>	<g transform="translate(372.5,684.3)" stroke="none" fill="black" font-family="Helvetica" font-size="12.00"  text-anchor="middle">
		<text><tspan font-family="Helvetica" > 1.65x10</tspan><tspan font-family="Helvetica"  font-size="9.6" dy="-6.00px">7</tspan><tspan font-size="12.0" dy="6.00"></tspan></text>
	</g>
</g>
<g fill="none" color="black" stroke="currentColor" stroke-width="1.00" stroke-linecap="butt" stroke-linejoin="miter">
	<path stroke='black'  d='M533.4,662.4 L533.4,653.4  '/>	<g transform="translate(533.4,684.3)" stroke="none" fill="black" font-family="Helvetica" font-size="12.00"  text-anchor="middle">
		<text><tspan font-family="Helvetica" > 1.7x10</tspan><tspan font-family="Helvetica"  font-size="9.6" dy="-6.00px">7</tspan><tspan font-size="12.0" dy="6.00"></tspan></text>
	</g>
</g>
<g fill="none" color="black" stroke="currentColor" stroke-width="1.00" stroke-linecap="butt" stroke-linejoin="miter">
	<path stroke='black'  d='M694.3,662.4 L694.3,653.4  '/>	<g transform="translate(694.3,684.3)" stroke="none" fill="black" font-family="Helvetica" font-size="12.00"  text-anchor="middle">
		<text><tspan font-family="Helvetica" > 1.75x10</tspan><tspan font-family="Helvetica"  font-size="9.6" dy="-6.00px">7</tspan><tspan font-size="12.0" dy="6.00"></tspan></text>
	</g>
</g>
<g fill="none" color="black" stroke="currentColor" stroke-width="1.00" stroke-linecap="butt" stroke-linejoin="miter">
	<path stroke='black'  d='M855.2,662.4 L855.2,653.4  '/>	<g transform="translate(855.2,684.3)" stroke="none" fill="black" font-family="Helvetica" font-size="12.00"  text-anchor="middle">
		<text><tspan font-family="Helvetica" > 1.8x10</tspan><tspan font-family="Helvetica"  font-size="9.6" dy="-6.00px">7</tspan><tspan font-size="12.0" dy="6.00"></tspan></text>
	</g>
</g>
<g fill="none" color="black" stroke="currentColor" stroke-width="1.00" stroke-linecap="butt" stroke-linejoin="miter">
</g>
<g fill="none" color="black" stroke="currentColor" stroke-width="1.00" stroke-linecap="butt" stroke-linejoin="miter">
	<path stroke='black'  d='M88.5,54.1 L88.5,662.4 L1013.6,662.4 L1013.6,54.1 L88.5,54.1 Z  '/></g>
<g fill="none" color="black" stroke="currentColor" stroke-width="1.00" stroke-linecap="butt" stroke-linejoin="miter">
	<g transform="translate(16.3,358.3) rotate(270)" stroke="none" fill="black" font-family="Helvetica" font-size="12.00"  text-anchor="middle">
		<text><tspan font-family="Helvetica" >Density (a.u.)</tspan></text>
	</g>
</g>
<g fill="none" color="black" stroke="currentColor" stroke-width="1.00" stroke-linecap="butt" stroke-linejoin="miter">
	<g transform="translate(551.0,711.3)" stroke="none" fill="black" font-family="Helvetica" font-size="12.00"  text-anchor="middle">
		<text><tspan font-family="Helvetica" >Average time (cycles)</tspan></text>
	</g>
</g>
<g fill="none" color="black" stroke="currentColor" stroke-width="1.00" stroke-linecap="butt" stroke-linejoin="miter">
	<g transform="translate(551.0,31.0)" stroke="none" fill="black" font-family="Helvetica" font-size="12.00"  text-anchor="middle">
		<text><tspan font-family="Helvetica" >non_nested_compare/initial calculation/16: mean</tspan></text>
	</g>
</g>
	<g id="gnuplot_plot_1" ><title>Bootstrap distribution</title>
<g fill="none" color="white" stroke="black" stroke-width="2.00" stroke-linecap="butt" stroke-linejoin="miter">
</g>
<g fill="none" color="black" stroke="currentColor" stroke-width="2.00" stroke-linecap="butt" stroke-linejoin="miter">
	<g transform="translate(1089.0,67.0)" stroke="none" fill="black" font-family="Helvetica" font-size="12.00"  text-anchor="start">
		<text><tspan font-family="Helvetica" >Bootstrap distribution</tspan></text>
	</g>
</g>
<g fill="none" color="black" stroke="currentColor" stroke-width="2.00" stroke-linecap="butt" stroke-linejoin="miter">
	<path stroke='rgb( 31, 120, 180)'  d='M1038.5,63.1 L1080.7,63.1 M88.5,627.9 L90.4,627.1 L92.2,626.2 L94.1,625.3 L95.9,624.5 L97.8,623.6
		L99.6,622.7 L101.5,621.8 L103.3,620.9 L105.2,620.1 L107.0,619.2 L108.9,618.3 L110.7,617.5 L112.6,616.6
		L114.5,615.7 L116.3,614.9 L118.2,614.0 L120.0,613.1 L121.9,612.2 L123.7,611.3 L125.6,610.4 L127.4,609.5
		L129.3,608.5 L131.1,607.5 L133.0,606.5 L134.8,605.5 L136.7,604.4 L138.6,603.3 L140.4,602.1 L142.3,600.9
		L144.1,599.7 L146.0,598.4 L147.8,597.1 L149.7,595.8 L151.5,594.4 L153.4,592.9 L155.2,591.5 L157.1,590.0
		L158.9,588.5 L160.8,586.9 L162.7,585.3 L164.5,583.7 L166.4,582.0 L168.2,580.4 L170.1,578.7 L171.9,577.0
		L173.8,575.3 L175.6,573.5 L177.5,571.8 L179.3,570.0 L181.2,568.2 L183.0,566.5 L184.9,564.7 L186.8,562.8
		L188.6,561.0 L190.5,559.2 L192.3,557.4 L194.2,555.6 L196.0,553.7 L197.9,551.9 L199.7,550.0 L201.6,548.2
		L203.4,546.3 L205.3,544.5 L207.2,542.6 L209.0,540.7 L210.9,538.8 L212.7,536.9 L214.6,535.0 L216.4,533.0
		L218.3,531.1 L220.1,529.1 L222.0,527.1 L223.8,525.0 L225.7,522.9 L227.5,520.8 L229.4,518.7 L231.3,516.5
		L233.1,514.2 L235.0,511.9 L236.8,509.6 L238.7,507.2 L240.5,504.8 L242.4,502.3 L244.2,499.8 L246.1,497.2
		L247.9,494.6 L249.8,491.9 L251.6,489.2 L253.5,486.5 L255.4,483.7 L257.2,481.0 L259.1,478.2 L260.9,475.3
		L262.8,472.5 L264.6,469.7 L266.5,466.8 L268.3,464.0 L270.2,461.2 L272.0,458.4 L273.9,455.6 L275.7,452.8
		L277.6,450.1 L279.5,447.4 L281.3,444.7 L283.2,442.1 L285.0,439.4 L286.9,436.8 L288.7,434.3 L290.6,431.7
		L292.4,429.2 L294.3,426.7 L296.1,424.3 L298.0,421.8 L299.8,419.4 L301.7,416.9 L303.6,414.5 L305.4,412.0
		L307.3,409.6 L309.1,407.2 L311.0,404.7 L312.8,402.2 L314.7,399.7 L316.5,397.2 L318.4,394.7 L320.2,392.2
		L322.1,389.6 L323.9,387.0 L325.8,384.3 L327.7,381.6 L329.5,378.9 L331.4,376.1 L333.2,373.3 L335.1,370.4
		L336.9,367.5 L338.8,364.5 L340.6,361.5 L342.5,358.5 L344.3,355.4 L346.2,352.2 L348.0,349.0 L349.9,345.8
		L351.8,342.6 L353.6,339.3 L355.5,336.0 L357.3,332.7 L359.2,329.4 L361.0,326.1 L362.9,322.8 L364.7,319.5
		L366.6,316.3 L368.4,313.0 L370.3,309.7 L372.1,306.5 L374.0,303.3 L375.9,300.1 L377.7,296.9 L379.6,293.7
		L381.4,290.5 L383.3,287.3 L385.1,284.2 L387.0,281.0 L388.8,277.8 L390.7,274.6 L392.5,271.4 L394.4,268.2
		L396.2,264.9 L398.1,261.6 L400.0,258.3 L401.8,254.9 L403.7,251.5 L405.5,248.1 L407.4,244.6 L409.2,241.0
		L411.1,237.5 L412.9,233.9 L414.8,230.3 L416.6,226.6 L418.5,223.0 L420.3,219.4 L422.2,215.7 L424.1,212.1
		L425.9,208.5 L427.8,204.9 L429.6,201.4 L431.5,197.9 L433.3,194.5 L435.2,191.1 L437.0,187.8 L438.9,184.5
		L440.7,181.3 L442.6,178.1 L444.5,175.0 L446.3,171.9 L448.2,168.9 L450.0,166.0 L451.9,163.1 L453.7,160.2
		L455.6,157.4 L457.4,154.6 L459.3,151.9 L461.1,149.2 L463.0,146.6 L464.8,144.1 L466.7,141.5 L468.6,139.1
		L470.4,136.7 L472.3,134.4 L474.1,132.1 L476.0,129.9 L477.8,127.8 L479.7,125.8 L481.5,123.8 L483.4,121.9
		L485.2,120.1 L487.1,118.4 L488.9,116.8 L490.8,115.2 L492.7,113.6 L494.5,112.2 L496.4,110.8 L498.2,109.4
		L500.1,108.1 L501.9,106.8 L503.8,105.5 L505.6,104.2 L507.5,103.0 L509.3,101.8 L511.2,100.5 L513.0,99.3
		L514.9,98.1 L516.8,96.9 L518.6,95.7 L520.5,94.5 L522.3,93.4 L524.2,92.2 L526.0,91.1 L527.9,90.0
		L529.7,89.0 L531.6,88.0 L533.4,87.0 L535.3,86.2 L537.1,85.3 L539.0,84.6 L540.9,83.9 L542.7,83.3
		L544.6,82.8 L546.4,82.3 L548.3,82.0 L550.1,81.7 L552.0,81.6 L553.8,81.5 L555.7,81.5 L557.5,81.7
		L559.4,81.9 L561.2,82.2 L563.1,82.6 L565.0,83.1 L566.8,83.7 L568.7,84.3 L570.5,85.1 L572.4,85.8
		L574.2,86.7 L576.1,87.6 L577.9,88.6 L579.8,89.6 L581.6,90.6 L583.5,91.7 L585.3,92.8 L587.2,94.0
		L589.1,95.2 L590.9,96.4 L592.8,97.7 L594.6,99.0 L596.5,100.4 L598.3,101.8 L600.2,103.3 L602.0,104.8
		L603.9,106.3 L605.7,107.9 L607.6,109.6 L609.4,111.3 L611.3,113.1 L613.2,114.9 L615.0,116.7 L616.9,118.6
		L618.7,120.6 L620.6,122.5 L622.4,124.6 L624.3,126.6 L626.1,128.7 L628.0,130.8 L629.8,133.0 L631.7,135.1
		L633.5,137.3 L635.4,139.5 L637.3,141.7 L639.1,144.0 L641.0,146.2 L642.8,148.5 L644.7,150.8 L646.5,153.1
		L648.4,155.3 L650.2,157.6 L652.1,159.9 L653.9,162.1 L655.8,164.4 L657.6,166.6 L659.5,168.9 L661.4,171.1
		L663.2,173.3 L665.1,175.5 L666.9,177.7 L668.8,179.9 L670.6,182.2 L672.5,184.4 L674.3,186.7 L676.2,188.9
		L678.0,191.3 L679.9,193.6 L681.8,196.0 L683.6,198.5 L685.5,201.0 L687.3,203.6 L689.2,206.3 L691.0,209.0
		L692.9,211.8 L694.7,214.7 L696.6,217.7 L698.4,220.7 L700.3,223.7 L702.1,226.9 L704.0,230.1 L705.9,233.3
		L707.7,236.6 L709.6,239.9 L711.4,243.2 L713.3,246.6 L715.1,250.0 L717.0,253.4 L718.8,256.8 L720.7,260.2
		L722.5,263.6 L724.4,267.0 L726.2,270.4 L728.1,273.8 L730.0,277.1 L731.8,280.4 L733.7,283.7 L735.5,287.0
		L737.4,290.2 L739.2,293.4 L741.1,296.6 L742.9,299.8 L744.8,302.9 L746.6,306.0 L748.5,309.1 L750.3,312.2
		L752.2,315.2 L754.1,318.3 L755.9,321.3 L757.8,324.4 L759.6,327.4 L761.5,330.5 L763.3,333.6 L765.2,336.6
		L767.0,339.7 L768.9,342.9 L770.7,346.0 L772.6,349.2 L774.4,352.4 L776.3,355.6 L778.2,358.8 L780.0,362.1
		L781.9,365.3 L783.7,368.6 L785.6,371.9 L787.4,375.2 L789.3,378.5 L791.1,381.9 L793.0,385.2 L794.8,388.5
		L796.7,391.9 L798.5,395.2 L800.4,398.6 L802.3,401.9 L804.1,405.2 L806.0,408.6 L807.8,411.9 L809.7,415.2
		L811.5,418.5 L813.4,421.8 L815.2,425.1 L817.1,428.4 L818.9,431.6 L820.8,434.9 L822.6,438.1 L824.5,441.4
		L826.4,444.6 L828.2,447.7 L830.1,450.9 L831.9,454.1 L833.8,457.2 L835.6,460.2 L837.5,463.3 L839.3,466.3
		L841.2,469.3 L843.0,472.2 L844.9,475.1 L846.7,477.9 L848.6,480.8 L850.5,483.5 L852.3,486.2 L854.2,488.9
		L856.0,491.5 L857.9,494.1 L859.7,496.6 L861.6,499.1 L863.4,501.6 L865.3,504.0 L867.1,506.3 L869.0,508.7
		L870.8,510.9 L872.7,513.2 L874.6,515.4 L876.4,517.6 L878.3,519.7 L880.1,521.8 L882.0,523.9 L883.8,526.0
		L885.7,528.0 L887.5,530.1 L889.4,532.1 L891.2,534.1 L893.1,536.1 L894.9,538.1 L896.8,540.2 L898.7,542.2
		L900.5,544.2 L902.4,546.2 L904.2,548.3 L906.1,550.3 L907.9,552.4 L909.8,554.4 L911.6,556.5 L913.5,558.5
		L915.3,560.6 L917.2,562.6 L919.1,564.7 L920.9,566.7 L922.8,568.7 L924.6,570.7 L926.5,572.6 L928.3,574.5
		L930.2,576.4 L932.0,578.2 L933.9,580.0 L935.7,581.7 L937.6,583.4 L939.4,585.0 L941.3,586.5 L943.2,588.1
		L945.0,589.5 L946.9,590.9 L948.7,592.3 L950.6,593.6 L952.4,594.9 L954.3,596.1 L956.1,597.3 L958.0,598.5
		L959.8,599.6 L961.7,600.7 L963.5,601.7 L965.4,602.8 L967.3,603.8 L969.1,604.8 L971.0,605.8 L972.8,606.8
		L974.7,607.8 L976.5,608.8 L978.4,609.7 L980.2,610.7 L982.1,611.6 L983.9,612.6 L985.8,613.5 L987.6,614.5
		L989.5,615.4 L991.4,616.4 L993.2,617.3 L995.1,618.2 L996.9,619.2 L998.8,620.1 L1000.6,621.0 L1002.5,621.9
		L1004.3,622.9 L1006.2,623.8 L1008.0,624.7 L1009.9,625.6 L1011.7,626.5 L1013.6,627.4  '/></g>
	</g>
	<g id="gnuplot_plot_2" ><title>Confidence interval</title>
<g fill="none" color="white" stroke="rgb( 31, 120, 180)" stroke-width="1.00" stroke-linecap="butt" stroke-linejoin="miter">
</g>
<g fill="none" color="black" stroke="currentColor" stroke-width="1.00" stroke-linecap="butt" stroke-linejoin="miter">
	<g transform="translate(1089.0,85.0)" stroke="none" fill="black" font-family="Helvetica" font-size="12.00"  text-anchor="start">
		<text><tspan font-family="Helvetica" >Confidence interval</tspan></text>
	</g>
</g>
<g fill="none" color="black" stroke="currentColor" stroke-width="1.00" stroke-linecap="butt" stroke-linejoin="miter">
	<g stroke='none' shape-rendering='crispEdges'>
		<polygon fill = 'rgb( 31, 120, 180)' fill-opacity = '0.250000' points = '1038.5,85.6 1080.7,85.6 1080.7,76.6 1038.5,76.6 '/>
		<polygon fill = 'rgb( 31, 120, 180)' fill-opacity = '0.250000' points = '173.8,575.3 175.6,573.5 177.5,571.8 179.3,570.0 181.2,568.2 183.0,566.5 184.9,564.7 186.8,562.8 188.6,561.0 190.5,559.2 192.3,557.4 194.2,555.6 196.0,553.7 197.9,551.9 199.7,550.0 201.6,548.2
203.4,546.3 205.3,544.5 207.2,542.6 209.0,540.7 210.9,538.8 212.7,536.9 214.6,535.0 216.4,533.0 218.3,531.1 220.1,529.1 222.0,527.1 223.8,525.0 225.7,522.9 227.5,520.8 229.4,518.7 231.3,516.5
233.1,514.2 235.0,511.9 236.8,509.6 238.7,507.2 240.5,504.8 242.4,502.3 244.2,499.8 246.1,497.2 247.9,494.6 249.8,491.9 251.6,489.2 253.5,486.5 255.4,483.7 257.2,481.0 259.1,478.2 260.9,475.3
262.8,472.5 264.6,469.7 266.5,466.8 268.3,464.0 270.2,461.2 272.0,458.4 273.9,455.6 275.7,452.8 277.6,450.1 279.5,447.4 281.3,444.7 283.2,442.1 285.0,439.4 286.9,436.8 288.7,434.3 290.6,431.7
292.4,429.2 294.3,426.7 296.1,424.3 298.0,421.8 299.8,419.4 301.7,416.9 303.6,414.5 305.4,412.0 307.3,409.6 309.1,407.2 311.0,404.7 312.8,402.2 314.7,399.7 316.5,397.2 318.4,394.7 320.2,392.2
322.1,389.6 323.9,387.0 325.8,384.3 327.7,381.6 329.5,378.9 331.4,376.1 333.2,373.3 335.1,370.4 336.9,367.5 338.8,364.5 340.6,361.5 342.5,358.5 344.3,355.4 346.2,352.2 348.0,349.0 349.9,345.8
351.8,342.6 353.6,339.3 355.5,336.0 357.3,332.7 359.2,329.4 361.0,326.1 362.9,322.8 364.7,319.5 366.6,316.3 368.4,313.0 370.3,309.7 372.1,306.5 374.0,303.3 375.9,300.1 377.7,296.9 379.6,293.7
381.4,290.5 383.3,287.3 385.1,284.2 387.0,281.0 388.8,277.8 390.7,274.6 392.5,271.4 394.4,268.2 396.2,264.9 398.1,261.6 400.0,258.3 401.8,254.9 403.7,251.5 405.5,248.1 407.4,244.6 409.2,241.0
411.1,237.5 412.9,233.9 414.8,230.3 416.6,226.6 418.5,223.0 420.3,219.4 422.2,215.7 424.1,212.1 425.9,208.5 427.8,204.9 429.6,201.4 431.5,197.9 433.3,194.5 435.2,191.1 437.0,187.8 438.9,184.5
440.7,181.3 442.6,178.1 444.5,175.0 446.3,171.9 448.2,168.9 450.0,166.0 451.9,163.1 453.7,160.2 455.6,157.4 457.4,154.6 459.3,151.9 461.1,149.2 463.0,146.6 464.8,144.1 466.7,141.5 468.6,139.1
470.4,136.7 472.3,134.4 474.1,132.1 476.0,129.9 477.8,127.8 479.7,125.8 481.5,123.8 483.4,121.9 485.2,120.1 487.1,118.4 488.9,116.8 490.8,115.2 492.7,113.6 494.5,112.2 496.4,110.8 498.2,109.4
500.1,108.1 501.9,106.8 503.8,105.5 505.6,104.2 507.5,103.0 509.3,101.8 511.2,100.5 513.0,99.3 514.9,98.1 516.8,96.9 518.6,95.7 520.5,94.5 522.3,93.4 524.2,92.2 526.0,91.1 527.9,90.0
529.7,89.0 531.6,88.0 533.4,87.0 535.3,86.2 537.1,85.3 539.0,84.6 540.9,83.9 542.7,83.3 544.6,82.8 546.4,82.3 548.3,82.0 550.1,81.7 552.0,81.6 553.8,81.5 555.7,81.5 557.5,81.7
559.4,81.9 561.2,82.2 563.1,82.6 565.0,83.1 566.8,83.7 568.7,84.3 570.5,85.1 572.4,85.8 574.2,86.7 576.1,87.6 577.9,88.6 579.8,89.6 581.6,90.6 583.5,91.7 585.3,92.8 587.2,94.0
589.1,95.2 590.9,96.4 592.8,97.7 594.6,99.0 596.5,100.4 598.3,101.8 600.2,103.3 602.0,104.8 603.9,106.3 605.7,107.9 607.6,109.6 609.4,111.3 611.3,113.1 613.2,114.9 615.0,116.7 616.9,118.6
618.7,120.6 620.6,122.5 622.4,124.6 624.3,126.6 626.1,128.7 628.0,130.8 629.8,133.0 631.7,135.1 633.5,137.3 635.4,139.5 637.3,141.7 639.1,144.0 641.0,146.2 642.8,148.5 644.7,150.8 646.5,153.1
648.4,155.3 650.2,157.6 652.1,159.9 653.9,162.1 655.8,164.4 657.6,166.6 659.5,168.9 661.4,171.1 663.2,173.3 665.1,175.5 666.9,177.7 668.8,179.9 670.6,182.2 672.5,184.4 674.3,186.7 676.2,188.9
678.0,191.3 679.9,193.6 681.8,196.0 683.6,198.5 685.5,201.0 687.3,203.6 689.2,206.3 691.0,209.0 692.9,211.8 694.7,214.7 696.6,217.7 698.4,220.7 700.3,223.7 702.1,226.9 704.0,230.1 705.9,233.3
707.7,236.6 709.6,239.9 711.4,243.2 713.3,246.6 715.1,250.0 717.0,253.4 718.8,256.8 720.7,260.2 722.5,263.6 724.4,267.0 726.2,270.4 728.1,273.8 730.0,277.1 731.8,280.4 733.7,283.7 735.5,287.0
737.4,290.2 739.2,293.4 741.1,296.6 742.9,299.8 744.8,302.9 746.6,306.0 748.5,309.1 750.3,312.2 752.2,315.2 754.1,318.3 755.9,321.3 757.8,324.4 759.6,327.4 761.5,330.5 763.3,333.6 765.2,336.6
767.0,339.7 768.9,342.9 770.7,346.0 772.6,349.2 774.4,352.4 776.3,355.6 778.2,358.8 780.0,362.1 781.9,365.3 783.7,368.6 785.6,371.9 787.4,375.2 789.3,378.5 791.1,381.9 793.0,385.2 794.8,388.5
796.7,391.9 798.5,395.2 800.4,398.6 802.3,401.9 804.1,405.2 806.0,408.6 807.8,411.9 809.7,415.2 811.5,418.5 813.4,421.8 815.2,425.1 817.1,428.4 818.9,431.6 820.8,434.9 822.6,438.1 824.5,441.4
826.4,444.6 828.2,447.7 830.1,450.9 831.9,454.1 833.8,457.2 835.6,460.2 837.5,463.3 839.3,466.3 841.2,469.3 843.0,472.2 844.9,475.1 846.7,477.9 848.6,480.8 850.5,483.5 852.3,486.2 854.2,488.9
856.0,491.5 857.9,494.1 859.7,496.6 861.6,499.1 863.4,501.6 865.3,504.0 867.1,506.3 869.0,508.7 870.8,510.9 872.7,513.2 874.6,515.4 876.4,517.6 878.3,519.7 880.1,521.8 882.0,523.9 883.8,526.0
885.7,528.0 887.5,530.1 889.4,532.1 891.2,534.1 893.1,536.1 894.9,538.1 896.8,540.2 898.7,542.2 900.5,544.2 902.4,546.2 904.2,548.3 906.1,550.3 907.9,552.4 909.8,554.4 911.6,556.5 913.5,558.5
915.3,560.6 917.2,562.6 919.1,564.7 920.9,566.7 922.8,568.7 924.6,570.7 926.5,572.6 926.5,662.4 924.6,662.4 922.8,662.4 920.9,662.4 919.1,662.4 917.2,662.4 915.3,662.4 913.5,662.4 911.6,662.4
909.8,662.4 907.9,662.4 906.1,662.4 904.2,662.4 902.4,662.4 900.5,662.4 898.7,662.4 896.8,662.4 894.9,662.4 893.1,662.4 891.2,662.4 889.4,662.4 887.5,662.4 885.7,662.4 883.8,662.4 882.0,662.4
880.1,662.4 878.3,662.4 876.4,662.4 874.6,662.4 872.7,662.4 870.8,662.4 869.0,662.4 867.1,662.4 865.3,662.4 863.4,662.4 861.6,662.4 859.7,662.4 857.9,662.4 856.0,662.4 854.2,662.4 852.3,662.4
850.5,662.4 848.6,662.4 846.7,662.4 844.9,662.4 843.0,662.4 841.2,662.4 839.3,662.4 837.5,662.4 835.6,662.4 833.8,662.4 831.9,662.4 830.1,662.4 828.2,662.4 826.4,662.4 824.5,662.4 822.6,662.4
820.8,662.4 818.9,662.4 817.1,662.4 815.2,662.4 813.4,662.4 811.5,662.4 809.7,662.4 807.8,662.4 806.0,662.4 804.1,662.4 802.3,662.4 800.4,662.4 798.5,662.4 796.7,662.4 794.8,662.4 793.0,662.4
791.1,662.4 789.3,662.4 787.4,662.4 785.6,662.4 783.7,662.4 781.9,662.4 780.0,662.4 778.2,662.4 776.3,662.4 774.4,662.4 772.6,662.4 770.7,662.4 768.9,662.4 767.0,662.4 765.2,662.4 763.3,662.4
761.5,662.4 759.6,662.4 757.8,662.4 755.9,662.4 754.1,662.4 752.2,662.4 750.3,662.4 748.5,662.4 746.6,662.4 744.8,662.4 742.9,662.4 741.1,662.4 739.2,662.4 737.4,662.4 735.5,662.4 733.7,662.4
731.8,662.4 730.0,662.4 728.1,662.4 726.2,662.4 724.4,662.4 722.5,662.4 720.7,662.4 718.8,662.4 717.0,662.4 715.1,662.4 713.3,662.4 711.4,662.4 709.6,662.4 707.7,662.4 705.9,662.4 704.0,662.4
702.1,662.4 700.3,662.4 698.4,662.4 696.6,662.4 694.7,662.4 692.9,662.4 691.0,662.4 689.2,662.4 687.3,662.4 685.5,662.4 683.6,662.4 681.8,662.4 679.9,662.4 678.0,662.4 676.2,662.4 674.3,662.4
672.5,662.4 670.6,662.4 668.8,662.4 666.9,662.4 665.1,662.4 663.2,662.4 661.4,662.4 659.5,662.4 657.6,662.4 655.8,662.4 653.9,662.4 652.1,662.4 650.2,662.4 648.4,662.4 646.5,662.4 644.7,662.4
642.8,662.4 641.0,662.4 639.1,662.4 637.3,662.4 635.4,662.4 633.5,662.4 631.7,662.4 629.8,662.4 628.0,662.4 626.1,662.4 624.3,662.4 622.4,662.4 620.6,662.4 618.7,662.4 616.9,662.4 615.0,662.4
613.2,662.4 611.3,662.4 609.4,662.4 607.6,662.4 605.7,662.4 603.9,662.4 602.0,662.4 600.2,662.4 598.3,662.4 596.5,662.4 594.6,662.4 592.8,662.4 590.9,662.4 589.1,662.4 587.2,662.4 585.3,662.4
583.5,662.4 581.6,662.4 579.8,662.4 577.9,662.4 576.1,662.4 574.2,662.4 572.4,662.4 570.5,662.4 568.7,662.4 566.8,662.4 565.0,662.4 563.1,662.4 561.2,662.4 559.4,662.4 557.5,662.4 555.7,662.4
553.8,662.4 552.0,662.4 550.1,662.4 548.3,662.4 546.4,662.4 544.6,662.4 542.7,662.4 540.9,662.4 539.0,662.4 537.1,662.4 535.3,662.4 533.4,662.4 531.6,662.4 529.7,662.4 527.9,662.4 526.0,662.4
524.2,662.4 522.3,662.4 520.5,662.4 518.6,662.4 516.8,662.4 514.9,662.4 513.0,662.4 511.2,662.4 509.3,662.4 507.5,662.4 505.6,662.4 503.8,662.4 501.9,662.4 500.1,662.4 498.2,662.4 496.4,662.4
494.5,662.4 492.7,662.4 490.8,662.4 488.9,662.4 487.1,662.4 485.2,662.4 483.4,662.4 481.5,662.4 479.7,662.4 477.8,662.4 476.0,662.4 474.1,662.4 472.3,662.4 470.4,662.4 468.6,662.4 466.7,662.4
464.8,662.4 463.0,662.4 461.1,662.4 459.3,662.4 457.4,662.4 455.6,662.4 453.7,662.4 451.9,662.4 450.0,662.4 448.2,662.4 446.3,662.4 444.5,662.4 442.6,662.4 440.7,662.4 438.9,662.4 437.0,662.4
435.2,662.4 433.3,662.4 431.5,662.4 429.6,662.4 427.8,662.4 425.9,662.4 424.1,662.4 422.2,662.4 420.3,662.4 418.5,662.4 416.6,662.4 414.8,662.4 412.9,662.4 411.1,662.4 409.2,662.4 407.4,662.4
405.5,662.4 403.7,662.4 401.8,662.4 400.0,662.4 398.1,662.4 396.2,662.4 394.4,662.4 392.5,662.4 390.7,662.4 388.8,662.4 387.0,662.4 385.1,662.4 383.3,662.4 381.4,662.4 379.6,662.4 377.7,662.4
375.9,662.4 374.0,662.4 372.1,662.4 370.3,662.4 368.4,662.4 366.6,662.4 364.7,662.4 362.9,662.4 361.0,662.4 359.2,662.4 357.3,662.4 355.5,662.4 353.6,662.4 351.8,662.4 349.9,662.4 348.0,662.4
346.2,662.4 344.3,662.4 342.5,662.4 340.6,662.4 338.8,662.4 336.9,662.4 335.1,662.4 333.2,662.4 331.4,662.4 329.5,662.4 327.7,662.4 325.8,662.4 323.9,662.4 322.1,662.4 320.2,662.4 318.4,662.4
316.5,662.4 314.7,662.4 312.8,662.4 311.0,662.4 309.1,662.4 307.3,662.4 305.4,662.4 303.6,662.4 301.7,662.4 299.8,662.4 298.0,662.4 296.1,662.4 294.3,662.4 292.4,662.4 290.6,662.4 288.7,662.4
286.9,662.4 285.0,662.4 283.2,662.4 281.3,662.4 279.5,662.4 277.6,662.4 275.7,662.4 273.9,662.4 272.0,662.4 270.2,662.4 268.3,662.4 266.5,662.4 264.6,662.4 262.8,662.4 260.9,662.4 259.1,662.4
257.2,662.4 255.4,662.4 253.5,662.4 251.6,662.4 249.8,662.4 247.9,662.4 246.1,662.4 244.2,662.4 242.4,662.4 240.5,662.4 238.7,662.4 236.8,662.4 235.0,662.4 233.1,662.4 231.3,662.4 229.4,662.4
227.5,662.4 225.7,662.4 223.8,662.4 222.0,662.4 220.1,662.4 218.3,662.4 216.4,662.4 214.6,662.4 212.7,662.4 210.9,662.4 209.0,662.4 207.2,662.4 205.3,662.4 203.4,662.4 201.6,662.4 199.7,662.4
197.9,662.4 196.0,662.4 194.2,662.4 192.3,662.4 190.5,662.4 188.6,662.4 186.8,662.4 184.9,662.4 183.0,662.4 181.2,662.4 179.3,662.4 177.5,662.4 175.6,662.4 173.8,662.4 '/>
	</g>
</g>
	</g>
	<g id="gnuplot_plot_3" ><title>Point estimate</title>
<g fill="none" color="white" stroke="rgb( 31, 120, 180)" stroke-width="2.00" stroke-linecap="butt" stroke-linejoin="miter">
</g>
<g fill="none" color="black" stroke="currentColor" stroke-width="2.00" stroke-linecap="butt" stroke-linejoin="miter">
	<g transform="translate(1089.0,103.0)" stroke="none" fill="black" font-family="Helvetica" font-size="12.00"  text-anchor="start">
		<text><tspan font-family="Helvetica" >Point estimate</tspan></text>
	</g>
</g>
<g fill="none" color="black" stroke="currentColor" stroke-width="2.00" stroke-linecap="butt" stroke-linejoin="miter">
	<path stroke='rgb( 31, 120, 180)'  d='M1038.5,99.1 L1080.7,99.1 M554.6,662.4 L554.6,81.5  '/></g>
	</g>
<g fill="none" color="black" stroke="currentColor" stroke-width="2.00" stroke-linecap="butt" stroke-linejoin="miter">
</g>
<g fill="none" color="black" stroke="black" stroke-width="1.00" stroke-linecap="butt" stroke-linejoin="miter">
</g>
<g fill="none" color="black" stroke="currentColor" stroke-width="1.00" stroke-linecap="butt" stroke-linejoin="miter">
	<path stroke='black'  d='M88.5,54.1 L88.5,662.4 L1013.6,662.4 L1013.6,54.1 L88.5,54.1 Z  '/></g>
<g fill="none" color="black" stroke="currentColor" stroke-width="1.00" stroke-linecap="butt" stroke-linejoin="miter">
</g>
</g>
</svg>

