<?xml version="1.0" encoding="utf-8"  standalone="no"?>
<svg 
 viewBox="0 0 1280 720"
 xmlns="http://www.w3.org/2000/svg"
 xmlns:xlink="http://www.w3.org/1999/xlink"
>

<title>Gnuplot</title>
<desc>Produced by GNUPLOT 5.2 patchlevel 2 </desc>

<g id="gnuplot_canvas">

<rect x="0" y="0" width="1280" height="720" fill="none"/>
<defs>

	<circle id='gpDot' r='0.5' stroke-width='0.5'/>
	<path id='gpPt0' stroke-width='0.222' stroke='currentColor' d='M-1,0 h2 M0,-1 v2'/>
	<path id='gpPt1' stroke-width='0.222' stroke='currentColor' d='M-1,-1 L1,1 M1,-1 L-1,1'/>
	<path id='gpPt2' stroke-width='0.222' stroke='currentColor' d='M-1,0 L1,0 M0,-1 L0,1 M-1,-1 L1,1 M-1,1 L1,-1'/>
	<rect id='gpPt3' stroke-width='0.222' stroke='currentColor' x='-1' y='-1' width='2' height='2'/>
	<rect id='gpPt4' stroke-width='0.222' stroke='currentColor' fill='currentColor' x='-1' y='-1' width='2' height='2'/>
	<circle id='gpPt5' stroke-width='0.222' stroke='currentColor' cx='0' cy='0' r='1'/>
	<use xlink:href='#gpPt5' id='gpPt6' fill='currentColor' stroke='none'/>
	<path id='gpPt7' stroke-width='0.222' stroke='currentColor' d='M0,-1.33 L-1.33,0.67 L1.33,0.67 z'/>
	<use xlink:href='#gpPt7' id='gpPt8' fill='currentColor' stroke='none'/>
	<use xlink:href='#gpPt7' id='gpPt9' stroke='currentColor' transform='rotate(180)'/>
	<use xlink:href='#gpPt9' id='gpPt10' fill='currentColor' stroke='none'/>
	<use xlink:href='#gpPt3' id='gpPt11' stroke='currentColor' transform='rotate(45)'/>
	<use xlink:href='#gpPt11' id='gpPt12' fill='currentColor' stroke='none'/>
	<path id='gpPt13' stroke-width='0.222' stroke='currentColor' d='M0,1.330 L1.265,0.411 L0.782,-1.067 L-0.782,-1.076 L-1.265,0.411 z'/>
	<use xlink:href='#gpPt13' id='gpPt14' fill='currentColor' stroke='none'/>
	<filter id='textbox' filterUnits='objectBoundingBox' x='0' y='0' height='1' width='1'>
	  <feFlood flood-color='white' flood-opacity='1' result='bgnd'/>
	  <feComposite in='SourceGraphic' in2='bgnd' operator='atop'/>
	</filter>
	<filter id='greybox' filterUnits='objectBoundingBox' x='0' y='0' height='1' width='1'>
	  <feFlood flood-color='lightgrey' flood-opacity='1' result='grey'/>
	  <feComposite in='SourceGraphic' in2='grey' operator='atop'/>
	</filter>
</defs>
<g fill="none" color="white" stroke="currentColor" stroke-width="1.00" stroke-linecap="butt" stroke-linejoin="miter">
</g>
<g fill="none" color="black" stroke="currentColor" stroke-width="1.00" stroke-linecap="butt" stroke-linejoin="miter">
	<path stroke='black'  d='M105.1,662.4 L114.1,662.4  '/>	<g transform="translate(96.8,666.3)" stroke="none" fill="black" font-family="Helvetica" font-size="12.00"  text-anchor="end">
		<text><tspan font-family="Helvetica" > 0</tspan></text>
	</g>
</g>
<g fill="none" color="black" stroke="currentColor" stroke-width="1.00" stroke-linecap="butt" stroke-linejoin="miter">
	<path stroke='black'  d='M105.1,561.0 L114.1,561.0  '/>	<g transform="translate(96.8,564.9)" stroke="none" fill="black" font-family="Helvetica" font-size="12.00"  text-anchor="end">
		<text><tspan font-family="Helvetica" > 2x10</tspan><tspan font-family="Helvetica"  font-size="9.6" dy="-6.00px">-7</tspan><tspan font-size="12.0" dy="6.00"></tspan></text>
	</g>
</g>
<g fill="none" color="black" stroke="currentColor" stroke-width="1.00" stroke-linecap="butt" stroke-linejoin="miter">
	<path stroke='black'  d='M105.1,459.6 L114.1,459.6  '/>	<g transform="translate(96.8,463.5)" stroke="none" fill="black" font-family="Helvetica" font-size="12.00"  text-anchor="end">
		<text><tspan font-family="Helvetica" > 4x10</tspan><tspan font-family="Helvetica"  font-size="9.6" dy="-6.00px">-7</tspan><tspan font-size="12.0" dy="6.00"></tspan></text>
	</g>
</g>
<g fill="none" color="black" stroke="currentColor" stroke-width="1.00" stroke-linecap="butt" stroke-linejoin="miter">
	<path stroke='black'  d='M105.1,358.2 L114.1,358.2  '/>	<g transform="translate(96.8,362.1)" stroke="none" fill="black" font-family="Helvetica" font-size="12.00"  text-anchor="end">
		<text><tspan font-family="Helvetica" > 6x10</tspan><tspan font-family="Helvetica"  font-size="9.6" dy="-6.00px">-7</tspan><tspan font-size="12.0" dy="6.00"></tspan></text>
	</g>
</g>
<g fill="none" color="black" stroke="currentColor" stroke-width="1.00" stroke-linecap="butt" stroke-linejoin="miter">
	<path stroke='black'  d='M105.1,256.9 L114.1,256.9  '/>	<g transform="translate(96.8,260.8)" stroke="none" fill="black" font-family="Helvetica" font-size="12.00"  text-anchor="end">
		<text><tspan font-family="Helvetica" > 8x10</tspan><tspan font-family="Helvetica"  font-size="9.6" dy="-6.00px">-7</tspan><tspan font-size="12.0" dy="6.00"></tspan></text>
	</g>
</g>
<g fill="none" color="black" stroke="currentColor" stroke-width="1.00" stroke-linecap="butt" stroke-linejoin="miter">
	<path stroke='black'  d='M105.1,155.5 L114.1,155.5  '/>	<g transform="translate(96.8,159.4)" stroke="none" fill="black" font-family="Helvetica" font-size="12.00"  text-anchor="end">
		<text><tspan font-family="Helvetica" > 1x10</tspan><tspan font-family="Helvetica"  font-size="9.6" dy="-6.00px">-6</tspan><tspan font-size="12.0" dy="6.00"></tspan></text>
	</g>
</g>
<g fill="none" color="black" stroke="currentColor" stroke-width="1.00" stroke-linecap="butt" stroke-linejoin="miter">
	<path stroke='black'  d='M105.1,54.1 L114.1,54.1  '/>	<g transform="translate(96.8,58.0)" stroke="none" fill="black" font-family="Helvetica" font-size="12.00"  text-anchor="end">
		<text><tspan font-family="Helvetica" > 1.2x10</tspan><tspan font-family="Helvetica"  font-size="9.6" dy="-6.00px">-6</tspan><tspan font-size="12.0" dy="6.00"></tspan></text>
	</g>
</g>
<g fill="none" color="black" stroke="currentColor" stroke-width="1.00" stroke-linecap="butt" stroke-linejoin="miter">
	<path stroke='black'  d='M135.5,662.4 L135.5,653.4  '/>	<g transform="translate(135.5,684.3)" stroke="none" fill="black" font-family="Helvetica" font-size="12.00"  text-anchor="middle">
		<text><tspan font-family="Helvetica" > 5.2x10</tspan><tspan font-family="Helvetica"  font-size="9.6" dy="-6.00px">6</tspan><tspan font-size="12.0" dy="6.00"></tspan></text>
	</g>
</g>
<g fill="none" color="black" stroke="currentColor" stroke-width="1.00" stroke-linecap="butt" stroke-linejoin="miter">
	<path stroke='black'  d='M245.8,662.4 L245.8,653.4  '/>	<g transform="translate(245.8,684.3)" stroke="none" fill="black" font-family="Helvetica" font-size="12.00"  text-anchor="middle">
		<text><tspan font-family="Helvetica" > 5.4x10</tspan><tspan font-family="Helvetica"  font-size="9.6" dy="-6.00px">6</tspan><tspan font-size="12.0" dy="6.00"></tspan></text>
	</g>
</g>
<g fill="none" color="black" stroke="currentColor" stroke-width="1.00" stroke-linecap="butt" stroke-linejoin="miter">
	<path stroke='black'  d='M356.1,662.4 L356.1,653.4  '/>	<g transform="translate(356.1,684.3)" stroke="none" fill="black" font-family="Helvetica" font-size="12.00"  text-anchor="middle">
		<text><tspan font-family="Helvetica" > 5.6x10</tspan><tspan font-family="Helvetica"  font-size="9.6" dy="-6.00px">6</tspan><tspan font-size="12.0" dy="6.00"></tspan></text>
	</g>
</g>
<g fill="none" color="black" stroke="currentColor" stroke-width="1.00" stroke-linecap="butt" stroke-linejoin="miter">
	<path stroke='black'  d='M466.3,662.4 L466.3,653.4  '/>	<g transform="translate(466.3,684.3)" stroke="none" fill="black" font-family="Helvetica" font-size="12.00"  text-anchor="middle">
		<text><tspan font-family="Helvetica" > 5.8x10</tspan><tspan font-family="Helvetica"  font-size="9.6" dy="-6.00px">6</tspan><tspan font-size="12.0" dy="6.00"></tspan></text>
	</g>
</g>
<g fill="none" color="black" stroke="currentColor" stroke-width="1.00" stroke-linecap="butt" stroke-linejoin="miter">
	<path stroke='black'  d='M576.6,662.4 L576.6,653.4  '/>	<g transform="translate(576.6,684.3)" stroke="none" fill="black" font-family="Helvetica" font-size="12.00"  text-anchor="middle">
		<text><tspan font-family="Helvetica" > 6x10</tspan><tspan font-family="Helvetica"  font-size="9.6" dy="-6.00px">6</tspan><tspan font-size="12.0" dy="6.00"></tspan></text>
	</g>
</g>
<g fill="none" color="black" stroke="currentColor" stroke-width="1.00" stroke-linecap="butt" stroke-linejoin="miter">
	<path stroke='black'  d='M686.9,662.4 L686.9,653.4  '/>	<g transform="translate(686.9,684.3)" stroke="none" fill="black" font-family="Helvetica" font-size="12.00"  text-anchor="middle">
		<text><tspan font-family="Helvetica" > 6.2x10</tspan><tspan font-family="Helvetica"  font-size="9.6" dy="-6.00px">6</tspan><tspan font-size="12.0" dy="6.00"></tspan></text>
	</g>
</g>
<g fill="none" color="black" stroke="currentColor" stroke-width="1.00" stroke-linecap="butt" stroke-linejoin="miter">
	<path stroke='black'  d='M797.1,662.4 L797.1,653.4  '/>	<g transform="translate(797.1,684.3)" stroke="none" fill="black" font-family="Helvetica" font-size="12.00"  text-anchor="middle">
		<text><tspan font-family="Helvetica" > 6.4x10</tspan><tspan font-family="Helvetica"  font-size="9.6" dy="-6.00px">6</tspan><tspan font-size="12.0" dy="6.00"></tspan></text>
	</g>
</g>
<g fill="none" color="black" stroke="currentColor" stroke-width="1.00" stroke-linecap="butt" stroke-linejoin="miter">
	<path stroke='black'  d='M907.4,662.4 L907.4,653.4  '/>	<g transform="translate(907.4,684.3)" stroke="none" fill="black" font-family="Helvetica" font-size="12.00"  text-anchor="middle">
		<text><tspan font-family="Helvetica" > 6.6x10</tspan><tspan font-family="Helvetica"  font-size="9.6" dy="-6.00px">6</tspan><tspan font-size="12.0" dy="6.00"></tspan></text>
	</g>
</g>
<g fill="none" color="black" stroke="currentColor" stroke-width="1.00" stroke-linecap="butt" stroke-linejoin="miter">
</g>
<g fill="none" color="black" stroke="currentColor" stroke-width="1.00" stroke-linecap="butt" stroke-linejoin="miter">
	<path stroke='black'  d='M105.1,54.1 L105.1,662.4 L1013.6,662.4 L1013.6,54.1 L105.1,54.1 Z  '/></g>
<g fill="none" color="black" stroke="currentColor" stroke-width="1.00" stroke-linecap="butt" stroke-linejoin="miter">
	<g transform="translate(16.3,358.3) rotate(270)" stroke="none" fill="black" font-family="Helvetica" font-size="12.00"  text-anchor="middle">
		<text><tspan font-family="Helvetica" >Density (a.u.)</tspan></text>
	</g>
</g>
<g fill="none" color="black" stroke="currentColor" stroke-width="1.00" stroke-linecap="butt" stroke-linejoin="miter">
	<g transform="translate(559.3,711.3)" stroke="none" fill="black" font-family="Helvetica" font-size="12.00"  text-anchor="middle">
		<text><tspan font-family="Helvetica" >Average time (cycles)</tspan></text>
	</g>
</g>
<g fill="none" color="black" stroke="currentColor" stroke-width="1.00" stroke-linecap="butt" stroke-linejoin="miter">
	<g transform="translate(559.3,31.0)" stroke="none" fill="black" font-family="Helvetica" font-size="12.00"  text-anchor="middle">
		<text><tspan font-family="Helvetica" >non_nested_compare/initial calculation/16: SD</tspan></text>
	</g>
</g>
	<g id="gnuplot_plot_1" ><title>Bootstrap distribution</title>
<g fill="none" color="white" stroke="black" stroke-width="2.00" stroke-linecap="butt" stroke-linejoin="miter">
</g>
<g fill="none" color="black" stroke="currentColor" stroke-width="2.00" stroke-linecap="butt" stroke-linejoin="miter">
	<g transform="translate(1089.0,67.0)" stroke="none" fill="black" font-family="Helvetica" font-size="12.00"  text-anchor="start">
		<text><tspan font-family="Helvetica" >Bootstrap distribution</tspan></text>
	</g>
</g>
<g fill="none" color="black" stroke="currentColor" stroke-width="2.00" stroke-linecap="butt" stroke-linejoin="miter">
	<path stroke='rgb( 31, 120, 180)'  d='M1038.5,63.1 L1080.7,63.1 M105.1,628.1 L106.9,627.4 L108.7,626.8 L110.6,626.1 L112.4,625.4 L114.2,624.7
		L116.0,623.9 L117.8,623.2 L119.7,622.4 L121.5,621.6 L123.3,620.7 L125.1,619.9 L126.9,619.0 L128.8,618.1
		L130.6,617.2 L132.4,616.2 L134.2,615.2 L136.1,614.2 L137.9,613.2 L139.7,612.1 L141.5,611.1 L143.3,610.0
		L145.2,608.9 L147.0,607.8 L148.8,606.7 L150.6,605.6 L152.4,604.5 L154.3,603.4 L156.1,602.3 L157.9,601.3
		L159.7,600.2 L161.5,599.2 L163.4,598.1 L165.2,597.1 L167.0,596.0 L168.8,595.0 L170.6,594.0 L172.5,592.9
		L174.3,591.9 L176.1,590.8 L177.9,589.8 L179.7,588.7 L181.6,587.5 L183.4,586.4 L185.2,585.2 L187.0,584.0
		L188.8,582.7 L190.7,581.4 L192.5,580.0 L194.3,578.6 L196.1,577.2 L198.0,575.8 L199.8,574.3 L201.6,572.7
		L203.4,571.1 L205.2,569.5 L207.1,567.9 L208.9,566.2 L210.7,564.5 L212.5,562.7 L214.3,561.0 L216.2,559.2
		L218.0,557.4 L219.8,555.5 L221.6,553.6 L223.4,551.7 L225.3,549.8 L227.1,547.8 L228.9,545.9 L230.7,543.9
		L232.5,541.9 L234.4,539.8 L236.2,537.7 L238.0,535.7 L239.8,533.5 L241.6,531.4 L243.5,529.3 L245.3,527.1
		L247.1,524.9 L248.9,522.7 L250.8,520.5 L252.6,518.3 L254.4,516.0 L256.2,513.8 L258.0,511.5 L259.9,509.3
		L261.7,507.0 L263.5,504.7 L265.3,502.4 L267.1,500.1 L269.0,497.8 L270.8,495.5 L272.6,493.2 L274.4,490.9
		L276.2,488.5 L278.1,486.2 L279.9,483.8 L281.7,481.5 L283.5,479.1 L285.3,476.7 L287.2,474.3 L289.0,471.9
		L290.8,469.5 L292.6,467.0 L294.4,464.6 L296.3,462.2 L298.1,459.7 L299.9,457.3 L301.7,454.8 L303.5,452.4
		L305.4,449.9 L307.2,447.4 L309.0,445.0 L310.8,442.5 L312.7,440.0 L314.5,437.5 L316.3,435.0 L318.1,432.5
		L319.9,429.9 L321.8,427.4 L323.6,424.8 L325.4,422.1 L327.2,419.4 L329.0,416.7 L330.9,413.9 L332.7,411.1
		L334.5,408.2 L336.3,405.3 L338.1,402.4 L340.0,399.3 L341.8,396.3 L343.6,393.1 L345.4,390.0 L347.2,386.7
		L349.1,383.5 L350.9,380.2 L352.7,376.8 L354.5,373.4 L356.3,370.0 L358.2,366.5 L360.0,363.0 L361.8,359.5
		L363.6,356.0 L365.5,352.4 L367.3,348.8 L369.1,345.2 L370.9,341.5 L372.7,337.9 L374.6,334.2 L376.4,330.5
		L378.2,326.9 L380.0,323.2 L381.8,319.5 L383.7,315.9 L385.5,312.2 L387.3,308.6 L389.1,305.0 L390.9,301.4
		L392.8,297.8 L394.6,294.3 L396.4,290.8 L398.2,287.3 L400.0,283.8 L401.9,280.3 L403.7,276.9 L405.5,273.5
		L407.3,270.1 L409.1,266.7 L411.0,263.2 L412.8,259.8 L414.6,256.4 L416.4,252.9 L418.3,249.5 L420.1,246.0
		L421.9,242.5 L423.7,238.9 L425.5,235.4 L427.4,231.8 L429.2,228.2 L431.0,224.6 L432.8,220.9 L434.6,217.3
		L436.5,213.7 L438.3,210.0 L440.1,206.4 L441.9,202.8 L443.7,199.3 L445.6,195.8 L447.4,192.3 L449.2,188.9
		L451.0,185.5 L452.8,182.2 L454.7,179.0 L456.5,175.8 L458.3,172.7 L460.1,169.7 L461.9,166.8 L463.8,163.9
		L465.6,161.1 L467.4,158.4 L469.2,155.8 L471.0,153.3 L472.9,150.8 L474.7,148.4 L476.5,146.0 L478.3,143.8
		L480.2,141.6 L482.0,139.4 L483.8,137.4 L485.6,135.3 L487.4,133.4 L489.3,131.4 L491.1,129.6 L492.9,127.7
		L494.7,125.9 L496.5,124.2 L498.4,122.4 L500.2,120.7 L502.0,119.1 L503.8,117.5 L505.6,115.9 L507.5,114.4
		L509.3,112.8 L511.1,111.4 L512.9,109.9 L514.7,108.5 L516.6,107.2 L518.4,105.8 L520.2,104.6 L522.0,103.3
		L523.8,102.1 L525.7,100.8 L527.5,99.7 L529.3,98.5 L531.1,97.3 L533.0,96.2 L534.8,95.0 L536.6,93.9
		L538.4,92.8 L540.2,91.6 L542.1,90.5 L543.9,89.3 L545.7,88.2 L547.5,87.0 L549.3,85.9 L551.2,84.8
		L553.0,83.7 L554.8,82.7 L556.6,81.7 L558.4,80.7 L560.3,79.8 L562.1,79.0 L563.9,78.2 L565.7,77.6
		L567.5,77.0 L569.4,76.5 L571.2,76.1 L573.0,75.8 L574.8,75.7 L576.6,75.6 L578.5,75.6 L580.3,75.8
		L582.1,76.0 L583.9,76.4 L585.7,76.8 L587.6,77.3 L589.4,77.9 L591.2,78.5 L593.0,79.3 L594.9,80.1
		L596.7,80.9 L598.5,81.8 L600.3,82.8 L602.1,83.8 L604.0,84.8 L605.8,85.8 L607.6,86.9 L609.4,88.0
		L611.2,89.0 L613.1,90.1 L614.9,91.2 L616.7,92.2 L618.5,93.3 L620.3,94.3 L622.2,95.4 L624.0,96.4
		L625.8,97.4 L627.6,98.4 L629.4,99.4 L631.3,100.5 L633.1,101.5 L634.9,102.6 L636.7,103.7 L638.5,104.8
		L640.4,106.0 L642.2,107.2 L644.0,108.6 L645.8,110.0 L647.7,111.5 L649.5,113.1 L651.3,114.8 L653.1,116.6
		L654.9,118.5 L656.8,120.5 L658.6,122.7 L660.4,124.9 L662.2,127.2 L664.0,129.7 L665.9,132.2 L667.7,134.8
		L669.5,137.4 L671.3,140.1 L673.1,142.9 L675.0,145.7 L676.8,148.6 L678.6,151.4 L680.4,154.3 L682.2,157.2
		L684.1,160.1 L685.9,163.0 L687.7,165.9 L689.5,168.9 L691.3,171.8 L693.2,174.7 L695.0,177.6 L696.8,180.5
		L698.6,183.4 L700.4,186.3 L702.3,189.2 L704.1,192.1 L705.9,195.0 L707.7,197.9 L709.6,200.8 L711.4,203.7
		L713.2,206.5 L715.0,209.4 L716.8,212.2 L718.7,215.1 L720.5,217.9 L722.3,220.8 L724.1,223.6 L725.9,226.4
		L727.8,229.3 L729.6,232.1 L731.4,235.0 L733.2,237.9 L735.0,240.8 L736.9,243.7 L738.7,246.7 L740.5,249.7
		L742.3,252.7 L744.1,255.8 L746.0,259.0 L747.8,262.2 L749.6,265.4 L751.4,268.8 L753.2,272.2 L755.1,275.7
		L756.9,279.2 L758.7,282.9 L760.5,286.6 L762.4,290.3 L764.2,294.2 L766.0,298.1 L767.8,302.1 L769.6,306.1
		L771.5,310.2 L773.3,314.3 L775.1,318.5 L776.9,322.7 L778.7,326.9 L780.6,331.0 L782.4,335.2 L784.2,339.4
		L786.0,343.6 L787.8,347.7 L789.7,351.7 L791.5,355.8 L793.3,359.8 L795.1,363.7 L796.9,367.6 L798.8,371.4
		L800.6,375.2 L802.4,378.9 L804.2,382.5 L806.0,386.1 L807.9,389.7 L809.7,393.2 L811.5,396.6 L813.3,400.1
		L815.2,403.5 L817.0,406.8 L818.8,410.1 L820.6,413.4 L822.4,416.7 L824.3,420.0 L826.1,423.2 L827.9,426.4
		L829.7,429.6 L831.5,432.7 L833.4,435.9 L835.2,439.0 L837.0,442.1 L838.8,445.1 L840.6,448.1 L842.5,451.1
		L844.3,454.0 L846.1,456.9 L847.9,459.8 L849.7,462.6 L851.6,465.4 L853.4,468.1 L855.2,470.7 L857.0,473.3
		L858.8,475.9 L860.7,478.4 L862.5,480.8 L864.3,483.2 L866.1,485.6 L867.9,487.9 L869.8,490.1 L871.6,492.3
		L873.4,494.5 L875.2,496.7 L877.1,498.8 L878.9,500.9 L880.7,503.1 L882.5,505.2 L884.3,507.3 L886.2,509.4
		L888.0,511.6 L889.8,513.7 L891.6,515.9 L893.4,518.1 L895.3,520.3 L897.1,522.5 L898.9,524.8 L900.7,527.0
		L902.5,529.3 L904.4,531.6 L906.2,533.9 L908.0,536.2 L909.8,538.5 L911.6,540.8 L913.5,543.1 L915.3,545.3
		L917.1,547.6 L918.9,549.9 L920.7,552.2 L922.6,554.4 L924.4,556.6 L926.2,558.8 L928.0,561.0 L929.9,563.1
		L931.7,565.2 L933.5,567.3 L935.3,569.4 L937.1,571.4 L939.0,573.3 L940.8,575.3 L942.6,577.2 L944.4,579.0
		L946.2,580.8 L948.1,582.6 L949.9,584.4 L951.7,586.1 L953.5,587.8 L955.3,589.5 L957.2,591.1 L959.0,592.8
		L960.8,594.4 L962.6,595.9 L964.4,597.5 L966.3,599.0 L968.1,600.5 L969.9,602.0 L971.7,603.5 L973.5,605.0
		L975.4,606.4 L977.2,607.8 L979.0,609.1 L980.8,610.5 L982.6,611.8 L984.5,613.1 L986.3,614.3 L988.1,615.5
		L989.9,616.7 L991.8,617.8 L993.6,619.0 L995.4,620.0 L997.2,621.1 L999.0,622.1 L1000.9,623.1 L1002.7,624.0
		L1004.5,625.0 L1006.3,625.9 L1008.1,626.8 L1010.0,627.7 L1011.8,628.5 L1013.6,629.3  '/></g>
	</g>
	<g id="gnuplot_plot_2" ><title>Confidence interval</title>
<g fill="none" color="white" stroke="rgb( 31, 120, 180)" stroke-width="1.00" stroke-linecap="butt" stroke-linejoin="miter">
</g>
<g fill="none" color="black" stroke="currentColor" stroke-width="1.00" stroke-linecap="butt" stroke-linejoin="miter">
	<g transform="translate(1089.0,85.0)" stroke="none" fill="black" font-family="Helvetica" font-size="12.00"  text-anchor="start">
		<text><tspan font-family="Helvetica" >Confidence interval</tspan></text>
	</g>
</g>
<g fill="none" color="black" stroke="currentColor" stroke-width="1.00" stroke-linecap="butt" stroke-linejoin="miter">
	<g stroke='none' shape-rendering='crispEdges'>
		<polygon fill = 'rgb( 31, 120, 180)' fill-opacity = '0.250000' points = '1038.5,85.6 1080.7,85.6 1080.7,76.6 1038.5,76.6 '/>
		<polygon fill = 'rgb( 31, 120, 180)' fill-opacity = '0.250000' points = '188.8,582.7 190.7,581.4 192.5,580.0 194.3,578.6 196.1,577.2 198.0,575.8 199.8,574.3 201.6,572.7 203.4,571.1 205.2,569.5 207.1,567.9 208.9,566.2 210.7,564.5 212.5,562.7 214.3,561.0 216.2,559.2
218.0,557.4 219.8,555.5 221.6,553.6 223.4,551.7 225.3,549.8 227.1,547.8 228.9,545.9 230.7,543.9 232.5,541.9 234.4,539.8 236.2,537.7 238.0,535.7 239.8,533.5 241.6,531.4 243.5,529.3 245.3,527.1
247.1,524.9 248.9,522.7 250.8,520.5 252.6,518.3 254.4,516.0 256.2,513.8 258.0,511.5 259.9,509.3 261.7,507.0 263.5,504.7 265.3,502.4 267.1,500.1 269.0,497.8 270.8,495.5 272.6,493.2 274.4,490.9
276.2,488.5 278.1,486.2 279.9,483.8 281.7,481.5 283.5,479.1 285.3,476.7 287.2,474.3 289.0,471.9 290.8,469.5 292.6,467.0 294.4,464.6 296.3,462.2 298.1,459.7 299.9,457.3 301.7,454.8 303.5,452.4
305.4,449.9 307.2,447.4 309.0,445.0 310.8,442.5 312.7,440.0 314.5,437.5 316.3,435.0 318.1,432.5 319.9,429.9 321.8,427.4 323.6,424.8 325.4,422.1 327.2,419.4 329.0,416.7 330.9,413.9 332.7,411.1
334.5,408.2 336.3,405.3 338.1,402.4 340.0,399.3 341.8,396.3 343.6,393.1 345.4,390.0 347.2,386.7 349.1,383.5 350.9,380.2 352.7,376.8 354.5,373.4 356.3,370.0 358.2,366.5 360.0,363.0 361.8,359.5
363.6,356.0 365.5,352.4 367.3,348.8 369.1,345.2 370.9,341.5 372.7,337.9 374.6,334.2 376.4,330.5 378.2,326.9 380.0,323.2 381.8,319.5 383.7,315.9 385.5,312.2 387.3,308.6 389.1,305.0 390.9,301.4
392.8,297.8 394.6,294.3 396.4,290.8 398.2,287.3 400.0,283.8 401.9,280.3 403.7,276.9 405.5,273.5 407.3,270.1 409.1,266.7 411.0,263.2 412.8,259.8 414.6,256.4 416.4,252.9 418.3,249.5 420.1,246.0
421.9,242.5 423.7,238.9 425.5,235.4 427.4,231.8 429.2,228.2 431.0,224.6 432.8,220.9 434.6,217.3 436.5,213.7 438.3,210.0 440.1,206.4 441.9,202.8 443.7,199.3 445.6,195.8 447.4,192.3 449.2,188.9
451.0,185.5 452.8,182.2 454.7,179.0 456.5,175.8 458.3,172.7 460.1,169.7 461.9,166.8 463.8,163.9 465.6,161.1 467.4,158.4 469.2,155.8 471.0,153.3 472.9,150.8 474.7,148.4 476.5,146.0 478.3,143.8
480.2,141.6 482.0,139.4 483.8,137.4 485.6,135.3 487.4,133.4 489.3,131.4 491.1,129.6 492.9,127.7 494.7,125.9 496.5,124.2 498.4,122.4 500.2,120.7 502.0,119.1 503.8,117.5 505.6,115.9 507.5,114.4
509.3,112.8 511.1,111.4 512.9,109.9 514.7,108.5 516.6,107.2 518.4,105.8 520.2,104.6 522.0,103.3 523.8,102.1 525.7,100.8 527.5,99.7 529.3,98.5 531.1,97.3 533.0,96.2 534.8,95.0 536.6,93.9
538.4,92.8 540.2,91.6 542.1,90.5 543.9,89.3 545.7,88.2 547.5,87.0 549.3,85.9 551.2,84.8 553.0,83.7 554.8,82.7 556.6,81.7 558.4,80.7 560.3,79.8 562.1,79.0 563.9,78.2 565.7,77.6
567.5,77.0 569.4,76.5 571.2,76.1 573.0,75.8 574.8,75.7 576.6,75.6 578.5,75.6 580.3,75.8 582.1,76.0 583.9,76.4 585.7,76.8 587.6,77.3 589.4,77.9 591.2,78.5 593.0,79.3 594.9,80.1
596.7,80.9 598.5,81.8 600.3,82.8 602.1,83.8 604.0,84.8 605.8,85.8 607.6,86.9 609.4,88.0 611.2,89.0 613.1,90.1 614.9,91.2 616.7,92.2 618.5,93.3 620.3,94.3 622.2,95.4 624.0,96.4
625.8,97.4 627.6,98.4 629.4,99.4 631.3,100.5 633.1,101.5 634.9,102.6 636.7,103.7 638.5,104.8 640.4,106.0 642.2,107.2 644.0,108.6 645.8,110.0 647.7,111.5 649.5,113.1 651.3,114.8 653.1,116.6
654.9,118.5 656.8,120.5 658.6,122.7 660.4,124.9 662.2,127.2 664.0,129.7 665.9,132.2 667.7,134.8 669.5,137.4 671.3,140.1 673.1,142.9 675.0,145.7 676.8,148.6 678.6,151.4 680.4,154.3 682.2,157.2
684.1,160.1 685.9,163.0 687.7,165.9 689.5,168.9 691.3,171.8 693.2,174.7 695.0,177.6 696.8,180.5 698.6,183.4 700.4,186.3 702.3,189.2 704.1,192.1 705.9,195.0 707.7,197.9 709.6,200.8 711.4,203.7
713.2,206.5 715.0,209.4 716.8,212.2 718.7,215.1 720.5,217.9 722.3,220.8 724.1,223.6 725.9,226.4 727.8,229.3 729.6,232.1 731.4,235.0 733.2,237.9 735.0,240.8 736.9,243.7 738.7,246.7 740.5,249.7
742.3,252.7 744.1,255.8 746.0,259.0 747.8,262.2 749.6,265.4 751.4,268.8 753.2,272.2 755.1,275.7 756.9,279.2 758.7,282.9 760.5,286.6 762.4,290.3 764.2,294.2 766.0,298.1 767.8,302.1 769.6,306.1
771.5,310.2 773.3,314.3 775.1,318.5 776.9,322.7 778.7,326.9 780.6,331.0 782.4,335.2 784.2,339.4 786.0,343.6 787.8,347.7 789.7,351.7 791.5,355.8 793.3,359.8 795.1,363.7 796.9,367.6 798.8,371.4
800.6,375.2 802.4,378.9 804.2,382.5 806.0,386.1 807.9,389.7 809.7,393.2 811.5,396.6 813.3,400.1 815.2,403.5 817.0,406.8 818.8,410.1 820.6,413.4 822.4,416.7 824.3,420.0 826.1,423.2 827.9,426.4
829.7,429.6 831.5,432.7 833.4,435.9 835.2,439.0 837.0,442.1 838.8,445.1 840.6,448.1 842.5,451.1 844.3,454.0 846.1,456.9 847.9,459.8 849.7,462.6 851.6,465.4 853.4,468.1 855.2,470.7 857.0,473.3
858.8,475.9 860.7,478.4 862.5,480.8 864.3,483.2 866.1,485.6 867.9,487.9 869.8,490.1 871.6,492.3 873.4,494.5 875.2,496.7 877.1,498.8 878.9,500.9 880.7,503.1 882.5,505.2 884.3,507.3 886.2,509.4
888.0,511.6 889.8,513.7 891.6,515.9 893.4,518.1 895.3,520.3 897.1,522.5 898.9,524.8 900.7,527.0 902.5,529.3 904.4,531.6 906.2,533.9 908.0,536.2 909.8,538.5 911.6,540.8 913.5,543.1 915.3,545.3
917.1,547.6 918.9,549.9 920.7,552.2 922.6,554.4 924.4,556.6 926.2,558.8 928.0,561.0 928.0,662.4 926.2,662.4 924.4,662.4 922.6,662.4 920.7,662.4 918.9,662.4 917.1,662.4 915.3,662.4 913.5,662.4
911.6,662.4 909.8,662.4 908.0,662.4 906.2,662.4 904.4,662.4 902.5,662.4 900.7,662.4 898.9,662.4 897.1,662.4 895.3,662.4 893.4,662.4 891.6,662.4 889.8,662.4 888.0,662.4 886.2,662.4 884.3,662.4
882.5,662.4 880.7,662.4 878.9,662.4 877.1,662.4 875.2,662.4 873.4,662.4 871.6,662.4 869.8,662.4 867.9,662.4 866.1,662.4 864.3,662.4 862.5,662.4 860.7,662.4 858.8,662.4 857.0,662.4 855.2,662.4
853.4,662.4 851.6,662.4 849.7,662.4 847.9,662.4 846.1,662.4 844.3,662.4 842.5,662.4 840.6,662.4 838.8,662.4 837.0,662.4 835.2,662.4 833.4,662.4 831.5,662.4 829.7,662.4 827.9,662.4 826.1,662.4
824.3,662.4 822.4,662.4 820.6,662.4 818.8,662.4 817.0,662.4 815.2,662.4 813.3,662.4 811.5,662.4 809.7,662.4 807.9,662.4 806.0,662.4 804.2,662.4 802.4,662.4 800.6,662.4 798.8,662.4 796.9,662.4
795.1,662.4 793.3,662.4 791.5,662.4 789.7,662.4 787.8,662.4 786.0,662.4 784.2,662.4 782.4,662.4 780.6,662.4 778.7,662.4 776.9,662.4 775.1,662.4 773.3,662.4 771.5,662.4 769.6,662.4 767.8,662.4
766.0,662.4 764.2,662.4 762.4,662.4 760.5,662.4 758.7,662.4 756.9,662.4 755.1,662.4 753.2,662.4 751.4,662.4 749.6,662.4 747.8,662.4 746.0,662.4 744.1,662.4 742.3,662.4 740.5,662.4 738.7,662.4
736.9,662.4 735.0,662.4 733.2,662.4 731.4,662.4 729.6,662.4 727.8,662.4 725.9,662.4 724.1,662.4 722.3,662.4 720.5,662.4 718.7,662.4 716.8,662.4 715.0,662.4 713.2,662.4 711.4,662.4 709.6,662.4
707.7,662.4 705.9,662.4 704.1,662.4 702.3,662.4 700.4,662.4 698.6,662.4 696.8,662.4 695.0,662.4 693.2,662.4 691.3,662.4 689.5,662.4 687.7,662.4 685.9,662.4 684.1,662.4 682.2,662.4 680.4,662.4
678.6,662.4 676.8,662.4 675.0,662.4 673.1,662.4 671.3,662.4 669.5,662.4 667.7,662.4 665.9,662.4 664.0,662.4 662.2,662.4 660.4,662.4 658.6,662.4 656.8,662.4 654.9,662.4 653.1,662.4 651.3,662.4
649.5,662.4 647.7,662.4 645.8,662.4 644.0,662.4 642.2,662.4 640.4,662.4 638.5,662.4 636.7,662.4 634.9,662.4 633.1,662.4 631.3,662.4 629.4,662.4 627.6,662.4 625.8,662.4 624.0,662.4 622.2,662.4
620.3,662.4 618.5,662.4 616.7,662.4 614.9,662.4 613.1,662.4 611.2,662.4 609.4,662.4 607.6,662.4 605.8,662.4 604.0,662.4 602.1,662.4 600.3,662.4 598.5,662.4 596.7,662.4 594.9,662.4 593.0,662.4
591.2,662.4 589.4,662.4 587.6,662.4 585.7,662.4 583.9,662.4 582.1,662.4 580.3,662.4 578.5,662.4 576.6,662.4 574.8,662.4 573.0,662.4 571.2,662.4 569.4,662.4 567.5,662.4 565.7,662.4 563.9,662.4
562.1,662.4 560.3,662.4 558.4,662.4 556.6,662.4 554.8,662.4 553.0,662.4 551.2,662.4 549.3,662.4 547.5,662.4 545.7,662.4 543.9,662.4 542.1,662.4 540.2,662.4 538.4,662.4 536.6,662.4 534.8,662.4
533.0,662.4 531.1,662.4 529.3,662.4 527.5,662.4 525.7,662.4 523.8,662.4 522.0,662.4 520.2,662.4 518.4,662.4 516.6,662.4 514.7,662.4 512.9,662.4 511.1,662.4 509.3,662.4 507.5,662.4 505.6,662.4
503.8,662.4 502.0,662.4 500.2,662.4 498.4,662.4 496.5,662.4 494.7,662.4 492.9,662.4 491.1,662.4 489.3,662.4 487.4,662.4 485.6,662.4 483.8,662.4 482.0,662.4 480.2,662.4 478.3,662.4 476.5,662.4
474.7,662.4 472.9,662.4 471.0,662.4 469.2,662.4 467.4,662.4 465.6,662.4 463.8,662.4 461.9,662.4 460.1,662.4 458.3,662.4 456.5,662.4 454.7,662.4 452.8,662.4 451.0,662.4 449.2,662.4 447.4,662.4
445.6,662.4 443.7,662.4 441.9,662.4 440.1,662.4 438.3,662.4 436.5,662.4 434.6,662.4 432.8,662.4 431.0,662.4 429.2,662.4 427.4,662.4 425.5,662.4 423.7,662.4 421.9,662.4 420.1,662.4 418.3,662.4
416.4,662.4 414.6,662.4 412.8,662.4 411.0,662.4 409.1,662.4 407.3,662.4 405.5,662.4 403.7,662.4 401.9,662.4 400.0,662.4 398.2,662.4 396.4,662.4 394.6,662.4 392.8,662.4 390.9,662.4 389.1,662.4
387.3,662.4 385.5,662.4 383.7,662.4 381.8,662.4 380.0,662.4 378.2,662.4 376.4,662.4 374.6,662.4 372.7,662.4 370.9,662.4 369.1,662.4 367.3,662.4 365.5,662.4 363.6,662.4 361.8,662.4 360.0,662.4
358.2,662.4 356.3,662.4 354.5,662.4 352.7,662.4 350.9,662.4 349.1,662.4 347.2,662.4 345.4,662.4 343.6,662.4 341.8,662.4 340.0,662.4 338.1,662.4 336.3,662.4 334.5,662.4 332.7,662.4 330.9,662.4
329.0,662.4 327.2,662.4 325.4,662.4 323.6,662.4 321.8,662.4 319.9,662.4 318.1,662.4 316.3,662.4 314.5,662.4 312.7,662.4 310.8,662.4 309.0,662.4 307.2,662.4 305.4,662.4 303.5,662.4 301.7,662.4
299.9,662.4 298.1,662.4 296.3,662.4 294.4,662.4 292.6,662.4 290.8,662.4 289.0,662.4 287.2,662.4 285.3,662.4 283.5,662.4 281.7,662.4 279.9,662.4 278.1,662.4 276.2,662.4 274.4,662.4 272.6,662.4
270.8,662.4 269.0,662.4 267.1,662.4 265.3,662.4 263.5,662.4 261.7,662.4 259.9,662.4 258.0,662.4 256.2,662.4 254.4,662.4 252.6,662.4 250.8,662.4 248.9,662.4 247.1,662.4 245.3,662.4 243.5,662.4
241.6,662.4 239.8,662.4 238.0,662.4 236.2,662.4 234.4,662.4 232.5,662.4 230.7,662.4 228.9,662.4 227.1,662.4 225.3,662.4 223.4,662.4 221.6,662.4 219.8,662.4 218.0,662.4 216.2,662.4 214.3,662.4
212.5,662.4 210.7,662.4 208.9,662.4 207.1,662.4 205.2,662.4 203.4,662.4 201.6,662.4 199.8,662.4 198.0,662.4 196.1,662.4 194.3,662.4 192.5,662.4 190.7,662.4 188.8,662.4 '/>
	</g>
</g>
	</g>
	<g id="gnuplot_plot_3" ><title>Point estimate</title>
<g fill="none" color="white" stroke="rgb( 31, 120, 180)" stroke-width="2.00" stroke-linecap="butt" stroke-linejoin="miter">
</g>
<g fill="none" color="black" stroke="currentColor" stroke-width="2.00" stroke-linecap="butt" stroke-linejoin="miter">
	<g transform="translate(1089.0,103.0)" stroke="none" fill="black" font-family="Helvetica" font-size="12.00"  text-anchor="start">
		<text><tspan font-family="Helvetica" >Point estimate</tspan></text>
	</g>
</g>
<g fill="none" color="black" stroke="currentColor" stroke-width="2.00" stroke-linecap="butt" stroke-linejoin="miter">
	<path stroke='rgb( 31, 120, 180)'  d='M1038.5,99.1 L1080.7,99.1 M591.8,662.4 L591.8,78.8  '/></g>
	</g>
<g fill="none" color="black" stroke="currentColor" stroke-width="2.00" stroke-linecap="butt" stroke-linejoin="miter">
</g>
<g fill="none" color="black" stroke="black" stroke-width="1.00" stroke-linecap="butt" stroke-linejoin="miter">
</g>
<g fill="none" color="black" stroke="currentColor" stroke-width="1.00" stroke-linecap="butt" stroke-linejoin="miter">
	<path stroke='black'  d='M105.1,54.1 L105.1,662.4 L1013.6,662.4 L1013.6,54.1 L105.1,54.1 Z  '/></g>
<g fill="none" color="black" stroke="currentColor" stroke-width="1.00" stroke-linecap="butt" stroke-linejoin="miter">
</g>
</g>
</svg>

