<?xml version="1.0" encoding="utf-8"  standalone="no"?>
<svg 
 viewBox="0 0 1280 275"
 xmlns="http://www.w3.org/2000/svg"
 xmlns:xlink="http://www.w3.org/1999/xlink"
>

<title>Gnuplot</title>
<desc>Produced by GNUPLOT 5.2 patchlevel 2 </desc>

<g id="gnuplot_canvas">

<rect x="0" y="0" width="1280" height="275" fill="none"/>
<defs>

	<circle id='gpDot' r='0.5' stroke-width='0.5'/>
	<path id='gpPt0' stroke-width='0.222' stroke='currentColor' d='M-1,0 h2 M0,-1 v2'/>
	<path id='gpPt1' stroke-width='0.222' stroke='currentColor' d='M-1,-1 L1,1 M1,-1 L-1,1'/>
	<path id='gpPt2' stroke-width='0.222' stroke='currentColor' d='M-1,0 L1,0 M0,-1 L0,1 M-1,-1 L1,1 M-1,1 L1,-1'/>
	<rect id='gpPt3' stroke-width='0.222' stroke='currentColor' x='-1' y='-1' width='2' height='2'/>
	<rect id='gpPt4' stroke-width='0.222' stroke='currentColor' fill='currentColor' x='-1' y='-1' width='2' height='2'/>
	<circle id='gpPt5' stroke-width='0.222' stroke='currentColor' cx='0' cy='0' r='1'/>
	<use xlink:href='#gpPt5' id='gpPt6' fill='currentColor' stroke='none'/>
	<path id='gpPt7' stroke-width='0.222' stroke='currentColor' d='M0,-1.33 L-1.33,0.67 L1.33,0.67 z'/>
	<use xlink:href='#gpPt7' id='gpPt8' fill='currentColor' stroke='none'/>
	<use xlink:href='#gpPt7' id='gpPt9' stroke='currentColor' transform='rotate(180)'/>
	<use xlink:href='#gpPt9' id='gpPt10' fill='currentColor' stroke='none'/>
	<use xlink:href='#gpPt3' id='gpPt11' stroke='currentColor' transform='rotate(45)'/>
	<use xlink:href='#gpPt11' id='gpPt12' fill='currentColor' stroke='none'/>
	<path id='gpPt13' stroke-width='0.222' stroke='currentColor' d='M0,1.330 L1.265,0.411 L0.782,-1.067 L-0.782,-1.076 L-1.265,0.411 z'/>
	<use xlink:href='#gpPt13' id='gpPt14' fill='currentColor' stroke='none'/>
	<filter id='textbox' filterUnits='objectBoundingBox' x='0' y='0' height='1' width='1'>
	  <feFlood flood-color='white' flood-opacity='1' result='bgnd'/>
	  <feComposite in='SourceGraphic' in2='bgnd' operator='atop'/>
	</filter>
	<filter id='greybox' filterUnits='objectBoundingBox' x='0' y='0' height='1' width='1'>
	  <feFlood flood-color='lightgrey' flood-opacity='1' result='grey'/>
	  <feComposite in='SourceGraphic' in2='grey' operator='atop'/>
	</filter>
</defs>
<g fill="none" color="white" stroke="currentColor" stroke-width="1.00" stroke-linecap="butt" stroke-linejoin="miter">
</g>
<g fill="none" color="black" stroke="currentColor" stroke-width="1.00" stroke-linecap="butt" stroke-linejoin="miter">
	<path stroke='black'  d='M387.3,190.2 L396.3,190.2  '/>	<g transform="translate(379.0,194.1)" stroke="none" fill="black" font-family="Helvetica" font-size="12.00"  text-anchor="end">
		<text><tspan font-family="Helvetica" >non_nested_compare/incremental calc/9</tspan></text>
	</g>
</g>
<g fill="none" color="black" stroke="currentColor" stroke-width="1.00" stroke-linecap="butt" stroke-linejoin="miter">
	<path stroke='black'  d='M387.3,135.7 L396.3,135.7  '/>	<g transform="translate(379.0,139.6)" stroke="none" fill="black" font-family="Helvetica" font-size="12.00"  text-anchor="end">
		<text><tspan font-family="Helvetica" >non_nested_compare/modified from scratch/9</tspan></text>
	</g>
</g>
<g fill="none" color="black" stroke="currentColor" stroke-width="1.00" stroke-linecap="butt" stroke-linejoin="miter">
	<path stroke='black'  d='M387.3,81.3 L396.3,81.3  '/>	<g transform="translate(379.0,85.2)" stroke="none" fill="black" font-family="Helvetica" font-size="12.00"  text-anchor="end">
		<text><tspan font-family="Helvetica" >non_nested_compare/initial calculation/9</tspan></text>
	</g>
</g>
<g fill="none" color="black" stroke="currentColor" stroke-width="1.00" stroke-linecap="butt" stroke-linejoin="miter">
</g>
<g fill="none" color="black" stroke="black" stroke-width="0.50" stroke-linecap="butt" stroke-linejoin="miter">
</g>
<g fill="none" color="gray" stroke="currentColor" stroke-width="0.50" stroke-linecap="butt" stroke-linejoin="miter">
	<path stroke='gray' stroke-dasharray='2,4' class="gridline"  d='M387.3,217.4 L387.3,54.1  '/></g>
<g fill="none" color="gray" stroke="gray" stroke-width="1.00" stroke-linecap="butt" stroke-linejoin="miter">
</g>
<g fill="none" color="black" stroke="currentColor" stroke-width="1.00" stroke-linecap="butt" stroke-linejoin="miter">
	<path stroke='black'  d='M387.3,217.4 L387.3,208.4  '/>	<g transform="translate(387.3,239.3)" stroke="none" fill="black" font-family="Helvetica" font-size="12.00"  text-anchor="middle">
		<text><tspan font-family="Helvetica" >-20000</tspan></text>
	</g>
</g>
<g fill="none" color="black" stroke="currentColor" stroke-width="1.00" stroke-linecap="butt" stroke-linejoin="miter">
</g>
<g fill="none" color="black" stroke="black" stroke-width="0.50" stroke-linecap="butt" stroke-linejoin="miter">
</g>
<g fill="none" color="gray" stroke="currentColor" stroke-width="0.50" stroke-linecap="butt" stroke-linejoin="miter">
	<path stroke='gray' stroke-dasharray='2,4' class="gridline"  d='M531.9,217.4 L531.9,54.1  '/></g>
<g fill="none" color="gray" stroke="gray" stroke-width="1.00" stroke-linecap="butt" stroke-linejoin="miter">
</g>
<g fill="none" color="black" stroke="currentColor" stroke-width="1.00" stroke-linecap="butt" stroke-linejoin="miter">
	<path stroke='black'  d='M531.9,217.4 L531.9,208.4  '/>	<g transform="translate(531.9,239.3)" stroke="none" fill="black" font-family="Helvetica" font-size="12.00"  text-anchor="middle">
		<text><tspan font-family="Helvetica" > 0</tspan></text>
	</g>
</g>
<g fill="none" color="black" stroke="currentColor" stroke-width="1.00" stroke-linecap="butt" stroke-linejoin="miter">
</g>
<g fill="none" color="black" stroke="black" stroke-width="0.50" stroke-linecap="butt" stroke-linejoin="miter">
</g>
<g fill="none" color="gray" stroke="currentColor" stroke-width="0.50" stroke-linecap="butt" stroke-linejoin="miter">
	<path stroke='gray' stroke-dasharray='2,4' class="gridline"  d='M676.5,217.4 L676.5,54.1  '/></g>
<g fill="none" color="gray" stroke="gray" stroke-width="1.00" stroke-linecap="butt" stroke-linejoin="miter">
</g>
<g fill="none" color="black" stroke="currentColor" stroke-width="1.00" stroke-linecap="butt" stroke-linejoin="miter">
	<path stroke='black'  d='M676.5,217.4 L676.5,208.4  '/>	<g transform="translate(676.5,239.3)" stroke="none" fill="black" font-family="Helvetica" font-size="12.00"  text-anchor="middle">
		<text><tspan font-family="Helvetica" > 20000</tspan></text>
	</g>
</g>
<g fill="none" color="black" stroke="currentColor" stroke-width="1.00" stroke-linecap="butt" stroke-linejoin="miter">
</g>
<g fill="none" color="black" stroke="black" stroke-width="0.50" stroke-linecap="butt" stroke-linejoin="miter">
</g>
<g fill="none" color="gray" stroke="currentColor" stroke-width="0.50" stroke-linecap="butt" stroke-linejoin="miter">
	<path stroke='gray' stroke-dasharray='2,4' class="gridline"  d='M821.2,217.4 L821.2,54.1  '/></g>
<g fill="none" color="gray" stroke="gray" stroke-width="1.00" stroke-linecap="butt" stroke-linejoin="miter">
</g>
<g fill="none" color="black" stroke="currentColor" stroke-width="1.00" stroke-linecap="butt" stroke-linejoin="miter">
	<path stroke='black'  d='M821.2,217.4 L821.2,208.4  '/>	<g transform="translate(821.2,239.3)" stroke="none" fill="black" font-family="Helvetica" font-size="12.00"  text-anchor="middle">
		<text><tspan font-family="Helvetica" > 40000</tspan></text>
	</g>
</g>
<g fill="none" color="black" stroke="currentColor" stroke-width="1.00" stroke-linecap="butt" stroke-linejoin="miter">
</g>
<g fill="none" color="black" stroke="black" stroke-width="0.50" stroke-linecap="butt" stroke-linejoin="miter">
</g>
<g fill="none" color="gray" stroke="currentColor" stroke-width="0.50" stroke-linecap="butt" stroke-linejoin="miter">
	<path stroke='gray' stroke-dasharray='2,4' class="gridline"  d='M965.8,217.4 L965.8,54.1  '/></g>
<g fill="none" color="gray" stroke="gray" stroke-width="1.00" stroke-linecap="butt" stroke-linejoin="miter">
</g>
<g fill="none" color="black" stroke="currentColor" stroke-width="1.00" stroke-linecap="butt" stroke-linejoin="miter">
	<path stroke='black'  d='M965.8,217.4 L965.8,208.4  '/>	<g transform="translate(965.8,239.3)" stroke="none" fill="black" font-family="Helvetica" font-size="12.00"  text-anchor="middle">
		<text><tspan font-family="Helvetica" > 60000</tspan></text>
	</g>
</g>
<g fill="none" color="black" stroke="currentColor" stroke-width="1.00" stroke-linecap="butt" stroke-linejoin="miter">
</g>
<g fill="none" color="black" stroke="black" stroke-width="0.50" stroke-linecap="butt" stroke-linejoin="miter">
</g>
<g fill="none" color="gray" stroke="currentColor" stroke-width="0.50" stroke-linecap="butt" stroke-linejoin="miter">
	<path stroke='gray' stroke-dasharray='2,4' class="gridline"  d='M1110.4,217.4 L1110.4,54.1  '/></g>
<g fill="none" color="gray" stroke="gray" stroke-width="1.00" stroke-linecap="butt" stroke-linejoin="miter">
</g>
<g fill="none" color="black" stroke="currentColor" stroke-width="1.00" stroke-linecap="butt" stroke-linejoin="miter">
	<path stroke='black'  d='M1110.4,217.4 L1110.4,208.4  '/>	<g transform="translate(1110.4,239.3)" stroke="none" fill="black" font-family="Helvetica" font-size="12.00"  text-anchor="middle">
		<text><tspan font-family="Helvetica" > 80000</tspan></text>
	</g>
</g>
<g fill="none" color="black" stroke="currentColor" stroke-width="1.00" stroke-linecap="butt" stroke-linejoin="miter">
</g>
<g fill="none" color="black" stroke="black" stroke-width="0.50" stroke-linecap="butt" stroke-linejoin="miter">
</g>
<g fill="none" color="gray" stroke="currentColor" stroke-width="0.50" stroke-linecap="butt" stroke-linejoin="miter">
	<path stroke='gray' stroke-dasharray='2,4' class="gridline"  d='M1255.0,217.4 L1255.0,54.1  '/></g>
<g fill="none" color="gray" stroke="gray" stroke-width="1.00" stroke-linecap="butt" stroke-linejoin="miter">
</g>
<g fill="none" color="black" stroke="currentColor" stroke-width="1.00" stroke-linecap="butt" stroke-linejoin="miter">
	<path stroke='black'  d='M1255.0,217.4 L1255.0,208.4  '/>	<g transform="translate(1255.0,239.3)" stroke="none" fill="black" font-family="Helvetica" font-size="12.00"  text-anchor="middle">
		<text><tspan font-family="Helvetica" > 100000</tspan></text>
	</g>
</g>
<g fill="none" color="black" stroke="currentColor" stroke-width="1.00" stroke-linecap="butt" stroke-linejoin="miter">
</g>
<g fill="none" color="black" stroke="currentColor" stroke-width="1.00" stroke-linecap="butt" stroke-linejoin="miter">
	<path stroke='black'  d='M387.3,54.1 L387.3,217.4 L1255.0,217.4 L1255.0,54.1 L387.3,54.1 Z  '/></g>
<g fill="none" color="black" stroke="currentColor" stroke-width="1.00" stroke-linecap="butt" stroke-linejoin="miter">
	<g transform="translate(16.3,135.8) rotate(270)" stroke="none" fill="black" font-family="Helvetica" font-size="12.00"  text-anchor="middle">
		<text><tspan font-family="Helvetica" >Input</tspan></text>
	</g>
</g>
<g fill="none" color="black" stroke="currentColor" stroke-width="1.00" stroke-linecap="butt" stroke-linejoin="miter">
	<g transform="translate(821.1,266.3)" stroke="none" fill="black" font-family="Helvetica" font-size="12.00"  text-anchor="middle">
		<text><tspan font-family="Helvetica" >Average time (cycles)</tspan></text>
	</g>
</g>
<g fill="none" color="black" stroke="currentColor" stroke-width="1.00" stroke-linecap="butt" stroke-linejoin="miter">
	<g transform="translate(821.1,31.0)" stroke="none" fill="black" font-family="Helvetica" font-size="12.00"  text-anchor="middle">
		<text><tspan font-family="Helvetica" >non_nested_compare/9: Violin plot</tspan></text>
	</g>
</g>
	<g id="gnuplot_plot_1" ><title>PDF</title>
<g fill="none" color="black" stroke="currentColor" stroke-width="1.00" stroke-linecap="butt" stroke-linejoin="miter">
	<g transform="translate(1187.9,76.0)" stroke="none" fill="black" font-family="Helvetica" font-size="12.00"  text-anchor="end">
		<text><tspan font-family="Helvetica" >PDF</tspan></text>
	</g>
</g>
<g fill="none" color="black" stroke="currentColor" stroke-width="1.00" stroke-linecap="butt" stroke-linejoin="miter">
	<g stroke='none' shape-rendering='crispEdges'>
		<polygon fill = 'rgb( 31, 120, 180)' fill-opacity = '0.250000' points = '1196.2,76.6 1238.4,76.6 1238.4,67.6 1196.2,67.6 '/>
		<polygon fill = 'rgb( 31, 120, 180)' fill-opacity = '0.250000' points = '435.3,190.2 436.9,190.2 438.5,190.2 440.1,190.2 441.7,190.2 443.3,190.1 444.9,190.1 446.5,190.1 448.1,190.1 449.7,190.1 451.3,190.1 452.9,190.1 454.5,190.1 456.1,190.1 457.7,190.1 459.3,190.1
460.9,190.1 462.5,190.1 464.1,190.1 465.7,190.1 467.3,190.1 468.9,190.1 470.5,190.1 472.1,190.1 473.7,190.0 475.3,190.0 476.9,190.0 478.5,190.0 480.1,190.0 481.7,190.0 483.3,190.0 484.9,190.0
486.5,190.0 488.1,189.9 489.7,189.9 491.3,189.9 492.9,189.9 494.6,189.9 496.2,189.8 497.8,189.8 499.4,189.8 501.0,189.8 502.6,189.8 504.2,189.7 505.8,189.7 507.4,189.7 509.0,189.6 510.6,189.6
512.2,189.6 513.8,189.5 515.4,189.5 517.0,189.5 518.6,189.4 520.2,189.4 521.8,189.4 523.4,189.3 525.0,189.3 526.6,189.2 528.2,189.2 529.8,189.1 531.4,189.1 533.0,189.0 534.6,188.9 536.2,188.9
537.8,188.8 539.4,188.7 541.0,188.7 542.6,188.6 544.2,188.5 545.8,188.5 547.4,188.4 549.0,188.3 550.6,188.2 552.2,188.1 553.8,188.0 555.4,187.9 557.0,187.9 558.6,187.8 560.2,187.7 561.8,187.6
563.4,187.4 565.0,187.3 566.6,187.2 568.2,187.1 569.8,187.0 571.4,186.9 573.0,186.8 574.7,186.6 576.3,186.5 577.9,186.4 579.5,186.2 581.1,186.1 582.7,186.0 584.3,185.8 585.9,185.7 587.5,185.6
589.1,185.4 590.7,185.3 592.3,185.1 593.9,185.0 595.5,184.8 597.1,184.7 598.7,184.5 600.3,184.3 601.9,184.2 603.5,184.0 605.1,183.9 606.7,183.7 608.3,183.5 609.9,183.4 611.5,183.2 613.1,183.1
614.7,182.9 616.3,182.7 617.9,182.6 619.5,182.4 621.1,182.3 622.7,182.1 624.3,182.0 625.9,181.8 627.5,181.7 629.1,181.5 630.7,181.4 632.3,181.2 633.9,181.1 635.5,180.9 637.1,180.8 638.7,180.7
640.3,180.5 641.9,180.4 643.5,180.3 645.1,180.2 646.7,180.1 648.3,180.0 649.9,179.8 651.5,179.7 653.1,179.7 654.8,179.6 656.4,179.5 658.0,179.4 659.6,179.3 661.2,179.3 662.8,179.2 664.4,179.1
666.0,179.1 667.6,179.0 669.2,179.0 670.8,179.0 672.4,178.9 674.0,178.9 675.6,178.9 677.2,178.9 678.8,178.9 680.4,178.9 682.0,178.9 683.6,178.9 685.2,179.0 686.8,179.0 688.4,179.0 690.0,179.1
691.6,179.1 693.2,179.2 694.8,179.3 696.4,179.3 698.0,179.4 699.6,179.5 701.2,179.6 702.8,179.6 704.4,179.7 706.0,179.8 707.6,180.0 709.2,180.1 710.8,180.2 712.4,180.3 714.0,180.4 715.6,180.5
717.2,180.7 718.8,180.8 720.4,180.9 722.0,181.1 723.6,181.2 725.2,181.4 726.8,181.5 728.4,181.7 730.0,181.8 731.6,182.0 733.2,182.2 734.9,182.3 736.5,182.5 738.1,182.6 739.7,182.8 741.3,183.0
742.9,183.1 744.5,183.3 746.1,183.4 747.7,183.6 749.3,183.8 750.9,183.9 752.5,184.1 754.1,184.3 755.7,184.4 757.3,184.6 758.9,184.7 760.5,184.9 762.1,185.0 763.7,185.2 765.3,185.3 766.9,185.5
768.5,185.6 770.1,185.8 771.7,185.9 773.3,186.1 774.9,186.2 776.5,186.3 778.1,186.5 779.7,186.6 781.3,186.7 782.9,186.8 784.5,186.9 786.1,187.1 787.7,187.2 789.3,187.3 790.9,187.4 792.5,187.5
794.1,187.6 795.7,187.7 797.3,187.7 798.9,187.8 800.5,187.9 802.1,188.0 803.7,188.1 805.3,188.1 806.9,188.2 808.5,188.2 810.1,188.3 811.7,188.3 813.3,188.4 815.0,188.4 816.6,188.5 818.2,188.5
819.8,188.5 821.4,188.6 823.0,188.6 824.6,188.6 826.2,188.6 827.8,188.6 829.4,188.6 831.0,188.6 832.6,188.6 834.2,188.6 835.8,188.6 837.4,188.6 839.0,188.6 840.6,188.5 842.2,188.5 843.8,188.4
845.4,188.4 847.0,188.3 848.6,188.3 850.2,188.2 851.8,188.2 853.4,188.1 855.0,188.0 856.6,187.9 858.2,187.8 859.8,187.7 861.4,187.6 863.0,187.5 864.6,187.4 866.2,187.3 867.8,187.2 869.4,187.0
871.0,186.9 872.6,186.8 874.2,186.6 875.8,186.4 877.4,186.3 879.0,186.1 880.6,185.9 882.2,185.7 883.8,185.5 885.4,185.3 887.0,185.1 888.6,184.9 890.2,184.7 891.8,184.5 893.4,184.2 895.1,184.0
896.7,183.7 898.3,183.5 899.9,183.2 901.5,183.0 903.1,182.7 904.7,182.4 906.3,182.1 907.9,181.8 909.5,181.5 911.1,181.2 912.7,180.9 914.3,180.6 915.9,180.3 917.5,180.0 919.1,179.6 920.7,179.3
922.3,179.0 923.9,178.6 925.5,178.3 927.1,177.9 928.7,177.6 930.3,177.2 931.9,176.9 933.5,176.5 935.1,176.1 936.7,175.8 938.3,175.4 939.9,175.1 941.5,174.7 943.1,174.3 944.7,174.0 946.3,173.6
947.9,173.3 949.5,172.9 951.1,172.6 952.7,172.2 954.3,171.9 955.9,171.5 957.5,171.2 959.1,170.9 960.7,170.6 962.3,170.2 963.9,169.9 965.5,169.6 967.1,169.3 968.7,169.1 970.3,168.8 971.9,168.5
973.6,168.3 975.2,168.0 976.8,167.8 978.4,167.6 980.0,167.3 981.6,167.1 983.2,166.9 984.8,166.8 986.4,166.6 988.0,166.5 989.6,166.3 991.2,166.2 992.8,166.1 994.4,166.0 996.0,165.9 997.6,165.8
999.2,165.8 1000.8,165.7 1002.4,165.7 1004.0,165.7 1005.6,165.7 1007.2,165.7 1008.8,165.7 1010.4,165.8 1012.0,165.8 1013.6,165.9 1015.2,166.0 1016.8,166.1 1018.4,166.2 1020.0,166.4 1021.6,166.5 1023.2,166.6
1024.8,166.8 1026.4,167.0 1028.0,167.2 1029.6,167.4 1031.2,167.6 1032.8,167.8 1034.4,168.1 1036.0,168.3 1037.6,168.6 1039.2,168.9 1040.8,169.1 1042.4,169.4 1044.0,169.7 1045.6,170.0 1047.2,170.3 1048.8,170.6
1050.4,171.0 1052.0,171.3 1053.7,171.6 1055.3,172.0 1056.9,172.3 1058.5,172.6 1060.1,173.0 1061.7,173.3 1063.3,173.7 1064.9,174.1 1066.5,174.4 1068.1,174.8 1069.7,175.1 1071.3,175.5 1072.9,175.9 1074.5,176.2
1076.1,176.6 1077.7,176.9 1079.3,177.3 1080.9,177.6 1082.5,178.0 1084.1,178.3 1085.7,178.7 1087.3,179.0 1088.9,179.4 1090.5,179.7 1092.1,180.0 1093.7,180.4 1095.3,180.7 1096.9,181.0 1098.5,181.3 1100.1,181.6
1101.7,181.9 1103.3,182.2 1104.9,182.5 1106.5,182.8 1108.1,183.0 1109.7,183.3 1111.3,183.6 1112.9,183.8 1114.5,184.1 1116.1,184.3 1117.7,184.6 1119.3,184.8 1120.9,185.0 1122.5,185.2 1124.1,185.4 1125.7,185.6
1127.3,185.8 1128.9,186.0 1130.5,186.2 1132.1,186.4 1133.8,186.6 1135.4,186.7 1137.0,186.9 1138.6,187.1 1140.2,187.2 1141.8,187.4 1143.4,187.5 1145.0,187.6 1146.6,187.8 1148.2,187.9 1149.8,188.0 1151.4,188.1
1153.0,188.2 1154.6,188.3 1156.2,188.4 1157.8,188.5 1159.4,188.6 1161.0,188.7 1162.6,188.8 1164.2,188.9 1165.8,188.9 1167.4,189.0 1169.0,189.1 1170.6,189.1 1172.2,189.2 1173.8,189.3 1175.4,189.3 1177.0,189.4
1178.6,189.4 1180.2,189.5 1181.8,189.5 1183.4,189.6 1185.0,189.6 1186.6,189.6 1188.2,189.7 1189.8,189.7 1191.4,189.7 1193.0,189.8 1194.6,189.8 1196.2,189.8 1197.8,189.8 1199.4,189.9 1201.0,189.9 1202.6,189.9
1204.2,189.9 1205.8,189.9 1207.4,190.0 1209.0,190.0 1210.6,190.0 1212.2,190.0 1213.9,190.0 1215.5,190.0 1217.1,190.0 1218.7,190.1 1220.3,190.1 1221.9,190.1 1223.5,190.1 1225.1,190.1 1226.7,190.1 1228.3,190.1
1229.9,190.1 1231.5,190.1 1233.1,190.1 1234.7,190.1 1234.7,190.2 1233.1,190.2 1231.5,190.3 1229.9,190.3 1228.3,190.3 1226.7,190.3 1225.1,190.3 1223.5,190.3 1221.9,190.3 1220.3,190.3 1218.7,190.3 1217.1,190.3
1215.5,190.3 1213.9,190.3 1212.2,190.4 1210.6,190.4 1209.0,190.4 1207.4,190.4 1205.8,190.4 1204.2,190.4 1202.6,190.5 1201.0,190.5 1199.4,190.5 1197.8,190.5 1196.2,190.5 1194.6,190.6 1193.0,190.6 1191.4,190.6
1189.8,190.7 1188.2,190.7 1186.6,190.7 1185.0,190.8 1183.4,190.8 1181.8,190.9 1180.2,190.9 1178.6,190.9 1177.0,191.0 1175.4,191.0 1173.8,191.1 1172.2,191.2 1170.6,191.2 1169.0,191.3 1167.4,191.4 1165.8,191.4
1164.2,191.5 1162.6,191.6 1161.0,191.7 1159.4,191.8 1157.8,191.8 1156.2,191.9 1154.6,192.0 1153.0,192.1 1151.4,192.3 1149.8,192.4 1148.2,192.5 1146.6,192.6 1145.0,192.7 1143.4,192.9 1141.8,193.0 1140.2,193.2
1138.6,193.3 1137.0,193.5 1135.4,193.6 1133.8,193.8 1132.1,194.0 1130.5,194.1 1128.9,194.3 1127.3,194.5 1125.7,194.7 1124.1,194.9 1122.5,195.1 1120.9,195.4 1119.3,195.6 1117.7,195.8 1116.1,196.1 1114.5,196.3
1112.9,196.5 1111.3,196.8 1109.7,197.1 1108.1,197.3 1106.5,197.6 1104.9,197.9 1103.3,198.2 1101.7,198.5 1100.1,198.8 1098.5,199.1 1096.9,199.4 1095.3,199.7 1093.7,200.0 1092.1,200.3 1090.5,200.7 1088.9,201.0
1087.3,201.3 1085.7,201.7 1084.1,202.0 1082.5,202.4 1080.9,202.7 1079.3,203.1 1077.7,203.4 1076.1,203.8 1074.5,204.1 1072.9,204.5 1071.3,204.9 1069.7,205.2 1068.1,205.6 1066.5,205.9 1064.9,206.3 1063.3,206.7
1061.7,207.0 1060.1,207.4 1058.5,207.7 1056.9,208.1 1055.3,208.4 1053.7,208.7 1052.0,209.1 1050.4,209.4 1048.8,209.7 1047.2,210.0 1045.6,210.4 1044.0,210.7 1042.4,211.0 1040.8,211.2 1039.2,211.5 1037.6,211.8
1036.0,212.0 1034.4,212.3 1032.8,212.5 1031.2,212.8 1029.6,213.0 1028.0,213.2 1026.4,213.4 1024.8,213.5 1023.2,213.7 1021.6,213.9 1020.0,214.0 1018.4,214.1 1016.8,214.3 1015.2,214.4 1013.6,214.4 1012.0,214.5
1010.4,214.6 1008.8,214.6 1007.2,214.7 1005.6,214.7 1004.0,214.7 1002.4,214.7 1000.8,214.6 999.2,214.6 997.6,214.5 996.0,214.5 994.4,214.4 992.8,214.3 991.2,214.2 989.6,214.1 988.0,213.9 986.4,213.8
984.8,213.6 983.2,213.4 981.6,213.2 980.0,213.0 978.4,212.8 976.8,212.6 975.2,212.4 973.6,212.1 971.9,211.9 970.3,211.6 968.7,211.3 967.1,211.0 965.5,210.7 963.9,210.4 962.3,210.1 960.7,209.8
959.1,209.5 957.5,209.2 955.9,208.8 954.3,208.5 952.7,208.2 951.1,207.8 949.5,207.5 947.9,207.1 946.3,206.8 944.7,206.4 943.1,206.0 941.5,205.7 939.9,205.3 938.3,205.0 936.7,204.6 935.1,204.2
933.5,203.9 931.9,203.5 930.3,203.2 928.7,202.8 927.1,202.4 925.5,202.1 923.9,201.8 922.3,201.4 920.7,201.1 919.1,200.7 917.5,200.4 915.9,200.1 914.3,199.8 912.7,199.4 911.1,199.1 909.5,198.8
907.9,198.5 906.3,198.2 904.7,198.0 903.1,197.7 901.5,197.4 899.9,197.1 898.3,196.9 896.7,196.6 895.1,196.4 893.4,196.1 891.8,195.9 890.2,195.7 888.6,195.4 887.0,195.2 885.4,195.0 883.8,194.8
882.2,194.6 880.6,194.4 879.0,194.3 877.4,194.1 875.8,193.9 874.2,193.8 872.6,193.6 871.0,193.5 869.4,193.3 867.8,193.2 866.2,193.1 864.6,192.9 863.0,192.8 861.4,192.7 859.8,192.6 858.2,192.5
856.6,192.4 855.0,192.4 853.4,192.3 851.8,192.2 850.2,192.1 848.6,192.1 847.0,192.0 845.4,192.0 843.8,191.9 842.2,191.9 840.6,191.8 839.0,191.8 837.4,191.8 835.8,191.8 834.2,191.8 832.6,191.7
831.0,191.7 829.4,191.7 827.8,191.7 826.2,191.7 824.6,191.8 823.0,191.8 821.4,191.8 819.8,191.8 818.2,191.9 816.6,191.9 815.0,191.9 813.3,192.0 811.7,192.0 810.1,192.1 808.5,192.1 806.9,192.2
805.3,192.2 803.7,192.3 802.1,192.4 800.5,192.5 798.9,192.5 797.3,192.6 795.7,192.7 794.1,192.8 792.5,192.9 790.9,193.0 789.3,193.1 787.7,193.2 786.1,193.3 784.5,193.4 782.9,193.5 781.3,193.7
779.7,193.8 778.1,193.9 776.5,194.0 774.9,194.2 773.3,194.3 771.7,194.4 770.1,194.6 768.5,194.7 766.9,194.9 765.3,195.0 763.7,195.2 762.1,195.3 760.5,195.5 758.9,195.6 757.3,195.8 755.7,195.9
754.1,196.1 752.5,196.3 750.9,196.4 749.3,196.6 747.7,196.8 746.1,196.9 744.5,197.1 742.9,197.2 741.3,197.4 739.7,197.6 738.1,197.7 736.5,197.9 734.9,198.1 733.2,198.2 731.6,198.4 730.0,198.5
728.4,198.7 726.8,198.8 725.2,199.0 723.6,199.1 722.0,199.3 720.4,199.4 718.8,199.6 717.2,199.7 715.6,199.8 714.0,199.9 712.4,200.1 710.8,200.2 709.2,200.3 707.6,200.4 706.0,200.5 704.4,200.6
702.8,200.7 701.2,200.8 699.6,200.9 698.0,201.0 696.4,201.0 694.8,201.1 693.2,201.2 691.6,201.2 690.0,201.3 688.4,201.3 686.8,201.4 685.2,201.4 683.6,201.4 682.0,201.4 680.4,201.5 678.8,201.5
677.2,201.5 675.6,201.4 674.0,201.4 672.4,201.4 670.8,201.4 669.2,201.4 667.6,201.3 666.0,201.3 664.4,201.2 662.8,201.2 661.2,201.1 659.6,201.0 658.0,201.0 656.4,200.9 654.8,200.8 653.1,200.7
651.5,200.6 649.9,200.5 648.3,200.4 646.7,200.3 645.1,200.2 643.5,200.1 641.9,200.0 640.3,199.8 638.7,199.7 637.1,199.6 635.5,199.4 633.9,199.3 632.3,199.1 630.7,199.0 629.1,198.9 627.5,198.7
625.9,198.6 624.3,198.4 622.7,198.3 621.1,198.1 619.5,197.9 617.9,197.8 616.3,197.6 614.7,197.5 613.1,197.3 611.5,197.1 609.9,197.0 608.3,196.8 606.7,196.7 605.1,196.5 603.5,196.3 601.9,196.2
600.3,196.0 598.7,195.9 597.1,195.7 595.5,195.6 593.9,195.4 592.3,195.3 590.7,195.1 589.1,195.0 587.5,194.8 585.9,194.7 584.3,194.5 582.7,194.4 581.1,194.3 579.5,194.1 577.9,194.0 576.3,193.9
574.7,193.7 573.0,193.6 571.4,193.5 569.8,193.4 568.2,193.3 566.6,193.1 565.0,193.0 563.4,192.9 561.8,192.8 560.2,192.7 558.6,192.6 557.0,192.5 555.4,192.4 553.8,192.3 552.2,192.2 550.6,192.2
549.0,192.1 547.4,192.0 545.8,191.9 544.2,191.8 542.6,191.8 541.0,191.7 539.4,191.6 537.8,191.6 536.2,191.5 534.6,191.4 533.0,191.4 531.4,191.3 529.8,191.3 528.2,191.2 526.6,191.2 525.0,191.1
523.4,191.1 521.8,191.0 520.2,191.0 518.6,190.9 517.0,190.9 515.4,190.9 513.8,190.8 512.2,190.8 510.6,190.8 509.0,190.7 507.4,190.7 505.8,190.7 504.2,190.6 502.6,190.6 501.0,190.6 499.4,190.6
497.8,190.5 496.2,190.5 494.6,190.5 492.9,190.5 491.3,190.5 489.7,190.4 488.1,190.4 486.5,190.4 484.9,190.4 483.3,190.4 481.7,190.4 480.1,190.4 478.5,190.3 476.9,190.3 475.3,190.3 473.7,190.3
472.1,190.3 470.5,190.3 468.9,190.3 467.3,190.3 465.7,190.3 464.1,190.3 462.5,190.3 460.9,190.3 459.3,190.3 457.7,190.3 456.1,190.2 454.5,190.2 452.9,190.2 451.3,190.2 449.7,190.2 448.1,190.2
446.5,190.2 444.9,190.2 443.3,190.2 441.7,190.2 440.1,190.2 438.5,190.2 436.9,190.2 435.3,190.2 '/>
	</g>
</g>
	</g>
	<g id="gnuplot_plot_2" ><title>gnuplot_plot_2</title>
<g fill="none" color="black" stroke="currentColor" stroke-width="1.00" stroke-linecap="butt" stroke-linejoin="miter">
	<g stroke='none' shape-rendering='crispEdges'>
		<polygon fill = 'rgb( 31, 120, 180)' fill-opacity = '0.250000' points = '567.6,135.7 569.0,135.7 570.3,135.7 571.6,135.7 573.0,135.7 574.3,135.7 575.6,135.7 577.0,135.7 578.3,135.7 579.7,135.7 581.0,135.7 582.3,135.7 583.7,135.7 585.0,135.7 586.4,135.7 587.7,135.7
589.0,135.7 590.4,135.7 591.7,135.7 593.1,135.7 594.4,135.7 595.7,135.7 597.1,135.7 598.4,135.7 599.7,135.7 601.1,135.6 602.4,135.6 603.8,135.6 605.1,135.6 606.4,135.6 607.8,135.6 609.1,135.6
610.5,135.6 611.8,135.6 613.1,135.6 614.5,135.6 615.8,135.5 617.2,135.5 618.5,135.5 619.8,135.5 621.2,135.5 622.5,135.5 623.8,135.5 625.2,135.5 626.5,135.4 627.9,135.4 629.2,135.4 630.5,135.4
631.9,135.4 633.2,135.4 634.6,135.3 635.9,135.3 637.2,135.3 638.6,135.3 639.9,135.2 641.3,135.2 642.6,135.2 643.9,135.2 645.3,135.1 646.6,135.1 647.9,135.1 649.3,135.1 650.6,135.0 652.0,135.0
653.3,135.0 654.6,134.9 656.0,134.9 657.3,134.9 658.7,134.8 660.0,134.8 661.3,134.8 662.7,134.7 664.0,134.7 665.3,134.7 666.7,134.6 668.0,134.6 669.4,134.6 670.7,134.5 672.0,134.5 673.4,134.4
674.7,134.4 676.1,134.3 677.4,134.3 678.7,134.3 680.1,134.2 681.4,134.2 682.8,134.1 684.1,134.1 685.4,134.0 686.8,134.0 688.1,133.9 689.4,133.9 690.8,133.8 692.1,133.8 693.5,133.7 694.8,133.7
696.1,133.6 697.5,133.6 698.8,133.5 700.2,133.4 701.5,133.4 702.8,133.3 704.2,133.3 705.5,133.2 706.9,133.1 708.2,133.1 709.5,133.0 710.9,133.0 712.2,132.9 713.5,132.8 714.9,132.8 716.2,132.7
717.6,132.6 718.9,132.5 720.2,132.5 721.6,132.4 722.9,132.3 724.3,132.2 725.6,132.2 726.9,132.1 728.3,132.0 729.6,131.9 730.9,131.8 732.3,131.7 733.6,131.6 735.0,131.5 736.3,131.4 737.6,131.3
739.0,131.2 740.3,131.1 741.7,131.0 743.0,130.9 744.3,130.8 745.7,130.7 747.0,130.6 748.4,130.5 749.7,130.3 751.0,130.2 752.4,130.1 753.7,130.0 755.0,129.8 756.4,129.7 757.7,129.5 759.1,129.4
760.4,129.3 761.7,129.1 763.1,129.0 764.4,128.8 765.8,128.6 767.1,128.5 768.4,128.3 769.8,128.2 771.1,128.0 772.5,127.8 773.8,127.7 775.1,127.5 776.5,127.3 777.8,127.1 779.1,127.0 780.5,126.8
781.8,126.6 783.2,126.4 784.5,126.2 785.8,126.1 787.2,125.9 788.5,125.7 789.9,125.5 791.2,125.3 792.5,125.1 793.9,125.0 795.2,124.8 796.5,124.6 797.9,124.4 799.2,124.3 800.6,124.1 801.9,123.9
803.2,123.8 804.6,123.6 805.9,123.5 807.3,123.3 808.6,123.2 809.9,123.0 811.3,122.9 812.6,122.7 814.0,122.6 815.3,122.5 816.6,122.4 818.0,122.3 819.3,122.2 820.6,122.1 822.0,122.0 823.3,121.9
824.7,121.8 826.0,121.8 827.3,121.7 828.7,121.7 830.0,121.6 831.4,121.6 832.7,121.6 834.0,121.5 835.4,121.5 836.7,121.5 838.1,121.5 839.4,121.5 840.7,121.6 842.1,121.6 843.4,121.6 844.7,121.7
846.1,121.8 847.4,121.8 848.8,121.9 850.1,122.0 851.4,122.1 852.8,122.2 854.1,122.3 855.5,122.4 856.8,122.5 858.1,122.7 859.5,122.8 860.8,122.9 862.2,123.1 863.5,123.2 864.8,123.4 866.2,123.6
867.5,123.7 868.8,123.9 870.2,124.1 871.5,124.3 872.9,124.5 874.2,124.7 875.5,124.9 876.9,125.1 878.2,125.3 879.6,125.5 880.9,125.7 882.2,125.9 883.6,126.1 884.9,126.3 886.2,126.5 887.6,126.8
888.9,127.0 890.3,127.2 891.6,127.4 892.9,127.6 894.3,127.8 895.6,128.0 897.0,128.2 898.3,128.4 899.6,128.6 901.0,128.8 902.3,129.0 903.7,129.2 905.0,129.4 906.3,129.6 907.7,129.8 909.0,130.0
910.3,130.1 911.7,130.3 913.0,130.5 914.4,130.6 915.7,130.8 917.0,130.9 918.4,131.1 919.7,131.2 921.1,131.3 922.4,131.5 923.7,131.6 925.1,131.7 926.4,131.8 927.8,131.9 929.1,132.0 930.4,132.1
931.8,132.1 933.1,132.2 934.4,132.3 935.8,132.3 937.1,132.4 938.5,132.4 939.8,132.4 941.1,132.4 942.5,132.4 943.8,132.5 945.2,132.4 946.5,132.4 947.8,132.4 949.2,132.4 950.5,132.3 951.8,132.3
953.2,132.2 954.5,132.2 955.9,132.1 957.2,132.0 958.5,131.9 959.9,131.8 961.2,131.7 962.6,131.6 963.9,131.5 965.2,131.3 966.6,131.2 967.9,131.0 969.3,130.9 970.6,130.7 971.9,130.5 973.3,130.3
974.6,130.1 975.9,129.9 977.3,129.7 978.6,129.4 980.0,129.2 981.3,128.9 982.6,128.7 984.0,128.4 985.3,128.2 986.7,127.9 988.0,127.6 989.3,127.3 990.7,127.0 992.0,126.7 993.4,126.4 994.7,126.0
996.0,125.7 997.4,125.4 998.7,125.0 1000.0,124.7 1001.4,124.3 1002.7,123.9 1004.1,123.6 1005.4,123.2 1006.7,122.8 1008.1,122.5 1009.4,122.1 1010.8,121.7 1012.1,121.3 1013.4,121.0 1014.8,120.6 1016.1,120.2
1017.4,119.8 1018.8,119.4 1020.1,119.1 1021.5,118.7 1022.8,118.3 1024.1,117.9 1025.5,117.6 1026.8,117.2 1028.2,116.9 1029.5,116.5 1030.8,116.2 1032.2,115.8 1033.5,115.5 1034.9,115.2 1036.2,114.9 1037.5,114.6
1038.9,114.3 1040.2,114.0 1041.5,113.7 1042.9,113.5 1044.2,113.2 1045.6,113.0 1046.9,112.8 1048.2,112.6 1049.6,112.4 1050.9,112.2 1052.3,112.0 1053.6,111.9 1054.9,111.8 1056.3,111.6 1057.6,111.5 1059.0,111.4
1060.3,111.4 1061.6,111.3 1063.0,111.3 1064.3,111.3 1065.6,111.3 1067.0,111.3 1068.3,111.3 1069.7,111.3 1071.0,111.4 1072.3,111.5 1073.7,111.6 1075.0,111.7 1076.4,111.8 1077.7,111.9 1079.0,112.1 1080.4,112.3
1081.7,112.4 1083.1,112.6 1084.4,112.8 1085.7,113.1 1087.1,113.3 1088.4,113.6 1089.7,113.8 1091.1,114.1 1092.4,114.4 1093.8,114.7 1095.1,115.0 1096.4,115.3 1097.8,115.6 1099.1,115.9 1100.5,116.3 1101.8,116.6
1103.1,117.0 1104.5,117.3 1105.8,117.7 1107.1,118.1 1108.5,118.4 1109.8,118.8 1111.2,119.2 1112.5,119.6 1113.8,119.9 1115.2,120.3 1116.5,120.7 1117.9,121.1 1119.2,121.5 1120.5,121.9 1121.9,122.3 1123.2,122.6
1124.6,123.0 1125.9,123.4 1127.2,123.8 1128.6,124.1 1129.9,124.5 1131.2,124.9 1132.6,125.2 1133.9,125.6 1135.3,125.9 1136.6,126.3 1137.9,126.6 1139.3,126.9 1140.6,127.2 1142.0,127.6 1143.3,127.9 1144.6,128.2
1146.0,128.5 1147.3,128.8 1148.7,129.0 1150.0,129.3 1151.3,129.6 1152.7,129.9 1154.0,130.1 1155.3,130.4 1156.7,130.6 1158.0,130.8 1159.4,131.1 1160.7,131.3 1162.0,131.5 1163.4,131.7 1164.7,131.9 1166.1,132.1
1167.4,132.3 1168.7,132.4 1170.1,132.6 1171.4,132.8 1172.7,132.9 1174.1,133.1 1175.4,133.2 1176.8,133.3 1178.1,133.5 1179.4,133.6 1180.8,133.7 1182.1,133.8 1183.5,133.9 1184.8,134.0 1186.1,134.1 1187.5,134.2
1188.8,134.3 1190.2,134.4 1191.5,134.5 1192.8,134.6 1194.2,134.6 1195.5,134.7 1196.8,134.8 1198.2,134.8 1199.5,134.9 1200.9,135.0 1202.2,135.0 1203.5,135.1 1204.9,135.1 1206.2,135.2 1207.6,135.2 1208.9,135.2
1210.2,135.3 1211.6,135.3 1212.9,135.3 1214.3,135.4 1215.6,135.4 1216.9,135.4 1218.3,135.4 1219.6,135.5 1220.9,135.5 1222.3,135.5 1223.6,135.5 1225.0,135.5 1226.3,135.6 1227.6,135.6 1229.0,135.6 1230.3,135.6
1231.7,135.6 1233.0,135.6 1234.3,135.6 1235.7,135.6 1235.7,135.9 1234.3,135.9 1233.0,135.9 1231.7,135.9 1230.3,135.9 1229.0,135.9 1227.6,135.9 1226.3,135.9 1225.0,136.0 1223.6,136.0 1222.3,136.0 1220.9,136.0
1219.6,136.0 1218.3,136.1 1216.9,136.1 1215.6,136.1 1214.3,136.1 1212.9,136.2 1211.6,136.2 1210.2,136.2 1208.9,136.3 1207.6,136.3 1206.2,136.3 1204.9,136.4 1203.5,136.4 1202.2,136.5 1200.9,136.5 1199.5,136.6
1198.2,136.7 1196.8,136.7 1195.5,136.8 1194.2,136.9 1192.8,136.9 1191.5,137.0 1190.2,137.1 1188.8,137.2 1187.5,137.3 1186.1,137.4 1184.8,137.5 1183.5,137.6 1182.1,137.7 1180.8,137.8 1179.4,137.9 1178.1,138.0
1176.8,138.2 1175.4,138.3 1174.1,138.4 1172.7,138.6 1171.4,138.7 1170.1,138.9 1168.7,139.1 1167.4,139.2 1166.1,139.4 1164.7,139.6 1163.4,139.8 1162.0,140.0 1160.7,140.2 1159.4,140.4 1158.0,140.7 1156.7,140.9
1155.3,141.1 1154.0,141.4 1152.7,141.6 1151.3,141.9 1150.0,142.2 1148.7,142.5 1147.3,142.7 1146.0,143.0 1144.6,143.3 1143.3,143.6 1142.0,143.9 1140.6,144.3 1139.3,144.6 1137.9,144.9 1136.6,145.2 1135.3,145.6
1133.9,145.9 1132.6,146.3 1131.2,146.6 1129.9,147.0 1128.6,147.4 1127.2,147.7 1125.9,148.1 1124.6,148.5 1123.2,148.9 1121.9,149.2 1120.5,149.6 1119.2,150.0 1117.9,150.4 1116.5,150.8 1115.2,151.2 1113.8,151.6
1112.5,151.9 1111.2,152.3 1109.8,152.7 1108.5,153.1 1107.1,153.4 1105.8,153.8 1104.5,154.2 1103.1,154.5 1101.8,154.9 1100.5,155.2 1099.1,155.6 1097.8,155.9 1096.4,156.2 1095.1,156.5 1093.8,156.8 1092.4,157.1
1091.1,157.4 1089.7,157.7 1088.4,157.9 1087.1,158.2 1085.7,158.4 1084.4,158.7 1083.1,158.9 1081.7,159.1 1080.4,159.2 1079.0,159.4 1077.7,159.6 1076.4,159.7 1075.0,159.8 1073.7,159.9 1072.3,160.0 1071.0,160.1
1069.7,160.2 1068.3,160.2 1067.0,160.2 1065.6,160.2 1064.3,160.2 1063.0,160.2 1061.6,160.2 1060.3,160.1 1059.0,160.1 1057.6,160.0 1056.3,159.9 1054.9,159.7 1053.6,159.6 1052.3,159.5 1050.9,159.3 1049.6,159.1
1048.2,158.9 1046.9,158.7 1045.6,158.5 1044.2,158.3 1042.9,158.0 1041.5,157.8 1040.2,157.5 1038.9,157.2 1037.5,156.9 1036.2,156.6 1034.9,156.3 1033.5,156.0 1032.2,155.7 1030.8,155.3 1029.5,155.0 1028.2,154.6
1026.8,154.3 1025.5,153.9 1024.1,153.6 1022.8,153.2 1021.5,152.8 1020.1,152.4 1018.8,152.1 1017.4,151.7 1016.1,151.3 1014.8,150.9 1013.4,150.5 1012.1,150.2 1010.8,149.8 1009.4,149.4 1008.1,149.0 1006.7,148.7
1005.4,148.3 1004.1,147.9 1002.7,147.6 1001.4,147.2 1000.0,146.8 998.7,146.5 997.4,146.1 996.0,145.8 994.7,145.5 993.4,145.1 992.0,144.8 990.7,144.5 989.3,144.2 988.0,143.9 986.7,143.6 985.3,143.3
984.0,143.1 982.6,142.8 981.3,142.6 980.0,142.3 978.6,142.1 977.3,141.8 975.9,141.6 974.6,141.4 973.3,141.2 971.9,141.0 970.6,140.8 969.3,140.6 967.9,140.5 966.6,140.3 965.2,140.2 963.9,140.0
962.6,139.9 961.2,139.8 959.9,139.7 958.5,139.6 957.2,139.5 955.9,139.4 954.5,139.3 953.2,139.3 951.8,139.2 950.5,139.2 949.2,139.1 947.8,139.1 946.5,139.1 945.2,139.1 943.8,139.0 942.5,139.1
941.1,139.1 939.8,139.1 938.5,139.1 937.1,139.1 935.8,139.2 934.4,139.2 933.1,139.3 931.8,139.4 930.4,139.4 929.1,139.5 927.8,139.6 926.4,139.7 925.1,139.8 923.7,139.9 922.4,140.0 921.1,140.2
919.7,140.3 918.4,140.4 917.0,140.6 915.7,140.7 914.4,140.9 913.0,141.0 911.7,141.2 910.3,141.4 909.0,141.5 907.7,141.7 906.3,141.9 905.0,142.1 903.7,142.3 902.3,142.5 901.0,142.7 899.6,142.9
898.3,143.1 897.0,143.3 895.6,143.5 894.3,143.7 892.9,143.9 891.6,144.1 890.3,144.3 888.9,144.5 887.6,144.7 886.2,145.0 884.9,145.2 883.6,145.4 882.2,145.6 880.9,145.8 879.6,146.0 878.2,146.2
876.9,146.4 875.5,146.6 874.2,146.8 872.9,147.0 871.5,147.2 870.2,147.4 868.8,147.6 867.5,147.8 866.2,147.9 864.8,148.1 863.5,148.3 862.2,148.4 860.8,148.6 859.5,148.7 858.1,148.8 856.8,149.0
855.5,149.1 854.1,149.2 852.8,149.3 851.4,149.4 850.1,149.5 848.8,149.6 847.4,149.7 846.1,149.7 844.7,149.8 843.4,149.9 842.1,149.9 840.7,149.9 839.4,150.0 838.1,150.0 836.7,150.0 835.4,150.0
834.0,150.0 832.7,149.9 831.4,149.9 830.0,149.9 828.7,149.8 827.3,149.8 826.0,149.7 824.7,149.7 823.3,149.6 822.0,149.5 820.6,149.4 819.3,149.3 818.0,149.2 816.6,149.1 815.3,149.0 814.0,148.9
812.6,148.8 811.3,148.6 809.9,148.5 808.6,148.3 807.3,148.2 805.9,148.0 804.6,147.9 803.2,147.7 801.9,147.6 800.6,147.4 799.2,147.2 797.9,147.1 796.5,146.9 795.2,146.7 793.9,146.5 792.5,146.4
791.2,146.2 789.9,146.0 788.5,145.8 787.2,145.6 785.8,145.4 784.5,145.3 783.2,145.1 781.8,144.9 780.5,144.7 779.1,144.5 777.8,144.4 776.5,144.2 775.1,144.0 773.8,143.8 772.5,143.7 771.1,143.5
769.8,143.3 768.4,143.2 767.1,143.0 765.8,142.9 764.4,142.7 763.1,142.5 761.7,142.4 760.4,142.2 759.1,142.1 757.7,142.0 756.4,141.8 755.0,141.7 753.7,141.5 752.4,141.4 751.0,141.3 749.7,141.2
748.4,141.0 747.0,140.9 745.7,140.8 744.3,140.7 743.0,140.6 741.7,140.5 740.3,140.4 739.0,140.3 737.6,140.2 736.3,140.1 735.0,140.0 733.6,139.9 732.3,139.8 730.9,139.7 729.6,139.6 728.3,139.5
726.9,139.4 725.6,139.3 724.3,139.3 722.9,139.2 721.6,139.1 720.2,139.0 718.9,139.0 717.6,138.9 716.2,138.8 714.9,138.7 713.5,138.7 712.2,138.6 710.9,138.5 709.5,138.5 708.2,138.4 706.9,138.4
705.5,138.3 704.2,138.2 702.8,138.2 701.5,138.1 700.2,138.1 698.8,138.0 697.5,137.9 696.1,137.9 694.8,137.8 693.5,137.8 692.1,137.7 690.8,137.7 689.4,137.6 688.1,137.6 686.8,137.5 685.4,137.5
684.1,137.4 682.8,137.4 681.4,137.3 680.1,137.3 678.7,137.2 677.4,137.2 676.1,137.2 674.7,137.1 673.4,137.1 672.0,137.0 670.7,137.0 669.4,136.9 668.0,136.9 666.7,136.9 665.3,136.8 664.0,136.8
662.7,136.8 661.3,136.7 660.0,136.7 658.7,136.7 657.3,136.6 656.0,136.6 654.6,136.6 653.3,136.5 652.0,136.5 650.6,136.5 649.3,136.4 647.9,136.4 646.6,136.4 645.3,136.4 643.9,136.3 642.6,136.3
641.3,136.3 639.9,136.3 638.6,136.2 637.2,136.2 635.9,136.2 634.6,136.2 633.2,136.1 631.9,136.1 630.5,136.1 629.2,136.1 627.9,136.1 626.5,136.1 625.2,136.0 623.8,136.0 622.5,136.0 621.2,136.0
619.8,136.0 618.5,136.0 617.2,136.0 615.8,136.0 614.5,135.9 613.1,135.9 611.8,135.9 610.5,135.9 609.1,135.9 607.8,135.9 606.4,135.9 605.1,135.9 603.8,135.9 602.4,135.9 601.1,135.9 599.7,135.8
598.4,135.8 597.1,135.8 595.7,135.8 594.4,135.8 593.1,135.8 591.7,135.8 590.4,135.8 589.0,135.8 587.7,135.8 586.4,135.8 585.0,135.8 583.7,135.8 582.3,135.8 581.0,135.8 579.7,135.8 578.3,135.8
577.0,135.8 575.6,135.8 574.3,135.8 573.0,135.8 571.6,135.8 570.3,135.8 569.0,135.8 567.6,135.8 '/>
	</g>
</g>
	</g>
	<g id="gnuplot_plot_3" ><title>gnuplot_plot_3</title>
<g fill="none" color="black" stroke="currentColor" stroke-width="1.00" stroke-linecap="butt" stroke-linejoin="miter">
	<g stroke='none' shape-rendering='crispEdges'>
		<polygon fill = 'rgb( 31, 120, 180)' fill-opacity = '0.250000' points = '571.2,81.3 572.4,81.3 573.7,81.3 574.9,81.3 576.2,81.3 577.4,81.3 578.7,81.3 579.9,81.3 581.2,81.3 582.4,81.3 583.7,81.3 584.9,81.3 586.2,81.3 587.4,81.3 588.7,81.3 589.9,81.3
591.2,81.3 592.4,81.3 593.7,81.3 594.9,81.2 596.2,81.2 597.4,81.2 598.7,81.2 599.9,81.2 601.2,81.2 602.4,81.2 603.7,81.2 604.9,81.2 606.2,81.2 607.4,81.2 608.7,81.2 609.9,81.2
611.2,81.2 612.4,81.1 613.7,81.1 614.9,81.1 616.2,81.1 617.4,81.1 618.7,81.1 619.9,81.1 621.2,81.1 622.4,81.1 623.7,81.0 624.9,81.0 626.2,81.0 627.4,81.0 628.7,81.0 629.9,81.0
631.2,80.9 632.4,80.9 633.7,80.9 634.9,80.9 636.2,80.9 637.4,80.8 638.7,80.8 639.9,80.8 641.2,80.8 642.4,80.7 643.7,80.7 644.9,80.7 646.2,80.7 647.4,80.6 648.7,80.6 649.9,80.6
651.2,80.5 652.4,80.5 653.7,80.5 654.9,80.4 656.2,80.4 657.4,80.3 658.7,80.3 659.9,80.3 661.2,80.2 662.4,80.2 663.7,80.1 664.9,80.1 666.2,80.0 667.4,80.0 668.7,79.9 669.9,79.9
671.2,79.8 672.4,79.8 673.7,79.7 674.9,79.7 676.2,79.6 677.4,79.5 678.7,79.5 679.9,79.4 681.2,79.4 682.4,79.3 683.7,79.2 684.9,79.2 686.2,79.1 687.5,79.0 688.7,78.9 690.0,78.9
691.2,78.8 692.5,78.7 693.7,78.6 695.0,78.5 696.2,78.4 697.5,78.4 698.7,78.3 700.0,78.2 701.2,78.1 702.5,78.0 703.7,77.9 705.0,77.8 706.2,77.7 707.5,77.6 708.7,77.5 710.0,77.3
711.2,77.2 712.5,77.1 713.7,77.0 715.0,76.9 716.2,76.8 717.5,76.6 718.7,76.5 720.0,76.4 721.2,76.2 722.5,76.1 723.7,76.0 725.0,75.8 726.2,75.7 727.5,75.5 728.7,75.4 730.0,75.2
731.2,75.1 732.5,74.9 733.7,74.8 735.0,74.6 736.2,74.4 737.5,74.3 738.7,74.1 740.0,73.9 741.2,73.8 742.5,73.6 743.7,73.4 745.0,73.2 746.2,73.1 747.5,72.9 748.7,72.7 750.0,72.5
751.2,72.3 752.5,72.1 753.7,71.9 755.0,71.8 756.2,71.6 757.5,71.4 758.7,71.2 760.0,71.0 761.2,70.8 762.5,70.6 763.7,70.4 765.0,70.2 766.2,70.1 767.5,69.9 768.7,69.7 770.0,69.5
771.2,69.3 772.5,69.1 773.7,69.0 775.0,68.8 776.2,68.6 777.5,68.5 778.7,68.3 780.0,68.1 781.2,68.0 782.5,67.8 783.7,67.7 785.0,67.6 786.2,67.4 787.5,67.3 788.7,67.2 790.0,67.0
791.2,66.9 792.5,66.8 793.7,66.7 795.0,66.6 796.2,66.5 797.5,66.5 798.7,66.4 800.0,66.3 801.2,66.3 802.5,66.2 803.7,66.2 805.0,66.1 806.2,66.1 807.5,66.1 808.7,66.1 810.0,66.1
811.2,66.1 812.5,66.1 813.7,66.1 815.0,66.2 816.2,66.2 817.5,66.3 818.7,66.3 820.0,66.4 821.2,66.4 822.5,66.5 823.7,66.6 825.0,66.7 826.2,66.8 827.5,66.9 828.7,67.0 830.0,67.2
831.2,67.3 832.5,67.4 833.7,67.6 835.0,67.7 836.2,67.9 837.5,68.1 838.7,68.2 840.0,68.4 841.2,68.6 842.5,68.8 843.8,69.0 845.0,69.1 846.3,69.3 847.5,69.5 848.8,69.7 850.0,70.0
851.3,70.2 852.5,70.4 853.8,70.6 855.0,70.8 856.3,71.0 857.5,71.2 858.8,71.5 860.0,71.7 861.3,71.9 862.5,72.1 863.8,72.3 865.0,72.6 866.3,72.8 867.5,73.0 868.8,73.2 870.0,73.4
871.3,73.6 872.5,73.8 873.8,74.0 875.0,74.3 876.3,74.5 877.5,74.7 878.8,74.8 880.0,75.0 881.3,75.2 882.5,75.4 883.8,75.6 885.0,75.8 886.3,75.9 887.5,76.1 888.8,76.3 890.0,76.4
891.3,76.6 892.5,76.7 893.8,76.8 895.0,77.0 896.3,77.1 897.5,77.2 898.8,77.3 900.0,77.4 901.3,77.5 902.5,77.6 903.8,77.7 905.0,77.8 906.3,77.9 907.5,78.0 908.8,78.0 910.0,78.1
911.3,78.1 912.5,78.2 913.8,78.2 915.0,78.2 916.3,78.2 917.5,78.3 918.8,78.3 920.0,78.3 921.3,78.3 922.5,78.2 923.8,78.2 925.0,78.2 926.3,78.1 927.5,78.1 928.8,78.0 930.0,78.0
931.3,77.9 932.5,77.8 933.8,77.7 935.0,77.6 936.3,77.5 937.5,77.4 938.8,77.3 940.0,77.1 941.3,77.0 942.5,76.9 943.8,76.7 945.0,76.5 946.3,76.4 947.5,76.2 948.8,76.0 950.0,75.8
951.3,75.6 952.5,75.4 953.8,75.2 955.0,74.9 956.3,74.7 957.5,74.4 958.8,74.2 960.0,73.9 961.3,73.7 962.5,73.4 963.8,73.1 965.0,72.8 966.3,72.5 967.5,72.2 968.8,71.9 970.0,71.6
971.3,71.3 972.5,70.9 973.8,70.6 975.0,70.3 976.3,69.9 977.5,69.6 978.8,69.2 980.0,68.9 981.3,68.5 982.5,68.2 983.8,67.8 985.0,67.4 986.3,67.1 987.5,66.7 988.8,66.4 990.0,66.0
991.3,65.6 992.5,65.3 993.8,64.9 995.0,64.5 996.3,64.2 997.5,63.8 998.8,63.5 1000.1,63.1 1001.3,62.8 1002.6,62.4 1003.8,62.1 1005.1,61.8 1006.3,61.4 1007.6,61.1 1008.8,60.8 1010.1,60.5
1011.3,60.2 1012.6,59.9 1013.8,59.7 1015.1,59.4 1016.3,59.2 1017.6,58.9 1018.8,58.7 1020.1,58.5 1021.3,58.3 1022.6,58.1 1023.8,57.9 1025.1,57.7 1026.3,57.6 1027.6,57.4 1028.8,57.3 1030.1,57.2
1031.3,57.1 1032.6,57.0 1033.8,56.9 1035.1,56.9 1036.3,56.9 1037.6,56.8 1038.8,56.8 1040.1,56.8 1041.3,56.9 1042.6,56.9 1043.8,56.9 1045.1,57.0 1046.3,57.1 1047.6,57.2 1048.8,57.3 1050.1,57.4
1051.3,57.6 1052.6,57.7 1053.8,57.9 1055.1,58.1 1056.3,58.3 1057.6,58.5 1058.8,58.7 1060.1,58.9 1061.3,59.2 1062.6,59.4 1063.8,59.7 1065.1,60.0 1066.3,60.2 1067.6,60.5 1068.8,60.8 1070.1,61.1
1071.3,61.5 1072.6,61.8 1073.8,62.1 1075.1,62.4 1076.3,62.8 1077.6,63.1 1078.8,63.5 1080.1,63.8 1081.3,64.2 1082.6,64.6 1083.8,64.9 1085.1,65.3 1086.3,65.7 1087.6,66.0 1088.8,66.4 1090.1,66.8
1091.3,67.1 1092.6,67.5 1093.8,67.9 1095.1,68.2 1096.3,68.6 1097.6,69.0 1098.8,69.3 1100.1,69.7 1101.3,70.0 1102.6,70.4 1103.8,70.7 1105.1,71.1 1106.3,71.4 1107.6,71.7 1108.8,72.0 1110.1,72.4
1111.3,72.7 1112.6,73.0 1113.8,73.3 1115.1,73.6 1116.3,73.9 1117.6,74.2 1118.8,74.4 1120.1,74.7 1121.3,75.0 1122.6,75.2 1123.8,75.5 1125.1,75.7 1126.3,75.9 1127.6,76.2 1128.8,76.4 1130.1,76.6
1131.3,76.8 1132.6,77.0 1133.8,77.2 1135.1,77.4 1136.3,77.6 1137.6,77.8 1138.8,77.9 1140.1,78.1 1141.3,78.3 1142.6,78.4 1143.8,78.6 1145.1,78.7 1146.3,78.8 1147.6,79.0 1148.8,79.1 1150.1,79.2
1151.3,79.3 1152.6,79.4 1153.8,79.5 1155.1,79.6 1156.4,79.7 1157.6,79.8 1158.9,79.9 1160.1,80.0 1161.4,80.1 1162.6,80.1 1163.9,80.2 1165.1,80.3 1166.4,80.3 1167.6,80.4 1168.9,80.5 1170.1,80.5
1171.4,80.6 1172.6,80.6 1173.9,80.7 1175.1,80.7 1176.4,80.7 1177.6,80.8 1178.9,80.8 1180.1,80.8 1181.4,80.9 1182.6,80.9 1183.9,80.9 1185.1,81.0 1186.4,81.0 1187.6,81.0 1188.9,81.0 1190.1,81.1
1191.4,81.1 1192.6,81.1 1193.9,81.1 1195.1,81.1 1195.1,81.5 1193.9,81.5 1192.6,81.5 1191.4,81.6 1190.1,81.6 1188.9,81.6 1187.6,81.6 1186.4,81.6 1185.1,81.7 1183.9,81.7 1182.6,81.7 1181.4,81.8
1180.1,81.8 1178.9,81.8 1177.6,81.9 1176.4,81.9 1175.1,81.9 1173.9,82.0 1172.6,82.0 1171.4,82.1 1170.1,82.1 1168.9,82.2 1167.6,82.2 1166.4,82.3 1165.1,82.4 1163.9,82.4 1162.6,82.5 1161.4,82.6
1160.1,82.6 1158.9,82.7 1157.6,82.8 1156.4,82.9 1155.1,83.0 1153.8,83.1 1152.6,83.2 1151.3,83.3 1150.1,83.4 1148.8,83.5 1147.6,83.7 1146.3,83.8 1145.1,83.9 1143.8,84.1 1142.6,84.2 1141.3,84.4
1140.1,84.5 1138.8,84.7 1137.6,84.9 1136.3,85.0 1135.1,85.2 1133.8,85.4 1132.6,85.6 1131.3,85.8 1130.1,86.0 1128.8,86.2 1127.6,86.5 1126.3,86.7 1125.1,86.9 1123.8,87.2 1122.6,87.4 1121.3,87.7
1120.1,87.9 1118.8,88.2 1117.6,88.5 1116.3,88.8 1115.1,89.1 1113.8,89.3 1112.6,89.6 1111.3,90.0 1110.1,90.3 1108.8,90.6 1107.6,90.9 1106.3,91.2 1105.1,91.6 1103.8,91.9 1102.6,92.3 1101.3,92.6
1100.1,93.0 1098.8,93.3 1097.6,93.7 1096.3,94.0 1095.1,94.4 1093.8,94.8 1092.6,95.1 1091.3,95.5 1090.1,95.9 1088.8,96.2 1087.6,96.6 1086.3,97.0 1085.1,97.3 1083.8,97.7 1082.6,98.1 1081.3,98.4
1080.1,98.8 1078.8,99.2 1077.6,99.5 1076.3,99.8 1075.1,100.2 1073.8,100.5 1072.6,100.9 1071.3,101.2 1070.1,101.5 1068.8,101.8 1067.6,102.1 1066.3,102.4 1065.1,102.7 1063.8,103.0 1062.6,103.2 1061.3,103.5
1060.1,103.7 1058.8,103.9 1057.6,104.2 1056.3,104.4 1055.1,104.6 1053.8,104.7 1052.6,104.9 1051.3,105.1 1050.1,105.2 1048.8,105.3 1047.6,105.4 1046.3,105.5 1045.1,105.6 1043.8,105.7 1042.6,105.7 1041.3,105.8
1040.1,105.8 1038.8,105.8 1037.6,105.8 1036.3,105.8 1035.1,105.7 1033.8,105.7 1032.6,105.6 1031.3,105.5 1030.1,105.4 1028.8,105.3 1027.6,105.2 1026.3,105.1 1025.1,104.9 1023.8,104.7 1022.6,104.6 1021.3,104.4
1020.1,104.2 1018.8,104.0 1017.6,103.7 1016.3,103.5 1015.1,103.2 1013.8,103.0 1012.6,102.7 1011.3,102.4 1010.1,102.1 1008.8,101.8 1007.6,101.5 1006.3,101.2 1005.1,100.9 1003.8,100.5 1002.6,100.2 1001.3,99.9
1000.1,99.5 998.8,99.2 997.5,98.8 996.3,98.5 995.0,98.1 993.8,97.7 992.5,97.4 991.3,97.0 990.0,96.6 988.8,96.3 987.5,95.9 986.3,95.5 985.0,95.2 983.8,94.8 982.5,94.5 981.3,94.1
980.0,93.7 978.8,93.4 977.5,93.0 976.3,92.7 975.0,92.4 973.8,92.0 972.5,91.7 971.3,91.4 970.0,91.0 968.8,90.7 967.5,90.4 966.3,90.1 965.0,89.8 963.8,89.5 962.5,89.2 961.3,89.0
960.0,88.7 958.8,88.4 957.5,88.2 956.3,87.9 955.0,87.7 953.8,87.5 952.5,87.3 951.3,87.0 950.0,86.8 948.8,86.6 947.5,86.4 946.3,86.3 945.0,86.1 943.8,85.9 942.5,85.8 941.3,85.6
940.0,85.5 938.8,85.4 937.5,85.2 936.3,85.1 935.0,85.0 933.8,84.9 932.5,84.8 931.3,84.7 930.0,84.7 928.8,84.6 927.5,84.5 926.3,84.5 925.0,84.5 923.8,84.4 922.5,84.4 921.3,84.4
920.0,84.4 918.8,84.4 917.5,84.4 916.3,84.4 915.0,84.4 913.8,84.4 912.5,84.5 911.3,84.5 910.0,84.6 908.8,84.6 907.5,84.7 906.3,84.7 905.0,84.8 903.8,84.9 902.5,85.0 901.3,85.1
900.0,85.2 898.8,85.3 897.5,85.4 896.3,85.5 895.0,85.7 893.8,85.8 892.5,85.9 891.3,86.1 890.0,86.2 888.8,86.4 887.5,86.5 886.3,86.7 885.0,86.9 883.8,87.0 882.5,87.2 881.3,87.4
880.0,87.6 878.8,87.8 877.5,88.0 876.3,88.2 875.0,88.4 873.8,88.6 872.5,88.8 871.3,89.0 870.0,89.2 868.8,89.4 867.5,89.6 866.3,89.9 865.0,90.1 863.8,90.3 862.5,90.5 861.3,90.7
860.0,91.0 858.8,91.2 857.5,91.4 856.3,91.6 855.0,91.8 853.8,92.0 852.5,92.3 851.3,92.5 850.0,92.7 848.8,92.9 847.5,93.1 846.3,93.3 845.0,93.5 843.8,93.7 842.5,93.9 841.2,94.1
840.0,94.2 838.7,94.4 837.5,94.6 836.2,94.7 835.0,94.9 833.7,95.1 832.5,95.2 831.2,95.3 830.0,95.5 828.7,95.6 827.5,95.7 826.2,95.8 825.0,95.9 823.7,96.0 822.5,96.1 821.2,96.2
820.0,96.3 818.7,96.3 817.5,96.4 816.2,96.4 815.0,96.5 813.7,96.5 812.5,96.5 811.2,96.5 810.0,96.5 808.7,96.5 807.5,96.5 806.2,96.5 805.0,96.5 803.7,96.5 802.5,96.4 801.2,96.4
800.0,96.3 798.7,96.2 797.5,96.2 796.2,96.1 795.0,96.0 793.7,95.9 792.5,95.8 791.2,95.7 790.0,95.6 788.7,95.5 787.5,95.3 786.2,95.2 785.0,95.1 783.7,94.9 782.5,94.8 781.2,94.6
780.0,94.5 778.7,94.3 777.5,94.2 776.2,94.0 775.0,93.8 773.7,93.7 772.5,93.5 771.2,93.3 770.0,93.1 768.7,92.9 767.5,92.8 766.2,92.6 765.0,92.4 763.7,92.2 762.5,92.0 761.2,91.8
760.0,91.6 758.7,91.4 757.5,91.3 756.2,91.1 755.0,90.9 753.7,90.7 752.5,90.5 751.2,90.3 750.0,90.1 748.7,89.9 747.5,89.8 746.2,89.6 745.0,89.4 743.7,89.2 742.5,89.0 741.2,88.9
740.0,88.7 738.7,88.5 737.5,88.4 736.2,88.2 735.0,88.0 733.7,87.9 732.5,87.7 731.2,87.6 730.0,87.4 728.7,87.3 727.5,87.1 726.2,87.0 725.0,86.8 723.7,86.7 722.5,86.5 721.2,86.4
720.0,86.3 718.7,86.1 717.5,86.0 716.2,85.9 715.0,85.8 713.7,85.6 712.5,85.5 711.2,85.4 710.0,85.3 708.7,85.2 707.5,85.1 706.2,85.0 705.0,84.9 703.7,84.8 702.5,84.7 701.2,84.6
700.0,84.5 698.7,84.4 697.5,84.3 696.2,84.2 695.0,84.1 693.7,84.0 692.5,83.9 691.2,83.9 690.0,83.8 688.7,83.7 687.5,83.6 686.2,83.6 684.9,83.5 683.7,83.4 682.4,83.3 681.2,83.3
679.9,83.2 678.7,83.1 677.4,83.1 676.2,83.0 674.9,83.0 673.7,82.9 672.4,82.9 671.2,82.8 669.9,82.7 668.7,82.7 667.4,82.6 666.2,82.6 664.9,82.5 663.7,82.5 662.4,82.5 661.2,82.4
659.9,82.4 658.7,82.3 657.4,82.3 656.2,82.3 654.9,82.2 653.7,82.2 652.4,82.1 651.2,82.1 649.9,82.1 648.7,82.0 647.4,82.0 646.2,82.0 644.9,82.0 643.7,81.9 642.4,81.9 641.2,81.9
639.9,81.8 638.7,81.8 637.4,81.8 636.2,81.8 634.9,81.8 633.7,81.7 632.4,81.7 631.2,81.7 629.9,81.7 628.7,81.7 627.4,81.6 626.2,81.6 624.9,81.6 623.7,81.6 622.4,81.6 621.2,81.6
619.9,81.6 618.7,81.5 617.4,81.5 616.2,81.5 614.9,81.5 613.7,81.5 612.4,81.5 611.2,81.5 609.9,81.5 608.7,81.5 607.4,81.4 606.2,81.4 604.9,81.4 603.7,81.4 602.4,81.4 601.2,81.4
599.9,81.4 598.7,81.4 597.4,81.4 596.2,81.4 594.9,81.4 593.7,81.4 592.4,81.4 591.2,81.4 589.9,81.4 588.7,81.4 587.4,81.4 586.2,81.4 584.9,81.4 583.7,81.4 582.4,81.4 581.2,81.3
579.9,81.3 578.7,81.3 577.4,81.3 576.2,81.3 574.9,81.3 573.7,81.3 572.4,81.3 571.2,81.3 '/>
	</g>
</g>
	</g>
<g fill="none" color="white" stroke="rgb( 31, 120, 180)" stroke-width="2.00" stroke-linecap="butt" stroke-linejoin="miter">
</g>
<g fill="none" color="black" stroke="currentColor" stroke-width="2.00" stroke-linecap="butt" stroke-linejoin="miter">
</g>
<g fill="none" color="black" stroke="black" stroke-width="1.00" stroke-linecap="butt" stroke-linejoin="miter">
</g>
<g fill="none" color="black" stroke="currentColor" stroke-width="1.00" stroke-linecap="butt" stroke-linejoin="miter">
	<path stroke='black'  d='M387.3,54.1 L387.3,217.4 L1255.0,217.4 L1255.0,54.1 L387.3,54.1 Z  '/></g>
<g fill="none" color="black" stroke="currentColor" stroke-width="1.00" stroke-linecap="butt" stroke-linejoin="miter">
</g>
</g>
</svg>

