<?xml version="1.0" encoding="utf-8"  standalone="no"?>
<svg 
 viewBox="0 0 450 300"
 xmlns="http://www.w3.org/2000/svg"
 xmlns:xlink="http://www.w3.org/1999/xlink"
>

<title>Gnuplot</title>
<desc>Produced by GNUPLOT 5.2 patchlevel 2 </desc>

<g id="gnuplot_canvas">

<rect x="0" y="0" width="450" height="300" fill="none"/>
<defs>

	<circle id='gpDot' r='0.5' stroke-width='0.5'/>
	<path id='gpPt0' stroke-width='0.222' stroke='currentColor' d='M-1,0 h2 M0,-1 v2'/>
	<path id='gpPt1' stroke-width='0.222' stroke='currentColor' d='M-1,-1 L1,1 M1,-1 L-1,1'/>
	<path id='gpPt2' stroke-width='0.222' stroke='currentColor' d='M-1,0 L1,0 M0,-1 L0,1 M-1,-1 L1,1 M-1,1 L1,-1'/>
	<rect id='gpPt3' stroke-width='0.222' stroke='currentColor' x='-1' y='-1' width='2' height='2'/>
	<rect id='gpPt4' stroke-width='0.222' stroke='currentColor' fill='currentColor' x='-1' y='-1' width='2' height='2'/>
	<circle id='gpPt5' stroke-width='0.222' stroke='currentColor' cx='0' cy='0' r='1'/>
	<use xlink:href='#gpPt5' id='gpPt6' fill='currentColor' stroke='none'/>
	<path id='gpPt7' stroke-width='0.222' stroke='currentColor' d='M0,-1.33 L-1.33,0.67 L1.33,0.67 z'/>
	<use xlink:href='#gpPt7' id='gpPt8' fill='currentColor' stroke='none'/>
	<use xlink:href='#gpPt7' id='gpPt9' stroke='currentColor' transform='rotate(180)'/>
	<use xlink:href='#gpPt9' id='gpPt10' fill='currentColor' stroke='none'/>
	<use xlink:href='#gpPt3' id='gpPt11' stroke='currentColor' transform='rotate(45)'/>
	<use xlink:href='#gpPt11' id='gpPt12' fill='currentColor' stroke='none'/>
	<path id='gpPt13' stroke-width='0.222' stroke='currentColor' d='M0,1.330 L1.265,0.411 L0.782,-1.067 L-0.782,-1.076 L-1.265,0.411 z'/>
	<use xlink:href='#gpPt13' id='gpPt14' fill='currentColor' stroke='none'/>
	<filter id='textbox' filterUnits='objectBoundingBox' x='0' y='0' height='1' width='1'>
	  <feFlood flood-color='white' flood-opacity='1' result='bgnd'/>
	  <feComposite in='SourceGraphic' in2='bgnd' operator='atop'/>
	</filter>
	<filter id='greybox' filterUnits='objectBoundingBox' x='0' y='0' height='1' width='1'>
	  <feFlood flood-color='lightgrey' flood-opacity='1' result='grey'/>
	  <feComposite in='SourceGraphic' in2='grey' operator='atop'/>
	</filter>
</defs>
<g fill="none" color="white" stroke="currentColor" stroke-width="1.00" stroke-linecap="butt" stroke-linejoin="miter">
</g>
<g fill="none" color="black" stroke="currentColor" stroke-width="1.00" stroke-linecap="butt" stroke-linejoin="miter">
	<path stroke='black'  d='M105.1,242.4 L114.1,242.4  '/>	<g transform="translate(96.8,246.3)" stroke="none" fill="black" font-family="Helvetica" font-size="12.00"  text-anchor="end">
		<text><tspan font-family="Helvetica" > 0</tspan></text>
	</g>
</g>
<g fill="none" color="black" stroke="currentColor" stroke-width="1.00" stroke-linecap="butt" stroke-linejoin="miter">
	<path stroke='black'  d='M105.1,211.7 L114.1,211.7  '/>	<g transform="translate(96.8,215.6)" stroke="none" fill="black" font-family="Helvetica" font-size="12.00"  text-anchor="end">
		<text><tspan font-family="Helvetica" > 5x10</tspan><tspan font-family="Helvetica"  font-size="9.6" dy="-6.00px">-9</tspan><tspan font-size="12.0" dy="6.00"></tspan></text>
	</g>
</g>
<g fill="none" color="black" stroke="currentColor" stroke-width="1.00" stroke-linecap="butt" stroke-linejoin="miter">
	<path stroke='black'  d='M105.1,181.1 L114.1,181.1  '/>	<g transform="translate(96.8,185.0)" stroke="none" fill="black" font-family="Helvetica" font-size="12.00"  text-anchor="end">
		<text><tspan font-family="Helvetica" > 1x10</tspan><tspan font-family="Helvetica"  font-size="9.6" dy="-6.00px">-8</tspan><tspan font-size="12.0" dy="6.00"></tspan></text>
	</g>
</g>
<g fill="none" color="black" stroke="currentColor" stroke-width="1.00" stroke-linecap="butt" stroke-linejoin="miter">
	<path stroke='black'  d='M105.1,150.4 L114.1,150.4  '/>	<g transform="translate(96.8,154.3)" stroke="none" fill="black" font-family="Helvetica" font-size="12.00"  text-anchor="end">
		<text><tspan font-family="Helvetica" > 1.5x10</tspan><tspan font-family="Helvetica"  font-size="9.6" dy="-6.00px">-8</tspan><tspan font-size="12.0" dy="6.00"></tspan></text>
	</g>
</g>
<g fill="none" color="black" stroke="currentColor" stroke-width="1.00" stroke-linecap="butt" stroke-linejoin="miter">
	<path stroke='black'  d='M105.1,119.8 L114.1,119.8  '/>	<g transform="translate(96.8,123.7)" stroke="none" fill="black" font-family="Helvetica" font-size="12.00"  text-anchor="end">
		<text><tspan font-family="Helvetica" > 2x10</tspan><tspan font-family="Helvetica"  font-size="9.6" dy="-6.00px">-8</tspan><tspan font-size="12.0" dy="6.00"></tspan></text>
	</g>
</g>
<g fill="none" color="black" stroke="currentColor" stroke-width="1.00" stroke-linecap="butt" stroke-linejoin="miter">
	<path stroke='black'  d='M105.1,89.1 L114.1,89.1  '/>	<g transform="translate(96.8,93.0)" stroke="none" fill="black" font-family="Helvetica" font-size="12.00"  text-anchor="end">
		<text><tspan font-family="Helvetica" > 2.5x10</tspan><tspan font-family="Helvetica"  font-size="9.6" dy="-6.00px">-8</tspan><tspan font-size="12.0" dy="6.00"></tspan></text>
	</g>
</g>
<g fill="none" color="black" stroke="currentColor" stroke-width="1.00" stroke-linecap="butt" stroke-linejoin="miter">
	<path stroke='black'  d='M105.1,58.5 L114.1,58.5  '/>	<g transform="translate(96.8,62.4)" stroke="none" fill="black" font-family="Helvetica" font-size="12.00"  text-anchor="end">
		<text><tspan font-family="Helvetica" > 3x10</tspan><tspan font-family="Helvetica"  font-size="9.6" dy="-6.00px">-8</tspan><tspan font-size="12.0" dy="6.00"></tspan></text>
	</g>
</g>
<g fill="none" color="black" stroke="currentColor" stroke-width="1.00" stroke-linecap="butt" stroke-linejoin="miter">
	<path stroke='black'  d='M105.1,27.8 L114.1,27.8  '/>	<g transform="translate(96.8,31.7)" stroke="none" fill="black" font-family="Helvetica" font-size="12.00"  text-anchor="end">
		<text><tspan font-family="Helvetica" > 3.5x10</tspan><tspan font-family="Helvetica"  font-size="9.6" dy="-6.00px">-8</tspan><tspan font-size="12.0" dy="6.00"></tspan></text>
	</g>
</g>
<g fill="none" color="black" stroke="currentColor" stroke-width="1.00" stroke-linecap="butt" stroke-linejoin="miter">
	<path stroke='black'  d='M137.8,242.4 L137.8,233.4  '/>	<g transform="translate(137.8,264.3)" stroke="none" fill="black" font-family="Helvetica" font-size="12.00"  text-anchor="middle">
		<text><tspan font-family="Helvetica" > 7x10</tspan><tspan font-family="Helvetica"  font-size="9.6" dy="-6.00px">7</tspan><tspan font-size="12.0" dy="6.00"></tspan></text>
	</g>
</g>
<g fill="none" color="black" stroke="currentColor" stroke-width="1.00" stroke-linecap="butt" stroke-linejoin="miter">
	<path stroke='black'  d='M178.5,242.4 L178.5,233.4  '/>	<g transform="translate(178.5,264.3)" stroke="none" fill="black" font-family="Helvetica" font-size="12.00"  text-anchor="middle">
		<text><tspan font-family="Helvetica" > 8x10</tspan><tspan font-family="Helvetica"  font-size="9.6" dy="-6.00px">7</tspan><tspan font-size="12.0" dy="6.00"></tspan></text>
	</g>
</g>
<g fill="none" color="black" stroke="currentColor" stroke-width="1.00" stroke-linecap="butt" stroke-linejoin="miter">
	<path stroke='black'  d='M219.1,242.4 L219.1,233.4  '/>	<g transform="translate(219.1,264.3)" stroke="none" fill="black" font-family="Helvetica" font-size="12.00"  text-anchor="middle">
		<text><tspan font-family="Helvetica" > 9x10</tspan><tspan font-family="Helvetica"  font-size="9.6" dy="-6.00px">7</tspan><tspan font-size="12.0" dy="6.00"></tspan></text>
	</g>
</g>
<g fill="none" color="black" stroke="currentColor" stroke-width="1.00" stroke-linecap="butt" stroke-linejoin="miter">
	<path stroke='black'  d='M259.8,242.4 L259.8,233.4  '/>	<g transform="translate(259.8,264.3)" stroke="none" fill="black" font-family="Helvetica" font-size="12.00"  text-anchor="middle">
		<text><tspan font-family="Helvetica" > 1x10</tspan><tspan font-family="Helvetica"  font-size="9.6" dy="-6.00px">8</tspan><tspan font-size="12.0" dy="6.00"></tspan></text>
	</g>
</g>
<g fill="none" color="black" stroke="currentColor" stroke-width="1.00" stroke-linecap="butt" stroke-linejoin="miter">
	<path stroke='black'  d='M300.5,242.4 L300.5,233.4  '/>	<g transform="translate(300.5,264.3)" stroke="none" fill="black" font-family="Helvetica" font-size="12.00"  text-anchor="middle">
		<text><tspan font-family="Helvetica" > 1.1x10</tspan><tspan font-family="Helvetica"  font-size="9.6" dy="-6.00px">8</tspan><tspan font-size="12.0" dy="6.00"></tspan></text>
	</g>
</g>
<g fill="none" color="black" stroke="currentColor" stroke-width="1.00" stroke-linecap="butt" stroke-linejoin="miter">
	<path stroke='black'  d='M341.2,242.4 L341.2,233.4  '/>	<g transform="translate(341.2,264.3)" stroke="none" fill="black" font-family="Helvetica" font-size="12.00"  text-anchor="middle">
		<text><tspan font-family="Helvetica" > 1.2x10</tspan><tspan font-family="Helvetica"  font-size="9.6" dy="-6.00px">8</tspan><tspan font-size="12.0" dy="6.00"></tspan></text>
	</g>
</g>
<g fill="none" color="black" stroke="currentColor" stroke-width="1.00" stroke-linecap="butt" stroke-linejoin="miter">
	<path stroke='black'  d='M381.9,242.4 L381.9,233.4  '/>	<g transform="translate(381.9,264.3)" stroke="none" fill="black" font-family="Helvetica" font-size="12.00"  text-anchor="middle">
		<text><tspan font-family="Helvetica" > 1.3x10</tspan><tspan font-family="Helvetica"  font-size="9.6" dy="-6.00px">8</tspan><tspan font-size="12.0" dy="6.00"></tspan></text>
	</g>
</g>
<g fill="none" color="black" stroke="currentColor" stroke-width="1.00" stroke-linecap="butt" stroke-linejoin="miter">
	<path stroke='black'  d='M422.5,242.4 L422.5,233.4  '/>	<g transform="translate(422.5,264.3)" stroke="none" fill="black" font-family="Helvetica" font-size="12.00"  text-anchor="middle">
		<text><tspan font-family="Helvetica" > 1.4x10</tspan><tspan font-family="Helvetica"  font-size="9.6" dy="-6.00px">8</tspan><tspan font-size="12.0" dy="6.00"></tspan></text>
	</g>
</g>
<g fill="none" color="black" stroke="currentColor" stroke-width="1.00" stroke-linecap="butt" stroke-linejoin="miter">
</g>
<g fill="none" color="black" stroke="currentColor" stroke-width="1.00" stroke-linecap="butt" stroke-linejoin="miter">
	<path stroke='black'  d='M105.1,18.1 L105.1,242.4 L425.0,242.4 L425.0,18.1 L105.1,18.1 Z  '/></g>
<g fill="none" color="black" stroke="currentColor" stroke-width="1.00" stroke-linecap="butt" stroke-linejoin="miter">
	<g transform="translate(16.3,130.3) rotate(270)" stroke="none" fill="black" font-family="Helvetica" font-size="12.00"  text-anchor="middle">
		<text><tspan font-family="Helvetica" >Density (a.u.)</tspan></text>
	</g>
</g>
<g fill="none" color="black" stroke="currentColor" stroke-width="1.00" stroke-linecap="butt" stroke-linejoin="miter">
	<g transform="translate(265.0,291.3)" stroke="none" fill="black" font-family="Helvetica" font-size="12.00"  text-anchor="middle">
		<text><tspan font-family="Helvetica" >Average time (cycles)</tspan></text>
	</g>
</g>
<g fill="none" color="black" stroke="currentColor" stroke-width="1.00" stroke-linecap="butt" stroke-linejoin="miter">
</g>
	<g id="gnuplot_plot_1" ><title>PDF</title>
<g fill="none" color="black" stroke="currentColor" stroke-width="1.00" stroke-linecap="butt" stroke-linejoin="miter">
	<g stroke='none' shape-rendering='crispEdges'>
		<polygon fill = 'rgb( 31, 120, 180)' fill-opacity = '0.250000' points = '105.1,242.3 105.7,242.3 106.4,242.3 107.0,242.3 107.7,242.3 108.3,242.3 108.9,242.3 109.6,242.3 110.2,242.3 110.9,242.2 111.5,242.2 112.2,242.2 112.8,242.2 113.4,242.2 114.1,242.1 114.7,242.1
115.4,242.1 116.0,242.1 116.6,242.0 117.3,242.0 117.9,242.0 118.6,241.9 119.2,241.9 119.8,241.9 120.5,241.8 121.1,241.8 121.8,241.7 122.4,241.7 123.1,241.6 123.7,241.5 124.3,241.5 125.0,241.4
125.6,241.3 126.3,241.2 126.9,241.1 127.5,241.0 128.2,240.9 128.8,240.8 129.5,240.7 130.1,240.6 130.7,240.5 131.4,240.3 132.0,240.2 132.7,240.0 133.3,239.9 133.9,239.7 134.6,239.5 135.2,239.3
135.9,239.1 136.5,238.9 137.2,238.7 137.8,238.5 138.4,238.2 139.1,238.0 139.7,237.7 140.4,237.4 141.0,237.1 141.6,236.8 142.3,236.4 142.9,236.1 143.6,235.7 144.2,235.3 144.8,234.9 145.5,234.5
146.1,234.1 146.8,233.6 147.4,233.2 148.1,232.7 148.7,232.1 149.3,231.6 150.0,231.0 150.6,230.5 151.3,229.9 151.9,229.2 152.5,228.6 153.2,227.9 153.8,227.2 154.5,226.5 155.1,225.7 155.7,224.9
156.4,224.1 157.0,223.3 157.7,222.5 158.3,221.6 159.0,220.7 159.6,219.7 160.2,218.8 160.9,217.8 161.5,216.8 162.2,215.7 162.8,214.7 163.4,213.6 164.1,212.5 164.7,211.3 165.4,210.2 166.0,209.0
166.6,207.8 167.3,206.5 167.9,205.3 168.6,204.0 169.2,202.7 169.8,201.4 170.5,200.1 171.1,198.7 171.8,197.4 172.4,196.0 173.1,194.6 173.7,193.2 174.3,191.8 175.0,190.4 175.6,189.0 176.3,187.6
176.9,186.1 177.5,184.7 178.2,183.3 178.8,181.9 179.5,180.5 180.1,179.0 180.7,177.6 181.4,176.3 182.0,174.9 182.7,173.5 183.3,172.2 184.0,170.8 184.6,169.5 185.2,168.2 185.9,166.9 186.5,165.7
187.2,164.5 187.8,163.3 188.4,162.1 189.1,160.9 189.7,159.8 190.4,158.8 191.0,157.7 191.6,156.7 192.3,155.7 192.9,154.7 193.6,153.8 194.2,152.9 194.9,152.1 195.5,151.3 196.1,150.5 196.8,149.8
197.4,149.1 198.1,148.4 198.7,147.8 199.3,147.2 200.0,146.6 200.6,146.1 201.3,145.5 201.9,145.1 202.5,144.6 203.2,144.2 203.8,143.8 204.5,143.5 205.1,143.2 205.7,142.8 206.4,142.6 207.0,142.3
207.7,142.1 208.3,141.8 209.0,141.6 209.6,141.4 210.2,141.2 210.9,141.1 211.5,140.9 212.2,140.8 212.8,140.6 213.4,140.5 214.1,140.3 214.7,140.2 215.4,140.0 216.0,139.9 216.6,139.7 217.3,139.6
217.9,139.4 218.6,139.2 219.2,139.0 219.9,138.8 220.5,138.6 221.1,138.3 221.8,138.1 222.4,137.8 223.1,137.5 223.7,137.1 224.3,136.8 225.0,136.4 225.6,136.0 226.3,135.6 226.9,135.1 227.5,134.6
228.2,134.1 228.8,133.5 229.5,132.9 230.1,132.3 230.8,131.6 231.4,131.0 232.0,130.2 232.7,129.5 233.3,128.7 234.0,127.9 234.6,127.0 235.2,126.1 235.9,125.2 236.5,124.2 237.2,123.2 237.8,122.2
238.4,121.2 239.1,120.1 239.7,118.9 240.4,117.8 241.0,116.6 241.7,115.4 242.3,114.2 242.9,112.9 243.6,111.7 244.2,110.3 244.9,109.0 245.5,107.7 246.1,106.3 246.8,104.9 247.4,103.5 248.1,102.1
248.7,100.7 249.3,99.2 250.0,97.8 250.6,96.3 251.3,94.8 251.9,93.3 252.5,91.8 253.2,90.3 253.8,88.9 254.5,87.4 255.1,85.9 255.8,84.4 256.4,82.9 257.0,81.4 257.7,79.9 258.3,78.4
259.0,76.9 259.6,75.4 260.2,74.0 260.9,72.5 261.5,71.1 262.2,69.6 262.8,68.2 263.4,66.8 264.1,65.4 264.7,64.0 265.4,62.6 266.0,61.2 266.7,59.9 267.3,58.5 267.9,57.2 268.6,55.9
269.2,54.6 269.9,53.3 270.5,52.0 271.1,50.8 271.8,49.5 272.4,48.3 273.1,47.1 273.7,45.9 274.3,44.7 275.0,43.6 275.6,42.4 276.3,41.3 276.9,40.2 277.6,39.1 278.2,38.0 278.8,36.9
279.5,35.9 280.1,34.9 280.8,33.8 281.4,32.9 282.0,31.9 282.7,30.9 283.3,30.0 284.0,29.1 284.6,28.2 285.2,27.4 285.9,26.6 286.5,25.8 287.2,25.0 287.8,24.3 288.4,23.6 289.1,22.9
289.7,22.3 290.4,21.7 291.0,21.1 291.7,20.6 292.3,20.1 292.9,19.7 293.6,19.3 294.2,19.0 294.9,18.7 295.5,18.5 296.1,18.3 296.8,18.2 297.4,18.1 298.1,18.1 298.7,18.2 299.3,18.3
300.0,18.5 300.6,18.7 301.3,19.0 301.9,19.4 302.6,19.9 303.2,20.4 303.8,21.0 304.5,21.7 305.1,22.5 305.8,23.3 306.4,24.2 307.0,25.2 307.7,26.2 308.3,27.4 309.0,28.6 309.6,29.9
310.2,31.2 310.9,32.7 311.5,34.2 312.2,35.8 312.8,37.4 313.5,39.1 314.1,40.9 314.7,42.8 315.4,44.7 316.0,46.7 316.7,48.7 317.3,50.8 317.9,53.0 318.6,55.2 319.2,57.4 319.9,59.8
320.5,62.1 321.1,64.5 321.8,66.9 322.4,69.4 323.1,71.9 323.7,74.4 324.4,76.9 325.0,79.5 325.6,82.1 326.3,84.7 326.9,87.3 327.6,89.9 328.2,92.5 328.8,95.1 329.5,97.8 330.1,100.4
330.8,103.0 331.4,105.6 332.0,108.2 332.7,110.8 333.3,113.3 334.0,115.8 334.6,118.4 335.2,120.9 335.9,123.3 336.5,125.8 337.2,128.2 337.8,130.5 338.5,132.9 339.1,135.2 339.7,137.5 340.4,139.7
341.0,142.0 341.7,144.1 342.3,146.3 342.9,148.4 343.6,150.5 344.2,152.5 344.9,154.5 345.5,156.5 346.1,158.4 346.8,160.3 347.4,162.1 348.1,164.0 348.7,165.8 349.4,167.5 350.0,169.2 350.6,170.9
351.3,172.6 351.9,174.2 352.6,175.8 353.2,177.4 353.8,179.0 354.5,180.5 355.1,182.0 355.8,183.4 356.4,184.9 357.0,186.3 357.7,187.7 358.3,189.1 359.0,190.4 359.6,191.8 360.3,193.1 360.9,194.4
361.5,195.6 362.2,196.9 362.8,198.1 363.5,199.3 364.1,200.5 364.7,201.7 365.4,202.9 366.0,204.0 366.7,205.2 367.3,206.3 367.9,207.4 368.6,208.4 369.2,209.5 369.9,210.5 370.5,211.6 371.1,212.6
371.8,213.6 372.4,214.5 373.1,215.5 373.7,216.4 374.4,217.4 375.0,218.3 375.6,219.2 376.3,220.0 376.9,220.9 377.6,221.7 378.2,222.5 378.8,223.3 379.5,224.1 380.1,224.8 380.8,225.6 381.4,226.3
382.0,227.0 382.7,227.7 383.3,228.3 384.0,229.0 384.6,229.6 385.3,230.2 385.9,230.8 386.5,231.3 387.2,231.9 387.8,232.4 388.5,232.9 389.1,233.4 389.7,233.9 390.4,234.3 391.0,234.7 391.7,235.2
392.3,235.6 392.9,235.9 393.6,236.3 394.2,236.7 394.9,237.0 395.5,237.3 396.2,237.6 396.8,237.9 397.4,238.2 398.1,238.4 398.7,238.7 399.4,238.9 400.0,239.2 400.6,239.4 401.3,239.6 401.9,239.8
402.6,239.9 403.2,240.1 403.8,240.3 404.5,240.4 405.1,240.6 405.8,240.7 406.4,240.8 407.0,240.9 407.7,241.0 408.3,241.1 409.0,241.2 409.6,241.3 410.3,241.4 410.9,241.5 411.5,241.6 412.2,241.6
412.8,241.7 413.5,241.8 414.1,241.8 414.7,241.9 415.4,241.9 416.0,241.9 416.7,242.0 417.3,242.0 417.9,242.1 418.6,242.1 419.2,242.1 419.9,242.1 420.5,242.2 421.2,242.2 421.8,242.2 422.4,242.2
423.1,242.2 423.7,242.3 424.4,242.3 425.0,242.3 425.0,242.4 424.4,242.4 423.7,242.4 423.1,242.4 422.4,242.4 421.8,242.4 421.2,242.4 420.5,242.4 419.9,242.4 419.2,242.4 418.6,242.4 417.9,242.4
417.3,242.4 416.7,242.4 416.0,242.4 415.4,242.4 414.7,242.4 414.1,242.4 413.5,242.4 412.8,242.4 412.2,242.4 411.5,242.4 410.9,242.4 410.3,242.4 409.6,242.4 409.0,242.4 408.3,242.4 407.7,242.4
407.0,242.4 406.4,242.4 405.8,242.4 405.1,242.4 404.5,242.4 403.8,242.4 403.2,242.4 402.6,242.4 401.9,242.4 401.3,242.4 400.6,242.4 400.0,242.4 399.4,242.4 398.7,242.4 398.1,242.4 397.4,242.4
396.8,242.4 396.2,242.4 395.5,242.4 394.9,242.4 394.2,242.4 393.6,242.4 392.9,242.4 392.3,242.4 391.7,242.4 391.0,242.4 390.4,242.4 389.7,242.4 389.1,242.4 388.5,242.4 387.8,242.4 387.2,242.4
386.5,242.4 385.9,242.4 385.3,242.4 384.6,242.4 384.0,242.4 383.3,242.4 382.7,242.4 382.0,242.4 381.4,242.4 380.8,242.4 380.1,242.4 379.5,242.4 378.8,242.4 378.2,242.4 377.6,242.4 376.9,242.4
376.3,242.4 375.6,242.4 375.0,242.4 374.4,242.4 373.7,242.4 373.1,242.4 372.4,242.4 371.8,242.4 371.1,242.4 370.5,242.4 369.9,242.4 369.2,242.4 368.6,242.4 367.9,242.4 367.3,242.4 366.7,242.4
366.0,242.4 365.4,242.4 364.7,242.4 364.1,242.4 363.5,242.4 362.8,242.4 362.2,242.4 361.5,242.4 360.9,242.4 360.3,242.4 359.6,242.4 359.0,242.4 358.3,242.4 357.7,242.4 357.0,242.4 356.4,242.4
355.8,242.4 355.1,242.4 354.5,242.4 353.8,242.4 353.2,242.4 352.6,242.4 351.9,242.4 351.3,242.4 350.6,242.4 350.0,242.4 349.4,242.4 348.7,242.4 348.1,242.4 347.4,242.4 346.8,242.4 346.1,242.4
345.5,242.4 344.9,242.4 344.2,242.4 343.6,242.4 342.9,242.4 342.3,242.4 341.7,242.4 341.0,242.4 340.4,242.4 339.7,242.4 339.1,242.4 338.5,242.4 337.8,242.4 337.2,242.4 336.5,242.4 335.9,242.4
335.2,242.4 334.6,242.4 334.0,242.4 333.3,242.4 332.7,242.4 332.0,242.4 331.4,242.4 330.8,242.4 330.1,242.4 329.5,242.4 328.8,242.4 328.2,242.4 327.6,242.4 326.9,242.4 326.3,242.4 325.6,242.4
325.0,242.4 324.4,242.4 323.7,242.4 323.1,242.4 322.4,242.4 321.8,242.4 321.1,242.4 320.5,242.4 319.9,242.4 319.2,242.4 318.6,242.4 317.9,242.4 317.3,242.4 316.7,242.4 316.0,242.4 315.4,242.4
314.7,242.4 314.1,242.4 313.5,242.4 312.8,242.4 312.2,242.4 311.5,242.4 310.9,242.4 310.2,242.4 309.6,242.4 309.0,242.4 308.3,242.4 307.7,242.4 307.0,242.4 306.4,242.4 305.8,242.4 305.1,242.4
304.5,242.4 303.8,242.4 303.2,242.4 302.6,242.4 301.9,242.4 301.3,242.4 300.6,242.4 300.0,242.4 299.3,242.4 298.7,242.4 298.1,242.4 297.4,242.4 296.8,242.4 296.1,242.4 295.5,242.4 294.9,242.4
294.2,242.4 293.6,242.4 292.9,242.4 292.3,242.4 291.7,242.4 291.0,242.4 290.4,242.4 289.7,242.4 289.1,242.4 288.4,242.4 287.8,242.4 287.2,242.4 286.5,242.4 285.9,242.4 285.2,242.4 284.6,242.4
284.0,242.4 283.3,242.4 282.7,242.4 282.0,242.4 281.4,242.4 280.8,242.4 280.1,242.4 279.5,242.4 278.8,242.4 278.2,242.4 277.6,242.4 276.9,242.4 276.3,242.4 275.6,242.4 275.0,242.4 274.3,242.4
273.7,242.4 273.1,242.4 272.4,242.4 271.8,242.4 271.1,242.4 270.5,242.4 269.9,242.4 269.2,242.4 268.6,242.4 267.9,242.4 267.3,242.4 266.7,242.4 266.0,242.4 265.4,242.4 264.7,242.4 264.1,242.4
263.4,242.4 262.8,242.4 262.2,242.4 261.5,242.4 260.9,242.4 260.2,242.4 259.6,242.4 259.0,242.4 258.3,242.4 257.7,242.4 257.0,242.4 256.4,242.4 255.8,242.4 255.1,242.4 254.5,242.4 253.8,242.4
253.2,242.4 252.5,242.4 251.9,242.4 251.3,242.4 250.6,242.4 250.0,242.4 249.3,242.4 248.7,242.4 248.1,242.4 247.4,242.4 246.8,242.4 246.1,242.4 245.5,242.4 244.9,242.4 244.2,242.4 243.6,242.4
242.9,242.4 242.3,242.4 241.7,242.4 241.0,242.4 240.4,242.4 239.7,242.4 239.1,242.4 238.4,242.4 237.8,242.4 237.2,242.4 236.5,242.4 235.9,242.4 235.2,242.4 234.6,242.4 234.0,242.4 233.3,242.4
232.7,242.4 232.0,242.4 231.4,242.4 230.8,242.4 230.1,242.4 229.5,242.4 228.8,242.4 228.2,242.4 227.5,242.4 226.9,242.4 226.3,242.4 225.6,242.4 225.0,242.4 224.3,242.4 223.7,242.4 223.1,242.4
222.4,242.4 221.8,242.4 221.1,242.4 220.5,242.4 219.9,242.4 219.2,242.4 218.6,242.4 217.9,242.4 217.3,242.4 216.6,242.4 216.0,242.4 215.4,242.4 214.7,242.4 214.1,242.4 213.4,242.4 212.8,242.4
212.2,242.4 211.5,242.4 210.9,242.4 210.2,242.4 209.6,242.4 209.0,242.4 208.3,242.4 207.7,242.4 207.0,242.4 206.4,242.4 205.7,242.4 205.1,242.4 204.5,242.4 203.8,242.4 203.2,242.4 202.5,242.4
201.9,242.4 201.3,242.4 200.6,242.4 200.0,242.4 199.3,242.4 198.7,242.4 198.1,242.4 197.4,242.4 196.8,242.4 196.1,242.4 195.5,242.4 194.9,242.4 194.2,242.4 193.6,242.4 192.9,242.4 192.3,242.4
191.6,242.4 191.0,242.4 190.4,242.4 189.7,242.4 189.1,242.4 188.4,242.4 187.8,242.4 187.2,242.4 186.5,242.4 185.9,242.4 185.2,242.4 184.6,242.4 184.0,242.4 183.3,242.4 182.7,242.4 182.0,242.4
181.4,242.4 180.7,242.4 180.1,242.4 179.5,242.4 178.8,242.4 178.2,242.4 177.5,242.4 176.9,242.4 176.3,242.4 175.6,242.4 175.0,242.4 174.3,242.4 173.7,242.4 173.1,242.4 172.4,242.4 171.8,242.4
171.1,242.4 170.5,242.4 169.8,242.4 169.2,242.4 168.6,242.4 167.9,242.4 167.3,242.4 166.6,242.4 166.0,242.4 165.4,242.4 164.7,242.4 164.1,242.4 163.4,242.4 162.8,242.4 162.2,242.4 161.5,242.4
160.9,242.4 160.2,242.4 159.6,242.4 159.0,242.4 158.3,242.4 157.7,242.4 157.0,242.4 156.4,242.4 155.7,242.4 155.1,242.4 154.5,242.4 153.8,242.4 153.2,242.4 152.5,242.4 151.9,242.4 151.3,242.4
150.6,242.4 150.0,242.4 149.3,242.4 148.7,242.4 148.1,242.4 147.4,242.4 146.8,242.4 146.1,242.4 145.5,242.4 144.8,242.4 144.2,242.4 143.6,242.4 142.9,242.4 142.3,242.4 141.6,242.4 141.0,242.4
140.4,242.4 139.7,242.4 139.1,242.4 138.4,242.4 137.8,242.4 137.2,242.4 136.5,242.4 135.9,242.4 135.2,242.4 134.6,242.4 133.9,242.4 133.3,242.4 132.7,242.4 132.0,242.4 131.4,242.4 130.7,242.4
130.1,242.4 129.5,242.4 128.8,242.4 128.2,242.4 127.5,242.4 126.9,242.4 126.3,242.4 125.6,242.4 125.0,242.4 124.3,242.4 123.7,242.4 123.1,242.4 122.4,242.4 121.8,242.4 121.1,242.4 120.5,242.4
119.8,242.4 119.2,242.4 118.6,242.4 117.9,242.4 117.3,242.4 116.6,242.4 116.0,242.4 115.4,242.4 114.7,242.4 114.1,242.4 113.4,242.4 112.8,242.4 112.2,242.4 111.5,242.4 110.9,242.4 110.2,242.4
109.6,242.4 108.9,242.4 108.3,242.4 107.7,242.4 107.0,242.4 106.4,242.4 105.7,242.4 105.1,242.4 '/>
	</g>
</g>
	</g>
	<g id="gnuplot_plot_2" ><title>Mean</title>
<g fill="none" color="white" stroke="rgb( 31, 120, 180)" stroke-width="2.00" stroke-linecap="butt" stroke-linejoin="miter">
</g>
<g fill="none" color="black" stroke="currentColor" stroke-width="2.00" stroke-linecap="butt" stroke-linejoin="miter">
	<path stroke='rgb( 31, 120, 180)'  d='M274.2,242.4 L274.2,62.9  '/></g>
	</g>
<g fill="none" color="black" stroke="currentColor" stroke-width="2.00" stroke-linecap="butt" stroke-linejoin="miter">
</g>
<g fill="none" color="black" stroke="black" stroke-width="1.00" stroke-linecap="butt" stroke-linejoin="miter">
</g>
<g fill="none" color="black" stroke="currentColor" stroke-width="1.00" stroke-linecap="butt" stroke-linejoin="miter">
	<path stroke='black'  d='M105.1,18.1 L105.1,242.4 L425.0,242.4 L425.0,18.1 L105.1,18.1 Z  '/></g>
<g fill="none" color="black" stroke="currentColor" stroke-width="1.00" stroke-linecap="butt" stroke-linejoin="miter">
</g>
</g>
</svg>

