<?xml version="1.0" encoding="utf-8"  standalone="no"?>
<svg 
 viewBox="0 0 1280 720"
 xmlns="http://www.w3.org/2000/svg"
 xmlns:xlink="http://www.w3.org/1999/xlink"
>

<title>Gnuplot</title>
<desc>Produced by GNUPLOT 5.2 patchlevel 2 </desc>

<g id="gnuplot_canvas">

<rect x="0" y="0" width="1280" height="720" fill="none"/>
<defs>

	<circle id='gpDot' r='0.5' stroke-width='0.5'/>
	<path id='gpPt0' stroke-width='0.222' stroke='currentColor' d='M-1,0 h2 M0,-1 v2'/>
	<path id='gpPt1' stroke-width='0.222' stroke='currentColor' d='M-1,-1 L1,1 M1,-1 L-1,1'/>
	<path id='gpPt2' stroke-width='0.222' stroke='currentColor' d='M-1,0 L1,0 M0,-1 L0,1 M-1,-1 L1,1 M-1,1 L1,-1'/>
	<rect id='gpPt3' stroke-width='0.222' stroke='currentColor' x='-1' y='-1' width='2' height='2'/>
	<rect id='gpPt4' stroke-width='0.222' stroke='currentColor' fill='currentColor' x='-1' y='-1' width='2' height='2'/>
	<circle id='gpPt5' stroke-width='0.222' stroke='currentColor' cx='0' cy='0' r='1'/>
	<use xlink:href='#gpPt5' id='gpPt6' fill='currentColor' stroke='none'/>
	<path id='gpPt7' stroke-width='0.222' stroke='currentColor' d='M0,-1.33 L-1.33,0.67 L1.33,0.67 z'/>
	<use xlink:href='#gpPt7' id='gpPt8' fill='currentColor' stroke='none'/>
	<use xlink:href='#gpPt7' id='gpPt9' stroke='currentColor' transform='rotate(180)'/>
	<use xlink:href='#gpPt9' id='gpPt10' fill='currentColor' stroke='none'/>
	<use xlink:href='#gpPt3' id='gpPt11' stroke='currentColor' transform='rotate(45)'/>
	<use xlink:href='#gpPt11' id='gpPt12' fill='currentColor' stroke='none'/>
	<path id='gpPt13' stroke-width='0.222' stroke='currentColor' d='M0,1.330 L1.265,0.411 L0.782,-1.067 L-0.782,-1.076 L-1.265,0.411 z'/>
	<use xlink:href='#gpPt13' id='gpPt14' fill='currentColor' stroke='none'/>
	<filter id='textbox' filterUnits='objectBoundingBox' x='0' y='0' height='1' width='1'>
	  <feFlood flood-color='white' flood-opacity='1' result='bgnd'/>
	  <feComposite in='SourceGraphic' in2='bgnd' operator='atop'/>
	</filter>
	<filter id='greybox' filterUnits='objectBoundingBox' x='0' y='0' height='1' width='1'>
	  <feFlood flood-color='lightgrey' flood-opacity='1' result='grey'/>
	  <feComposite in='SourceGraphic' in2='grey' operator='atop'/>
	</filter>
</defs>
<g fill="none" color="white" stroke="currentColor" stroke-width="1.00" stroke-linecap="butt" stroke-linejoin="miter">
</g>
<g fill="none" color="black" stroke="currentColor" stroke-width="1.00" stroke-linecap="butt" stroke-linejoin="miter">
	<path stroke='black'  d='M96.8,662.4 L105.8,662.4  '/>	<g transform="translate(88.5,666.3)" stroke="none" fill="black" font-family="Helvetica" font-size="12.00"  text-anchor="end">
		<text><tspan font-family="Helvetica" > 0</tspan></text>
	</g>
</g>
<g fill="none" color="black" stroke="currentColor" stroke-width="1.00" stroke-linecap="butt" stroke-linejoin="miter">
	<path stroke='black'  d='M96.8,561.0 L105.8,561.0  '/>	<g transform="translate(88.5,564.9)" stroke="none" fill="black" font-family="Helvetica" font-size="12.00"  text-anchor="end">
		<text><tspan font-family="Helvetica" > 0.0002</tspan></text>
	</g>
</g>
<g fill="none" color="black" stroke="currentColor" stroke-width="1.00" stroke-linecap="butt" stroke-linejoin="miter">
	<path stroke='black'  d='M96.8,459.6 L105.8,459.6  '/>	<g transform="translate(88.5,463.5)" stroke="none" fill="black" font-family="Helvetica" font-size="12.00"  text-anchor="end">
		<text><tspan font-family="Helvetica" > 0.0004</tspan></text>
	</g>
</g>
<g fill="none" color="black" stroke="currentColor" stroke-width="1.00" stroke-linecap="butt" stroke-linejoin="miter">
	<path stroke='black'  d='M96.8,358.2 L105.8,358.2  '/>	<g transform="translate(88.5,362.1)" stroke="none" fill="black" font-family="Helvetica" font-size="12.00"  text-anchor="end">
		<text><tspan font-family="Helvetica" > 0.0006</tspan></text>
	</g>
</g>
<g fill="none" color="black" stroke="currentColor" stroke-width="1.00" stroke-linecap="butt" stroke-linejoin="miter">
	<path stroke='black'  d='M96.8,256.9 L105.8,256.9  '/>	<g transform="translate(88.5,260.8)" stroke="none" fill="black" font-family="Helvetica" font-size="12.00"  text-anchor="end">
		<text><tspan font-family="Helvetica" > 0.0008</tspan></text>
	</g>
</g>
<g fill="none" color="black" stroke="currentColor" stroke-width="1.00" stroke-linecap="butt" stroke-linejoin="miter">
	<path stroke='black'  d='M96.8,155.5 L105.8,155.5  '/>	<g transform="translate(88.5,159.4)" stroke="none" fill="black" font-family="Helvetica" font-size="12.00"  text-anchor="end">
		<text><tspan font-family="Helvetica" > 0.001</tspan></text>
	</g>
</g>
<g fill="none" color="black" stroke="currentColor" stroke-width="1.00" stroke-linecap="butt" stroke-linejoin="miter">
	<path stroke='black'  d='M96.8,54.1 L105.8,54.1  '/>	<g transform="translate(88.5,58.0)" stroke="none" fill="black" font-family="Helvetica" font-size="12.00"  text-anchor="end">
		<text><tspan font-family="Helvetica" > 0.0012</tspan></text>
	</g>
</g>
<g fill="none" color="black" stroke="currentColor" stroke-width="1.00" stroke-linecap="butt" stroke-linejoin="miter">
	<path stroke='black'  d='M245.1,662.4 L245.1,653.4  '/>	<g transform="translate(245.1,684.3)" stroke="none" fill="black" font-family="Helvetica" font-size="12.00"  text-anchor="middle">
		<text><tspan font-family="Helvetica" > 1500</tspan></text>
	</g>
</g>
<g fill="none" color="black" stroke="currentColor" stroke-width="1.00" stroke-linecap="butt" stroke-linejoin="miter">
	<path stroke='black'  d='M472.6,662.4 L472.6,653.4  '/>	<g transform="translate(472.6,684.3)" stroke="none" fill="black" font-family="Helvetica" font-size="12.00"  text-anchor="middle">
		<text><tspan font-family="Helvetica" > 2000</tspan></text>
	</g>
</g>
<g fill="none" color="black" stroke="currentColor" stroke-width="1.00" stroke-linecap="butt" stroke-linejoin="miter">
	<path stroke='black'  d='M700.1,662.4 L700.1,653.4  '/>	<g transform="translate(700.1,684.3)" stroke="none" fill="black" font-family="Helvetica" font-size="12.00"  text-anchor="middle">
		<text><tspan font-family="Helvetica" > 2500</tspan></text>
	</g>
</g>
<g fill="none" color="black" stroke="currentColor" stroke-width="1.00" stroke-linecap="butt" stroke-linejoin="miter">
	<path stroke='black'  d='M927.5,662.4 L927.5,653.4  '/>	<g transform="translate(927.5,684.3)" stroke="none" fill="black" font-family="Helvetica" font-size="12.00"  text-anchor="middle">
		<text><tspan font-family="Helvetica" > 3000</tspan></text>
	</g>
</g>
<g fill="none" color="black" stroke="currentColor" stroke-width="1.00" stroke-linecap="butt" stroke-linejoin="miter">
</g>
<g fill="none" color="black" stroke="currentColor" stroke-width="1.00" stroke-linecap="butt" stroke-linejoin="miter">
	<path stroke='black'  d='M96.8,54.1 L96.8,662.4 L1013.6,662.4 L1013.6,54.1 L96.8,54.1 Z  '/></g>
<g fill="none" color="black" stroke="currentColor" stroke-width="1.00" stroke-linecap="butt" stroke-linejoin="miter">
	<g transform="translate(16.3,358.3) rotate(270)" stroke="none" fill="black" font-family="Helvetica" font-size="12.00"  text-anchor="middle">
		<text><tspan font-family="Helvetica" >Density (a.u.)</tspan></text>
	</g>
</g>
<g fill="none" color="black" stroke="currentColor" stroke-width="1.00" stroke-linecap="butt" stroke-linejoin="miter">
	<g transform="translate(555.2,711.3)" stroke="none" fill="black" font-family="Helvetica" font-size="12.00"  text-anchor="middle">
		<text><tspan font-family="Helvetica" >Average time (cycles)</tspan></text>
	</g>
</g>
<g fill="none" color="black" stroke="currentColor" stroke-width="1.00" stroke-linecap="butt" stroke-linejoin="miter">
	<g transform="translate(555.2,31.0)" stroke="none" fill="black" font-family="Helvetica" font-size="12.00"  text-anchor="middle">
		<text><tspan font-family="Helvetica" >non_nested_compare/initial calculation/6: MAD</tspan></text>
	</g>
</g>
	<g id="gnuplot_plot_1" ><title>Bootstrap distribution</title>
<g fill="none" color="white" stroke="black" stroke-width="2.00" stroke-linecap="butt" stroke-linejoin="miter">
</g>
<g fill="none" color="black" stroke="currentColor" stroke-width="2.00" stroke-linecap="butt" stroke-linejoin="miter">
	<g transform="translate(1089.0,67.0)" stroke="none" fill="black" font-family="Helvetica" font-size="12.00"  text-anchor="start">
		<text><tspan font-family="Helvetica" >Bootstrap distribution</tspan></text>
	</g>
</g>
<g fill="none" color="black" stroke="currentColor" stroke-width="2.00" stroke-linecap="butt" stroke-linejoin="miter">
	<path stroke='rgb( 31, 120, 180)'  d='M1038.5,63.1 L1080.7,63.1 M96.8,640.6 L98.6,639.4 L100.5,638.2 L102.3,636.9 L104.1,635.5 L106.0,634.2
		L107.8,632.7 L109.7,631.3 L111.5,629.8 L113.3,628.2 L115.2,626.6 L117.0,624.9 L118.8,623.2 L120.7,621.5
		L122.5,619.7 L124.4,617.8 L126.2,615.9 L128.0,613.9 L129.9,611.9 L131.7,609.8 L133.5,607.6 L135.4,605.3
		L137.2,603.0 L139.1,600.7 L140.9,598.2 L142.7,595.7 L144.6,593.2 L146.4,590.5 L148.2,587.8 L150.1,585.1
		L151.9,582.3 L153.8,579.4 L155.6,576.6 L157.4,573.7 L159.3,570.7 L161.1,567.8 L162.9,564.8 L164.8,561.8
		L166.6,558.8 L168.5,555.8 L170.3,552.8 L172.1,549.9 L174.0,546.9 L175.8,544.0 L177.6,541.1 L179.5,538.2
		L181.3,535.4 L183.2,532.5 L185.0,529.7 L186.8,526.9 L188.7,524.1 L190.5,521.2 L192.3,518.4 L194.2,515.5
		L196.0,512.7 L197.9,509.8 L199.7,506.8 L201.5,503.8 L203.4,500.7 L205.2,497.6 L207.0,494.4 L208.9,491.1
		L210.7,487.8 L212.5,484.4 L214.4,481.0 L216.2,477.5 L218.1,474.0 L219.9,470.4 L221.7,466.9 L223.6,463.3
		L225.4,459.8 L227.2,456.4 L229.1,453.0 L230.9,449.8 L232.8,446.6 L234.6,443.6 L236.4,440.8 L238.3,438.2
		L240.1,435.8 L241.9,433.6 L243.8,431.6 L245.6,429.8 L247.5,428.3 L249.3,427.1 L251.1,426.0 L253.0,425.2
		L254.8,424.6 L256.6,424.2 L258.5,424.0 L260.3,423.9 L262.2,423.9 L264.0,424.0 L265.8,424.1 L267.7,424.3
		L269.5,424.5 L271.3,424.6 L273.2,424.6 L275.0,424.5 L276.9,424.3 L278.7,423.9 L280.5,423.3 L282.4,422.5
		L284.2,421.5 L286.0,420.3 L287.9,418.8 L289.7,417.0 L291.6,415.1 L293.4,412.8 L295.2,410.3 L297.1,407.6
		L298.9,404.5 L300.7,401.3 L302.6,397.7 L304.4,393.9 L306.2,389.9 L308.1,385.6 L309.9,381.0 L311.8,376.3
		L313.6,371.3 L315.4,366.1 L317.3,360.7 L319.1,355.1 L320.9,349.5 L322.8,343.7 L324.6,337.9 L326.5,332.1
		L328.3,326.3 L330.1,320.6 L332.0,315.1 L333.8,309.8 L335.6,304.7 L337.5,300.0 L339.3,295.6 L341.2,291.7
		L343.0,288.1 L344.8,285.0 L346.7,282.4 L348.5,280.3 L350.3,278.6 L352.2,277.4 L354.0,276.6 L355.9,276.2
		L357.7,276.1 L359.5,276.3 L361.4,276.7 L363.2,277.3 L365.0,277.9 L366.9,278.6 L368.7,279.3 L370.6,279.8
		L372.4,280.2 L374.2,280.4 L376.1,280.3 L377.9,280.0 L379.7,279.2 L381.6,278.1 L383.4,276.6 L385.3,274.7
		L387.1,272.4 L388.9,269.6 L390.8,266.4 L392.6,262.7 L394.4,258.7 L396.3,254.2 L398.1,249.4 L400.0,244.3
		L401.8,238.8 L403.6,233.1 L405.5,227.1 L407.3,221.1 L409.1,214.9 L411.0,208.8 L412.8,202.7 L414.6,196.8
		L416.5,191.1 L418.3,185.7 L420.2,180.8 L422.0,176.3 L423.8,172.4 L425.7,169.2 L427.5,166.6 L429.3,164.7
		L431.2,163.6 L433.0,163.3 L434.9,163.7 L436.7,164.9 L438.5,166.8 L440.4,169.4 L442.2,172.6 L444.0,176.4
		L445.9,180.6 L447.7,185.3 L449.6,190.3 L451.4,195.5 L453.2,200.9 L455.1,206.3 L456.9,211.8 L458.7,217.1
		L460.6,222.4 L462.4,227.4 L464.3,232.2 L466.1,236.8 L467.9,241.0 L469.8,244.9 L471.6,248.4 L473.4,251.6
		L475.3,254.3 L477.1,256.7 L479.0,258.6 L480.8,260.0 L482.6,261.0 L484.5,261.5 L486.3,261.4 L488.1,260.8
		L490.0,259.6 L491.8,257.8 L493.7,255.5 L495.5,252.5 L497.3,248.9 L499.2,244.8 L501.0,240.1 L502.8,234.9
		L504.7,229.2 L506.5,223.1 L508.3,216.7 L510.2,210.1 L512.0,203.4 L513.9,196.7 L515.7,190.0 L517.5,183.6
		L519.4,177.5 L521.2,171.9 L523.0,166.8 L524.9,162.4 L526.7,158.8 L528.6,155.9 L530.4,154.0 L532.2,153.0
		L534.1,152.9 L535.9,153.9 L537.7,155.8 L539.6,158.7 L541.4,162.5 L543.3,167.2 L545.1,172.7 L546.9,179.0
		L548.8,185.9 L550.6,193.4 L552.4,201.4 L554.3,209.8 L556.1,218.5 L558.0,227.5 L559.8,236.6 L561.6,245.7
		L563.5,254.9 L565.3,263.9 L567.1,272.8 L569.0,281.6 L570.8,290.0 L572.7,298.2 L574.5,306.1 L576.3,313.6
		L578.2,320.8 L580.0,327.6 L581.8,334.1 L583.7,340.2 L585.5,345.9 L587.4,351.3 L589.2,356.4 L591.0,361.1
		L592.9,365.5 L594.7,369.6 L596.5,373.5 L598.4,377.0 L600.2,380.3 L602.1,383.4 L603.9,386.3 L605.7,388.9
		L607.6,391.4 L609.4,393.6 L611.2,395.7 L613.1,397.6 L614.9,399.4 L616.7,401.0 L618.6,402.5 L620.4,403.9
		L622.3,405.1 L624.1,406.3 L625.9,407.4 L627.8,408.4 L629.6,409.4 L631.4,410.2 L633.3,411.1 L635.1,411.9
		L637.0,412.7 L638.8,413.5 L640.6,414.3 L642.5,415.1 L644.3,415.9 L646.1,416.7 L648.0,417.5 L649.8,418.3
		L651.7,419.2 L653.5,420.1 L655.3,421.0 L657.2,422.0 L659.0,422.9 L660.8,423.9 L662.7,425.0 L664.5,426.0
		L666.4,427.0 L668.2,428.1 L670.0,429.2 L671.9,430.3 L673.7,431.3 L675.5,432.4 L677.4,433.5 L679.2,434.6
		L681.1,435.7 L682.9,436.8 L684.7,437.8 L686.6,438.9 L688.4,440.0 L690.2,441.1 L692.1,442.1 L693.9,443.2
		L695.8,444.3 L697.6,445.3 L699.4,446.4 L701.3,447.4 L703.1,448.4 L704.9,449.4 L706.8,450.3 L708.6,451.2
		L710.4,452.0 L712.3,452.8 L714.1,453.5 L716.0,454.1 L717.8,454.7 L719.6,455.1 L721.5,455.5 L723.3,455.7
		L725.1,455.8 L727.0,455.8 L728.8,455.6 L730.7,455.3 L732.5,454.9 L734.3,454.3 L736.2,453.5 L738.0,452.6
		L739.8,451.5 L741.7,450.3 L743.5,448.9 L745.4,447.3 L747.2,445.6 L749.0,443.8 L750.9,441.8 L752.7,439.6
		L754.5,437.4 L756.4,435.0 L758.2,432.6 L760.1,430.1 L761.9,427.5 L763.7,424.9 L765.6,422.2 L767.4,419.6
		L769.2,417.0 L771.1,414.4 L772.9,411.9 L774.8,409.6 L776.6,407.3 L778.4,405.1 L780.3,403.1 L782.1,401.3
		L783.9,399.7 L785.8,398.3 L787.6,397.1 L789.5,396.1 L791.3,395.3 L793.1,394.8 L795.0,394.5 L796.8,394.4
		L798.6,394.5 L800.5,394.9 L802.3,395.4 L804.2,396.2 L806.0,397.2 L807.8,398.4 L809.7,399.7 L811.5,401.2
		L813.3,402.9 L815.2,404.8 L817.0,406.8 L818.8,408.9 L820.7,411.2 L822.5,413.7 L824.4,416.3 L826.2,419.0
		L828.0,421.9 L829.9,424.9 L831.7,428.0 L833.5,431.2 L835.4,434.5 L837.2,437.9 L839.1,441.3 L840.9,444.7
		L842.7,448.2 L844.6,451.7 L846.4,455.2 L848.2,458.6 L850.1,462.0 L851.9,465.3 L853.8,468.6 L855.6,471.7
		L857.4,474.8 L859.3,477.8 L861.1,480.7 L862.9,483.5 L864.8,486.3 L866.6,488.9 L868.5,491.5 L870.3,494.0
		L872.1,496.5 L874.0,498.9 L875.8,501.3 L877.6,503.7 L879.5,506.1 L881.3,508.5 L883.2,510.9 L885.0,513.3
		L886.8,515.7 L888.7,518.2 L890.5,520.6 L892.3,523.1 L894.2,525.5 L896.0,528.0 L897.9,530.5 L899.7,533.0
		L901.5,535.5 L903.4,537.9 L905.2,540.4 L907.0,542.9 L908.9,545.4 L910.7,547.8 L912.5,550.3 L914.4,552.8
		L916.2,555.3 L918.1,557.7 L919.9,560.2 L921.7,562.6 L923.6,565.1 L925.4,567.5 L927.2,569.9 L929.1,572.3
		L930.9,574.7 L932.8,577.1 L934.6,579.4 L936.4,581.7 L938.3,583.9 L940.1,586.1 L941.9,588.2 L943.8,590.3
		L945.6,592.3 L947.5,594.2 L949.3,596.1 L951.1,597.9 L953.0,599.6 L954.8,601.3 L956.6,602.9 L958.5,604.4
		L960.3,605.9 L962.2,607.2 L964.0,608.6 L965.8,609.8 L967.7,611.0 L969.5,612.2 L971.3,613.3 L973.2,614.3
		L975.0,615.3 L976.9,616.3 L978.7,617.2 L980.5,618.1 L982.4,619.0 L984.2,619.9 L986.0,620.7 L987.9,621.6
		L989.7,622.4 L991.6,623.2 L993.4,624.0 L995.2,624.9 L997.1,625.7 L998.9,626.5 L1000.7,627.4 L1002.6,628.2
		L1004.4,629.1 L1006.3,629.9 L1008.1,630.8 L1009.9,631.6 L1011.8,632.5 L1013.6,633.4  '/></g>
	</g>
	<g id="gnuplot_plot_2" ><title>Confidence interval</title>
<g fill="none" color="white" stroke="rgb( 31, 120, 180)" stroke-width="1.00" stroke-linecap="butt" stroke-linejoin="miter">
</g>
<g fill="none" color="black" stroke="currentColor" stroke-width="1.00" stroke-linecap="butt" stroke-linejoin="miter">
	<g transform="translate(1089.0,85.0)" stroke="none" fill="black" font-family="Helvetica" font-size="12.00"  text-anchor="start">
		<text><tspan font-family="Helvetica" >Confidence interval</tspan></text>
	</g>
</g>
<g fill="none" color="black" stroke="currentColor" stroke-width="1.00" stroke-linecap="butt" stroke-linejoin="miter">
	<g stroke='none' shape-rendering='crispEdges'>
		<polygon fill = 'rgb( 31, 120, 180)' fill-opacity = '0.250000' points = '1038.5,85.6 1080.7,85.6 1080.7,76.6 1038.5,76.6 '/>
		<polygon fill = 'rgb( 31, 120, 180)' fill-opacity = '0.250000' points = '181.3,535.4 183.2,532.5 185.0,529.7 186.8,526.9 188.7,524.1 190.5,521.2 192.3,518.4 194.2,515.5 196.0,512.7 197.9,509.8 199.7,506.8 201.5,503.8 203.4,500.7 205.2,497.6 207.0,494.4 208.9,491.1
210.7,487.8 212.5,484.4 214.4,481.0 216.2,477.5 218.1,474.0 219.9,470.4 221.7,466.9 223.6,463.3 225.4,459.8 227.2,456.4 229.1,453.0 230.9,449.8 232.8,446.6 234.6,443.6 236.4,440.8 238.3,438.2
240.1,435.8 241.9,433.6 243.8,431.6 245.6,429.8 247.5,428.3 249.3,427.1 251.1,426.0 253.0,425.2 254.8,424.6 256.6,424.2 258.5,424.0 260.3,423.9 262.2,423.9 264.0,424.0 265.8,424.1 267.7,424.3
269.5,424.5 271.3,424.6 273.2,424.6 275.0,424.5 276.9,424.3 278.7,423.9 280.5,423.3 282.4,422.5 284.2,421.5 286.0,420.3 287.9,418.8 289.7,417.0 291.6,415.1 293.4,412.8 295.2,410.3 297.1,407.6
298.9,404.5 300.7,401.3 302.6,397.7 304.4,393.9 306.2,389.9 308.1,385.6 309.9,381.0 311.8,376.3 313.6,371.3 315.4,366.1 317.3,360.7 319.1,355.1 320.9,349.5 322.8,343.7 324.6,337.9 326.5,332.1
328.3,326.3 330.1,320.6 332.0,315.1 333.8,309.8 335.6,304.7 337.5,300.0 339.3,295.6 341.2,291.7 343.0,288.1 344.8,285.0 346.7,282.4 348.5,280.3 350.3,278.6 352.2,277.4 354.0,276.6 355.9,276.2
357.7,276.1 359.5,276.3 361.4,276.7 363.2,277.3 365.0,277.9 366.9,278.6 368.7,279.3 370.6,279.8 372.4,280.2 374.2,280.4 376.1,280.3 377.9,280.0 379.7,279.2 381.6,278.1 383.4,276.6 385.3,274.7
387.1,272.4 388.9,269.6 390.8,266.4 392.6,262.7 394.4,258.7 396.3,254.2 398.1,249.4 400.0,244.3 401.8,238.8 403.6,233.1 405.5,227.1 407.3,221.1 409.1,214.9 411.0,208.8 412.8,202.7 414.6,196.8
416.5,191.1 418.3,185.7 420.2,180.8 422.0,176.3 423.8,172.4 425.7,169.2 427.5,166.6 429.3,164.7 431.2,163.6 433.0,163.3 434.9,163.7 436.7,164.9 438.5,166.8 440.4,169.4 442.2,172.6 444.0,176.4
445.9,180.6 447.7,185.3 449.6,190.3 451.4,195.5 453.2,200.9 455.1,206.3 456.9,211.8 458.7,217.1 460.6,222.4 462.4,227.4 464.3,232.2 466.1,236.8 467.9,241.0 469.8,244.9 471.6,248.4 473.4,251.6
475.3,254.3 477.1,256.7 479.0,258.6 480.8,260.0 482.6,261.0 484.5,261.5 486.3,261.4 488.1,260.8 490.0,259.6 491.8,257.8 493.7,255.5 495.5,252.5 497.3,248.9 499.2,244.8 501.0,240.1 502.8,234.9
504.7,229.2 506.5,223.1 508.3,216.7 510.2,210.1 512.0,203.4 513.9,196.7 515.7,190.0 517.5,183.6 519.4,177.5 521.2,171.9 523.0,166.8 524.9,162.4 526.7,158.8 528.6,155.9 530.4,154.0 532.2,153.0
534.1,152.9 535.9,153.9 537.7,155.8 539.6,158.7 541.4,162.5 543.3,167.2 545.1,172.7 546.9,179.0 548.8,185.9 550.6,193.4 552.4,201.4 554.3,209.8 556.1,218.5 558.0,227.5 559.8,236.6 561.6,245.7
563.5,254.9 565.3,263.9 567.1,272.8 569.0,281.6 570.8,290.0 572.7,298.2 574.5,306.1 576.3,313.6 578.2,320.8 580.0,327.6 581.8,334.1 583.7,340.2 585.5,345.9 587.4,351.3 589.2,356.4 591.0,361.1
592.9,365.5 594.7,369.6 596.5,373.5 598.4,377.0 600.2,380.3 602.1,383.4 603.9,386.3 605.7,388.9 607.6,391.4 609.4,393.6 611.2,395.7 613.1,397.6 614.9,399.4 616.7,401.0 618.6,402.5 620.4,403.9
622.3,405.1 624.1,406.3 625.9,407.4 627.8,408.4 629.6,409.4 631.4,410.2 633.3,411.1 635.1,411.9 637.0,412.7 638.8,413.5 640.6,414.3 642.5,415.1 644.3,415.9 646.1,416.7 648.0,417.5 649.8,418.3
651.7,419.2 653.5,420.1 655.3,421.0 657.2,422.0 659.0,422.9 660.8,423.9 662.7,425.0 664.5,426.0 666.4,427.0 668.2,428.1 670.0,429.2 671.9,430.3 673.7,431.3 675.5,432.4 677.4,433.5 679.2,434.6
681.1,435.7 682.9,436.8 684.7,437.8 686.6,438.9 688.4,440.0 690.2,441.1 692.1,442.1 693.9,443.2 695.8,444.3 697.6,445.3 699.4,446.4 701.3,447.4 703.1,448.4 704.9,449.4 706.8,450.3 708.6,451.2
710.4,452.0 712.3,452.8 714.1,453.5 716.0,454.1 717.8,454.7 719.6,455.1 721.5,455.5 723.3,455.7 725.1,455.8 727.0,455.8 728.8,455.6 730.7,455.3 732.5,454.9 734.3,454.3 736.2,453.5 738.0,452.6
739.8,451.5 741.7,450.3 743.5,448.9 745.4,447.3 747.2,445.6 749.0,443.8 750.9,441.8 752.7,439.6 754.5,437.4 756.4,435.0 758.2,432.6 760.1,430.1 761.9,427.5 763.7,424.9 765.6,422.2 767.4,419.6
769.2,417.0 771.1,414.4 772.9,411.9 774.8,409.6 776.6,407.3 778.4,405.1 780.3,403.1 782.1,401.3 783.9,399.7 785.8,398.3 787.6,397.1 789.5,396.1 791.3,395.3 793.1,394.8 795.0,394.5 796.8,394.4
798.6,394.5 800.5,394.9 802.3,395.4 804.2,396.2 806.0,397.2 807.8,398.4 809.7,399.7 811.5,401.2 813.3,402.9 815.2,404.8 817.0,406.8 818.8,408.9 820.7,411.2 822.5,413.7 824.4,416.3 826.2,419.0
828.0,421.9 829.9,424.9 831.7,428.0 833.5,431.2 835.4,434.5 837.2,437.9 839.1,441.3 840.9,444.7 842.7,448.2 844.6,451.7 846.4,455.2 848.2,458.6 850.1,462.0 851.9,465.3 853.8,468.6 855.6,471.7
857.4,474.8 859.3,477.8 861.1,480.7 862.9,483.5 864.8,486.3 866.6,488.9 868.5,491.5 870.3,494.0 872.1,496.5 874.0,498.9 875.8,501.3 877.6,503.7 879.5,506.1 881.3,508.5 883.2,510.9 885.0,513.3
886.8,515.7 888.7,518.2 890.5,520.6 892.3,523.1 894.2,525.5 896.0,528.0 897.9,530.5 899.7,533.0 901.5,535.5 903.4,537.9 905.2,540.4 907.0,542.9 908.9,545.4 910.7,547.8 912.5,550.3 914.4,552.8
916.2,555.3 918.1,557.7 919.9,560.2 921.7,562.6 923.6,565.1 925.4,567.5 927.2,569.9 927.2,662.4 925.4,662.4 923.6,662.4 921.7,662.4 919.9,662.4 918.1,662.4 916.2,662.4 914.4,662.4 912.5,662.4
910.7,662.4 908.9,662.4 907.0,662.4 905.2,662.4 903.4,662.4 901.5,662.4 899.7,662.4 897.9,662.4 896.0,662.4 894.2,662.4 892.3,662.4 890.5,662.4 888.7,662.4 886.8,662.4 885.0,662.4 883.2,662.4
881.3,662.4 879.5,662.4 877.6,662.4 875.8,662.4 874.0,662.4 872.1,662.4 870.3,662.4 868.5,662.4 866.6,662.4 864.8,662.4 862.9,662.4 861.1,662.4 859.3,662.4 857.4,662.4 855.6,662.4 853.8,662.4
851.9,662.4 850.1,662.4 848.2,662.4 846.4,662.4 844.6,662.4 842.7,662.4 840.9,662.4 839.1,662.4 837.2,662.4 835.4,662.4 833.5,662.4 831.7,662.4 829.9,662.4 828.0,662.4 826.2,662.4 824.4,662.4
822.5,662.4 820.7,662.4 818.8,662.4 817.0,662.4 815.2,662.4 813.3,662.4 811.5,662.4 809.7,662.4 807.8,662.4 806.0,662.4 804.2,662.4 802.3,662.4 800.5,662.4 798.6,662.4 796.8,662.4 795.0,662.4
793.1,662.4 791.3,662.4 789.5,662.4 787.6,662.4 785.8,662.4 783.9,662.4 782.1,662.4 780.3,662.4 778.4,662.4 776.6,662.4 774.8,662.4 772.9,662.4 771.1,662.4 769.2,662.4 767.4,662.4 765.6,662.4
763.7,662.4 761.9,662.4 760.1,662.4 758.2,662.4 756.4,662.4 754.5,662.4 752.7,662.4 750.9,662.4 749.0,662.4 747.2,662.4 745.4,662.4 743.5,662.4 741.7,662.4 739.8,662.4 738.0,662.4 736.2,662.4
734.3,662.4 732.5,662.4 730.7,662.4 728.8,662.4 727.0,662.4 725.1,662.4 723.3,662.4 721.5,662.4 719.6,662.4 717.8,662.4 716.0,662.4 714.1,662.4 712.3,662.4 710.4,662.4 708.6,662.4 706.8,662.4
704.9,662.4 703.1,662.4 701.3,662.4 699.4,662.4 697.6,662.4 695.8,662.4 693.9,662.4 692.1,662.4 690.2,662.4 688.4,662.4 686.6,662.4 684.7,662.4 682.9,662.4 681.1,662.4 679.2,662.4 677.4,662.4
675.5,662.4 673.7,662.4 671.9,662.4 670.0,662.4 668.2,662.4 666.4,662.4 664.5,662.4 662.7,662.4 660.8,662.4 659.0,662.4 657.2,662.4 655.3,662.4 653.5,662.4 651.7,662.4 649.8,662.4 648.0,662.4
646.1,662.4 644.3,662.4 642.5,662.4 640.6,662.4 638.8,662.4 637.0,662.4 635.1,662.4 633.3,662.4 631.4,662.4 629.6,662.4 627.8,662.4 625.9,662.4 624.1,662.4 622.3,662.4 620.4,662.4 618.6,662.4
616.7,662.4 614.9,662.4 613.1,662.4 611.2,662.4 609.4,662.4 607.6,662.4 605.7,662.4 603.9,662.4 602.1,662.4 600.2,662.4 598.4,662.4 596.5,662.4 594.7,662.4 592.9,662.4 591.0,662.4 589.2,662.4
587.4,662.4 585.5,662.4 583.7,662.4 581.8,662.4 580.0,662.4 578.2,662.4 576.3,662.4 574.5,662.4 572.7,662.4 570.8,662.4 569.0,662.4 567.1,662.4 565.3,662.4 563.5,662.4 561.6,662.4 559.8,662.4
558.0,662.4 556.1,662.4 554.3,662.4 552.4,662.4 550.6,662.4 548.8,662.4 546.9,662.4 545.1,662.4 543.3,662.4 541.4,662.4 539.6,662.4 537.7,662.4 535.9,662.4 534.1,662.4 532.2,662.4 530.4,662.4
528.6,662.4 526.7,662.4 524.9,662.4 523.0,662.4 521.2,662.4 519.4,662.4 517.5,662.4 515.7,662.4 513.9,662.4 512.0,662.4 510.2,662.4 508.3,662.4 506.5,662.4 504.7,662.4 502.8,662.4 501.0,662.4
499.2,662.4 497.3,662.4 495.5,662.4 493.7,662.4 491.8,662.4 490.0,662.4 488.1,662.4 486.3,662.4 484.5,662.4 482.6,662.4 480.8,662.4 479.0,662.4 477.1,662.4 475.3,662.4 473.4,662.4 471.6,662.4
469.8,662.4 467.9,662.4 466.1,662.4 464.3,662.4 462.4,662.4 460.6,662.4 458.7,662.4 456.9,662.4 455.1,662.4 453.2,662.4 451.4,662.4 449.6,662.4 447.7,662.4 445.9,662.4 444.0,662.4 442.2,662.4
440.4,662.4 438.5,662.4 436.7,662.4 434.9,662.4 433.0,662.4 431.2,662.4 429.3,662.4 427.5,662.4 425.7,662.4 423.8,662.4 422.0,662.4 420.2,662.4 418.3,662.4 416.5,662.4 414.6,662.4 412.8,662.4
411.0,662.4 409.1,662.4 407.3,662.4 405.5,662.4 403.6,662.4 401.8,662.4 400.0,662.4 398.1,662.4 396.3,662.4 394.4,662.4 392.6,662.4 390.8,662.4 388.9,662.4 387.1,662.4 385.3,662.4 383.4,662.4
381.6,662.4 379.7,662.4 377.9,662.4 376.1,662.4 374.2,662.4 372.4,662.4 370.6,662.4 368.7,662.4 366.9,662.4 365.0,662.4 363.2,662.4 361.4,662.4 359.5,662.4 357.7,662.4 355.9,662.4 354.0,662.4
352.2,662.4 350.3,662.4 348.5,662.4 346.7,662.4 344.8,662.4 343.0,662.4 341.2,662.4 339.3,662.4 337.5,662.4 335.6,662.4 333.8,662.4 332.0,662.4 330.1,662.4 328.3,662.4 326.5,662.4 324.6,662.4
322.8,662.4 320.9,662.4 319.1,662.4 317.3,662.4 315.4,662.4 313.6,662.4 311.8,662.4 309.9,662.4 308.1,662.4 306.2,662.4 304.4,662.4 302.6,662.4 300.7,662.4 298.9,662.4 297.1,662.4 295.2,662.4
293.4,662.4 291.6,662.4 289.7,662.4 287.9,662.4 286.0,662.4 284.2,662.4 282.4,662.4 280.5,662.4 278.7,662.4 276.9,662.4 275.0,662.4 273.2,662.4 271.3,662.4 269.5,662.4 267.7,662.4 265.8,662.4
264.0,662.4 262.2,662.4 260.3,662.4 258.5,662.4 256.6,662.4 254.8,662.4 253.0,662.4 251.1,662.4 249.3,662.4 247.5,662.4 245.6,662.4 243.8,662.4 241.9,662.4 240.1,662.4 238.3,662.4 236.4,662.4
234.6,662.4 232.8,662.4 230.9,662.4 229.1,662.4 227.2,662.4 225.4,662.4 223.6,662.4 221.7,662.4 219.9,662.4 218.1,662.4 216.2,662.4 214.4,662.4 212.5,662.4 210.7,662.4 208.9,662.4 207.0,662.4
205.2,662.4 203.4,662.4 201.5,662.4 199.7,662.4 197.9,662.4 196.0,662.4 194.2,662.4 192.3,662.4 190.5,662.4 188.7,662.4 186.8,662.4 185.0,662.4 183.2,662.4 181.3,662.4 '/>
	</g>
</g>
	</g>
	<g id="gnuplot_plot_3" ><title>Point estimate</title>
<g fill="none" color="white" stroke="rgb( 31, 120, 180)" stroke-width="2.00" stroke-linecap="butt" stroke-linejoin="miter">
</g>
<g fill="none" color="black" stroke="currentColor" stroke-width="2.00" stroke-linecap="butt" stroke-linejoin="miter">
	<g transform="translate(1089.0,103.0)" stroke="none" fill="black" font-family="Helvetica" font-size="12.00"  text-anchor="start">
		<text><tspan font-family="Helvetica" >Point estimate</tspan></text>
	</g>
</g>
<g fill="none" color="black" stroke="currentColor" stroke-width="2.00" stroke-linecap="butt" stroke-linejoin="miter">
	<path stroke='rgb( 31, 120, 180)'  d='M1038.5,99.1 L1080.7,99.1 M526.1,662.4 L526.1,160.0  '/></g>
	</g>
<g fill="none" color="black" stroke="currentColor" stroke-width="2.00" stroke-linecap="butt" stroke-linejoin="miter">
</g>
<g fill="none" color="black" stroke="black" stroke-width="1.00" stroke-linecap="butt" stroke-linejoin="miter">
</g>
<g fill="none" color="black" stroke="currentColor" stroke-width="1.00" stroke-linecap="butt" stroke-linejoin="miter">
	<path stroke='black'  d='M96.8,54.1 L96.8,662.4 L1013.6,662.4 L1013.6,54.1 L96.8,54.1 Z  '/></g>
<g fill="none" color="black" stroke="currentColor" stroke-width="1.00" stroke-linecap="butt" stroke-linejoin="miter">
</g>
</g>
</svg>

