<?xml version="1.0" encoding="utf-8"  standalone="no"?>
<svg 
 viewBox="0 0 1280 720"
 xmlns="http://www.w3.org/2000/svg"
 xmlns:xlink="http://www.w3.org/1999/xlink"
>

<title>Gnuplot</title>
<desc>Produced by GNUPLOT 5.2 patchlevel 2 </desc>

<g id="gnuplot_canvas">

<rect x="0" y="0" width="1280" height="720" fill="none"/>
<defs>

	<circle id='gpDot' r='0.5' stroke-width='0.5'/>
	<path id='gpPt0' stroke-width='0.222' stroke='currentColor' d='M-1,0 h2 M0,-1 v2'/>
	<path id='gpPt1' stroke-width='0.222' stroke='currentColor' d='M-1,-1 L1,1 M1,-1 L-1,1'/>
	<path id='gpPt2' stroke-width='0.222' stroke='currentColor' d='M-1,0 L1,0 M0,-1 L0,1 M-1,-1 L1,1 M-1,1 L1,-1'/>
	<rect id='gpPt3' stroke-width='0.222' stroke='currentColor' x='-1' y='-1' width='2' height='2'/>
	<rect id='gpPt4' stroke-width='0.222' stroke='currentColor' fill='currentColor' x='-1' y='-1' width='2' height='2'/>
	<circle id='gpPt5' stroke-width='0.222' stroke='currentColor' cx='0' cy='0' r='1'/>
	<use xlink:href='#gpPt5' id='gpPt6' fill='currentColor' stroke='none'/>
	<path id='gpPt7' stroke-width='0.222' stroke='currentColor' d='M0,-1.33 L-1.33,0.67 L1.33,0.67 z'/>
	<use xlink:href='#gpPt7' id='gpPt8' fill='currentColor' stroke='none'/>
	<use xlink:href='#gpPt7' id='gpPt9' stroke='currentColor' transform='rotate(180)'/>
	<use xlink:href='#gpPt9' id='gpPt10' fill='currentColor' stroke='none'/>
	<use xlink:href='#gpPt3' id='gpPt11' stroke='currentColor' transform='rotate(45)'/>
	<use xlink:href='#gpPt11' id='gpPt12' fill='currentColor' stroke='none'/>
	<path id='gpPt13' stroke-width='0.222' stroke='currentColor' d='M0,1.330 L1.265,0.411 L0.782,-1.067 L-0.782,-1.076 L-1.265,0.411 z'/>
	<use xlink:href='#gpPt13' id='gpPt14' fill='currentColor' stroke='none'/>
	<filter id='textbox' filterUnits='objectBoundingBox' x='0' y='0' height='1' width='1'>
	  <feFlood flood-color='white' flood-opacity='1' result='bgnd'/>
	  <feComposite in='SourceGraphic' in2='bgnd' operator='atop'/>
	</filter>
	<filter id='greybox' filterUnits='objectBoundingBox' x='0' y='0' height='1' width='1'>
	  <feFlood flood-color='lightgrey' flood-opacity='1' result='grey'/>
	  <feComposite in='SourceGraphic' in2='grey' operator='atop'/>
	</filter>
</defs>
<g fill="none" color="white" stroke="currentColor" stroke-width="1.00" stroke-linecap="butt" stroke-linejoin="miter">
</g>
<g fill="none" color="black" stroke="currentColor" stroke-width="1.00" stroke-linecap="butt" stroke-linejoin="miter">
	<path stroke='black'  d='M105.1,662.4 L114.1,662.4  '/>	<g transform="translate(96.8,666.3)" stroke="none" fill="black" font-family="Helvetica" font-size="12.00"  text-anchor="end">
		<text><tspan font-family="Helvetica" > 0</tspan></text>
	</g>
</g>
<g fill="none" color="black" stroke="currentColor" stroke-width="1.00" stroke-linecap="butt" stroke-linejoin="miter">
	<path stroke='black'  d='M105.1,561.0 L114.1,561.0  '/>	<g transform="translate(96.8,564.9)" stroke="none" fill="black" font-family="Helvetica" font-size="12.00"  text-anchor="end">
		<text><tspan font-family="Helvetica" > 2x10</tspan><tspan font-family="Helvetica"  font-size="9.6" dy="-6.00px">-6</tspan><tspan font-size="12.0" dy="6.00"></tspan></text>
	</g>
</g>
<g fill="none" color="black" stroke="currentColor" stroke-width="1.00" stroke-linecap="butt" stroke-linejoin="miter">
	<path stroke='black'  d='M105.1,459.6 L114.1,459.6  '/>	<g transform="translate(96.8,463.5)" stroke="none" fill="black" font-family="Helvetica" font-size="12.00"  text-anchor="end">
		<text><tspan font-family="Helvetica" > 4x10</tspan><tspan font-family="Helvetica"  font-size="9.6" dy="-6.00px">-6</tspan><tspan font-size="12.0" dy="6.00"></tspan></text>
	</g>
</g>
<g fill="none" color="black" stroke="currentColor" stroke-width="1.00" stroke-linecap="butt" stroke-linejoin="miter">
	<path stroke='black'  d='M105.1,358.2 L114.1,358.2  '/>	<g transform="translate(96.8,362.1)" stroke="none" fill="black" font-family="Helvetica" font-size="12.00"  text-anchor="end">
		<text><tspan font-family="Helvetica" > 6x10</tspan><tspan font-family="Helvetica"  font-size="9.6" dy="-6.00px">-6</tspan><tspan font-size="12.0" dy="6.00"></tspan></text>
	</g>
</g>
<g fill="none" color="black" stroke="currentColor" stroke-width="1.00" stroke-linecap="butt" stroke-linejoin="miter">
	<path stroke='black'  d='M105.1,256.9 L114.1,256.9  '/>	<g transform="translate(96.8,260.8)" stroke="none" fill="black" font-family="Helvetica" font-size="12.00"  text-anchor="end">
		<text><tspan font-family="Helvetica" > 8x10</tspan><tspan font-family="Helvetica"  font-size="9.6" dy="-6.00px">-6</tspan><tspan font-size="12.0" dy="6.00"></tspan></text>
	</g>
</g>
<g fill="none" color="black" stroke="currentColor" stroke-width="1.00" stroke-linecap="butt" stroke-linejoin="miter">
	<path stroke='black'  d='M105.1,155.5 L114.1,155.5  '/>	<g transform="translate(96.8,159.4)" stroke="none" fill="black" font-family="Helvetica" font-size="12.00"  text-anchor="end">
		<text><tspan font-family="Helvetica" > 1x10</tspan><tspan font-family="Helvetica"  font-size="9.6" dy="-6.00px">-5</tspan><tspan font-size="12.0" dy="6.00"></tspan></text>
	</g>
</g>
<g fill="none" color="black" stroke="currentColor" stroke-width="1.00" stroke-linecap="butt" stroke-linejoin="miter">
	<path stroke='black'  d='M105.1,54.1 L114.1,54.1  '/>	<g transform="translate(96.8,58.0)" stroke="none" fill="black" font-family="Helvetica" font-size="12.00"  text-anchor="end">
		<text><tspan font-family="Helvetica" > 1.2x10</tspan><tspan font-family="Helvetica"  font-size="9.6" dy="-6.00px">-5</tspan><tspan font-size="12.0" dy="6.00"></tspan></text>
	</g>
</g>
<g fill="none" color="black" stroke="currentColor" stroke-width="1.00" stroke-linecap="butt" stroke-linejoin="miter">
	<path stroke='black'  d='M213.6,662.4 L213.6,653.4  '/>	<g transform="translate(213.6,684.3)" stroke="none" fill="black" font-family="Helvetica" font-size="12.00"  text-anchor="middle">
		<text><tspan font-family="Helvetica" > 580000</tspan></text>
	</g>
</g>
<g fill="none" color="black" stroke="currentColor" stroke-width="1.00" stroke-linecap="butt" stroke-linejoin="miter">
	<path stroke='black'  d='M322.8,662.4 L322.8,653.4  '/>	<g transform="translate(322.8,684.3)" stroke="none" fill="black" font-family="Helvetica" font-size="12.00"  text-anchor="middle">
		<text><tspan font-family="Helvetica" > 600000</tspan></text>
	</g>
</g>
<g fill="none" color="black" stroke="currentColor" stroke-width="1.00" stroke-linecap="butt" stroke-linejoin="miter">
	<path stroke='black'  d='M432.0,662.4 L432.0,653.4  '/>	<g transform="translate(432.0,684.3)" stroke="none" fill="black" font-family="Helvetica" font-size="12.00"  text-anchor="middle">
		<text><tspan font-family="Helvetica" > 620000</tspan></text>
	</g>
</g>
<g fill="none" color="black" stroke="currentColor" stroke-width="1.00" stroke-linecap="butt" stroke-linejoin="miter">
	<path stroke='black'  d='M541.1,662.4 L541.1,653.4  '/>	<g transform="translate(541.1,684.3)" stroke="none" fill="black" font-family="Helvetica" font-size="12.00"  text-anchor="middle">
		<text><tspan font-family="Helvetica" > 640000</tspan></text>
	</g>
</g>
<g fill="none" color="black" stroke="currentColor" stroke-width="1.00" stroke-linecap="butt" stroke-linejoin="miter">
	<path stroke='black'  d='M650.3,662.4 L650.3,653.4  '/>	<g transform="translate(650.3,684.3)" stroke="none" fill="black" font-family="Helvetica" font-size="12.00"  text-anchor="middle">
		<text><tspan font-family="Helvetica" > 660000</tspan></text>
	</g>
</g>
<g fill="none" color="black" stroke="currentColor" stroke-width="1.00" stroke-linecap="butt" stroke-linejoin="miter">
	<path stroke='black'  d='M759.5,662.4 L759.5,653.4  '/>	<g transform="translate(759.5,684.3)" stroke="none" fill="black" font-family="Helvetica" font-size="12.00"  text-anchor="middle">
		<text><tspan font-family="Helvetica" > 680000</tspan></text>
	</g>
</g>
<g fill="none" color="black" stroke="currentColor" stroke-width="1.00" stroke-linecap="butt" stroke-linejoin="miter">
	<path stroke='black'  d='M868.6,662.4 L868.6,653.4  '/>	<g transform="translate(868.6,684.3)" stroke="none" fill="black" font-family="Helvetica" font-size="12.00"  text-anchor="middle">
		<text><tspan font-family="Helvetica" > 700000</tspan></text>
	</g>
</g>
<g fill="none" color="black" stroke="currentColor" stroke-width="1.00" stroke-linecap="butt" stroke-linejoin="miter">
	<path stroke='black'  d='M977.8,662.4 L977.8,653.4  '/>	<g transform="translate(977.8,684.3)" stroke="none" fill="black" font-family="Helvetica" font-size="12.00"  text-anchor="middle">
		<text><tspan font-family="Helvetica" > 720000</tspan></text>
	</g>
</g>
<g fill="none" color="black" stroke="currentColor" stroke-width="1.00" stroke-linecap="butt" stroke-linejoin="miter">
</g>
<g fill="none" color="black" stroke="currentColor" stroke-width="1.00" stroke-linecap="butt" stroke-linejoin="miter">
	<path stroke='black'  d='M105.1,54.1 L105.1,662.4 L1013.6,662.4 L1013.6,54.1 L105.1,54.1 Z  '/></g>
<g fill="none" color="black" stroke="currentColor" stroke-width="1.00" stroke-linecap="butt" stroke-linejoin="miter">
	<g transform="translate(16.3,358.3) rotate(270)" stroke="none" fill="black" font-family="Helvetica" font-size="12.00"  text-anchor="middle">
		<text><tspan font-family="Helvetica" >Density (a.u.)</tspan></text>
	</g>
</g>
<g fill="none" color="black" stroke="currentColor" stroke-width="1.00" stroke-linecap="butt" stroke-linejoin="miter">
	<g transform="translate(559.3,711.3)" stroke="none" fill="black" font-family="Helvetica" font-size="12.00"  text-anchor="middle">
		<text><tspan font-family="Helvetica" >Average time (cycles)</tspan></text>
	</g>
</g>
<g fill="none" color="black" stroke="currentColor" stroke-width="1.00" stroke-linecap="butt" stroke-linejoin="miter">
	<g transform="translate(559.3,31.0)" stroke="none" fill="black" font-family="Helvetica" font-size="12.00"  text-anchor="middle">
		<text><tspan font-family="Helvetica" >non_nested_compare/incremental calc/14: mean</tspan></text>
	</g>
</g>
	<g id="gnuplot_plot_1" ><title>Bootstrap distribution</title>
<g fill="none" color="white" stroke="black" stroke-width="2.00" stroke-linecap="butt" stroke-linejoin="miter">
</g>
<g fill="none" color="black" stroke="currentColor" stroke-width="2.00" stroke-linecap="butt" stroke-linejoin="miter">
	<g transform="translate(1089.0,67.0)" stroke="none" fill="black" font-family="Helvetica" font-size="12.00"  text-anchor="start">
		<text><tspan font-family="Helvetica" >Bootstrap distribution</tspan></text>
	</g>
</g>
<g fill="none" color="black" stroke="currentColor" stroke-width="2.00" stroke-linecap="butt" stroke-linejoin="miter">
	<path stroke='rgb( 31, 120, 180)'  d='M1038.5,63.1 L1080.7,63.1 M105.1,626.5 L106.9,625.5 L108.7,624.5 L110.6,623.5 L112.4,622.4 L114.2,621.4
		L116.0,620.3 L117.8,619.2 L119.7,618.1 L121.5,617.0 L123.3,615.9 L125.1,614.7 L126.9,613.5 L128.8,612.3
		L130.6,611.0 L132.4,609.7 L134.2,608.4 L136.1,607.1 L137.9,605.8 L139.7,604.4 L141.5,603.0 L143.3,601.6
		L145.2,600.2 L147.0,598.8 L148.8,597.3 L150.6,595.8 L152.4,594.3 L154.3,592.8 L156.1,591.2 L157.9,589.7
		L159.7,588.0 L161.5,586.4 L163.4,584.7 L165.2,582.9 L167.0,581.1 L168.8,579.3 L170.6,577.4 L172.5,575.5
		L174.3,573.5 L176.1,571.4 L177.9,569.3 L179.7,567.1 L181.6,564.9 L183.4,562.6 L185.2,560.3 L187.0,557.9
		L188.8,555.5 L190.7,553.0 L192.5,550.5 L194.3,547.9 L196.1,545.3 L198.0,542.7 L199.8,540.1 L201.6,537.4
		L203.4,534.7 L205.2,532.0 L207.1,529.3 L208.9,526.6 L210.7,523.9 L212.5,521.2 L214.3,518.4 L216.2,515.7
		L218.0,512.9 L219.8,510.2 L221.6,507.4 L223.4,504.6 L225.3,501.9 L227.1,499.1 L228.9,496.2 L230.7,493.4
		L232.5,490.5 L234.4,487.6 L236.2,484.7 L238.0,481.7 L239.8,478.7 L241.6,475.6 L243.5,472.5 L245.3,469.4
		L247.1,466.2 L248.9,463.0 L250.8,459.7 L252.6,456.3 L254.4,452.9 L256.2,449.5 L258.0,446.0 L259.9,442.4
		L261.7,438.8 L263.5,435.2 L265.3,431.5 L267.1,427.7 L269.0,423.9 L270.8,420.1 L272.6,416.2 L274.4,412.3
		L276.2,408.3 L278.1,404.4 L279.9,400.3 L281.7,396.3 L283.5,392.3 L285.3,388.3 L287.2,384.2 L289.0,380.2
		L290.8,376.2 L292.6,372.3 L294.4,368.4 L296.3,364.5 L298.1,360.6 L299.9,356.8 L301.7,353.1 L303.5,349.4
		L305.4,345.8 L307.2,342.2 L309.0,338.6 L310.8,335.1 L312.7,331.6 L314.5,328.1 L316.3,324.7 L318.1,321.2
		L319.9,317.7 L321.8,314.3 L323.6,310.8 L325.4,307.3 L327.2,303.7 L329.0,300.2 L330.9,296.6 L332.7,293.1
		L334.5,289.5 L336.3,285.9 L338.1,282.3 L340.0,278.7 L341.8,275.2 L343.6,271.6 L345.4,268.1 L347.2,264.7
		L349.1,261.2 L350.9,257.9 L352.7,254.6 L354.5,251.3 L356.3,248.1 L358.2,244.9 L360.0,241.8 L361.8,238.8
		L363.6,235.8 L365.5,232.8 L367.3,229.9 L369.1,227.0 L370.9,224.2 L372.7,221.3 L374.6,218.4 L376.4,215.5
		L378.2,212.6 L380.0,209.7 L381.8,206.8 L383.7,203.8 L385.5,200.7 L387.3,197.7 L389.1,194.6 L390.9,191.4
		L392.8,188.3 L394.6,185.1 L396.4,181.8 L398.2,178.6 L400.0,175.4 L401.9,172.2 L403.7,169.0 L405.5,165.9
		L407.3,162.8 L409.1,159.7 L411.0,156.8 L412.8,153.9 L414.6,151.1 L416.4,148.4 L418.3,145.8 L420.1,143.3
		L421.9,140.9 L423.7,138.6 L425.5,136.4 L427.4,134.2 L429.2,132.2 L431.0,130.2 L432.8,128.3 L434.6,126.5
		L436.5,124.7 L438.3,123.0 L440.1,121.3 L441.9,119.7 L443.7,118.1 L445.6,116.6 L447.4,115.1 L449.2,113.6
		L451.0,112.1 L452.8,110.7 L454.7,109.4 L456.5,108.1 L458.3,106.8 L460.1,105.5 L461.9,104.3 L463.8,103.2
		L465.6,102.1 L467.4,101.0 L469.2,99.9 L471.0,98.9 L472.9,97.9 L474.7,97.0 L476.5,96.0 L478.3,95.1
		L480.2,94.2 L482.0,93.3 L483.8,92.4 L485.6,91.5 L487.4,90.6 L489.3,89.7 L491.1,88.9 L492.9,88.1
		L494.7,87.3 L496.5,86.5 L498.4,85.8 L500.2,85.1 L502.0,84.6 L503.8,84.0 L505.6,83.6 L507.5,83.2
		L509.3,82.9 L511.1,82.8 L512.9,82.7 L514.7,82.7 L516.6,82.8 L518.4,83.1 L520.2,83.4 L522.0,83.8
		L523.8,84.4 L525.7,85.0 L527.5,85.7 L529.3,86.5 L531.1,87.3 L533.0,88.2 L534.8,89.2 L536.6,90.3
		L538.4,91.4 L540.2,92.6 L542.1,93.8 L543.9,95.0 L545.7,96.3 L547.5,97.6 L549.3,98.9 L551.2,100.3
		L553.0,101.7 L554.8,103.1 L556.6,104.5 L558.4,106.0 L560.3,107.4 L562.1,108.8 L563.9,110.3 L565.7,111.7
		L567.5,113.2 L569.4,114.6 L571.2,116.1 L573.0,117.5 L574.8,118.9 L576.6,120.4 L578.5,121.8 L580.3,123.3
		L582.1,124.8 L583.9,126.3 L585.7,127.8 L587.6,129.3 L589.4,130.9 L591.2,132.6 L593.0,134.3 L594.9,136.0
		L596.7,137.8 L598.5,139.7 L600.3,141.7 L602.1,143.7 L604.0,145.8 L605.8,148.1 L607.6,150.3 L609.4,152.7
		L611.2,155.2 L613.1,157.7 L614.9,160.3 L616.7,163.0 L618.5,165.7 L620.3,168.5 L622.2,171.3 L624.0,174.2
		L625.8,177.1 L627.6,180.1 L629.4,183.0 L631.3,186.0 L633.1,189.0 L634.9,192.0 L636.7,195.0 L638.5,198.0
		L640.4,201.0 L642.2,203.9 L644.0,206.8 L645.8,209.7 L647.7,212.6 L649.5,215.5 L651.3,218.3 L653.1,221.1
		L654.9,223.9 L656.8,226.7 L658.6,229.5 L660.4,232.3 L662.2,235.0 L664.0,237.8 L665.9,240.6 L667.7,243.5
		L669.5,246.3 L671.3,249.2 L673.1,252.1 L675.0,255.1 L676.8,258.1 L678.6,261.1 L680.4,264.2 L682.2,267.4
		L684.1,270.5 L685.9,273.8 L687.7,277.0 L689.5,280.3 L691.3,283.6 L693.2,286.9 L695.0,290.2 L696.8,293.5
		L698.6,296.8 L700.4,300.1 L702.3,303.4 L704.1,306.7 L705.9,309.9 L707.7,313.1 L709.6,316.3 L711.4,319.5
		L713.2,322.6 L715.0,325.7 L716.8,328.8 L718.7,331.8 L720.5,334.8 L722.3,337.8 L724.1,340.8 L725.9,343.8
		L727.8,346.7 L729.6,349.6 L731.4,352.5 L733.2,355.4 L735.0,358.3 L736.9,361.1 L738.7,363.9 L740.5,366.7
		L742.3,369.5 L744.1,372.3 L746.0,375.0 L747.8,377.8 L749.6,380.5 L751.4,383.2 L753.2,385.9 L755.1,388.6
		L756.9,391.3 L758.7,394.0 L760.5,396.7 L762.4,399.4 L764.2,402.1 L766.0,404.8 L767.8,407.6 L769.6,410.3
		L771.5,413.1 L773.3,415.8 L775.1,418.6 L776.9,421.3 L778.7,424.1 L780.6,426.8 L782.4,429.5 L784.2,432.2
		L786.0,434.9 L787.8,437.6 L789.7,440.2 L791.5,442.8 L793.3,445.4 L795.1,447.9 L796.9,450.5 L798.8,453.0
		L800.6,455.4 L802.4,457.9 L804.2,460.3 L806.0,462.7 L807.9,465.0 L809.7,467.4 L811.5,469.8 L813.3,472.1
		L815.2,474.4 L817.0,476.8 L818.8,479.1 L820.6,481.5 L822.4,483.8 L824.3,486.1 L826.1,488.5 L827.9,490.8
		L829.7,493.1 L831.5,495.4 L833.4,497.7 L835.2,500.0 L837.0,502.3 L838.8,504.6 L840.6,506.9 L842.5,509.1
		L844.3,511.3 L846.1,513.5 L847.9,515.6 L849.7,517.7 L851.6,519.8 L853.4,521.9 L855.2,523.9 L857.0,525.9
		L858.8,527.8 L860.7,529.7 L862.5,531.6 L864.3,533.5 L866.1,535.3 L867.9,537.1 L869.8,538.9 L871.6,540.7
		L873.4,542.5 L875.2,544.2 L877.1,545.9 L878.9,547.6 L880.7,549.3 L882.5,551.0 L884.3,552.6 L886.2,554.3
		L888.0,555.9 L889.8,557.5 L891.6,559.0 L893.4,560.6 L895.3,562.1 L897.1,563.7 L898.9,565.1 L900.7,566.6
		L902.5,568.1 L904.4,569.5 L906.2,570.9 L908.0,572.2 L909.8,573.6 L911.6,574.9 L913.5,576.2 L915.3,577.4
		L917.1,578.6 L918.9,579.9 L920.7,581.1 L922.6,582.2 L924.4,583.4 L926.2,584.5 L928.0,585.6 L929.9,586.7
		L931.7,587.8 L933.5,588.9 L935.3,590.0 L937.1,591.0 L939.0,592.1 L940.8,593.2 L942.6,594.2 L944.4,595.3
		L946.2,596.4 L948.1,597.4 L949.9,598.5 L951.7,599.6 L953.5,600.6 L955.3,601.7 L957.2,602.8 L959.0,603.9
		L960.8,605.0 L962.6,606.1 L964.4,607.1 L966.3,608.2 L968.1,609.2 L969.9,610.3 L971.7,611.3 L973.5,612.3
		L975.4,613.3 L977.2,614.3 L979.0,615.2 L980.8,616.1 L982.6,617.0 L984.5,617.9 L986.3,618.7 L988.1,619.6
		L989.9,620.4 L991.8,621.2 L993.6,622.0 L995.4,622.7 L997.2,623.5 L999.0,624.2 L1000.9,624.9 L1002.7,625.7
		L1004.5,626.4 L1006.3,627.0 L1008.1,627.7 L1010.0,628.4 L1011.8,629.1 L1013.6,629.7  '/></g>
	</g>
	<g id="gnuplot_plot_2" ><title>Confidence interval</title>
<g fill="none" color="white" stroke="rgb( 31, 120, 180)" stroke-width="1.00" stroke-linecap="butt" stroke-linejoin="miter">
</g>
<g fill="none" color="black" stroke="currentColor" stroke-width="1.00" stroke-linecap="butt" stroke-linejoin="miter">
	<g transform="translate(1089.0,85.0)" stroke="none" fill="black" font-family="Helvetica" font-size="12.00"  text-anchor="start">
		<text><tspan font-family="Helvetica" >Confidence interval</tspan></text>
	</g>
</g>
<g fill="none" color="black" stroke="currentColor" stroke-width="1.00" stroke-linecap="butt" stroke-linejoin="miter">
	<g stroke='none' shape-rendering='crispEdges'>
		<polygon fill = 'rgb( 31, 120, 180)' fill-opacity = '0.250000' points = '1038.5,85.6 1080.7,85.6 1080.7,76.6 1038.5,76.6 '/>
		<polygon fill = 'rgb( 31, 120, 180)' fill-opacity = '0.250000' points = '188.8,555.5 190.7,553.0 192.5,550.5 194.3,547.9 196.1,545.3 198.0,542.7 199.8,540.1 201.6,537.4 203.4,534.7 205.2,532.0 207.1,529.3 208.9,526.6 210.7,523.9 212.5,521.2 214.3,518.4 216.2,515.7
218.0,512.9 219.8,510.2 221.6,507.4 223.4,504.6 225.3,501.9 227.1,499.1 228.9,496.2 230.7,493.4 232.5,490.5 234.4,487.6 236.2,484.7 238.0,481.7 239.8,478.7 241.6,475.6 243.5,472.5 245.3,469.4
247.1,466.2 248.9,463.0 250.8,459.7 252.6,456.3 254.4,452.9 256.2,449.5 258.0,446.0 259.9,442.4 261.7,438.8 263.5,435.2 265.3,431.5 267.1,427.7 269.0,423.9 270.8,420.1 272.6,416.2 274.4,412.3
276.2,408.3 278.1,404.4 279.9,400.3 281.7,396.3 283.5,392.3 285.3,388.3 287.2,384.2 289.0,380.2 290.8,376.2 292.6,372.3 294.4,368.4 296.3,364.5 298.1,360.6 299.9,356.8 301.7,353.1 303.5,349.4
305.4,345.8 307.2,342.2 309.0,338.6 310.8,335.1 312.7,331.6 314.5,328.1 316.3,324.7 318.1,321.2 319.9,317.7 321.8,314.3 323.6,310.8 325.4,307.3 327.2,303.7 329.0,300.2 330.9,296.6 332.7,293.1
334.5,289.5 336.3,285.9 338.1,282.3 340.0,278.7 341.8,275.2 343.6,271.6 345.4,268.1 347.2,264.7 349.1,261.2 350.9,257.9 352.7,254.6 354.5,251.3 356.3,248.1 358.2,244.9 360.0,241.8 361.8,238.8
363.6,235.8 365.5,232.8 367.3,229.9 369.1,227.0 370.9,224.2 372.7,221.3 374.6,218.4 376.4,215.5 378.2,212.6 380.0,209.7 381.8,206.8 383.7,203.8 385.5,200.7 387.3,197.7 389.1,194.6 390.9,191.4
392.8,188.3 394.6,185.1 396.4,181.8 398.2,178.6 400.0,175.4 401.9,172.2 403.7,169.0 405.5,165.9 407.3,162.8 409.1,159.7 411.0,156.8 412.8,153.9 414.6,151.1 416.4,148.4 418.3,145.8 420.1,143.3
421.9,140.9 423.7,138.6 425.5,136.4 427.4,134.2 429.2,132.2 431.0,130.2 432.8,128.3 434.6,126.5 436.5,124.7 438.3,123.0 440.1,121.3 441.9,119.7 443.7,118.1 445.6,116.6 447.4,115.1 449.2,113.6
451.0,112.1 452.8,110.7 454.7,109.4 456.5,108.1 458.3,106.8 460.1,105.5 461.9,104.3 463.8,103.2 465.6,102.1 467.4,101.0 469.2,99.9 471.0,98.9 472.9,97.9 474.7,97.0 476.5,96.0 478.3,95.1
480.2,94.2 482.0,93.3 483.8,92.4 485.6,91.5 487.4,90.6 489.3,89.7 491.1,88.9 492.9,88.1 494.7,87.3 496.5,86.5 498.4,85.8 500.2,85.1 502.0,84.6 503.8,84.0 505.6,83.6 507.5,83.2
509.3,82.9 511.1,82.8 512.9,82.7 514.7,82.7 516.6,82.8 518.4,83.1 520.2,83.4 522.0,83.8 523.8,84.4 525.7,85.0 527.5,85.7 529.3,86.5 531.1,87.3 533.0,88.2 534.8,89.2 536.6,90.3
538.4,91.4 540.2,92.6 542.1,93.8 543.9,95.0 545.7,96.3 547.5,97.6 549.3,98.9 551.2,100.3 553.0,101.7 554.8,103.1 556.6,104.5 558.4,106.0 560.3,107.4 562.1,108.8 563.9,110.3 565.7,111.7
567.5,113.2 569.4,114.6 571.2,116.1 573.0,117.5 574.8,118.9 576.6,120.4 578.5,121.8 580.3,123.3 582.1,124.8 583.9,126.3 585.7,127.8 587.6,129.3 589.4,130.9 591.2,132.6 593.0,134.3 594.9,136.0
596.7,137.8 598.5,139.7 600.3,141.7 602.1,143.7 604.0,145.8 605.8,148.1 607.6,150.3 609.4,152.7 611.2,155.2 613.1,157.7 614.9,160.3 616.7,163.0 618.5,165.7 620.3,168.5 622.2,171.3 624.0,174.2
625.8,177.1 627.6,180.1 629.4,183.0 631.3,186.0 633.1,189.0 634.9,192.0 636.7,195.0 638.5,198.0 640.4,201.0 642.2,203.9 644.0,206.8 645.8,209.7 647.7,212.6 649.5,215.5 651.3,218.3 653.1,221.1
654.9,223.9 656.8,226.7 658.6,229.5 660.4,232.3 662.2,235.0 664.0,237.8 665.9,240.6 667.7,243.5 669.5,246.3 671.3,249.2 673.1,252.1 675.0,255.1 676.8,258.1 678.6,261.1 680.4,264.2 682.2,267.4
684.1,270.5 685.9,273.8 687.7,277.0 689.5,280.3 691.3,283.6 693.2,286.9 695.0,290.2 696.8,293.5 698.6,296.8 700.4,300.1 702.3,303.4 704.1,306.7 705.9,309.9 707.7,313.1 709.6,316.3 711.4,319.5
713.2,322.6 715.0,325.7 716.8,328.8 718.7,331.8 720.5,334.8 722.3,337.8 724.1,340.8 725.9,343.8 727.8,346.7 729.6,349.6 731.4,352.5 733.2,355.4 735.0,358.3 736.9,361.1 738.7,363.9 740.5,366.7
742.3,369.5 744.1,372.3 746.0,375.0 747.8,377.8 749.6,380.5 751.4,383.2 753.2,385.9 755.1,388.6 756.9,391.3 758.7,394.0 760.5,396.7 762.4,399.4 764.2,402.1 766.0,404.8 767.8,407.6 769.6,410.3
771.5,413.1 773.3,415.8 775.1,418.6 776.9,421.3 778.7,424.1 780.6,426.8 782.4,429.5 784.2,432.2 786.0,434.9 787.8,437.6 789.7,440.2 791.5,442.8 793.3,445.4 795.1,447.9 796.9,450.5 798.8,453.0
800.6,455.4 802.4,457.9 804.2,460.3 806.0,462.7 807.9,465.0 809.7,467.4 811.5,469.8 813.3,472.1 815.2,474.4 817.0,476.8 818.8,479.1 820.6,481.5 822.4,483.8 824.3,486.1 826.1,488.5 827.9,490.8
829.7,493.1 831.5,495.4 833.4,497.7 835.2,500.0 837.0,502.3 838.8,504.6 840.6,506.9 842.5,509.1 844.3,511.3 846.1,513.5 847.9,515.6 849.7,517.7 851.6,519.8 853.4,521.9 855.2,523.9 857.0,525.9
858.8,527.8 860.7,529.7 862.5,531.6 864.3,533.5 866.1,535.3 867.9,537.1 869.8,538.9 871.6,540.7 873.4,542.5 875.2,544.2 877.1,545.9 878.9,547.6 880.7,549.3 882.5,551.0 884.3,552.6 886.2,554.3
888.0,555.9 889.8,557.5 891.6,559.0 893.4,560.6 895.3,562.1 897.1,563.7 898.9,565.1 900.7,566.6 902.5,568.1 904.4,569.5 906.2,570.9 908.0,572.2 909.8,573.6 911.6,574.9 913.5,576.2 915.3,577.4
917.1,578.6 918.9,579.9 920.7,581.1 922.6,582.2 924.4,583.4 926.2,584.5 928.0,585.6 928.0,662.4 926.2,662.4 924.4,662.4 922.6,662.4 920.7,662.4 918.9,662.4 917.1,662.4 915.3,662.4 913.5,662.4
911.6,662.4 909.8,662.4 908.0,662.4 906.2,662.4 904.4,662.4 902.5,662.4 900.7,662.4 898.9,662.4 897.1,662.4 895.3,662.4 893.4,662.4 891.6,662.4 889.8,662.4 888.0,662.4 886.2,662.4 884.3,662.4
882.5,662.4 880.7,662.4 878.9,662.4 877.1,662.4 875.2,662.4 873.4,662.4 871.6,662.4 869.8,662.4 867.9,662.4 866.1,662.4 864.3,662.4 862.5,662.4 860.7,662.4 858.8,662.4 857.0,662.4 855.2,662.4
853.4,662.4 851.6,662.4 849.7,662.4 847.9,662.4 846.1,662.4 844.3,662.4 842.5,662.4 840.6,662.4 838.8,662.4 837.0,662.4 835.2,662.4 833.4,662.4 831.5,662.4 829.7,662.4 827.9,662.4 826.1,662.4
824.3,662.4 822.4,662.4 820.6,662.4 818.8,662.4 817.0,662.4 815.2,662.4 813.3,662.4 811.5,662.4 809.7,662.4 807.9,662.4 806.0,662.4 804.2,662.4 802.4,662.4 800.6,662.4 798.8,662.4 796.9,662.4
795.1,662.4 793.3,662.4 791.5,662.4 789.7,662.4 787.8,662.4 786.0,662.4 784.2,662.4 782.4,662.4 780.6,662.4 778.7,662.4 776.9,662.4 775.1,662.4 773.3,662.4 771.5,662.4 769.6,662.4 767.8,662.4
766.0,662.4 764.2,662.4 762.4,662.4 760.5,662.4 758.7,662.4 756.9,662.4 755.1,662.4 753.2,662.4 751.4,662.4 749.6,662.4 747.8,662.4 746.0,662.4 744.1,662.4 742.3,662.4 740.5,662.4 738.7,662.4
736.9,662.4 735.0,662.4 733.2,662.4 731.4,662.4 729.6,662.4 727.8,662.4 725.9,662.4 724.1,662.4 722.3,662.4 720.5,662.4 718.7,662.4 716.8,662.4 715.0,662.4 713.2,662.4 711.4,662.4 709.6,662.4
707.7,662.4 705.9,662.4 704.1,662.4 702.3,662.4 700.4,662.4 698.6,662.4 696.8,662.4 695.0,662.4 693.2,662.4 691.3,662.4 689.5,662.4 687.7,662.4 685.9,662.4 684.1,662.4 682.2,662.4 680.4,662.4
678.6,662.4 676.8,662.4 675.0,662.4 673.1,662.4 671.3,662.4 669.5,662.4 667.7,662.4 665.9,662.4 664.0,662.4 662.2,662.4 660.4,662.4 658.6,662.4 656.8,662.4 654.9,662.4 653.1,662.4 651.3,662.4
649.5,662.4 647.7,662.4 645.8,662.4 644.0,662.4 642.2,662.4 640.4,662.4 638.5,662.4 636.7,662.4 634.9,662.4 633.1,662.4 631.3,662.4 629.4,662.4 627.6,662.4 625.8,662.4 624.0,662.4 622.2,662.4
620.3,662.4 618.5,662.4 616.7,662.4 614.9,662.4 613.1,662.4 611.2,662.4 609.4,662.4 607.6,662.4 605.8,662.4 604.0,662.4 602.1,662.4 600.3,662.4 598.5,662.4 596.7,662.4 594.9,662.4 593.0,662.4
591.2,662.4 589.4,662.4 587.6,662.4 585.7,662.4 583.9,662.4 582.1,662.4 580.3,662.4 578.5,662.4 576.6,662.4 574.8,662.4 573.0,662.4 571.2,662.4 569.4,662.4 567.5,662.4 565.7,662.4 563.9,662.4
562.1,662.4 560.3,662.4 558.4,662.4 556.6,662.4 554.8,662.4 553.0,662.4 551.2,662.4 549.3,662.4 547.5,662.4 545.7,662.4 543.9,662.4 542.1,662.4 540.2,662.4 538.4,662.4 536.6,662.4 534.8,662.4
533.0,662.4 531.1,662.4 529.3,662.4 527.5,662.4 525.7,662.4 523.8,662.4 522.0,662.4 520.2,662.4 518.4,662.4 516.6,662.4 514.7,662.4 512.9,662.4 511.1,662.4 509.3,662.4 507.5,662.4 505.6,662.4
503.8,662.4 502.0,662.4 500.2,662.4 498.4,662.4 496.5,662.4 494.7,662.4 492.9,662.4 491.1,662.4 489.3,662.4 487.4,662.4 485.6,662.4 483.8,662.4 482.0,662.4 480.2,662.4 478.3,662.4 476.5,662.4
474.7,662.4 472.9,662.4 471.0,662.4 469.2,662.4 467.4,662.4 465.6,662.4 463.8,662.4 461.9,662.4 460.1,662.4 458.3,662.4 456.5,662.4 454.7,662.4 452.8,662.4 451.0,662.4 449.2,662.4 447.4,662.4
445.6,662.4 443.7,662.4 441.9,662.4 440.1,662.4 438.3,662.4 436.5,662.4 434.6,662.4 432.8,662.4 431.0,662.4 429.2,662.4 427.4,662.4 425.5,662.4 423.7,662.4 421.9,662.4 420.1,662.4 418.3,662.4
416.4,662.4 414.6,662.4 412.8,662.4 411.0,662.4 409.1,662.4 407.3,662.4 405.5,662.4 403.7,662.4 401.9,662.4 400.0,662.4 398.2,662.4 396.4,662.4 394.6,662.4 392.8,662.4 390.9,662.4 389.1,662.4
387.3,662.4 385.5,662.4 383.7,662.4 381.8,662.4 380.0,662.4 378.2,662.4 376.4,662.4 374.6,662.4 372.7,662.4 370.9,662.4 369.1,662.4 367.3,662.4 365.5,662.4 363.6,662.4 361.8,662.4 360.0,662.4
358.2,662.4 356.3,662.4 354.5,662.4 352.7,662.4 350.9,662.4 349.1,662.4 347.2,662.4 345.4,662.4 343.6,662.4 341.8,662.4 340.0,662.4 338.1,662.4 336.3,662.4 334.5,662.4 332.7,662.4 330.9,662.4
329.0,662.4 327.2,662.4 325.4,662.4 323.6,662.4 321.8,662.4 319.9,662.4 318.1,662.4 316.3,662.4 314.5,662.4 312.7,662.4 310.8,662.4 309.0,662.4 307.2,662.4 305.4,662.4 303.5,662.4 301.7,662.4
299.9,662.4 298.1,662.4 296.3,662.4 294.4,662.4 292.6,662.4 290.8,662.4 289.0,662.4 287.2,662.4 285.3,662.4 283.5,662.4 281.7,662.4 279.9,662.4 278.1,662.4 276.2,662.4 274.4,662.4 272.6,662.4
270.8,662.4 269.0,662.4 267.1,662.4 265.3,662.4 263.5,662.4 261.7,662.4 259.9,662.4 258.0,662.4 256.2,662.4 254.4,662.4 252.6,662.4 250.8,662.4 248.9,662.4 247.1,662.4 245.3,662.4 243.5,662.4
241.6,662.4 239.8,662.4 238.0,662.4 236.2,662.4 234.4,662.4 232.5,662.4 230.7,662.4 228.9,662.4 227.1,662.4 225.3,662.4 223.4,662.4 221.6,662.4 219.8,662.4 218.0,662.4 216.2,662.4 214.3,662.4
212.5,662.4 210.7,662.4 208.9,662.4 207.1,662.4 205.2,662.4 203.4,662.4 201.6,662.4 199.8,662.4 198.0,662.4 196.1,662.4 194.3,662.4 192.5,662.4 190.7,662.4 188.8,662.4 '/>
	</g>
</g>
	</g>
	<g id="gnuplot_plot_3" ><title>Point estimate</title>
<g fill="none" color="white" stroke="rgb( 31, 120, 180)" stroke-width="2.00" stroke-linecap="butt" stroke-linejoin="miter">
</g>
<g fill="none" color="black" stroke="currentColor" stroke-width="2.00" stroke-linecap="butt" stroke-linejoin="miter">
	<g transform="translate(1089.0,103.0)" stroke="none" fill="black" font-family="Helvetica" font-size="12.00"  text-anchor="start">
		<text><tspan font-family="Helvetica" >Point estimate</tspan></text>
	</g>
</g>
<g fill="none" color="black" stroke="currentColor" stroke-width="2.00" stroke-linecap="butt" stroke-linejoin="miter">
	<path stroke='rgb( 31, 120, 180)'  d='M1038.5,99.1 L1080.7,99.1 M534.0,662.4 L534.0,88.8  '/></g>
	</g>
<g fill="none" color="black" stroke="currentColor" stroke-width="2.00" stroke-linecap="butt" stroke-linejoin="miter">
</g>
<g fill="none" color="black" stroke="black" stroke-width="1.00" stroke-linecap="butt" stroke-linejoin="miter">
</g>
<g fill="none" color="black" stroke="currentColor" stroke-width="1.00" stroke-linecap="butt" stroke-linejoin="miter">
	<path stroke='black'  d='M105.1,54.1 L105.1,662.4 L1013.6,662.4 L1013.6,54.1 L105.1,54.1 Z  '/></g>
<g fill="none" color="black" stroke="currentColor" stroke-width="1.00" stroke-linecap="butt" stroke-linejoin="miter">
</g>
</g>
</svg>

