<?xml version="1.0" encoding="utf-8"  standalone="no"?>
<svg 
 viewBox="0 0 1280 720"
 xmlns="http://www.w3.org/2000/svg"
 xmlns:xlink="http://www.w3.org/1999/xlink"
>

<title>Gnuplot</title>
<desc>Produced by GNUPLOT 5.2 patchlevel 2 </desc>

<g id="gnuplot_canvas">

<rect x="0" y="0" width="1280" height="720" fill="none"/>
<defs>

	<circle id='gpDot' r='0.5' stroke-width='0.5'/>
	<path id='gpPt0' stroke-width='0.222' stroke='currentColor' d='M-1,0 h2 M0,-1 v2'/>
	<path id='gpPt1' stroke-width='0.222' stroke='currentColor' d='M-1,-1 L1,1 M1,-1 L-1,1'/>
	<path id='gpPt2' stroke-width='0.222' stroke='currentColor' d='M-1,0 L1,0 M0,-1 L0,1 M-1,-1 L1,1 M-1,1 L1,-1'/>
	<rect id='gpPt3' stroke-width='0.222' stroke='currentColor' x='-1' y='-1' width='2' height='2'/>
	<rect id='gpPt4' stroke-width='0.222' stroke='currentColor' fill='currentColor' x='-1' y='-1' width='2' height='2'/>
	<circle id='gpPt5' stroke-width='0.222' stroke='currentColor' cx='0' cy='0' r='1'/>
	<use xlink:href='#gpPt5' id='gpPt6' fill='currentColor' stroke='none'/>
	<path id='gpPt7' stroke-width='0.222' stroke='currentColor' d='M0,-1.33 L-1.33,0.67 L1.33,0.67 z'/>
	<use xlink:href='#gpPt7' id='gpPt8' fill='currentColor' stroke='none'/>
	<use xlink:href='#gpPt7' id='gpPt9' stroke='currentColor' transform='rotate(180)'/>
	<use xlink:href='#gpPt9' id='gpPt10' fill='currentColor' stroke='none'/>
	<use xlink:href='#gpPt3' id='gpPt11' stroke='currentColor' transform='rotate(45)'/>
	<use xlink:href='#gpPt11' id='gpPt12' fill='currentColor' stroke='none'/>
	<path id='gpPt13' stroke-width='0.222' stroke='currentColor' d='M0,1.330 L1.265,0.411 L0.782,-1.067 L-0.782,-1.076 L-1.265,0.411 z'/>
	<use xlink:href='#gpPt13' id='gpPt14' fill='currentColor' stroke='none'/>
	<filter id='textbox' filterUnits='objectBoundingBox' x='0' y='0' height='1' width='1'>
	  <feFlood flood-color='white' flood-opacity='1' result='bgnd'/>
	  <feComposite in='SourceGraphic' in2='bgnd' operator='atop'/>
	</filter>
	<filter id='greybox' filterUnits='objectBoundingBox' x='0' y='0' height='1' width='1'>
	  <feFlood flood-color='lightgrey' flood-opacity='1' result='grey'/>
	  <feComposite in='SourceGraphic' in2='grey' operator='atop'/>
	</filter>
</defs>
<g fill="none" color="white" stroke="currentColor" stroke-width="1.00" stroke-linecap="butt" stroke-linejoin="miter">
</g>
<g fill="none" color="black" stroke="currentColor" stroke-width="1.00" stroke-linecap="butt" stroke-linejoin="miter">
	<path stroke='black'  d='M105.1,662.4 L114.1,662.4  '/>	<g transform="translate(96.8,666.3)" stroke="none" fill="black" font-family="Helvetica" font-size="12.00"  text-anchor="end">
		<text><tspan font-family="Helvetica" > 0</tspan></text>
	</g>
</g>
<g fill="none" color="black" stroke="currentColor" stroke-width="1.00" stroke-linecap="butt" stroke-linejoin="miter">
	<path stroke='black'  d='M105.1,601.6 L114.1,601.6  '/>	<g transform="translate(96.8,605.5)" stroke="none" fill="black" font-family="Helvetica" font-size="12.00"  text-anchor="end">
		<text><tspan font-family="Helvetica" > 2x10</tspan><tspan font-family="Helvetica"  font-size="9.6" dy="-6.00px">-5</tspan><tspan font-size="12.0" dy="6.00"></tspan></text>
	</g>
</g>
<g fill="none" color="black" stroke="currentColor" stroke-width="1.00" stroke-linecap="butt" stroke-linejoin="miter">
	<path stroke='black'  d='M105.1,540.7 L114.1,540.7  '/>	<g transform="translate(96.8,544.6)" stroke="none" fill="black" font-family="Helvetica" font-size="12.00"  text-anchor="end">
		<text><tspan font-family="Helvetica" > 4x10</tspan><tspan font-family="Helvetica"  font-size="9.6" dy="-6.00px">-5</tspan><tspan font-size="12.0" dy="6.00"></tspan></text>
	</g>
</g>
<g fill="none" color="black" stroke="currentColor" stroke-width="1.00" stroke-linecap="butt" stroke-linejoin="miter">
	<path stroke='black'  d='M105.1,479.9 L114.1,479.9  '/>	<g transform="translate(96.8,483.8)" stroke="none" fill="black" font-family="Helvetica" font-size="12.00"  text-anchor="end">
		<text><tspan font-family="Helvetica" > 6x10</tspan><tspan font-family="Helvetica"  font-size="9.6" dy="-6.00px">-5</tspan><tspan font-size="12.0" dy="6.00"></tspan></text>
	</g>
</g>
<g fill="none" color="black" stroke="currentColor" stroke-width="1.00" stroke-linecap="butt" stroke-linejoin="miter">
	<path stroke='black'  d='M105.1,419.1 L114.1,419.1  '/>	<g transform="translate(96.8,423.0)" stroke="none" fill="black" font-family="Helvetica" font-size="12.00"  text-anchor="end">
		<text><tspan font-family="Helvetica" > 8x10</tspan><tspan font-family="Helvetica"  font-size="9.6" dy="-6.00px">-5</tspan><tspan font-size="12.0" dy="6.00"></tspan></text>
	</g>
</g>
<g fill="none" color="black" stroke="currentColor" stroke-width="1.00" stroke-linecap="butt" stroke-linejoin="miter">
	<path stroke='black'  d='M105.1,358.2 L114.1,358.2  '/>	<g transform="translate(96.8,362.1)" stroke="none" fill="black" font-family="Helvetica" font-size="12.00"  text-anchor="end">
		<text><tspan font-family="Helvetica" > 0.0001</tspan></text>
	</g>
</g>
<g fill="none" color="black" stroke="currentColor" stroke-width="1.00" stroke-linecap="butt" stroke-linejoin="miter">
	<path stroke='black'  d='M105.1,297.4 L114.1,297.4  '/>	<g transform="translate(96.8,301.3)" stroke="none" fill="black" font-family="Helvetica" font-size="12.00"  text-anchor="end">
		<text><tspan font-family="Helvetica" > 0.00012</tspan></text>
	</g>
</g>
<g fill="none" color="black" stroke="currentColor" stroke-width="1.00" stroke-linecap="butt" stroke-linejoin="miter">
	<path stroke='black'  d='M105.1,236.6 L114.1,236.6  '/>	<g transform="translate(96.8,240.5)" stroke="none" fill="black" font-family="Helvetica" font-size="12.00"  text-anchor="end">
		<text><tspan font-family="Helvetica" > 0.00014</tspan></text>
	</g>
</g>
<g fill="none" color="black" stroke="currentColor" stroke-width="1.00" stroke-linecap="butt" stroke-linejoin="miter">
	<path stroke='black'  d='M105.1,175.8 L114.1,175.8  '/>	<g transform="translate(96.8,179.7)" stroke="none" fill="black" font-family="Helvetica" font-size="12.00"  text-anchor="end">
		<text><tspan font-family="Helvetica" > 0.00016</tspan></text>
	</g>
</g>
<g fill="none" color="black" stroke="currentColor" stroke-width="1.00" stroke-linecap="butt" stroke-linejoin="miter">
	<path stroke='black'  d='M105.1,114.9 L114.1,114.9  '/>	<g transform="translate(96.8,118.8)" stroke="none" fill="black" font-family="Helvetica" font-size="12.00"  text-anchor="end">
		<text><tspan font-family="Helvetica" > 0.00018</tspan></text>
	</g>
</g>
<g fill="none" color="black" stroke="currentColor" stroke-width="1.00" stroke-linecap="butt" stroke-linejoin="miter">
	<path stroke='black'  d='M105.1,54.1 L114.1,54.1  '/>	<g transform="translate(96.8,58.0)" stroke="none" fill="black" font-family="Helvetica" font-size="12.00"  text-anchor="end">
		<text><tspan font-family="Helvetica" > 0.0002</tspan></text>
	</g>
</g>
<g fill="none" color="black" stroke="currentColor" stroke-width="1.00" stroke-linecap="butt" stroke-linejoin="miter">
	<path stroke='black'  d='M127.3,662.4 L127.3,653.4  '/>	<g transform="translate(127.3,684.3)" stroke="none" fill="black" font-family="Helvetica" font-size="12.00"  text-anchor="middle">
		<text><tspan font-family="Helvetica" > 46000</tspan></text>
	</g>
</g>
<g fill="none" color="black" stroke="currentColor" stroke-width="1.00" stroke-linecap="butt" stroke-linejoin="miter">
	<path stroke='black'  d='M305.7,662.4 L305.7,653.4  '/>	<g transform="translate(305.7,684.3)" stroke="none" fill="black" font-family="Helvetica" font-size="12.00"  text-anchor="middle">
		<text><tspan font-family="Helvetica" > 48000</tspan></text>
	</g>
</g>
<g fill="none" color="black" stroke="currentColor" stroke-width="1.00" stroke-linecap="butt" stroke-linejoin="miter">
	<path stroke='black'  d='M484.1,662.4 L484.1,653.4  '/>	<g transform="translate(484.1,684.3)" stroke="none" fill="black" font-family="Helvetica" font-size="12.00"  text-anchor="middle">
		<text><tspan font-family="Helvetica" > 50000</tspan></text>
	</g>
</g>
<g fill="none" color="black" stroke="currentColor" stroke-width="1.00" stroke-linecap="butt" stroke-linejoin="miter">
	<path stroke='black'  d='M662.6,662.4 L662.6,653.4  '/>	<g transform="translate(662.6,684.3)" stroke="none" fill="black" font-family="Helvetica" font-size="12.00"  text-anchor="middle">
		<text><tspan font-family="Helvetica" > 52000</tspan></text>
	</g>
</g>
<g fill="none" color="black" stroke="currentColor" stroke-width="1.00" stroke-linecap="butt" stroke-linejoin="miter">
	<path stroke='black'  d='M841.0,662.4 L841.0,653.4  '/>	<g transform="translate(841.0,684.3)" stroke="none" fill="black" font-family="Helvetica" font-size="12.00"  text-anchor="middle">
		<text><tspan font-family="Helvetica" > 54000</tspan></text>
	</g>
</g>
<g fill="none" color="black" stroke="currentColor" stroke-width="1.00" stroke-linecap="butt" stroke-linejoin="miter">
</g>
<g fill="none" color="black" stroke="currentColor" stroke-width="1.00" stroke-linecap="butt" stroke-linejoin="miter">
	<path stroke='black'  d='M105.1,54.1 L105.1,662.4 L1013.6,662.4 L1013.6,54.1 L105.1,54.1 Z  '/></g>
<g fill="none" color="black" stroke="currentColor" stroke-width="1.00" stroke-linecap="butt" stroke-linejoin="miter">
	<g transform="translate(16.3,358.3) rotate(270)" stroke="none" fill="black" font-family="Helvetica" font-size="12.00"  text-anchor="middle">
		<text><tspan font-family="Helvetica" >Density (a.u.)</tspan></text>
	</g>
</g>
<g fill="none" color="black" stroke="currentColor" stroke-width="1.00" stroke-linecap="butt" stroke-linejoin="miter">
	<g transform="translate(559.3,711.3)" stroke="none" fill="black" font-family="Helvetica" font-size="12.00"  text-anchor="middle">
		<text><tspan font-family="Helvetica" >Average time (cycles)</tspan></text>
	</g>
</g>
<g fill="none" color="black" stroke="currentColor" stroke-width="1.00" stroke-linecap="butt" stroke-linejoin="miter">
	<g transform="translate(559.3,31.0)" stroke="none" fill="black" font-family="Helvetica" font-size="12.00"  text-anchor="middle">
		<text><tspan font-family="Helvetica" >non_nested_compare/incremental calc/9: mean</tspan></text>
	</g>
</g>
	<g id="gnuplot_plot_1" ><title>Bootstrap distribution</title>
<g fill="none" color="white" stroke="black" stroke-width="2.00" stroke-linecap="butt" stroke-linejoin="miter">
</g>
<g fill="none" color="black" stroke="currentColor" stroke-width="2.00" stroke-linecap="butt" stroke-linejoin="miter">
	<g transform="translate(1089.0,67.0)" stroke="none" fill="black" font-family="Helvetica" font-size="12.00"  text-anchor="start">
		<text><tspan font-family="Helvetica" >Bootstrap distribution</tspan></text>
	</g>
</g>
<g fill="none" color="black" stroke="currentColor" stroke-width="2.00" stroke-linecap="butt" stroke-linejoin="miter">
	<path stroke='rgb( 31, 120, 180)'  d='M1038.5,63.1 L1080.7,63.1 M105.1,628.0 L106.9,627.2 L108.7,626.5 L110.6,625.7 L112.4,624.9 L114.2,624.1
		L116.0,623.4 L117.8,622.6 L119.7,621.8 L121.5,621.1 L123.3,620.3 L125.1,619.5 L126.9,618.8 L128.8,618.0
		L130.6,617.2 L132.4,616.4 L134.2,615.6 L136.1,614.8 L137.9,613.9 L139.7,613.0 L141.5,612.1 L143.3,611.2
		L145.2,610.3 L147.0,609.3 L148.8,608.3 L150.6,607.3 L152.4,606.2 L154.3,605.2 L156.1,604.1 L157.9,603.0
		L159.7,601.8 L161.5,600.6 L163.4,599.4 L165.2,598.2 L167.0,597.0 L168.8,595.7 L170.6,594.4 L172.5,593.1
		L174.3,591.7 L176.1,590.4 L177.9,589.0 L179.7,587.5 L181.6,586.0 L183.4,584.5 L185.2,583.0 L187.0,581.4
		L188.8,579.8 L190.7,578.2 L192.5,576.6 L194.3,574.9 L196.1,573.2 L198.0,571.4 L199.8,569.6 L201.6,567.9
		L203.4,566.0 L205.2,564.2 L207.1,562.3 L208.9,560.5 L210.7,558.6 L212.5,556.7 L214.3,554.7 L216.2,552.8
		L218.0,550.8 L219.8,548.8 L221.6,546.8 L223.4,544.8 L225.3,542.8 L227.1,540.8 L228.9,538.7 L230.7,536.7
		L232.5,534.6 L234.4,532.6 L236.2,530.5 L238.0,528.5 L239.8,526.4 L241.6,524.4 L243.5,522.3 L245.3,520.2
		L247.1,518.2 L248.9,516.1 L250.8,514.0 L252.6,512.0 L254.4,509.9 L256.2,507.7 L258.0,505.6 L259.9,503.4
		L261.7,501.2 L263.5,499.0 L265.3,496.7 L267.1,494.4 L269.0,492.0 L270.8,489.6 L272.6,487.1 L274.4,484.5
		L276.2,481.9 L278.1,479.2 L279.9,476.4 L281.7,473.6 L283.5,470.7 L285.3,467.8 L287.2,464.8 L289.0,461.8
		L290.8,458.7 L292.6,455.5 L294.4,452.4 L296.3,449.2 L298.1,446.0 L299.9,442.8 L301.7,439.6 L303.5,436.3
		L305.4,433.1 L307.2,430.0 L309.0,426.8 L310.8,423.7 L312.7,420.6 L314.5,417.6 L316.3,414.6 L318.1,411.6
		L319.9,408.7 L321.8,405.8 L323.6,403.0 L325.4,400.1 L327.2,397.3 L329.0,394.4 L330.9,391.6 L332.7,388.8
		L334.5,385.9 L336.3,383.1 L338.1,380.2 L340.0,377.3 L341.8,374.3 L343.6,371.4 L345.4,368.4 L347.2,365.4
		L349.1,362.4 L350.9,359.4 L352.7,356.3 L354.5,353.2 L356.3,350.2 L358.2,347.1 L360.0,344.0 L361.8,341.0
		L363.6,337.9 L365.5,334.8 L367.3,331.8 L369.1,328.7 L370.9,325.6 L372.7,322.6 L374.6,319.5 L376.4,316.5
		L378.2,313.4 L380.0,310.4 L381.8,307.3 L383.7,304.3 L385.5,301.3 L387.3,298.3 L389.1,295.3 L390.9,292.4
		L392.8,289.5 L394.6,286.6 L396.4,283.8 L398.2,281.0 L400.0,278.2 L401.9,275.5 L403.7,272.8 L405.5,270.1
		L407.3,267.4 L409.1,264.7 L411.0,262.0 L412.8,259.3 L414.6,256.5 L416.4,253.8 L418.3,251.0 L420.1,248.2
		L421.9,245.3 L423.7,242.4 L425.5,239.6 L427.4,236.6 L429.2,233.7 L431.0,230.8 L432.8,227.9 L434.6,225.0
		L436.5,222.1 L438.3,219.3 L440.1,216.5 L441.9,213.7 L443.7,210.9 L445.6,208.2 L447.4,205.5 L449.2,202.8
		L451.0,200.1 L452.8,197.4 L454.7,194.7 L456.5,192.0 L458.3,189.3 L460.1,186.5 L461.9,183.7 L463.8,180.9
		L465.6,178.1 L467.4,175.3 L469.2,172.5 L471.0,169.8 L472.9,167.0 L474.7,164.3 L476.5,161.7 L478.3,159.1
		L480.2,156.6 L482.0,154.2 L483.8,151.9 L485.6,149.7 L487.4,147.5 L489.3,145.5 L491.1,143.5 L492.9,141.6
		L494.7,139.7 L496.5,137.9 L498.4,136.1 L500.2,134.4 L502.0,132.7 L503.8,131.0 L505.6,129.3 L507.5,127.6
		L509.3,125.9 L511.1,124.3 L512.9,122.7 L514.7,121.1 L516.6,119.5 L518.4,117.9 L520.2,116.4 L522.0,114.9
		L523.8,113.5 L525.7,112.0 L527.5,110.6 L529.3,109.2 L531.1,107.9 L533.0,106.5 L534.8,105.1 L536.6,103.8
		L538.4,102.4 L540.2,101.0 L542.1,99.6 L543.9,98.3 L545.7,96.9 L547.5,95.6 L549.3,94.3 L551.2,93.0
		L553.0,91.9 L554.8,90.8 L556.6,89.8 L558.4,89.0 L560.3,88.2 L562.1,87.7 L563.9,87.2 L565.7,86.9
		L567.5,86.7 L569.4,86.6 L571.2,86.7 L573.0,86.8 L574.8,87.1 L576.6,87.4 L578.5,87.8 L580.3,88.3
		L582.1,88.8 L583.9,89.3 L585.7,89.9 L587.6,90.5 L589.4,91.1 L591.2,91.8 L593.0,92.5 L594.9,93.2
		L596.7,94.1 L598.5,95.0 L600.3,96.0 L602.1,97.0 L604.0,98.2 L605.8,99.5 L607.6,100.8 L609.4,102.3
		L611.2,103.8 L613.1,105.5 L614.9,107.1 L616.7,108.9 L618.5,110.7 L620.3,112.5 L622.2,114.4 L624.0,116.2
		L625.8,118.1 L627.6,120.0 L629.4,121.9 L631.3,123.8 L633.1,125.8 L634.9,127.7 L636.7,129.7 L638.5,131.7
		L640.4,133.7 L642.2,135.8 L644.0,137.9 L645.8,140.1 L647.7,142.3 L649.5,144.6 L651.3,146.9 L653.1,149.3
		L654.9,151.8 L656.8,154.2 L658.6,156.7 L660.4,159.2 L662.2,161.8 L664.0,164.4 L665.9,166.9 L667.7,169.5
		L669.5,172.1 L671.3,174.8 L673.1,177.4 L675.0,180.1 L676.8,182.7 L678.6,185.5 L680.4,188.2 L682.2,191.0
		L684.1,193.8 L685.9,196.6 L687.7,199.4 L689.5,202.3 L691.3,205.2 L693.2,208.1 L695.0,211.0 L696.8,213.9
		L698.6,216.8 L700.4,219.6 L702.3,222.5 L704.1,225.3 L705.9,228.2 L707.7,231.0 L709.6,233.8 L711.4,236.7
		L713.2,239.6 L715.0,242.5 L716.8,245.5 L718.7,248.5 L720.5,251.6 L722.3,254.8 L724.1,258.0 L725.9,261.3
		L727.8,264.8 L729.6,268.2 L731.4,271.8 L733.2,275.4 L735.0,279.0 L736.9,282.7 L738.7,286.4 L740.5,290.0
		L742.3,293.7 L744.1,297.3 L746.0,300.8 L747.8,304.4 L749.6,307.8 L751.4,311.2 L753.2,314.5 L755.1,317.8
		L756.9,321.0 L758.7,324.2 L760.5,327.3 L762.4,330.4 L764.2,333.5 L766.0,336.5 L767.8,339.6 L769.6,342.6
		L771.5,345.7 L773.3,348.7 L775.1,351.8 L776.9,354.9 L778.7,357.9 L780.6,361.0 L782.4,364.0 L784.2,367.1
		L786.0,370.1 L787.8,373.1 L789.7,376.1 L791.5,379.0 L793.3,382.0 L795.1,384.9 L796.9,387.8 L798.8,390.8
		L800.6,393.7 L802.4,396.6 L804.2,399.5 L806.0,402.5 L807.9,405.5 L809.7,408.5 L811.5,411.5 L813.3,414.5
		L815.2,417.6 L817.0,420.7 L818.8,423.8 L820.6,426.9 L822.4,430.0 L824.3,433.1 L826.1,436.2 L827.9,439.2
		L829.7,442.3 L831.5,445.3 L833.4,448.3 L835.2,451.3 L837.0,454.3 L838.8,457.2 L840.6,460.1 L842.5,463.1
		L844.3,465.9 L846.1,468.8 L847.9,471.7 L849.7,474.6 L851.6,477.4 L853.4,480.2 L855.2,483.1 L857.0,485.9
		L858.8,488.7 L860.7,491.5 L862.5,494.3 L864.3,497.0 L866.1,499.7 L867.9,502.4 L869.8,505.1 L871.6,507.7
		L873.4,510.3 L875.2,512.8 L877.1,515.4 L878.9,517.9 L880.7,520.3 L882.5,522.8 L884.3,525.1 L886.2,527.5
		L888.0,529.8 L889.8,532.1 L891.6,534.4 L893.4,536.6 L895.3,538.8 L897.1,541.0 L898.9,543.1 L900.7,545.1
		L902.5,547.2 L904.4,549.1 L906.2,551.0 L908.0,552.9 L909.8,554.7 L911.6,556.5 L913.5,558.3 L915.3,560.0
		L917.1,561.6 L918.9,563.3 L920.7,564.9 L922.6,566.5 L924.4,568.1 L926.2,569.6 L928.0,571.2 L929.9,572.8
		L931.7,574.3 L933.5,575.9 L935.3,577.4 L937.1,578.9 L939.0,580.5 L940.8,582.0 L942.6,583.5 L944.4,585.0
		L946.2,586.5 L948.1,587.9 L949.9,589.4 L951.7,590.8 L953.5,592.2 L955.3,593.6 L957.2,594.9 L959.0,596.2
		L960.8,597.5 L962.6,598.8 L964.4,600.1 L966.3,601.4 L968.1,602.6 L969.9,603.9 L971.7,605.1 L973.5,606.3
		L975.4,607.6 L977.2,608.8 L979.0,610.0 L980.8,611.2 L982.6,612.5 L984.5,613.7 L986.3,614.8 L988.1,616.0
		L989.9,617.2 L991.8,618.3 L993.6,619.4 L995.4,620.5 L997.2,621.5 L999.0,622.5 L1000.9,623.5 L1002.7,624.5
		L1004.5,625.4 L1006.3,626.3 L1008.1,627.1 L1010.0,628.0 L1011.8,628.8 L1013.6,629.5  '/></g>
	</g>
	<g id="gnuplot_plot_2" ><title>Confidence interval</title>
<g fill="none" color="white" stroke="rgb( 31, 120, 180)" stroke-width="1.00" stroke-linecap="butt" stroke-linejoin="miter">
</g>
<g fill="none" color="black" stroke="currentColor" stroke-width="1.00" stroke-linecap="butt" stroke-linejoin="miter">
	<g transform="translate(1089.0,85.0)" stroke="none" fill="black" font-family="Helvetica" font-size="12.00"  text-anchor="start">
		<text><tspan font-family="Helvetica" >Confidence interval</tspan></text>
	</g>
</g>
<g fill="none" color="black" stroke="currentColor" stroke-width="1.00" stroke-linecap="butt" stroke-linejoin="miter">
	<g stroke='none' shape-rendering='crispEdges'>
		<polygon fill = 'rgb( 31, 120, 180)' fill-opacity = '0.250000' points = '1038.5,85.6 1080.7,85.6 1080.7,76.6 1038.5,76.6 '/>
		<polygon fill = 'rgb( 31, 120, 180)' fill-opacity = '0.250000' points = '188.8,579.8 190.7,578.2 192.5,576.6 194.3,574.9 196.1,573.2 198.0,571.4 199.8,569.6 201.6,567.9 203.4,566.0 205.2,564.2 207.1,562.3 208.9,560.5 210.7,558.6 212.5,556.7 214.3,554.7 216.2,552.8
218.0,550.8 219.8,548.8 221.6,546.8 223.4,544.8 225.3,542.8 227.1,540.8 228.9,538.7 230.7,536.7 232.5,534.6 234.4,532.6 236.2,530.5 238.0,528.5 239.8,526.4 241.6,524.4 243.5,522.3 245.3,520.2
247.1,518.2 248.9,516.1 250.8,514.0 252.6,512.0 254.4,509.9 256.2,507.7 258.0,505.6 259.9,503.4 261.7,501.2 263.5,499.0 265.3,496.7 267.1,494.4 269.0,492.0 270.8,489.6 272.6,487.1 274.4,484.5
276.2,481.9 278.1,479.2 279.9,476.4 281.7,473.6 283.5,470.7 285.3,467.8 287.2,464.8 289.0,461.8 290.8,458.7 292.6,455.5 294.4,452.4 296.3,449.2 298.1,446.0 299.9,442.8 301.7,439.6 303.5,436.3
305.4,433.1 307.2,430.0 309.0,426.8 310.8,423.7 312.7,420.6 314.5,417.6 316.3,414.6 318.1,411.6 319.9,408.7 321.8,405.8 323.6,403.0 325.4,400.1 327.2,397.3 329.0,394.4 330.9,391.6 332.7,388.8
334.5,385.9 336.3,383.1 338.1,380.2 340.0,377.3 341.8,374.3 343.6,371.4 345.4,368.4 347.2,365.4 349.1,362.4 350.9,359.4 352.7,356.3 354.5,353.2 356.3,350.2 358.2,347.1 360.0,344.0 361.8,341.0
363.6,337.9 365.5,334.8 367.3,331.8 369.1,328.7 370.9,325.6 372.7,322.6 374.6,319.5 376.4,316.5 378.2,313.4 380.0,310.4 381.8,307.3 383.7,304.3 385.5,301.3 387.3,298.3 389.1,295.3 390.9,292.4
392.8,289.5 394.6,286.6 396.4,283.8 398.2,281.0 400.0,278.2 401.9,275.5 403.7,272.8 405.5,270.1 407.3,267.4 409.1,264.7 411.0,262.0 412.8,259.3 414.6,256.5 416.4,253.8 418.3,251.0 420.1,248.2
421.9,245.3 423.7,242.4 425.5,239.6 427.4,236.6 429.2,233.7 431.0,230.8 432.8,227.9 434.6,225.0 436.5,222.1 438.3,219.3 440.1,216.5 441.9,213.7 443.7,210.9 445.6,208.2 447.4,205.5 449.2,202.8
451.0,200.1 452.8,197.4 454.7,194.7 456.5,192.0 458.3,189.3 460.1,186.5 461.9,183.7 463.8,180.9 465.6,178.1 467.4,175.3 469.2,172.5 471.0,169.8 472.9,167.0 474.7,164.3 476.5,161.7 478.3,159.1
480.2,156.6 482.0,154.2 483.8,151.9 485.6,149.7 487.4,147.5 489.3,145.5 491.1,143.5 492.9,141.6 494.7,139.7 496.5,137.9 498.4,136.1 500.2,134.4 502.0,132.7 503.8,131.0 505.6,129.3 507.5,127.6
509.3,125.9 511.1,124.3 512.9,122.7 514.7,121.1 516.6,119.5 518.4,117.9 520.2,116.4 522.0,114.9 523.8,113.5 525.7,112.0 527.5,110.6 529.3,109.2 531.1,107.9 533.0,106.5 534.8,105.1 536.6,103.8
538.4,102.4 540.2,101.0 542.1,99.6 543.9,98.3 545.7,96.9 547.5,95.6 549.3,94.3 551.2,93.0 553.0,91.9 554.8,90.8 556.6,89.8 558.4,89.0 560.3,88.2 562.1,87.7 563.9,87.2 565.7,86.9
567.5,86.7 569.4,86.6 571.2,86.7 573.0,86.8 574.8,87.1 576.6,87.4 578.5,87.8 580.3,88.3 582.1,88.8 583.9,89.3 585.7,89.9 587.6,90.5 589.4,91.1 591.2,91.8 593.0,92.5 594.9,93.2
596.7,94.1 598.5,95.0 600.3,96.0 602.1,97.0 604.0,98.2 605.8,99.5 607.6,100.8 609.4,102.3 611.2,103.8 613.1,105.5 614.9,107.1 616.7,108.9 618.5,110.7 620.3,112.5 622.2,114.4 624.0,116.2
625.8,118.1 627.6,120.0 629.4,121.9 631.3,123.8 633.1,125.8 634.9,127.7 636.7,129.7 638.5,131.7 640.4,133.7 642.2,135.8 644.0,137.9 645.8,140.1 647.7,142.3 649.5,144.6 651.3,146.9 653.1,149.3
654.9,151.8 656.8,154.2 658.6,156.7 660.4,159.2 662.2,161.8 664.0,164.4 665.9,166.9 667.7,169.5 669.5,172.1 671.3,174.8 673.1,177.4 675.0,180.1 676.8,182.7 678.6,185.5 680.4,188.2 682.2,191.0
684.1,193.8 685.9,196.6 687.7,199.4 689.5,202.3 691.3,205.2 693.2,208.1 695.0,211.0 696.8,213.9 698.6,216.8 700.4,219.6 702.3,222.5 704.1,225.3 705.9,228.2 707.7,231.0 709.6,233.8 711.4,236.7
713.2,239.6 715.0,242.5 716.8,245.5 718.7,248.5 720.5,251.6 722.3,254.8 724.1,258.0 725.9,261.3 727.8,264.8 729.6,268.2 731.4,271.8 733.2,275.4 735.0,279.0 736.9,282.7 738.7,286.4 740.5,290.0
742.3,293.7 744.1,297.3 746.0,300.8 747.8,304.4 749.6,307.8 751.4,311.2 753.2,314.5 755.1,317.8 756.9,321.0 758.7,324.2 760.5,327.3 762.4,330.4 764.2,333.5 766.0,336.5 767.8,339.6 769.6,342.6
771.5,345.7 773.3,348.7 775.1,351.8 776.9,354.9 778.7,357.9 780.6,361.0 782.4,364.0 784.2,367.1 786.0,370.1 787.8,373.1 789.7,376.1 791.5,379.0 793.3,382.0 795.1,384.9 796.9,387.8 798.8,390.8
800.6,393.7 802.4,396.6 804.2,399.5 806.0,402.5 807.9,405.5 809.7,408.5 811.5,411.5 813.3,414.5 815.2,417.6 817.0,420.7 818.8,423.8 820.6,426.9 822.4,430.0 824.3,433.1 826.1,436.2 827.9,439.2
829.7,442.3 831.5,445.3 833.4,448.3 835.2,451.3 837.0,454.3 838.8,457.2 840.6,460.1 842.5,463.1 844.3,465.9 846.1,468.8 847.9,471.7 849.7,474.6 851.6,477.4 853.4,480.2 855.2,483.1 857.0,485.9
858.8,488.7 860.7,491.5 862.5,494.3 864.3,497.0 866.1,499.7 867.9,502.4 869.8,505.1 871.6,507.7 873.4,510.3 875.2,512.8 877.1,515.4 878.9,517.9 880.7,520.3 882.5,522.8 884.3,525.1 886.2,527.5
888.0,529.8 889.8,532.1 891.6,534.4 893.4,536.6 895.3,538.8 897.1,541.0 898.9,543.1 900.7,545.1 902.5,547.2 904.4,549.1 906.2,551.0 908.0,552.9 909.8,554.7 911.6,556.5 913.5,558.3 915.3,560.0
917.1,561.6 918.9,563.3 920.7,564.9 922.6,566.5 924.4,568.1 926.2,569.6 928.0,571.2 928.0,662.4 926.2,662.4 924.4,662.4 922.6,662.4 920.7,662.4 918.9,662.4 917.1,662.4 915.3,662.4 913.5,662.4
911.6,662.4 909.8,662.4 908.0,662.4 906.2,662.4 904.4,662.4 902.5,662.4 900.7,662.4 898.9,662.4 897.1,662.4 895.3,662.4 893.4,662.4 891.6,662.4 889.8,662.4 888.0,662.4 886.2,662.4 884.3,662.4
882.5,662.4 880.7,662.4 878.9,662.4 877.1,662.4 875.2,662.4 873.4,662.4 871.6,662.4 869.8,662.4 867.9,662.4 866.1,662.4 864.3,662.4 862.5,662.4 860.7,662.4 858.8,662.4 857.0,662.4 855.2,662.4
853.4,662.4 851.6,662.4 849.7,662.4 847.9,662.4 846.1,662.4 844.3,662.4 842.5,662.4 840.6,662.4 838.8,662.4 837.0,662.4 835.2,662.4 833.4,662.4 831.5,662.4 829.7,662.4 827.9,662.4 826.1,662.4
824.3,662.4 822.4,662.4 820.6,662.4 818.8,662.4 817.0,662.4 815.2,662.4 813.3,662.4 811.5,662.4 809.7,662.4 807.9,662.4 806.0,662.4 804.2,662.4 802.4,662.4 800.6,662.4 798.8,662.4 796.9,662.4
795.1,662.4 793.3,662.4 791.5,662.4 789.7,662.4 787.8,662.4 786.0,662.4 784.2,662.4 782.4,662.4 780.6,662.4 778.7,662.4 776.9,662.4 775.1,662.4 773.3,662.4 771.5,662.4 769.6,662.4 767.8,662.4
766.0,662.4 764.2,662.4 762.4,662.4 760.5,662.4 758.7,662.4 756.9,662.4 755.1,662.4 753.2,662.4 751.4,662.4 749.6,662.4 747.8,662.4 746.0,662.4 744.1,662.4 742.3,662.4 740.5,662.4 738.7,662.4
736.9,662.4 735.0,662.4 733.2,662.4 731.4,662.4 729.6,662.4 727.8,662.4 725.9,662.4 724.1,662.4 722.3,662.4 720.5,662.4 718.7,662.4 716.8,662.4 715.0,662.4 713.2,662.4 711.4,662.4 709.6,662.4
707.7,662.4 705.9,662.4 704.1,662.4 702.3,662.4 700.4,662.4 698.6,662.4 696.8,662.4 695.0,662.4 693.2,662.4 691.3,662.4 689.5,662.4 687.7,662.4 685.9,662.4 684.1,662.4 682.2,662.4 680.4,662.4
678.6,662.4 676.8,662.4 675.0,662.4 673.1,662.4 671.3,662.4 669.5,662.4 667.7,662.4 665.9,662.4 664.0,662.4 662.2,662.4 660.4,662.4 658.6,662.4 656.8,662.4 654.9,662.4 653.1,662.4 651.3,662.4
649.5,662.4 647.7,662.4 645.8,662.4 644.0,662.4 642.2,662.4 640.4,662.4 638.5,662.4 636.7,662.4 634.9,662.4 633.1,662.4 631.3,662.4 629.4,662.4 627.6,662.4 625.8,662.4 624.0,662.4 622.2,662.4
620.3,662.4 618.5,662.4 616.7,662.4 614.9,662.4 613.1,662.4 611.2,662.4 609.4,662.4 607.6,662.4 605.8,662.4 604.0,662.4 602.1,662.4 600.3,662.4 598.5,662.4 596.7,662.4 594.9,662.4 593.0,662.4
591.2,662.4 589.4,662.4 587.6,662.4 585.7,662.4 583.9,662.4 582.1,662.4 580.3,662.4 578.5,662.4 576.6,662.4 574.8,662.4 573.0,662.4 571.2,662.4 569.4,662.4 567.5,662.4 565.7,662.4 563.9,662.4
562.1,662.4 560.3,662.4 558.4,662.4 556.6,662.4 554.8,662.4 553.0,662.4 551.2,662.4 549.3,662.4 547.5,662.4 545.7,662.4 543.9,662.4 542.1,662.4 540.2,662.4 538.4,662.4 536.6,662.4 534.8,662.4
533.0,662.4 531.1,662.4 529.3,662.4 527.5,662.4 525.7,662.4 523.8,662.4 522.0,662.4 520.2,662.4 518.4,662.4 516.6,662.4 514.7,662.4 512.9,662.4 511.1,662.4 509.3,662.4 507.5,662.4 505.6,662.4
503.8,662.4 502.0,662.4 500.2,662.4 498.4,662.4 496.5,662.4 494.7,662.4 492.9,662.4 491.1,662.4 489.3,662.4 487.4,662.4 485.6,662.4 483.8,662.4 482.0,662.4 480.2,662.4 478.3,662.4 476.5,662.4
474.7,662.4 472.9,662.4 471.0,662.4 469.2,662.4 467.4,662.4 465.6,662.4 463.8,662.4 461.9,662.4 460.1,662.4 458.3,662.4 456.5,662.4 454.7,662.4 452.8,662.4 451.0,662.4 449.2,662.4 447.4,662.4
445.6,662.4 443.7,662.4 441.9,662.4 440.1,662.4 438.3,662.4 436.5,662.4 434.6,662.4 432.8,662.4 431.0,662.4 429.2,662.4 427.4,662.4 425.5,662.4 423.7,662.4 421.9,662.4 420.1,662.4 418.3,662.4
416.4,662.4 414.6,662.4 412.8,662.4 411.0,662.4 409.1,662.4 407.3,662.4 405.5,662.4 403.7,662.4 401.9,662.4 400.0,662.4 398.2,662.4 396.4,662.4 394.6,662.4 392.8,662.4 390.9,662.4 389.1,662.4
387.3,662.4 385.5,662.4 383.7,662.4 381.8,662.4 380.0,662.4 378.2,662.4 376.4,662.4 374.6,662.4 372.7,662.4 370.9,662.4 369.1,662.4 367.3,662.4 365.5,662.4 363.6,662.4 361.8,662.4 360.0,662.4
358.2,662.4 356.3,662.4 354.5,662.4 352.7,662.4 350.9,662.4 349.1,662.4 347.2,662.4 345.4,662.4 343.6,662.4 341.8,662.4 340.0,662.4 338.1,662.4 336.3,662.4 334.5,662.4 332.7,662.4 330.9,662.4
329.0,662.4 327.2,662.4 325.4,662.4 323.6,662.4 321.8,662.4 319.9,662.4 318.1,662.4 316.3,662.4 314.5,662.4 312.7,662.4 310.8,662.4 309.0,662.4 307.2,662.4 305.4,662.4 303.5,662.4 301.7,662.4
299.9,662.4 298.1,662.4 296.3,662.4 294.4,662.4 292.6,662.4 290.8,662.4 289.0,662.4 287.2,662.4 285.3,662.4 283.5,662.4 281.7,662.4 279.9,662.4 278.1,662.4 276.2,662.4 274.4,662.4 272.6,662.4
270.8,662.4 269.0,662.4 267.1,662.4 265.3,662.4 263.5,662.4 261.7,662.4 259.9,662.4 258.0,662.4 256.2,662.4 254.4,662.4 252.6,662.4 250.8,662.4 248.9,662.4 247.1,662.4 245.3,662.4 243.5,662.4
241.6,662.4 239.8,662.4 238.0,662.4 236.2,662.4 234.4,662.4 232.5,662.4 230.7,662.4 228.9,662.4 227.1,662.4 225.3,662.4 223.4,662.4 221.6,662.4 219.8,662.4 218.0,662.4 216.2,662.4 214.3,662.4
212.5,662.4 210.7,662.4 208.9,662.4 207.1,662.4 205.2,662.4 203.4,662.4 201.6,662.4 199.8,662.4 198.0,662.4 196.1,662.4 194.3,662.4 192.5,662.4 190.7,662.4 188.8,662.4 '/>
	</g>
</g>
	</g>
	<g id="gnuplot_plot_3" ><title>Point estimate</title>
<g fill="none" color="white" stroke="rgb( 31, 120, 180)" stroke-width="2.00" stroke-linecap="butt" stroke-linejoin="miter">
</g>
<g fill="none" color="black" stroke="currentColor" stroke-width="2.00" stroke-linecap="butt" stroke-linejoin="miter">
	<g transform="translate(1089.0,103.0)" stroke="none" fill="black" font-family="Helvetica" font-size="12.00"  text-anchor="start">
		<text><tspan font-family="Helvetica" >Point estimate</tspan></text>
	</g>
</g>
<g fill="none" color="black" stroke="currentColor" stroke-width="2.00" stroke-linecap="butt" stroke-linejoin="miter">
	<path stroke='rgb( 31, 120, 180)'  d='M1038.5,99.1 L1080.7,99.1 M562.4,662.4 L562.4,87.6  '/></g>
	</g>
<g fill="none" color="black" stroke="currentColor" stroke-width="2.00" stroke-linecap="butt" stroke-linejoin="miter">
</g>
<g fill="none" color="black" stroke="black" stroke-width="1.00" stroke-linecap="butt" stroke-linejoin="miter">
</g>
<g fill="none" color="black" stroke="currentColor" stroke-width="1.00" stroke-linecap="butt" stroke-linejoin="miter">
	<path stroke='black'  d='M105.1,54.1 L105.1,662.4 L1013.6,662.4 L1013.6,54.1 L105.1,54.1 Z  '/></g>
<g fill="none" color="black" stroke="currentColor" stroke-width="1.00" stroke-linecap="butt" stroke-linejoin="miter">
</g>
</g>
</svg>

