<?xml version="1.0" encoding="utf-8"  standalone="no"?>
<svg 
 viewBox="0 0 450 300"
 xmlns="http://www.w3.org/2000/svg"
 xmlns:xlink="http://www.w3.org/1999/xlink"
>

<title>Gnuplot</title>
<desc>Produced by GNUPLOT 5.2 patchlevel 2 </desc>

<g id="gnuplot_canvas">

<rect x="0" y="0" width="450" height="300" fill="none"/>
<defs>

	<circle id='gpDot' r='0.5' stroke-width='0.5'/>
	<path id='gpPt0' stroke-width='0.222' stroke='currentColor' d='M-1,0 h2 M0,-1 v2'/>
	<path id='gpPt1' stroke-width='0.222' stroke='currentColor' d='M-1,-1 L1,1 M1,-1 L-1,1'/>
	<path id='gpPt2' stroke-width='0.222' stroke='currentColor' d='M-1,0 L1,0 M0,-1 L0,1 M-1,-1 L1,1 M-1,1 L1,-1'/>
	<rect id='gpPt3' stroke-width='0.222' stroke='currentColor' x='-1' y='-1' width='2' height='2'/>
	<rect id='gpPt4' stroke-width='0.222' stroke='currentColor' fill='currentColor' x='-1' y='-1' width='2' height='2'/>
	<circle id='gpPt5' stroke-width='0.222' stroke='currentColor' cx='0' cy='0' r='1'/>
	<use xlink:href='#gpPt5' id='gpPt6' fill='currentColor' stroke='none'/>
	<path id='gpPt7' stroke-width='0.222' stroke='currentColor' d='M0,-1.33 L-1.33,0.67 L1.33,0.67 z'/>
	<use xlink:href='#gpPt7' id='gpPt8' fill='currentColor' stroke='none'/>
	<use xlink:href='#gpPt7' id='gpPt9' stroke='currentColor' transform='rotate(180)'/>
	<use xlink:href='#gpPt9' id='gpPt10' fill='currentColor' stroke='none'/>
	<use xlink:href='#gpPt3' id='gpPt11' stroke='currentColor' transform='rotate(45)'/>
	<use xlink:href='#gpPt11' id='gpPt12' fill='currentColor' stroke='none'/>
	<path id='gpPt13' stroke-width='0.222' stroke='currentColor' d='M0,1.330 L1.265,0.411 L0.782,-1.067 L-0.782,-1.076 L-1.265,0.411 z'/>
	<use xlink:href='#gpPt13' id='gpPt14' fill='currentColor' stroke='none'/>
	<filter id='textbox' filterUnits='objectBoundingBox' x='0' y='0' height='1' width='1'>
	  <feFlood flood-color='white' flood-opacity='1' result='bgnd'/>
	  <feComposite in='SourceGraphic' in2='bgnd' operator='atop'/>
	</filter>
	<filter id='greybox' filterUnits='objectBoundingBox' x='0' y='0' height='1' width='1'>
	  <feFlood flood-color='lightgrey' flood-opacity='1' result='grey'/>
	  <feComposite in='SourceGraphic' in2='grey' operator='atop'/>
	</filter>
</defs>
<g fill="none" color="white" stroke="currentColor" stroke-width="1.00" stroke-linecap="butt" stroke-linejoin="miter">
</g>
<g fill="none" color="black" stroke="currentColor" stroke-width="1.00" stroke-linecap="butt" stroke-linejoin="miter">
	<path stroke='black'  d='M96.8,242.4 L105.8,242.4  '/>	<g transform="translate(88.5,246.3)" stroke="none" fill="black" font-family="Helvetica" font-size="12.00"  text-anchor="end">
		<text><tspan font-family="Helvetica" > 0</tspan></text>
	</g>
</g>
<g fill="none" color="black" stroke="currentColor" stroke-width="1.00" stroke-linecap="butt" stroke-linejoin="miter">
	<path stroke='black'  d='M96.8,217.5 L105.8,217.5  '/>	<g transform="translate(88.5,221.4)" stroke="none" fill="black" font-family="Helvetica" font-size="12.00"  text-anchor="end">
		<text><tspan font-family="Helvetica" > 0.0005</tspan></text>
	</g>
</g>
<g fill="none" color="black" stroke="currentColor" stroke-width="1.00" stroke-linecap="butt" stroke-linejoin="miter">
	<path stroke='black'  d='M96.8,192.6 L105.8,192.6  '/>	<g transform="translate(88.5,196.5)" stroke="none" fill="black" font-family="Helvetica" font-size="12.00"  text-anchor="end">
		<text><tspan font-family="Helvetica" > 0.001</tspan></text>
	</g>
</g>
<g fill="none" color="black" stroke="currentColor" stroke-width="1.00" stroke-linecap="butt" stroke-linejoin="miter">
	<path stroke='black'  d='M96.8,167.6 L105.8,167.6  '/>	<g transform="translate(88.5,171.5)" stroke="none" fill="black" font-family="Helvetica" font-size="12.00"  text-anchor="end">
		<text><tspan font-family="Helvetica" > 0.0015</tspan></text>
	</g>
</g>
<g fill="none" color="black" stroke="currentColor" stroke-width="1.00" stroke-linecap="butt" stroke-linejoin="miter">
	<path stroke='black'  d='M96.8,142.7 L105.8,142.7  '/>	<g transform="translate(88.5,146.6)" stroke="none" fill="black" font-family="Helvetica" font-size="12.00"  text-anchor="end">
		<text><tspan font-family="Helvetica" > 0.002</tspan></text>
	</g>
</g>
<g fill="none" color="black" stroke="currentColor" stroke-width="1.00" stroke-linecap="butt" stroke-linejoin="miter">
	<path stroke='black'  d='M96.8,117.8 L105.8,117.8  '/>	<g transform="translate(88.5,121.7)" stroke="none" fill="black" font-family="Helvetica" font-size="12.00"  text-anchor="end">
		<text><tspan font-family="Helvetica" > 0.0025</tspan></text>
	</g>
</g>
<g fill="none" color="black" stroke="currentColor" stroke-width="1.00" stroke-linecap="butt" stroke-linejoin="miter">
	<path stroke='black'  d='M96.8,92.9 L105.8,92.9  '/>	<g transform="translate(88.5,96.8)" stroke="none" fill="black" font-family="Helvetica" font-size="12.00"  text-anchor="end">
		<text><tspan font-family="Helvetica" > 0.003</tspan></text>
	</g>
</g>
<g fill="none" color="black" stroke="currentColor" stroke-width="1.00" stroke-linecap="butt" stroke-linejoin="miter">
	<path stroke='black'  d='M96.8,67.9 L105.8,67.9  '/>	<g transform="translate(88.5,71.8)" stroke="none" fill="black" font-family="Helvetica" font-size="12.00"  text-anchor="end">
		<text><tspan font-family="Helvetica" > 0.0035</tspan></text>
	</g>
</g>
<g fill="none" color="black" stroke="currentColor" stroke-width="1.00" stroke-linecap="butt" stroke-linejoin="miter">
	<path stroke='black'  d='M96.8,43.0 L105.8,43.0  '/>	<g transform="translate(88.5,46.9)" stroke="none" fill="black" font-family="Helvetica" font-size="12.00"  text-anchor="end">
		<text><tspan font-family="Helvetica" > 0.004</tspan></text>
	</g>
</g>
<g fill="none" color="black" stroke="currentColor" stroke-width="1.00" stroke-linecap="butt" stroke-linejoin="miter">
	<path stroke='black'  d='M96.8,18.1 L105.8,18.1  '/>	<g transform="translate(88.5,22.0)" stroke="none" fill="black" font-family="Helvetica" font-size="12.00"  text-anchor="end">
		<text><tspan font-family="Helvetica" > 0.0045</tspan></text>
	</g>
</g>
<g fill="none" color="black" stroke="currentColor" stroke-width="1.00" stroke-linecap="butt" stroke-linejoin="miter">
	<path stroke='black'  d='M96.8,242.4 L96.8,233.4  '/>	<g transform="translate(96.8,264.3)" stroke="none" fill="black" font-family="Helvetica" font-size="12.00"  text-anchor="middle">
		<text><tspan font-family="Helvetica" > 0</tspan></text>
	</g>
</g>
<g fill="none" color="black" stroke="currentColor" stroke-width="1.00" stroke-linecap="butt" stroke-linejoin="miter">
	<path stroke='black'  d='M129.6,242.4 L129.6,233.4  '/>	<g transform="translate(129.6,264.3)" stroke="none" fill="black" font-family="Helvetica" font-size="12.00"  text-anchor="middle">
		<text><tspan font-family="Helvetica" > 500</tspan></text>
	</g>
</g>
<g fill="none" color="black" stroke="currentColor" stroke-width="1.00" stroke-linecap="butt" stroke-linejoin="miter">
	<path stroke='black'  d='M162.4,242.4 L162.4,233.4  '/>	<g transform="translate(162.4,264.3)" stroke="none" fill="black" font-family="Helvetica" font-size="12.00"  text-anchor="middle">
		<text><tspan font-family="Helvetica" > 1000</tspan></text>
	</g>
</g>
<g fill="none" color="black" stroke="currentColor" stroke-width="1.00" stroke-linecap="butt" stroke-linejoin="miter">
	<path stroke='black'  d='M195.3,242.4 L195.3,233.4  '/>	<g transform="translate(195.3,264.3)" stroke="none" fill="black" font-family="Helvetica" font-size="12.00"  text-anchor="middle">
		<text><tspan font-family="Helvetica" > 1500</tspan></text>
	</g>
</g>
<g fill="none" color="black" stroke="currentColor" stroke-width="1.00" stroke-linecap="butt" stroke-linejoin="miter">
	<path stroke='black'  d='M228.1,242.4 L228.1,233.4  '/>	<g transform="translate(228.1,264.3)" stroke="none" fill="black" font-family="Helvetica" font-size="12.00"  text-anchor="middle">
		<text><tspan font-family="Helvetica" > 2000</tspan></text>
	</g>
</g>
<g fill="none" color="black" stroke="currentColor" stroke-width="1.00" stroke-linecap="butt" stroke-linejoin="miter">
	<path stroke='black'  d='M260.9,242.4 L260.9,233.4  '/>	<g transform="translate(260.9,264.3)" stroke="none" fill="black" font-family="Helvetica" font-size="12.00"  text-anchor="middle">
		<text><tspan font-family="Helvetica" > 2500</tspan></text>
	</g>
</g>
<g fill="none" color="black" stroke="currentColor" stroke-width="1.00" stroke-linecap="butt" stroke-linejoin="miter">
	<path stroke='black'  d='M293.7,242.4 L293.7,233.4  '/>	<g transform="translate(293.7,264.3)" stroke="none" fill="black" font-family="Helvetica" font-size="12.00"  text-anchor="middle">
		<text><tspan font-family="Helvetica" > 3000</tspan></text>
	</g>
</g>
<g fill="none" color="black" stroke="currentColor" stroke-width="1.00" stroke-linecap="butt" stroke-linejoin="miter">
	<path stroke='black'  d='M326.5,242.4 L326.5,233.4  '/>	<g transform="translate(326.5,264.3)" stroke="none" fill="black" font-family="Helvetica" font-size="12.00"  text-anchor="middle">
		<text><tspan font-family="Helvetica" > 3500</tspan></text>
	</g>
</g>
<g fill="none" color="black" stroke="currentColor" stroke-width="1.00" stroke-linecap="butt" stroke-linejoin="miter">
	<path stroke='black'  d='M359.4,242.4 L359.4,233.4  '/>	<g transform="translate(359.4,264.3)" stroke="none" fill="black" font-family="Helvetica" font-size="12.00"  text-anchor="middle">
		<text><tspan font-family="Helvetica" > 4000</tspan></text>
	</g>
</g>
<g fill="none" color="black" stroke="currentColor" stroke-width="1.00" stroke-linecap="butt" stroke-linejoin="miter">
	<path stroke='black'  d='M392.2,242.4 L392.2,233.4  '/>	<g transform="translate(392.2,264.3)" stroke="none" fill="black" font-family="Helvetica" font-size="12.00"  text-anchor="middle">
		<text><tspan font-family="Helvetica" > 4500</tspan></text>
	</g>
</g>
<g fill="none" color="black" stroke="currentColor" stroke-width="1.00" stroke-linecap="butt" stroke-linejoin="miter">
	<path stroke='black'  d='M425.0,242.4 L425.0,233.4  '/>	<g transform="translate(425.0,264.3)" stroke="none" fill="black" font-family="Helvetica" font-size="12.00"  text-anchor="middle">
		<text><tspan font-family="Helvetica" > 5000</tspan></text>
	</g>
</g>
<g fill="none" color="black" stroke="currentColor" stroke-width="1.00" stroke-linecap="butt" stroke-linejoin="miter">
</g>
<g fill="none" color="black" stroke="currentColor" stroke-width="1.00" stroke-linecap="butt" stroke-linejoin="miter">
	<path stroke='black'  d='M96.8,18.1 L96.8,242.4 L425.0,242.4 L425.0,18.1 L96.8,18.1 Z  '/></g>
<g fill="none" color="black" stroke="currentColor" stroke-width="1.00" stroke-linecap="butt" stroke-linejoin="miter">
	<g transform="translate(16.3,130.3) rotate(270)" stroke="none" fill="black" font-family="Helvetica" font-size="12.00"  text-anchor="middle">
		<text><tspan font-family="Helvetica" >Density (a.u.)</tspan></text>
	</g>
</g>
<g fill="none" color="black" stroke="currentColor" stroke-width="1.00" stroke-linecap="butt" stroke-linejoin="miter">
	<g transform="translate(260.9,291.3)" stroke="none" fill="black" font-family="Helvetica" font-size="12.00"  text-anchor="middle">
		<text><tspan font-family="Helvetica" >Average time (cycles)</tspan></text>
	</g>
</g>
<g fill="none" color="black" stroke="currentColor" stroke-width="1.00" stroke-linecap="butt" stroke-linejoin="miter">
</g>
	<g id="gnuplot_plot_1" ><title>Base PDF</title>
<g fill="none" color="black" stroke="currentColor" stroke-width="1.00" stroke-linecap="butt" stroke-linejoin="miter">
	<g stroke='none' shape-rendering='crispEdges'>
		<polygon fill = 'rgb(227,  26,  28)' fill-opacity = '0.500000' points = '274.4,242.3 274.6,242.3 274.7,242.3 274.8,242.3 274.9,242.3 275.0,242.2 275.1,242.2 275.3,242.2 275.4,242.2 275.5,242.2 275.6,242.1 275.7,242.1 275.8,242.1 276.0,242.1 276.1,242.0 276.2,242.0
276.3,242.0 276.4,241.9 276.5,241.9 276.6,241.8 276.8,241.8 276.9,241.7 277.0,241.6 277.1,241.6 277.2,241.5 277.3,241.4 277.5,241.4 277.6,241.3 277.7,241.2 277.8,241.1 277.9,241.0 278.0,240.9
278.2,240.7 278.3,240.6 278.4,240.5 278.5,240.4 278.6,240.2 278.7,240.1 278.9,239.9 279.0,239.7 279.1,239.6 279.2,239.4 279.3,239.2 279.4,239.0 279.5,238.8 279.7,238.6 279.8,238.3 279.9,238.1
280.0,237.8 280.1,237.6 280.2,237.3 280.4,237.1 280.5,236.8 280.6,236.5 280.7,236.2 280.8,235.9 280.9,235.6 281.1,235.3 281.2,235.0 281.3,234.6 281.4,234.3 281.5,234.0 281.6,233.6 281.8,233.3
281.9,232.9 282.0,232.6 282.1,232.2 282.2,231.9 282.3,231.5 282.4,231.1 282.6,230.8 282.7,230.4 282.8,230.1 282.9,229.7 283.0,229.4 283.1,229.0 283.3,228.7 283.4,228.3 283.5,228.0 283.6,227.7
283.7,227.3 283.8,227.0 284.0,226.7 284.1,226.4 284.2,226.1 284.3,225.8 284.4,225.6 284.5,225.3 284.7,225.1 284.8,224.8 284.9,224.6 285.0,224.4 285.1,224.2 285.2,224.0 285.3,223.8 285.5,223.7
285.6,223.5 285.7,223.4 285.8,223.2 285.9,223.1 286.0,223.0 286.2,223.0 286.3,222.9 286.4,222.8 286.5,222.8 286.6,222.7 286.7,222.7 286.9,222.7 287.0,222.7 287.1,222.7 287.2,222.8 287.3,222.8
287.4,222.8 287.6,222.9 287.7,222.9 287.8,223.0 287.9,223.1 288.0,223.1 288.1,223.2 288.2,223.3 288.4,223.4 288.5,223.5 288.6,223.6 288.7,223.7 288.8,223.8 288.9,223.9 289.1,224.0 289.2,224.1
289.3,224.2 289.4,224.3 289.5,224.3 289.6,224.4 289.8,224.5 289.9,224.6 290.0,224.6 290.1,224.7 290.2,224.7 290.3,224.8 290.5,224.8 290.6,224.8 290.7,224.9 290.8,224.9 290.9,224.9 291.0,224.8
291.1,224.8 291.3,224.8 291.4,224.7 291.5,224.6 291.6,224.6 291.7,224.5 291.8,224.4 292.0,224.2 292.1,224.1 292.2,224.0 292.3,223.8 292.4,223.6 292.5,223.4 292.7,223.2 292.8,223.0 292.9,222.8
293.0,222.6 293.1,222.3 293.2,222.1 293.4,221.8 293.5,221.5 293.6,221.2 293.7,220.9 293.8,220.6 293.9,220.3 294.0,220.0 294.2,219.7 294.3,219.4 294.4,219.0 294.5,218.7 294.6,218.4 294.7,218.0
294.9,217.7 295.0,217.4 295.1,217.0 295.2,216.7 295.3,216.4 295.4,216.0 295.6,215.7 295.7,215.4 295.8,215.1 295.9,214.7 296.0,214.4 296.1,214.1 296.3,213.8 296.4,213.6 296.5,213.3 296.6,213.0
296.7,212.8 296.8,212.5 296.9,212.3 297.1,212.0 297.2,211.8 297.3,211.6 297.4,211.4 297.5,211.2 297.6,211.0 297.8,210.8 297.9,210.6 298.0,210.4 298.1,210.2 298.2,210.1 298.3,209.9 298.5,209.7
298.6,209.6 298.7,209.4 298.8,209.2 298.9,209.0 299.0,208.9 299.2,208.7 299.3,208.5 299.4,208.3 299.5,208.1 299.6,207.8 299.7,207.6 299.8,207.3 300.0,207.0 300.1,206.7 300.2,206.4 300.3,206.0
300.4,205.6 300.5,205.2 300.7,204.7 300.8,204.2 300.9,203.7 301.0,203.1 301.1,202.5 301.2,201.8 301.4,201.1 301.5,200.4 301.6,199.5 301.7,198.7 301.8,197.8 301.9,196.8 302.1,195.8 302.2,194.7
302.3,193.5 302.4,192.3 302.5,191.0 302.6,189.7 302.7,188.2 302.9,186.8 303.0,185.2 303.1,183.6 303.2,181.9 303.3,180.2 303.4,178.3 303.6,176.4 303.7,174.5 303.8,172.5 303.9,170.4 304.0,168.2
304.1,166.0 304.3,163.7 304.4,161.4 304.5,159.0 304.6,156.6 304.7,154.1 304.8,151.5 305.0,148.9 305.1,146.3 305.2,143.6 305.3,140.9 305.4,138.1 305.5,135.3 305.6,132.5 305.8,129.6 305.9,126.7
306.0,123.8 306.1,120.9 306.2,118.0 306.3,115.0 306.5,112.1 306.6,109.2 306.7,106.2 306.8,103.3 306.9,100.4 307.0,97.5 307.2,94.6 307.3,91.7 307.4,88.9 307.5,86.1 307.6,83.3 307.7,80.6
307.9,77.9 308.0,75.3 308.1,72.7 308.2,70.1 308.3,67.6 308.4,65.2 308.5,62.8 308.7,60.5 308.8,58.2 308.9,56.1 309.0,53.9 309.1,51.9 309.2,49.9 309.4,48.0 309.5,46.2 309.6,44.5
309.7,42.8 309.8,41.3 309.9,39.8 310.1,38.4 310.2,37.1 310.3,35.8 310.4,34.7 310.5,33.7 310.6,32.7 310.8,31.8 310.9,31.1 311.0,30.4 311.1,29.8 311.2,29.3 311.3,28.9 311.4,28.6
311.6,28.4 311.7,28.3 311.8,28.2 311.9,28.3 312.0,28.5 312.1,28.7 312.3,29.1 312.4,29.5 312.5,30.1 312.6,30.7 312.7,31.4 312.8,32.3 313.0,33.2 313.1,34.2 313.2,35.2 313.3,36.4
313.4,37.7 313.5,39.0 313.7,40.5 313.8,42.0 313.9,43.6 314.0,45.3 314.1,47.0 314.2,48.8 314.3,50.8 314.5,52.7 314.6,54.8 314.7,56.9 314.8,59.1 314.9,61.4 315.0,63.7 315.2,66.0
315.3,68.5 315.4,71.0 315.5,73.5 315.6,76.1 315.7,78.7 315.9,81.4 316.0,84.1 316.1,86.8 316.2,89.6 316.3,92.4 316.4,95.3 316.6,98.1 316.7,101.0 316.8,103.9 316.9,106.8 317.0,109.7
317.1,112.6 317.2,115.5 317.4,118.4 317.5,121.3 317.6,124.2 317.7,127.1 317.8,130.0 317.9,132.9 318.1,135.7 318.2,138.5 318.3,141.3 318.4,144.1 318.5,146.8 318.6,149.5 318.8,152.2 318.9,154.8
319.0,157.4 319.1,159.9 319.2,162.4 319.3,164.9 319.5,167.3 319.6,169.7 319.7,172.0 319.8,174.3 319.9,176.5 320.0,178.7 320.1,180.8 320.3,182.9 320.4,184.9 320.5,186.9 320.6,188.8 320.7,190.7
320.8,192.5 321.0,194.3 321.1,196.0 321.2,197.7 321.3,199.4 321.4,201.0 321.5,202.5 321.7,204.0 321.8,205.4 321.9,206.9 322.0,208.2 322.1,209.5 322.2,210.8 322.4,212.1 322.5,213.3 322.6,214.4
322.7,215.6 322.8,216.7 322.9,217.7 323.0,218.7 323.2,219.7 323.3,220.7 323.4,221.6 323.5,222.5 323.6,223.3 323.7,224.2 323.9,225.0 324.0,225.8 324.1,226.5 324.2,227.2 324.3,227.9 324.4,228.6
324.6,229.2 324.7,229.9 324.8,230.5 324.9,231.1 325.0,231.6 325.1,232.1 325.3,232.7 325.4,233.2 325.5,233.6 325.6,234.1 325.7,234.5 325.8,235.0 325.9,235.4 326.1,235.7 326.2,236.1 326.3,236.5
326.4,236.8 326.5,237.1 326.6,237.4 326.8,237.7 326.9,238.0 327.0,238.3 327.1,238.5 327.2,238.8 327.3,239.0 327.5,239.2 327.6,239.4 327.7,239.6 327.8,239.8 327.9,240.0 328.0,240.2 328.2,240.3
328.3,240.5 328.4,240.6 328.5,240.7 328.6,240.8 328.7,241.0 328.8,241.1 329.0,241.2 329.1,241.3 329.2,241.4 329.3,241.4 329.4,241.5 329.5,241.6 329.7,241.7 329.8,241.7 329.9,241.8 330.0,241.8
330.1,241.9 330.2,241.9 330.4,242.0 330.5,242.0 330.6,242.0 330.7,242.1 330.8,242.1 330.9,242.1 331.1,242.2 331.2,242.2 331.3,242.2 331.4,242.2 331.5,242.2 331.6,242.3 331.7,242.3 331.9,242.3
332.0,242.3 332.1,242.3 332.2,242.3 332.3,242.3 332.3,242.4 332.2,242.4 332.1,242.4 332.0,242.4 331.9,242.4 331.7,242.4 331.6,242.4 331.5,242.4 331.4,242.4 331.3,242.4 331.2,242.4 331.1,242.4
330.9,242.4 330.8,242.4 330.7,242.4 330.6,242.4 330.5,242.4 330.4,242.4 330.2,242.4 330.1,242.4 330.0,242.4 329.9,242.4 329.8,242.4 329.7,242.4 329.5,242.4 329.4,242.4 329.3,242.4 329.2,242.4
329.1,242.4 329.0,242.4 328.8,242.4 328.7,242.4 328.6,242.4 328.5,242.4 328.4,242.4 328.3,242.4 328.2,242.4 328.0,242.4 327.9,242.4 327.8,242.4 327.7,242.4 327.6,242.4 327.5,242.4 327.3,242.4
327.2,242.4 327.1,242.4 327.0,242.4 326.9,242.4 326.8,242.4 326.6,242.4 326.5,242.4 326.4,242.4 326.3,242.4 326.2,242.4 326.1,242.4 325.9,242.4 325.8,242.4 325.7,242.4 325.6,242.4 325.5,242.4
325.4,242.4 325.3,242.4 325.1,242.4 325.0,242.4 324.9,242.4 324.8,242.4 324.7,242.4 324.6,242.4 324.4,242.4 324.3,242.4 324.2,242.4 324.1,242.4 324.0,242.4 323.9,242.4 323.7,242.4 323.6,242.4
323.5,242.4 323.4,242.4 323.3,242.4 323.2,242.4 323.0,242.4 322.9,242.4 322.8,242.4 322.7,242.4 322.6,242.4 322.5,242.4 322.4,242.4 322.2,242.4 322.1,242.4 322.0,242.4 321.9,242.4 321.8,242.4
321.7,242.4 321.5,242.4 321.4,242.4 321.3,242.4 321.2,242.4 321.1,242.4 321.0,242.4 320.8,242.4 320.7,242.4 320.6,242.4 320.5,242.4 320.4,242.4 320.3,242.4 320.1,242.4 320.0,242.4 319.9,242.4
319.8,242.4 319.7,242.4 319.6,242.4 319.5,242.4 319.3,242.4 319.2,242.4 319.1,242.4 319.0,242.4 318.9,242.4 318.8,242.4 318.6,242.4 318.5,242.4 318.4,242.4 318.3,242.4 318.2,242.4 318.1,242.4
317.9,242.4 317.8,242.4 317.7,242.4 317.6,242.4 317.5,242.4 317.4,242.4 317.2,242.4 317.1,242.4 317.0,242.4 316.9,242.4 316.8,242.4 316.7,242.4 316.6,242.4 316.4,242.4 316.3,242.4 316.2,242.4
316.1,242.4 316.0,242.4 315.9,242.4 315.7,242.4 315.6,242.4 315.5,242.4 315.4,242.4 315.3,242.4 315.2,242.4 315.0,242.4 314.9,242.4 314.8,242.4 314.7,242.4 314.6,242.4 314.5,242.4 314.3,242.4
314.2,242.4 314.1,242.4 314.0,242.4 313.9,242.4 313.8,242.4 313.7,242.4 313.5,242.4 313.4,242.4 313.3,242.4 313.2,242.4 313.1,242.4 313.0,242.4 312.8,242.4 312.7,242.4 312.6,242.4 312.5,242.4
312.4,242.4 312.3,242.4 312.1,242.4 312.0,242.4 311.9,242.4 311.8,242.4 311.7,242.4 311.6,242.4 311.4,242.4 311.3,242.4 311.2,242.4 311.1,242.4 311.0,242.4 310.9,242.4 310.8,242.4 310.6,242.4
310.5,242.4 310.4,242.4 310.3,242.4 310.2,242.4 310.1,242.4 309.9,242.4 309.8,242.4 309.7,242.4 309.6,242.4 309.5,242.4 309.4,242.4 309.2,242.4 309.1,242.4 309.0,242.4 308.9,242.4 308.8,242.4
308.7,242.4 308.5,242.4 308.4,242.4 308.3,242.4 308.2,242.4 308.1,242.4 308.0,242.4 307.9,242.4 307.7,242.4 307.6,242.4 307.5,242.4 307.4,242.4 307.3,242.4 307.2,242.4 307.0,242.4 306.9,242.4
306.8,242.4 306.7,242.4 306.6,242.4 306.5,242.4 306.3,242.4 306.2,242.4 306.1,242.4 306.0,242.4 305.9,242.4 305.8,242.4 305.6,242.4 305.5,242.4 305.4,242.4 305.3,242.4 305.2,242.4 305.1,242.4
305.0,242.4 304.8,242.4 304.7,242.4 304.6,242.4 304.5,242.4 304.4,242.4 304.3,242.4 304.1,242.4 304.0,242.4 303.9,242.4 303.8,242.4 303.7,242.4 303.6,242.4 303.4,242.4 303.3,242.4 303.2,242.4
303.1,242.4 303.0,242.4 302.9,242.4 302.7,242.4 302.6,242.4 302.5,242.4 302.4,242.4 302.3,242.4 302.2,242.4 302.1,242.4 301.9,242.4 301.8,242.4 301.7,242.4 301.6,242.4 301.5,242.4 301.4,242.4
301.2,242.4 301.1,242.4 301.0,242.4 300.9,242.4 300.8,242.4 300.7,242.4 300.5,242.4 300.4,242.4 300.3,242.4 300.2,242.4 300.1,242.4 300.0,242.4 299.8,242.4 299.7,242.4 299.6,242.4 299.5,242.4
299.4,242.4 299.3,242.4 299.2,242.4 299.0,242.4 298.9,242.4 298.8,242.4 298.7,242.4 298.6,242.4 298.5,242.4 298.3,242.4 298.2,242.4 298.1,242.4 298.0,242.4 297.9,242.4 297.8,242.4 297.6,242.4
297.5,242.4 297.4,242.4 297.3,242.4 297.2,242.4 297.1,242.4 296.9,242.4 296.8,242.4 296.7,242.4 296.6,242.4 296.5,242.4 296.4,242.4 296.3,242.4 296.1,242.4 296.0,242.4 295.9,242.4 295.8,242.4
295.7,242.4 295.6,242.4 295.4,242.4 295.3,242.4 295.2,242.4 295.1,242.4 295.0,242.4 294.9,242.4 294.7,242.4 294.6,242.4 294.5,242.4 294.4,242.4 294.3,242.4 294.2,242.4 294.0,242.4 293.9,242.4
293.8,242.4 293.7,242.4 293.6,242.4 293.5,242.4 293.4,242.4 293.2,242.4 293.1,242.4 293.0,242.4 292.9,242.4 292.8,242.4 292.7,242.4 292.5,242.4 292.4,242.4 292.3,242.4 292.2,242.4 292.1,242.4
292.0,242.4 291.8,242.4 291.7,242.4 291.6,242.4 291.5,242.4 291.4,242.4 291.3,242.4 291.1,242.4 291.0,242.4 290.9,242.4 290.8,242.4 290.7,242.4 290.6,242.4 290.5,242.4 290.3,242.4 290.2,242.4
290.1,242.4 290.0,242.4 289.9,242.4 289.8,242.4 289.6,242.4 289.5,242.4 289.4,242.4 289.3,242.4 289.2,242.4 289.1,242.4 288.9,242.4 288.8,242.4 288.7,242.4 288.6,242.4 288.5,242.4 288.4,242.4
288.2,242.4 288.1,242.4 288.0,242.4 287.9,242.4 287.8,242.4 287.7,242.4 287.6,242.4 287.4,242.4 287.3,242.4 287.2,242.4 287.1,242.4 287.0,242.4 286.9,242.4 286.7,242.4 286.6,242.4 286.5,242.4
286.4,242.4 286.3,242.4 286.2,242.4 286.0,242.4 285.9,242.4 285.8,242.4 285.7,242.4 285.6,242.4 285.5,242.4 285.3,242.4 285.2,242.4 285.1,242.4 285.0,242.4 284.9,242.4 284.8,242.4 284.7,242.4
284.5,242.4 284.4,242.4 284.3,242.4 284.2,242.4 284.1,242.4 284.0,242.4 283.8,242.4 283.7,242.4 283.6,242.4 283.5,242.4 283.4,242.4 283.3,242.4 283.1,242.4 283.0,242.4 282.9,242.4 282.8,242.4
282.7,242.4 282.6,242.4 282.4,242.4 282.3,242.4 282.2,242.4 282.1,242.4 282.0,242.4 281.9,242.4 281.8,242.4 281.6,242.4 281.5,242.4 281.4,242.4 281.3,242.4 281.2,242.4 281.1,242.4 280.9,242.4
280.8,242.4 280.7,242.4 280.6,242.4 280.5,242.4 280.4,242.4 280.2,242.4 280.1,242.4 280.0,242.4 279.9,242.4 279.8,242.4 279.7,242.4 279.5,242.4 279.4,242.4 279.3,242.4 279.2,242.4 279.1,242.4
279.0,242.4 278.9,242.4 278.7,242.4 278.6,242.4 278.5,242.4 278.4,242.4 278.3,242.4 278.2,242.4 278.0,242.4 277.9,242.4 277.8,242.4 277.7,242.4 277.6,242.4 277.5,242.4 277.3,242.4 277.2,242.4
277.1,242.4 277.0,242.4 276.9,242.4 276.8,242.4 276.6,242.4 276.5,242.4 276.4,242.4 276.3,242.4 276.2,242.4 276.1,242.4 276.0,242.4 275.8,242.4 275.7,242.4 275.6,242.4 275.5,242.4 275.4,242.4
275.3,242.4 275.1,242.4 275.0,242.4 274.9,242.4 274.8,242.4 274.7,242.4 274.6,242.4 274.4,242.4 '/>
	</g>
</g>
	</g>
	<g id="gnuplot_plot_2" ><title>Base Mean</title>
<g fill="none" color="white" stroke="rgb(227,  26,  28)" stroke-width="2.00" stroke-linecap="butt" stroke-linejoin="miter">
</g>
<g fill="none" color="black" stroke="currentColor" stroke-width="2.00" stroke-linecap="butt" stroke-linejoin="miter">
	<path stroke='rgb(227,  26,  28)'  d='M309.3,242.4 L309.3,48.4  '/></g>
	</g>
	<g id="gnuplot_plot_3" ><title>New PDF</title>
<g fill="none" color="white" stroke="rgb(227,  26,  28)" stroke-width="1.00" stroke-linecap="butt" stroke-linejoin="miter">
</g>
<g fill="none" color="black" stroke="currentColor" stroke-width="1.00" stroke-linecap="butt" stroke-linejoin="miter">
	<g stroke='none' shape-rendering='crispEdges'>
		<polygon fill = 'rgb( 31, 120, 180)' fill-opacity = '0.500000' points = '121.3,242.4 121.9,242.4 122.4,242.4 123.0,242.4 123.5,242.4 124.1,242.4 124.7,242.4 125.2,242.4 125.8,242.4 126.3,242.4 126.9,242.4 127.5,242.4 128.0,242.4 128.6,242.4 129.1,242.4 129.7,242.3
130.3,242.3 130.8,242.3 131.4,242.3 131.9,242.3 132.5,242.3 133.1,242.3 133.6,242.3 134.2,242.3 134.8,242.3 135.3,242.3 135.9,242.3 136.4,242.3 137.0,242.3 137.6,242.2 138.1,242.2 138.7,242.2
139.2,242.2 139.8,242.2 140.4,242.2 140.9,242.2 141.5,242.1 142.0,242.1 142.6,242.1 143.2,242.1 143.7,242.1 144.3,242.1 144.8,242.0 145.4,242.0 146.0,242.0 146.5,242.0 147.1,241.9 147.6,241.9
148.2,241.9 148.8,241.9 149.3,241.8 149.9,241.8 150.4,241.8 151.0,241.7 151.6,241.7 152.1,241.7 152.7,241.7 153.3,241.6 153.8,241.6 154.4,241.6 154.9,241.5 155.5,241.5 156.1,241.5 156.6,241.4
157.2,241.4 157.7,241.4 158.3,241.3 158.9,241.3 159.4,241.2 160.0,241.2 160.5,241.2 161.1,241.1 161.7,241.1 162.2,241.1 162.8,241.0 163.3,241.0 163.9,241.0 164.5,240.9 165.0,240.9 165.6,240.9
166.1,240.8 166.7,240.8 167.3,240.8 167.8,240.8 168.4,240.7 168.9,240.7 169.5,240.7 170.1,240.6 170.6,240.6 171.2,240.6 171.7,240.6 172.3,240.6 172.9,240.5 173.4,240.5 174.0,240.5 174.6,240.5
175.1,240.4 175.7,240.4 176.2,240.4 176.8,240.4 177.4,240.4 177.9,240.3 178.5,240.3 179.0,240.3 179.6,240.3 180.2,240.3 180.7,240.2 181.3,240.2 181.8,240.2 182.4,240.2 183.0,240.2 183.5,240.1
184.1,240.1 184.6,240.1 185.2,240.1 185.8,240.0 186.3,240.0 186.9,240.0 187.4,240.0 188.0,239.9 188.6,239.9 189.1,239.9 189.7,239.8 190.2,239.8 190.8,239.8 191.4,239.7 191.9,239.7 192.5,239.6
193.1,239.6 193.6,239.6 194.2,239.5 194.7,239.5 195.3,239.4 195.9,239.4 196.4,239.4 197.0,239.3 197.5,239.3 198.1,239.2 198.7,239.2 199.2,239.1 199.8,239.1 200.3,239.0 200.9,239.0 201.5,239.0
202.0,238.9 202.6,238.9 203.1,238.8 203.7,238.8 204.3,238.8 204.8,238.7 205.4,238.7 205.9,238.6 206.5,238.6 207.1,238.6 207.6,238.5 208.2,238.5 208.7,238.5 209.3,238.5 209.9,238.4 210.4,238.4
211.0,238.4 211.5,238.4 212.1,238.4 212.7,238.4 213.2,238.3 213.8,238.3 214.4,238.3 214.9,238.3 215.5,238.3 216.0,238.3 216.6,238.3 217.2,238.3 217.7,238.3 218.3,238.4 218.8,238.4 219.4,238.4
220.0,238.4 220.5,238.4 221.1,238.4 221.6,238.5 222.2,238.5 222.8,238.5 223.3,238.5 223.9,238.6 224.4,238.6 225.0,238.6 225.6,238.7 226.1,238.7 226.7,238.7 227.2,238.8 227.8,238.8 228.4,238.8
228.9,238.9 229.5,238.9 230.0,238.9 230.6,239.0 231.2,239.0 231.7,239.0 232.3,239.1 232.9,239.1 233.4,239.2 234.0,239.2 234.5,239.2 235.1,239.3 235.7,239.3 236.2,239.3 236.8,239.4 237.3,239.4
237.9,239.4 238.5,239.5 239.0,239.5 239.6,239.5 240.1,239.5 240.7,239.6 241.3,239.6 241.8,239.6 242.4,239.6 242.9,239.7 243.5,239.7 244.1,239.7 244.6,239.7 245.2,239.8 245.7,239.8 246.3,239.8
246.9,239.8 247.4,239.8 248.0,239.8 248.5,239.8 249.1,239.8 249.7,239.9 250.2,239.9 250.8,239.9 251.3,239.9 251.9,239.9 252.5,239.9 253.0,239.9 253.6,239.9 254.2,239.9 254.7,239.9 255.3,239.9
255.8,239.9 256.4,239.8 257.0,239.8 257.5,239.8 258.1,239.8 258.6,239.8 259.2,239.8 259.8,239.7 260.3,239.7 260.9,239.7 261.4,239.7 262.0,239.6 262.6,239.6 263.1,239.6 263.7,239.5 264.2,239.5
264.8,239.5 265.4,239.4 265.9,239.4 266.5,239.3 267.0,239.3 267.6,239.2 268.2,239.1 268.7,239.1 269.3,239.0 269.8,239.0 270.4,238.9 271.0,238.8 271.5,238.7 272.1,238.7 272.7,238.6 273.2,238.5
273.8,238.4 274.3,238.3 274.9,238.2 275.5,238.1 276.0,238.0 276.6,237.9 277.1,237.8 277.7,237.7 278.3,237.6 278.8,237.5 279.4,237.4 279.9,237.2 280.5,237.1 281.1,237.0 281.6,236.9 282.2,236.7
282.7,236.6 283.3,236.4 283.9,236.3 284.4,236.1 285.0,235.9 285.5,235.8 286.1,235.6 286.7,235.4 287.2,235.2 287.8,235.0 288.3,234.8 288.9,234.6 289.5,234.4 290.0,234.2 290.6,234.0 291.1,233.8
291.7,233.5 292.3,233.3 292.8,233.0 293.4,232.8 294.0,232.5 294.5,232.2 295.1,231.9 295.6,231.6 296.2,231.3 296.8,231.0 297.3,230.6 297.9,230.3 298.4,229.9 299.0,229.5 299.6,229.2 300.1,228.8
300.7,228.3 301.2,227.9 301.8,227.5 302.4,227.0 302.9,226.5 303.5,226.0 304.0,225.5 304.6,225.0 305.2,224.5 305.7,223.9 306.3,223.3 306.8,222.7 307.4,222.1 308.0,221.5 308.5,220.8 309.1,220.2
309.6,219.5 310.2,218.8 310.8,218.1 311.3,217.3 311.9,216.6 312.4,215.8 313.0,215.0 313.6,214.2 314.1,213.4 314.7,212.6 315.3,211.8 315.8,210.9 316.4,210.1 316.9,209.2 317.5,208.3 318.1,207.4
318.6,206.5 319.2,205.6 319.7,204.7 320.3,203.8 320.9,202.9 321.4,202.0 322.0,201.1 322.5,200.2 323.1,199.3 323.7,198.5 324.2,197.6 324.8,196.7 325.3,195.9 325.9,195.1 326.5,194.3 327.0,193.5
327.6,192.7 328.1,192.0 328.7,191.3 329.3,190.6 329.8,189.9 330.4,189.3 330.9,188.7 331.5,188.2 332.1,187.6 332.6,187.2 333.2,186.7 333.8,186.3 334.3,186.0 334.9,185.7 335.4,185.4 336.0,185.2
336.6,185.0 337.1,184.9 337.7,184.8 338.2,184.8 338.8,184.8 339.4,184.9 339.9,185.0 340.5,185.2 341.0,185.5 341.6,185.7 342.2,186.1 342.7,186.4 343.3,186.9 343.8,187.3 344.4,187.8 345.0,188.4
345.5,189.0 346.1,189.7 346.6,190.4 347.2,191.1 347.8,191.8 348.3,192.6 348.9,193.5 349.4,194.3 350.0,195.2 350.6,196.1 351.1,197.1 351.7,198.1 352.2,199.1 352.8,200.1 353.4,201.1 353.9,202.1
354.5,203.2 355.1,204.2 355.6,205.3 356.2,206.4 356.7,207.4 357.3,208.5 357.9,209.6 358.4,210.7 359.0,211.7 359.5,212.8 360.1,213.8 360.7,214.9 361.2,215.9 361.8,216.9 362.3,217.9 362.9,218.9
363.5,219.9 364.0,220.8 364.6,221.8 365.1,222.7 365.7,223.6 366.3,224.4 366.8,225.3 367.4,226.1 367.9,226.9 368.5,227.7 369.1,228.4 369.6,229.1 370.2,229.8 370.7,230.5 371.3,231.2 371.9,231.8
372.4,232.4 373.0,233.0 373.6,233.5 374.1,234.0 374.7,234.5 375.2,235.0 375.8,235.5 376.4,235.9 376.9,236.3 377.5,236.7 378.0,237.1 378.6,237.5 379.2,237.8 379.7,238.1 380.3,238.4 380.8,238.7
381.4,239.0 382.0,239.2 382.5,239.4 383.1,239.7 383.6,239.9 384.2,240.1 384.8,240.3 385.3,240.4 385.9,240.6 386.4,240.7 387.0,240.9 387.6,241.0 388.1,241.1 388.7,241.2 389.2,241.3 389.8,241.4
390.4,241.5 390.9,241.6 391.5,241.6 392.0,241.7 392.6,241.8 393.2,241.8 393.7,241.9 394.3,241.9 394.9,242.0 395.4,242.0 396.0,242.1 396.5,242.1 397.1,242.1 397.7,242.1 398.2,242.2 398.8,242.2
399.3,242.2 399.9,242.2 400.5,242.3 401.0,242.3 401.0,242.4 400.5,242.4 399.9,242.4 399.3,242.4 398.8,242.4 398.2,242.4 397.7,242.4 397.1,242.4 396.5,242.4 396.0,242.4 395.4,242.4 394.9,242.4
394.3,242.4 393.7,242.4 393.2,242.4 392.6,242.4 392.0,242.4 391.5,242.4 390.9,242.4 390.4,242.4 389.8,242.4 389.2,242.4 388.7,242.4 388.1,242.4 387.6,242.4 387.0,242.4 386.4,242.4 385.9,242.4
385.3,242.4 384.8,242.4 384.2,242.4 383.6,242.4 383.1,242.4 382.5,242.4 382.0,242.4 381.4,242.4 380.8,242.4 380.3,242.4 379.7,242.4 379.2,242.4 378.6,242.4 378.0,242.4 377.5,242.4 376.9,242.4
376.4,242.4 375.8,242.4 375.2,242.4 374.7,242.4 374.1,242.4 373.6,242.4 373.0,242.4 372.4,242.4 371.9,242.4 371.3,242.4 370.7,242.4 370.2,242.4 369.6,242.4 369.1,242.4 368.5,242.4 367.9,242.4
367.4,242.4 366.8,242.4 366.3,242.4 365.7,242.4 365.1,242.4 364.6,242.4 364.0,242.4 363.5,242.4 362.9,242.4 362.3,242.4 361.8,242.4 361.2,242.4 360.7,242.4 360.1,242.4 359.5,242.4 359.0,242.4
358.4,242.4 357.9,242.4 357.3,242.4 356.7,242.4 356.2,242.4 355.6,242.4 355.1,242.4 354.5,242.4 353.9,242.4 353.4,242.4 352.8,242.4 352.2,242.4 351.7,242.4 351.1,242.4 350.6,242.4 350.0,242.4
349.4,242.4 348.9,242.4 348.3,242.4 347.8,242.4 347.2,242.4 346.6,242.4 346.1,242.4 345.5,242.4 345.0,242.4 344.4,242.4 343.8,242.4 343.3,242.4 342.7,242.4 342.2,242.4 341.6,242.4 341.0,242.4
340.5,242.4 339.9,242.4 339.4,242.4 338.8,242.4 338.2,242.4 337.7,242.4 337.1,242.4 336.6,242.4 336.0,242.4 335.4,242.4 334.9,242.4 334.3,242.4 333.8,242.4 333.2,242.4 332.6,242.4 332.1,242.4
331.5,242.4 330.9,242.4 330.4,242.4 329.8,242.4 329.3,242.4 328.7,242.4 328.1,242.4 327.6,242.4 327.0,242.4 326.5,242.4 325.9,242.4 325.3,242.4 324.8,242.4 324.2,242.4 323.7,242.4 323.1,242.4
322.5,242.4 322.0,242.4 321.4,242.4 320.9,242.4 320.3,242.4 319.7,242.4 319.2,242.4 318.6,242.4 318.1,242.4 317.5,242.4 316.9,242.4 316.4,242.4 315.8,242.4 315.3,242.4 314.7,242.4 314.1,242.4
313.6,242.4 313.0,242.4 312.4,242.4 311.9,242.4 311.3,242.4 310.8,242.4 310.2,242.4 309.6,242.4 309.1,242.4 308.5,242.4 308.0,242.4 307.4,242.4 306.8,242.4 306.3,242.4 305.7,242.4 305.2,242.4
304.6,242.4 304.0,242.4 303.5,242.4 302.9,242.4 302.4,242.4 301.8,242.4 301.2,242.4 300.7,242.4 300.1,242.4 299.6,242.4 299.0,242.4 298.4,242.4 297.9,242.4 297.3,242.4 296.8,242.4 296.2,242.4
295.6,242.4 295.1,242.4 294.5,242.4 294.0,242.4 293.4,242.4 292.8,242.4 292.3,242.4 291.7,242.4 291.1,242.4 290.6,242.4 290.0,242.4 289.5,242.4 288.9,242.4 288.3,242.4 287.8,242.4 287.2,242.4
286.7,242.4 286.1,242.4 285.5,242.4 285.0,242.4 284.4,242.4 283.9,242.4 283.3,242.4 282.7,242.4 282.2,242.4 281.6,242.4 281.1,242.4 280.5,242.4 279.9,242.4 279.4,242.4 278.8,242.4 278.3,242.4
277.7,242.4 277.1,242.4 276.6,242.4 276.0,242.4 275.5,242.4 274.9,242.4 274.3,242.4 273.8,242.4 273.2,242.4 272.7,242.4 272.1,242.4 271.5,242.4 271.0,242.4 270.4,242.4 269.8,242.4 269.3,242.4
268.7,242.4 268.2,242.4 267.6,242.4 267.0,242.4 266.5,242.4 265.9,242.4 265.4,242.4 264.8,242.4 264.2,242.4 263.7,242.4 263.1,242.4 262.6,242.4 262.0,242.4 261.4,242.4 260.9,242.4 260.3,242.4
259.8,242.4 259.2,242.4 258.6,242.4 258.1,242.4 257.5,242.4 257.0,242.4 256.4,242.4 255.8,242.4 255.3,242.4 254.7,242.4 254.2,242.4 253.6,242.4 253.0,242.4 252.5,242.4 251.9,242.4 251.3,242.4
250.8,242.4 250.2,242.4 249.7,242.4 249.1,242.4 248.5,242.4 248.0,242.4 247.4,242.4 246.9,242.4 246.3,242.4 245.7,242.4 245.2,242.4 244.6,242.4 244.1,242.4 243.5,242.4 242.9,242.4 242.4,242.4
241.8,242.4 241.3,242.4 240.7,242.4 240.1,242.4 239.6,242.4 239.0,242.4 238.5,242.4 237.9,242.4 237.3,242.4 236.8,242.4 236.2,242.4 235.7,242.4 235.1,242.4 234.5,242.4 234.0,242.4 233.4,242.4
232.9,242.4 232.3,242.4 231.7,242.4 231.2,242.4 230.6,242.4 230.0,242.4 229.5,242.4 228.9,242.4 228.4,242.4 227.8,242.4 227.2,242.4 226.7,242.4 226.1,242.4 225.6,242.4 225.0,242.4 224.4,242.4
223.9,242.4 223.3,242.4 222.8,242.4 222.2,242.4 221.6,242.4 221.1,242.4 220.5,242.4 220.0,242.4 219.4,242.4 218.8,242.4 218.3,242.4 217.7,242.4 217.2,242.4 216.6,242.4 216.0,242.4 215.5,242.4
214.9,242.4 214.4,242.4 213.8,242.4 213.2,242.4 212.7,242.4 212.1,242.4 211.5,242.4 211.0,242.4 210.4,242.4 209.9,242.4 209.3,242.4 208.7,242.4 208.2,242.4 207.6,242.4 207.1,242.4 206.5,242.4
205.9,242.4 205.4,242.4 204.8,242.4 204.3,242.4 203.7,242.4 203.1,242.4 202.6,242.4 202.0,242.4 201.5,242.4 200.9,242.4 200.3,242.4 199.8,242.4 199.2,242.4 198.7,242.4 198.1,242.4 197.5,242.4
197.0,242.4 196.4,242.4 195.9,242.4 195.3,242.4 194.7,242.4 194.2,242.4 193.6,242.4 193.1,242.4 192.5,242.4 191.9,242.4 191.4,242.4 190.8,242.4 190.2,242.4 189.7,242.4 189.1,242.4 188.6,242.4
188.0,242.4 187.4,242.4 186.9,242.4 186.3,242.4 185.8,242.4 185.2,242.4 184.6,242.4 184.1,242.4 183.5,242.4 183.0,242.4 182.4,242.4 181.8,242.4 181.3,242.4 180.7,242.4 180.2,242.4 179.6,242.4
179.0,242.4 178.5,242.4 177.9,242.4 177.4,242.4 176.8,242.4 176.2,242.4 175.7,242.4 175.1,242.4 174.6,242.4 174.0,242.4 173.4,242.4 172.9,242.4 172.3,242.4 171.7,242.4 171.2,242.4 170.6,242.4
170.1,242.4 169.5,242.4 168.9,242.4 168.4,242.4 167.8,242.4 167.3,242.4 166.7,242.4 166.1,242.4 165.6,242.4 165.0,242.4 164.5,242.4 163.9,242.4 163.3,242.4 162.8,242.4 162.2,242.4 161.7,242.4
161.1,242.4 160.5,242.4 160.0,242.4 159.4,242.4 158.9,242.4 158.3,242.4 157.7,242.4 157.2,242.4 156.6,242.4 156.1,242.4 155.5,242.4 154.9,242.4 154.4,242.4 153.8,242.4 153.3,242.4 152.7,242.4
152.1,242.4 151.6,242.4 151.0,242.4 150.4,242.4 149.9,242.4 149.3,242.4 148.8,242.4 148.2,242.4 147.6,242.4 147.1,242.4 146.5,242.4 146.0,242.4 145.4,242.4 144.8,242.4 144.3,242.4 143.7,242.4
143.2,242.4 142.6,242.4 142.0,242.4 141.5,242.4 140.9,242.4 140.4,242.4 139.8,242.4 139.2,242.4 138.7,242.4 138.1,242.4 137.6,242.4 137.0,242.4 136.4,242.4 135.9,242.4 135.3,242.4 134.8,242.4
134.2,242.4 133.6,242.4 133.1,242.4 132.5,242.4 131.9,242.4 131.4,242.4 130.8,242.4 130.3,242.4 129.7,242.4 129.1,242.4 128.6,242.4 128.0,242.4 127.5,242.4 126.9,242.4 126.3,242.4 125.8,242.4
125.2,242.4 124.7,242.4 124.1,242.4 123.5,242.4 123.0,242.4 122.4,242.4 121.9,242.4 121.3,242.4 '/>
	</g>
</g>
	</g>
	<g id="gnuplot_plot_4" ><title>New Mean</title>
<g fill="none" color="white" stroke="rgb( 31, 120, 180)" stroke-width="2.00" stroke-linecap="butt" stroke-linejoin="miter">
</g>
<g fill="none" color="black" stroke="currentColor" stroke-width="2.00" stroke-linecap="butt" stroke-linejoin="miter">
	<path stroke='rgb( 31, 120, 180)'  d='M322.2,242.4 L322.2,200.8  '/></g>
	</g>
<g fill="none" color="black" stroke="currentColor" stroke-width="2.00" stroke-linecap="butt" stroke-linejoin="miter">
</g>
<g fill="none" color="black" stroke="black" stroke-width="1.00" stroke-linecap="butt" stroke-linejoin="miter">
</g>
<g fill="none" color="black" stroke="currentColor" stroke-width="1.00" stroke-linecap="butt" stroke-linejoin="miter">
	<path stroke='black'  d='M96.8,18.1 L96.8,242.4 L425.0,242.4 L425.0,18.1 L96.8,18.1 Z  '/></g>
<g fill="none" color="black" stroke="currentColor" stroke-width="1.00" stroke-linecap="butt" stroke-linejoin="miter">
</g>
</g>
</svg>

