<?xml version="1.0" encoding="utf-8"  standalone="no"?>
<svg 
 viewBox="0 0 1280 720"
 xmlns="http://www.w3.org/2000/svg"
 xmlns:xlink="http://www.w3.org/1999/xlink"
>

<title>Gnuplot</title>
<desc>Produced by GNUPLOT 5.2 patchlevel 2 </desc>

<g id="gnuplot_canvas">

<rect x="0" y="0" width="1280" height="720" fill="none"/>
<defs>

	<circle id='gpDot' r='0.5' stroke-width='0.5'/>
	<path id='gpPt0' stroke-width='0.222' stroke='currentColor' d='M-1,0 h2 M0,-1 v2'/>
	<path id='gpPt1' stroke-width='0.222' stroke='currentColor' d='M-1,-1 L1,1 M1,-1 L-1,1'/>
	<path id='gpPt2' stroke-width='0.222' stroke='currentColor' d='M-1,0 L1,0 M0,-1 L0,1 M-1,-1 L1,1 M-1,1 L1,-1'/>
	<rect id='gpPt3' stroke-width='0.222' stroke='currentColor' x='-1' y='-1' width='2' height='2'/>
	<rect id='gpPt4' stroke-width='0.222' stroke='currentColor' fill='currentColor' x='-1' y='-1' width='2' height='2'/>
	<circle id='gpPt5' stroke-width='0.222' stroke='currentColor' cx='0' cy='0' r='1'/>
	<use xlink:href='#gpPt5' id='gpPt6' fill='currentColor' stroke='none'/>
	<path id='gpPt7' stroke-width='0.222' stroke='currentColor' d='M0,-1.33 L-1.33,0.67 L1.33,0.67 z'/>
	<use xlink:href='#gpPt7' id='gpPt8' fill='currentColor' stroke='none'/>
	<use xlink:href='#gpPt7' id='gpPt9' stroke='currentColor' transform='rotate(180)'/>
	<use xlink:href='#gpPt9' id='gpPt10' fill='currentColor' stroke='none'/>
	<use xlink:href='#gpPt3' id='gpPt11' stroke='currentColor' transform='rotate(45)'/>
	<use xlink:href='#gpPt11' id='gpPt12' fill='currentColor' stroke='none'/>
	<path id='gpPt13' stroke-width='0.222' stroke='currentColor' d='M0,1.330 L1.265,0.411 L0.782,-1.067 L-0.782,-1.076 L-1.265,0.411 z'/>
	<use xlink:href='#gpPt13' id='gpPt14' fill='currentColor' stroke='none'/>
	<filter id='textbox' filterUnits='objectBoundingBox' x='0' y='0' height='1' width='1'>
	  <feFlood flood-color='white' flood-opacity='1' result='bgnd'/>
	  <feComposite in='SourceGraphic' in2='bgnd' operator='atop'/>
	</filter>
	<filter id='greybox' filterUnits='objectBoundingBox' x='0' y='0' height='1' width='1'>
	  <feFlood flood-color='lightgrey' flood-opacity='1' result='grey'/>
	  <feComposite in='SourceGraphic' in2='grey' operator='atop'/>
	</filter>
</defs>
<g fill="none" color="white" stroke="currentColor" stroke-width="1.00" stroke-linecap="butt" stroke-linejoin="miter">
</g>
<g fill="none" color="black" stroke="currentColor" stroke-width="1.00" stroke-linecap="butt" stroke-linejoin="miter">
	<path stroke='black'  d='M88.5,662.4 L97.5,662.4  '/>	<g transform="translate(80.2,666.3)" stroke="none" fill="black" font-family="Helvetica" font-size="12.00"  text-anchor="end">
		<text><tspan font-family="Helvetica" > 0</tspan></text>
	</g>
</g>
<g fill="none" color="black" stroke="currentColor" stroke-width="1.00" stroke-linecap="butt" stroke-linejoin="miter">
	<path stroke='black'  d='M88.5,575.5 L97.5,575.5  '/>	<g transform="translate(80.2,579.4)" stroke="none" fill="black" font-family="Helvetica" font-size="12.00"  text-anchor="end">
		<text><tspan font-family="Helvetica" > 1x10</tspan><tspan font-family="Helvetica"  font-size="9.6" dy="-6.00px">-6</tspan><tspan font-size="12.0" dy="6.00"></tspan></text>
	</g>
</g>
<g fill="none" color="black" stroke="currentColor" stroke-width="1.00" stroke-linecap="butt" stroke-linejoin="miter">
	<path stroke='black'  d='M88.5,488.6 L97.5,488.6  '/>	<g transform="translate(80.2,492.5)" stroke="none" fill="black" font-family="Helvetica" font-size="12.00"  text-anchor="end">
		<text><tspan font-family="Helvetica" > 2x10</tspan><tspan font-family="Helvetica"  font-size="9.6" dy="-6.00px">-6</tspan><tspan font-size="12.0" dy="6.00"></tspan></text>
	</g>
</g>
<g fill="none" color="black" stroke="currentColor" stroke-width="1.00" stroke-linecap="butt" stroke-linejoin="miter">
	<path stroke='black'  d='M88.5,401.7 L97.5,401.7  '/>	<g transform="translate(80.2,405.6)" stroke="none" fill="black" font-family="Helvetica" font-size="12.00"  text-anchor="end">
		<text><tspan font-family="Helvetica" > 3x10</tspan><tspan font-family="Helvetica"  font-size="9.6" dy="-6.00px">-6</tspan><tspan font-size="12.0" dy="6.00"></tspan></text>
	</g>
</g>
<g fill="none" color="black" stroke="currentColor" stroke-width="1.00" stroke-linecap="butt" stroke-linejoin="miter">
	<path stroke='black'  d='M88.5,314.8 L97.5,314.8  '/>	<g transform="translate(80.2,318.7)" stroke="none" fill="black" font-family="Helvetica" font-size="12.00"  text-anchor="end">
		<text><tspan font-family="Helvetica" > 4x10</tspan><tspan font-family="Helvetica"  font-size="9.6" dy="-6.00px">-6</tspan><tspan font-size="12.0" dy="6.00"></tspan></text>
	</g>
</g>
<g fill="none" color="black" stroke="currentColor" stroke-width="1.00" stroke-linecap="butt" stroke-linejoin="miter">
	<path stroke='black'  d='M88.5,227.9 L97.5,227.9  '/>	<g transform="translate(80.2,231.8)" stroke="none" fill="black" font-family="Helvetica" font-size="12.00"  text-anchor="end">
		<text><tspan font-family="Helvetica" > 5x10</tspan><tspan font-family="Helvetica"  font-size="9.6" dy="-6.00px">-6</tspan><tspan font-size="12.0" dy="6.00"></tspan></text>
	</g>
</g>
<g fill="none" color="black" stroke="currentColor" stroke-width="1.00" stroke-linecap="butt" stroke-linejoin="miter">
	<path stroke='black'  d='M88.5,141.0 L97.5,141.0  '/>	<g transform="translate(80.2,144.9)" stroke="none" fill="black" font-family="Helvetica" font-size="12.00"  text-anchor="end">
		<text><tspan font-family="Helvetica" > 6x10</tspan><tspan font-family="Helvetica"  font-size="9.6" dy="-6.00px">-6</tspan><tspan font-size="12.0" dy="6.00"></tspan></text>
	</g>
</g>
<g fill="none" color="black" stroke="currentColor" stroke-width="1.00" stroke-linecap="butt" stroke-linejoin="miter">
	<path stroke='black'  d='M88.5,54.1 L97.5,54.1  '/>	<g transform="translate(80.2,58.0)" stroke="none" fill="black" font-family="Helvetica" font-size="12.00"  text-anchor="end">
		<text><tspan font-family="Helvetica" > 7x10</tspan><tspan font-family="Helvetica"  font-size="9.6" dy="-6.00px">-6</tspan><tspan font-size="12.0" dy="6.00"></tspan></text>
	</g>
</g>
<g fill="none" color="black" stroke="currentColor" stroke-width="1.00" stroke-linecap="butt" stroke-linejoin="miter">
	<path stroke='black'  d='M172.1,662.4 L172.1,653.4  '/>	<g transform="translate(172.1,684.3)" stroke="none" fill="black" font-family="Helvetica" font-size="12.00"  text-anchor="middle">
		<text><tspan font-family="Helvetica" > 2.6x10</tspan><tspan font-family="Helvetica"  font-size="9.6" dy="-6.00px">6</tspan><tspan font-size="12.0" dy="6.00"></tspan></text>
	</g>
</g>
<g fill="none" color="black" stroke="currentColor" stroke-width="1.00" stroke-linecap="butt" stroke-linejoin="miter">
	<path stroke='black'  d='M277.1,662.4 L277.1,653.4  '/>	<g transform="translate(277.1,684.3)" stroke="none" fill="black" font-family="Helvetica" font-size="12.00"  text-anchor="middle">
		<text><tspan font-family="Helvetica" > 2.8x10</tspan><tspan font-family="Helvetica"  font-size="9.6" dy="-6.00px">6</tspan><tspan font-size="12.0" dy="6.00"></tspan></text>
	</g>
</g>
<g fill="none" color="black" stroke="currentColor" stroke-width="1.00" stroke-linecap="butt" stroke-linejoin="miter">
	<path stroke='black'  d='M382.1,662.4 L382.1,653.4  '/>	<g transform="translate(382.1,684.3)" stroke="none" fill="black" font-family="Helvetica" font-size="12.00"  text-anchor="middle">
		<text><tspan font-family="Helvetica" > 3x10</tspan><tspan font-family="Helvetica"  font-size="9.6" dy="-6.00px">6</tspan><tspan font-size="12.0" dy="6.00"></tspan></text>
	</g>
</g>
<g fill="none" color="black" stroke="currentColor" stroke-width="1.00" stroke-linecap="butt" stroke-linejoin="miter">
	<path stroke='black'  d='M487.1,662.4 L487.1,653.4  '/>	<g transform="translate(487.1,684.3)" stroke="none" fill="black" font-family="Helvetica" font-size="12.00"  text-anchor="middle">
		<text><tspan font-family="Helvetica" > 3.2x10</tspan><tspan font-family="Helvetica"  font-size="9.6" dy="-6.00px">6</tspan><tspan font-size="12.0" dy="6.00"></tspan></text>
	</g>
</g>
<g fill="none" color="black" stroke="currentColor" stroke-width="1.00" stroke-linecap="butt" stroke-linejoin="miter">
	<path stroke='black'  d='M592.1,662.4 L592.1,653.4  '/>	<g transform="translate(592.1,684.3)" stroke="none" fill="black" font-family="Helvetica" font-size="12.00"  text-anchor="middle">
		<text><tspan font-family="Helvetica" > 3.4x10</tspan><tspan font-family="Helvetica"  font-size="9.6" dy="-6.00px">6</tspan><tspan font-size="12.0" dy="6.00"></tspan></text>
	</g>
</g>
<g fill="none" color="black" stroke="currentColor" stroke-width="1.00" stroke-linecap="butt" stroke-linejoin="miter">
	<path stroke='black'  d='M697.1,662.4 L697.1,653.4  '/>	<g transform="translate(697.1,684.3)" stroke="none" fill="black" font-family="Helvetica" font-size="12.00"  text-anchor="middle">
		<text><tspan font-family="Helvetica" > 3.6x10</tspan><tspan font-family="Helvetica"  font-size="9.6" dy="-6.00px">6</tspan><tspan font-size="12.0" dy="6.00"></tspan></text>
	</g>
</g>
<g fill="none" color="black" stroke="currentColor" stroke-width="1.00" stroke-linecap="butt" stroke-linejoin="miter">
	<path stroke='black'  d='M802.1,662.4 L802.1,653.4  '/>	<g transform="translate(802.1,684.3)" stroke="none" fill="black" font-family="Helvetica" font-size="12.00"  text-anchor="middle">
		<text><tspan font-family="Helvetica" > 3.8x10</tspan><tspan font-family="Helvetica"  font-size="9.6" dy="-6.00px">6</tspan><tspan font-size="12.0" dy="6.00"></tspan></text>
	</g>
</g>
<g fill="none" color="black" stroke="currentColor" stroke-width="1.00" stroke-linecap="butt" stroke-linejoin="miter">
	<path stroke='black'  d='M907.1,662.4 L907.1,653.4  '/>	<g transform="translate(907.1,684.3)" stroke="none" fill="black" font-family="Helvetica" font-size="12.00"  text-anchor="middle">
		<text><tspan font-family="Helvetica" > 4x10</tspan><tspan font-family="Helvetica"  font-size="9.6" dy="-6.00px">6</tspan><tspan font-size="12.0" dy="6.00"></tspan></text>
	</g>
</g>
<g fill="none" color="black" stroke="currentColor" stroke-width="1.00" stroke-linecap="butt" stroke-linejoin="miter">
	<path stroke='black'  d='M1012.1,662.4 L1012.1,653.4  '/>	<g transform="translate(1012.1,684.3)" stroke="none" fill="black" font-family="Helvetica" font-size="12.00"  text-anchor="middle">
		<text><tspan font-family="Helvetica" > 4.2x10</tspan><tspan font-family="Helvetica"  font-size="9.6" dy="-6.00px">6</tspan><tspan font-size="12.0" dy="6.00"></tspan></text>
	</g>
</g>
<g fill="none" color="black" stroke="currentColor" stroke-width="1.00" stroke-linecap="butt" stroke-linejoin="miter">
</g>
<g fill="none" color="black" stroke="currentColor" stroke-width="1.00" stroke-linecap="butt" stroke-linejoin="miter">
	<path stroke='black'  d='M88.5,54.1 L88.5,662.4 L1013.6,662.4 L1013.6,54.1 L88.5,54.1 Z  '/></g>
<g fill="none" color="black" stroke="currentColor" stroke-width="1.00" stroke-linecap="butt" stroke-linejoin="miter">
	<g transform="translate(16.3,358.3) rotate(270)" stroke="none" fill="black" font-family="Helvetica" font-size="12.00"  text-anchor="middle">
		<text><tspan font-family="Helvetica" >Density (a.u.)</tspan></text>
	</g>
</g>
<g fill="none" color="black" stroke="currentColor" stroke-width="1.00" stroke-linecap="butt" stroke-linejoin="miter">
	<g transform="translate(551.0,711.3)" stroke="none" fill="black" font-family="Helvetica" font-size="12.00"  text-anchor="middle">
		<text><tspan font-family="Helvetica" >Average time (cycles)</tspan></text>
	</g>
</g>
<g fill="none" color="black" stroke="currentColor" stroke-width="1.00" stroke-linecap="butt" stroke-linejoin="miter">
	<g transform="translate(551.0,31.0)" stroke="none" fill="black" font-family="Helvetica" font-size="12.00"  text-anchor="middle">
		<text><tspan font-family="Helvetica" >non_nested_compare/initial calculation/15: median</tspan></text>
	</g>
</g>
	<g id="gnuplot_plot_1" ><title>Bootstrap distribution</title>
<g fill="none" color="white" stroke="black" stroke-width="2.00" stroke-linecap="butt" stroke-linejoin="miter">
</g>
<g fill="none" color="black" stroke="currentColor" stroke-width="2.00" stroke-linecap="butt" stroke-linejoin="miter">
	<g transform="translate(1089.0,67.0)" stroke="none" fill="black" font-family="Helvetica" font-size="12.00"  text-anchor="start">
		<text><tspan font-family="Helvetica" >Bootstrap distribution</tspan></text>
	</g>
</g>
<g fill="none" color="black" stroke="currentColor" stroke-width="2.00" stroke-linecap="butt" stroke-linejoin="miter">
	<path stroke='rgb( 31, 120, 180)'  d='M1038.5,63.1 L1080.7,63.1 M88.5,661.6 L90.4,661.4 L92.2,661.1 L94.1,660.7 L95.9,660.2 L97.8,659.5
		L99.6,658.7 L101.5,657.8 L103.3,656.5 L105.2,655.0 L107.0,653.2 L108.9,651.0 L110.7,648.3 L112.6,645.1
		L114.5,641.3 L116.3,636.9 L118.2,631.6 L120.0,625.6 L121.9,618.5 L123.7,610.5 L125.6,601.3 L127.4,591.0
		L129.3,579.3 L131.1,566.4 L133.0,552.1 L134.8,536.4 L136.7,519.4 L138.6,501.0 L140.4,481.3 L142.3,460.4
		L144.1,438.4 L146.0,415.5 L147.8,391.8 L149.7,367.7 L151.5,343.3 L153.4,318.9 L155.2,294.9 L157.1,271.5
		L158.9,249.0 L160.8,227.9 L162.7,208.4 L164.5,190.8 L166.4,175.4 L168.2,162.5 L170.1,152.2 L171.9,144.9
		L173.8,140.5 L175.6,139.2 L177.5,141.0 L179.3,145.9 L181.2,153.8 L183.0,164.5 L184.9,177.8 L186.8,193.6
		L188.6,211.5 L190.5,231.3 L192.3,252.7 L194.2,275.3 L196.0,298.8 L197.9,322.9 L199.7,347.3 L201.6,371.7
		L203.4,395.7 L205.3,419.3 L207.2,442.0 L209.0,463.8 L210.9,484.5 L212.7,504.0 L214.6,522.2 L216.4,539.0
		L218.3,554.4 L220.1,568.5 L222.0,581.2 L223.8,592.6 L225.7,602.8 L227.5,611.8 L229.4,619.6 L231.3,626.5
		L233.1,632.4 L235.0,637.5 L236.8,641.9 L238.7,645.5 L240.5,648.6 L242.4,651.2 L244.2,653.3 L246.1,655.0
		L247.9,656.4 L249.8,657.5 L251.6,658.4 L253.5,659.0 L255.4,659.4 L257.2,659.7 L259.1,659.9 L260.9,659.9
		L262.8,659.8 L264.6,659.6 L266.5,659.3 L268.3,658.9 L270.2,658.3 L272.0,657.7 L273.9,656.9 L275.7,656.1
		L277.6,655.1 L279.5,653.9 L281.3,652.7 L283.2,651.3 L285.0,649.8 L286.9,648.2 L288.7,646.4 L290.6,644.5
		L292.4,642.6 L294.3,640.5 L296.1,638.4 L298.0,636.2 L299.8,634.0 L301.7,631.8 L303.6,629.5 L305.4,627.4
		L307.3,625.3 L309.1,623.3 L311.0,621.4 L312.8,619.7 L314.7,618.2 L316.5,616.9 L318.4,615.8 L320.2,615.0
		L322.1,614.5 L323.9,614.2 L325.8,614.2 L327.7,614.4 L329.5,615.0 L331.4,615.8 L333.2,616.9 L335.1,618.2
		L336.9,619.7 L338.8,621.4 L340.6,623.2 L342.5,625.2 L344.3,627.3 L346.2,629.4 L348.0,631.7 L349.9,633.9
		L351.8,636.1 L353.6,638.3 L355.5,640.4 L357.3,642.5 L359.2,644.4 L361.0,646.3 L362.9,648.0 L364.7,649.7
		L366.6,651.2 L368.4,652.6 L370.3,653.8 L372.1,655.0 L374.0,656.0 L375.9,656.9 L377.7,657.7 L379.6,658.4
		L381.4,659.0 L383.3,659.5 L385.1,660.0 L387.0,660.3 L388.8,660.6 L390.7,660.9 L392.5,661.0 L394.4,661.1
		L396.2,661.2 L398.1,661.2 L400.0,661.1 L401.8,661.0 L403.7,660.8 L405.5,660.6 L407.4,660.3 L409.2,659.9
		L411.1,659.4 L412.9,658.8 L414.8,658.1 L416.6,657.3 L418.5,656.4 L420.3,655.4 L422.2,654.1 L424.1,652.8
		L425.9,651.3 L427.8,649.5 L429.6,647.7 L431.5,645.6 L433.3,643.3 L435.2,640.8 L437.0,638.2 L438.9,635.4
		L440.7,632.4 L442.6,629.2 L444.5,625.9 L446.3,622.6 L448.2,619.1 L450.0,615.5 L451.9,612.0 L453.7,608.5
		L455.6,605.0 L457.4,601.6 L459.3,598.4 L461.1,595.3 L463.0,592.5 L464.8,590.0 L466.7,587.7 L468.6,585.8
		L470.4,584.3 L472.3,583.2 L474.1,582.4 L476.0,582.1 L477.8,582.3 L479.7,582.8 L481.5,583.8 L483.4,585.1
		L485.2,586.9 L487.1,589.0 L488.9,591.4 L490.8,594.1 L492.7,597.0 L494.5,600.2 L496.4,603.5 L498.2,607.0
		L500.1,610.5 L501.9,614.0 L503.8,617.6 L505.6,621.1 L507.5,624.6 L509.3,627.9 L511.2,631.1 L513.0,634.2
		L514.9,637.1 L516.8,639.8 L518.6,642.4 L520.5,644.7 L522.3,646.9 L524.2,648.8 L526.0,650.6 L527.9,652.2
		L529.7,653.6 L531.6,654.9 L533.4,656.0 L535.3,656.9 L537.1,657.7 L539.0,658.4 L540.9,659.0 L542.7,659.4
		L544.6,659.8 L546.4,660.1 L548.3,660.2 L550.1,660.4 L552.0,660.4 L553.8,660.4 L555.7,660.3 L557.5,660.1
		L559.4,659.9 L561.2,659.6 L563.1,659.2 L565.0,658.8 L566.8,658.3 L568.7,657.7 L570.5,657.1 L572.4,656.4
		L574.2,655.6 L576.1,654.8 L577.9,653.9 L579.8,653.0 L581.6,652.0 L583.5,651.0 L585.3,650.0 L587.2,648.9
		L589.1,647.8 L590.9,646.7 L592.8,645.7 L594.6,644.6 L596.5,643.6 L598.3,642.7 L600.2,641.8 L602.0,641.0
		L603.9,640.3 L605.7,639.7 L607.6,639.2 L609.4,638.8 L611.3,638.6 L613.2,638.4 L615.0,638.4 L616.9,638.6
		L618.7,638.8 L620.6,639.2 L622.4,639.7 L624.3,640.3 L626.1,641.0 L628.0,641.8 L629.8,642.6 L631.7,643.5
		L633.5,644.5 L635.4,645.4 L637.3,646.4 L639.1,647.4 L641.0,648.4 L642.8,649.4 L644.7,650.3 L646.5,651.2
		L648.4,652.1 L650.2,653.0 L652.1,653.7 L653.9,654.5 L655.8,655.2 L657.6,655.8 L659.5,656.4 L661.4,656.9
		L663.2,657.4 L665.1,657.8 L666.9,658.2 L668.8,658.5 L670.6,658.8 L672.5,659.0 L674.3,659.2 L676.2,659.4
		L678.0,659.5 L679.9,659.6 L681.8,659.6 L683.6,659.6 L685.5,659.5 L687.3,659.4 L689.2,659.2 L691.0,659.0
		L692.9,658.7 L694.7,658.4 L696.6,657.9 L698.4,657.5 L700.3,656.9 L702.1,656.3 L704.0,655.7 L705.9,654.9
		L707.7,654.1 L709.6,653.2 L711.4,652.3 L713.3,651.3 L715.1,650.3 L717.0,649.2 L718.8,648.0 L720.7,646.9
		L722.5,645.7 L724.4,644.6 L726.2,643.4 L728.1,642.3 L730.0,641.2 L731.8,640.1 L733.7,639.2 L735.5,638.3
		L737.4,637.4 L739.2,636.7 L741.1,636.1 L742.9,635.6 L744.8,635.2 L746.6,634.9 L748.5,634.7 L750.3,634.7
		L752.2,634.8 L754.1,634.9 L755.9,635.2 L757.8,635.6 L759.6,636.0 L761.5,636.5 L763.3,637.1 L765.2,637.7
		L767.0,638.3 L768.9,639.0 L770.7,639.7 L772.6,640.4 L774.4,641.1 L776.3,641.8 L778.2,642.4 L780.0,643.1
		L781.9,643.7 L783.7,644.3 L785.6,644.9 L787.4,645.4 L789.3,645.9 L791.1,646.4 L793.0,646.8 L794.8,647.2
		L796.7,647.6 L798.5,647.9 L800.4,648.3 L802.3,648.6 L804.1,648.8 L806.0,649.1 L807.8,649.3 L809.7,649.5
		L811.5,649.7 L813.4,649.9 L815.2,650.0 L817.1,650.2 L818.9,650.3 L820.8,650.5 L822.6,650.6 L824.5,650.7
		L826.4,650.8 L828.2,650.9 L830.1,651.0 L831.9,651.1 L833.8,651.2 L835.6,651.3 L837.5,651.5 L839.3,651.6
		L841.2,651.7 L843.0,651.8 L844.9,652.0 L846.7,652.1 L848.6,652.2 L850.5,652.3 L852.3,652.5 L854.2,652.6
		L856.0,652.7 L857.9,652.8 L859.7,652.9 L861.6,653.0 L863.4,653.1 L865.3,653.2 L867.1,653.3 L869.0,653.4
		L870.8,653.4 L872.7,653.5 L874.6,653.6 L876.4,653.7 L878.3,653.7 L880.1,653.8 L882.0,653.9 L883.8,654.0
		L885.7,654.0 L887.5,654.1 L889.4,654.2 L891.2,654.3 L893.1,654.4 L894.9,654.5 L896.8,654.5 L898.7,654.6
		L900.5,654.7 L902.4,654.8 L904.2,654.8 L906.1,654.9 L907.9,654.9 L909.8,655.0 L911.6,655.0 L913.5,655.0
		L915.3,655.1 L917.2,655.1 L919.1,655.1 L920.9,655.1 L922.8,655.1 L924.6,655.2 L926.5,655.2 L928.3,655.2
		L930.2,655.2 L932.0,655.2 L933.9,655.3 L935.7,655.3 L937.6,655.3 L939.4,655.4 L941.3,655.4 L943.2,655.5
		L945.0,655.5 L946.9,655.6 L948.7,655.6 L950.6,655.7 L952.4,655.7 L954.3,655.8 L956.1,655.8 L958.0,655.9
		L959.8,655.9 L961.7,656.0 L963.5,656.0 L965.4,656.0 L967.3,656.1 L969.1,656.1 L971.0,656.1 L972.8,656.2
		L974.7,656.2 L976.5,656.2 L978.4,656.2 L980.2,656.2 L982.1,656.2 L983.9,656.3 L985.8,656.3 L987.6,656.3
		L989.5,656.3 L991.4,656.3 L993.2,656.3 L995.1,656.4 L996.9,656.4 L998.8,656.4 L1000.6,656.4 L1002.5,656.5
		L1004.3,656.5 L1006.2,656.6 L1008.0,656.6 L1009.9,656.7 L1011.7,656.7 L1013.6,656.8  '/></g>
	</g>
	<g id="gnuplot_plot_2" ><title>Confidence interval</title>
<g fill="none" color="white" stroke="rgb( 31, 120, 180)" stroke-width="1.00" stroke-linecap="butt" stroke-linejoin="miter">
</g>
<g fill="none" color="black" stroke="currentColor" stroke-width="1.00" stroke-linecap="butt" stroke-linejoin="miter">
	<g transform="translate(1089.0,85.0)" stroke="none" fill="black" font-family="Helvetica" font-size="12.00"  text-anchor="start">
		<text><tspan font-family="Helvetica" >Confidence interval</tspan></text>
	</g>
</g>
<g fill="none" color="black" stroke="currentColor" stroke-width="1.00" stroke-linecap="butt" stroke-linejoin="miter">
	<g stroke='none' shape-rendering='crispEdges'>
		<polygon fill = 'rgb( 31, 120, 180)' fill-opacity = '0.250000' points = '1038.5,85.6 1080.7,85.6 1080.7,76.6 1038.5,76.6 '/>
		<polygon fill = 'rgb( 31, 120, 180)' fill-opacity = '0.250000' points = '173.8,140.5 175.6,139.2 177.5,141.0 179.3,145.9 181.2,153.8 183.0,164.5 184.9,177.8 186.8,193.6 188.6,211.5 190.5,231.3 192.3,252.7 194.2,275.3 196.0,298.8 197.9,322.9 199.7,347.3 201.6,371.7
203.4,395.7 205.3,419.3 207.2,442.0 209.0,463.8 210.9,484.5 212.7,504.0 214.6,522.2 216.4,539.0 218.3,554.4 220.1,568.5 222.0,581.2 223.8,592.6 225.7,602.8 227.5,611.8 229.4,619.6 231.3,626.5
233.1,632.4 235.0,637.5 236.8,641.9 238.7,645.5 240.5,648.6 242.4,651.2 244.2,653.3 246.1,655.0 247.9,656.4 249.8,657.5 251.6,658.4 253.5,659.0 255.4,659.4 257.2,659.7 259.1,659.9 260.9,659.9
262.8,659.8 264.6,659.6 266.5,659.3 268.3,658.9 270.2,658.3 272.0,657.7 273.9,656.9 275.7,656.1 277.6,655.1 279.5,653.9 281.3,652.7 283.2,651.3 285.0,649.8 286.9,648.2 288.7,646.4 290.6,644.5
292.4,642.6 294.3,640.5 296.1,638.4 298.0,636.2 299.8,634.0 301.7,631.8 303.6,629.5 305.4,627.4 307.3,625.3 309.1,623.3 311.0,621.4 312.8,619.7 314.7,618.2 316.5,616.9 318.4,615.8 320.2,615.0
322.1,614.5 323.9,614.2 325.8,614.2 327.7,614.4 329.5,615.0 331.4,615.8 333.2,616.9 335.1,618.2 336.9,619.7 338.8,621.4 340.6,623.2 342.5,625.2 344.3,627.3 346.2,629.4 348.0,631.7 349.9,633.9
351.8,636.1 353.6,638.3 355.5,640.4 357.3,642.5 359.2,644.4 361.0,646.3 362.9,648.0 364.7,649.7 366.6,651.2 368.4,652.6 370.3,653.8 372.1,655.0 374.0,656.0 375.9,656.9 377.7,657.7 379.6,658.4
381.4,659.0 383.3,659.5 385.1,660.0 387.0,660.3 388.8,660.6 390.7,660.9 392.5,661.0 394.4,661.1 396.2,661.2 398.1,661.2 400.0,661.1 401.8,661.0 403.7,660.8 405.5,660.6 407.4,660.3 409.2,659.9
411.1,659.4 412.9,658.8 414.8,658.1 416.6,657.3 418.5,656.4 420.3,655.4 422.2,654.1 424.1,652.8 425.9,651.3 427.8,649.5 429.6,647.7 431.5,645.6 433.3,643.3 435.2,640.8 437.0,638.2 438.9,635.4
440.7,632.4 442.6,629.2 444.5,625.9 446.3,622.6 448.2,619.1 450.0,615.5 451.9,612.0 453.7,608.5 455.6,605.0 457.4,601.6 459.3,598.4 461.1,595.3 463.0,592.5 464.8,590.0 466.7,587.7 468.6,585.8
470.4,584.3 472.3,583.2 474.1,582.4 476.0,582.1 477.8,582.3 479.7,582.8 481.5,583.8 483.4,585.1 485.2,586.9 487.1,589.0 488.9,591.4 490.8,594.1 492.7,597.0 494.5,600.2 496.4,603.5 498.2,607.0
500.1,610.5 501.9,614.0 503.8,617.6 505.6,621.1 507.5,624.6 509.3,627.9 511.2,631.1 513.0,634.2 514.9,637.1 516.8,639.8 518.6,642.4 520.5,644.7 522.3,646.9 524.2,648.8 526.0,650.6 527.9,652.2
529.7,653.6 531.6,654.9 533.4,656.0 535.3,656.9 537.1,657.7 539.0,658.4 540.9,659.0 542.7,659.4 544.6,659.8 546.4,660.1 548.3,660.2 550.1,660.4 552.0,660.4 553.8,660.4 555.7,660.3 557.5,660.1
559.4,659.9 561.2,659.6 563.1,659.2 565.0,658.8 566.8,658.3 568.7,657.7 570.5,657.1 572.4,656.4 574.2,655.6 576.1,654.8 577.9,653.9 579.8,653.0 581.6,652.0 583.5,651.0 585.3,650.0 587.2,648.9
589.1,647.8 590.9,646.7 592.8,645.7 594.6,644.6 596.5,643.6 598.3,642.7 600.2,641.8 602.0,641.0 603.9,640.3 605.7,639.7 607.6,639.2 609.4,638.8 611.3,638.6 613.2,638.4 615.0,638.4 616.9,638.6
618.7,638.8 620.6,639.2 622.4,639.7 624.3,640.3 626.1,641.0 628.0,641.8 629.8,642.6 631.7,643.5 633.5,644.5 635.4,645.4 637.3,646.4 639.1,647.4 641.0,648.4 642.8,649.4 644.7,650.3 646.5,651.2
648.4,652.1 650.2,653.0 652.1,653.7 653.9,654.5 655.8,655.2 657.6,655.8 659.5,656.4 661.4,656.9 663.2,657.4 665.1,657.8 666.9,658.2 668.8,658.5 670.6,658.8 672.5,659.0 674.3,659.2 676.2,659.4
678.0,659.5 679.9,659.6 681.8,659.6 683.6,659.6 685.5,659.5 687.3,659.4 689.2,659.2 691.0,659.0 692.9,658.7 694.7,658.4 696.6,657.9 698.4,657.5 700.3,656.9 702.1,656.3 704.0,655.7 705.9,654.9
707.7,654.1 709.6,653.2 711.4,652.3 713.3,651.3 715.1,650.3 717.0,649.2 718.8,648.0 720.7,646.9 722.5,645.7 724.4,644.6 726.2,643.4 728.1,642.3 730.0,641.2 731.8,640.1 733.7,639.2 735.5,638.3
737.4,637.4 739.2,636.7 741.1,636.1 742.9,635.6 744.8,635.2 746.6,634.9 748.5,634.7 750.3,634.7 752.2,634.8 754.1,634.9 755.9,635.2 757.8,635.6 759.6,636.0 761.5,636.5 763.3,637.1 765.2,637.7
767.0,638.3 768.9,639.0 770.7,639.7 772.6,640.4 774.4,641.1 776.3,641.8 778.2,642.4 780.0,643.1 781.9,643.7 783.7,644.3 785.6,644.9 787.4,645.4 789.3,645.9 791.1,646.4 793.0,646.8 794.8,647.2
796.7,647.6 798.5,647.9 800.4,648.3 802.3,648.6 804.1,648.8 806.0,649.1 807.8,649.3 809.7,649.5 811.5,649.7 813.4,649.9 815.2,650.0 817.1,650.2 818.9,650.3 820.8,650.5 822.6,650.6 824.5,650.7
826.4,650.8 828.2,650.9 830.1,651.0 831.9,651.1 833.8,651.2 835.6,651.3 837.5,651.5 839.3,651.6 841.2,651.7 843.0,651.8 844.9,652.0 846.7,652.1 848.6,652.2 850.5,652.3 852.3,652.5 854.2,652.6
856.0,652.7 857.9,652.8 859.7,652.9 861.6,653.0 863.4,653.1 865.3,653.2 867.1,653.3 869.0,653.4 870.8,653.4 872.7,653.5 874.6,653.6 876.4,653.7 878.3,653.7 880.1,653.8 882.0,653.9 883.8,654.0
885.7,654.0 887.5,654.1 889.4,654.2 891.2,654.3 893.1,654.4 894.9,654.5 896.8,654.5 898.7,654.6 900.5,654.7 902.4,654.8 904.2,654.8 906.1,654.9 907.9,654.9 909.8,655.0 911.6,655.0 913.5,655.0
915.3,655.1 917.2,655.1 919.1,655.1 920.9,655.1 922.8,655.1 924.6,655.2 926.5,655.2 926.5,662.4 924.6,662.4 922.8,662.4 920.9,662.4 919.1,662.4 917.2,662.4 915.3,662.4 913.5,662.4 911.6,662.4
909.8,662.4 907.9,662.4 906.1,662.4 904.2,662.4 902.4,662.4 900.5,662.4 898.7,662.4 896.8,662.4 894.9,662.4 893.1,662.4 891.2,662.4 889.4,662.4 887.5,662.4 885.7,662.4 883.8,662.4 882.0,662.4
880.1,662.4 878.3,662.4 876.4,662.4 874.6,662.4 872.7,662.4 870.8,662.4 869.0,662.4 867.1,662.4 865.3,662.4 863.4,662.4 861.6,662.4 859.7,662.4 857.9,662.4 856.0,662.4 854.2,662.4 852.3,662.4
850.5,662.4 848.6,662.4 846.7,662.4 844.9,662.4 843.0,662.4 841.2,662.4 839.3,662.4 837.5,662.4 835.6,662.4 833.8,662.4 831.9,662.4 830.1,662.4 828.2,662.4 826.4,662.4 824.5,662.4 822.6,662.4
820.8,662.4 818.9,662.4 817.1,662.4 815.2,662.4 813.4,662.4 811.5,662.4 809.7,662.4 807.8,662.4 806.0,662.4 804.1,662.4 802.3,662.4 800.4,662.4 798.5,662.4 796.7,662.4 794.8,662.4 793.0,662.4
791.1,662.4 789.3,662.4 787.4,662.4 785.6,662.4 783.7,662.4 781.9,662.4 780.0,662.4 778.2,662.4 776.3,662.4 774.4,662.4 772.6,662.4 770.7,662.4 768.9,662.4 767.0,662.4 765.2,662.4 763.3,662.4
761.5,662.4 759.6,662.4 757.8,662.4 755.9,662.4 754.1,662.4 752.2,662.4 750.3,662.4 748.5,662.4 746.6,662.4 744.8,662.4 742.9,662.4 741.1,662.4 739.2,662.4 737.4,662.4 735.5,662.4 733.7,662.4
731.8,662.4 730.0,662.4 728.1,662.4 726.2,662.4 724.4,662.4 722.5,662.4 720.7,662.4 718.8,662.4 717.0,662.4 715.1,662.4 713.3,662.4 711.4,662.4 709.6,662.4 707.7,662.4 705.9,662.4 704.0,662.4
702.1,662.4 700.3,662.4 698.4,662.4 696.6,662.4 694.7,662.4 692.9,662.4 691.0,662.4 689.2,662.4 687.3,662.4 685.5,662.4 683.6,662.4 681.8,662.4 679.9,662.4 678.0,662.4 676.2,662.4 674.3,662.4
672.5,662.4 670.6,662.4 668.8,662.4 666.9,662.4 665.1,662.4 663.2,662.4 661.4,662.4 659.5,662.4 657.6,662.4 655.8,662.4 653.9,662.4 652.1,662.4 650.2,662.4 648.4,662.4 646.5,662.4 644.7,662.4
642.8,662.4 641.0,662.4 639.1,662.4 637.3,662.4 635.4,662.4 633.5,662.4 631.7,662.4 629.8,662.4 628.0,662.4 626.1,662.4 624.3,662.4 622.4,662.4 620.6,662.4 618.7,662.4 616.9,662.4 615.0,662.4
613.2,662.4 611.3,662.4 609.4,662.4 607.6,662.4 605.7,662.4 603.9,662.4 602.0,662.4 600.2,662.4 598.3,662.4 596.5,662.4 594.6,662.4 592.8,662.4 590.9,662.4 589.1,662.4 587.2,662.4 585.3,662.4
583.5,662.4 581.6,662.4 579.8,662.4 577.9,662.4 576.1,662.4 574.2,662.4 572.4,662.4 570.5,662.4 568.7,662.4 566.8,662.4 565.0,662.4 563.1,662.4 561.2,662.4 559.4,662.4 557.5,662.4 555.7,662.4
553.8,662.4 552.0,662.4 550.1,662.4 548.3,662.4 546.4,662.4 544.6,662.4 542.7,662.4 540.9,662.4 539.0,662.4 537.1,662.4 535.3,662.4 533.4,662.4 531.6,662.4 529.7,662.4 527.9,662.4 526.0,662.4
524.2,662.4 522.3,662.4 520.5,662.4 518.6,662.4 516.8,662.4 514.9,662.4 513.0,662.4 511.2,662.4 509.3,662.4 507.5,662.4 505.6,662.4 503.8,662.4 501.9,662.4 500.1,662.4 498.2,662.4 496.4,662.4
494.5,662.4 492.7,662.4 490.8,662.4 488.9,662.4 487.1,662.4 485.2,662.4 483.4,662.4 481.5,662.4 479.7,662.4 477.8,662.4 476.0,662.4 474.1,662.4 472.3,662.4 470.4,662.4 468.6,662.4 466.7,662.4
464.8,662.4 463.0,662.4 461.1,662.4 459.3,662.4 457.4,662.4 455.6,662.4 453.7,662.4 451.9,662.4 450.0,662.4 448.2,662.4 446.3,662.4 444.5,662.4 442.6,662.4 440.7,662.4 438.9,662.4 437.0,662.4
435.2,662.4 433.3,662.4 431.5,662.4 429.6,662.4 427.8,662.4 425.9,662.4 424.1,662.4 422.2,662.4 420.3,662.4 418.5,662.4 416.6,662.4 414.8,662.4 412.9,662.4 411.1,662.4 409.2,662.4 407.4,662.4
405.5,662.4 403.7,662.4 401.8,662.4 400.0,662.4 398.1,662.4 396.2,662.4 394.4,662.4 392.5,662.4 390.7,662.4 388.8,662.4 387.0,662.4 385.1,662.4 383.3,662.4 381.4,662.4 379.6,662.4 377.7,662.4
375.9,662.4 374.0,662.4 372.1,662.4 370.3,662.4 368.4,662.4 366.6,662.4 364.7,662.4 362.9,662.4 361.0,662.4 359.2,662.4 357.3,662.4 355.5,662.4 353.6,662.4 351.8,662.4 349.9,662.4 348.0,662.4
346.2,662.4 344.3,662.4 342.5,662.4 340.6,662.4 338.8,662.4 336.9,662.4 335.1,662.4 333.2,662.4 331.4,662.4 329.5,662.4 327.7,662.4 325.8,662.4 323.9,662.4 322.1,662.4 320.2,662.4 318.4,662.4
316.5,662.4 314.7,662.4 312.8,662.4 311.0,662.4 309.1,662.4 307.3,662.4 305.4,662.4 303.6,662.4 301.7,662.4 299.8,662.4 298.0,662.4 296.1,662.4 294.3,662.4 292.4,662.4 290.6,662.4 288.7,662.4
286.9,662.4 285.0,662.4 283.2,662.4 281.3,662.4 279.5,662.4 277.6,662.4 275.7,662.4 273.9,662.4 272.0,662.4 270.2,662.4 268.3,662.4 266.5,662.4 264.6,662.4 262.8,662.4 260.9,662.4 259.1,662.4
257.2,662.4 255.4,662.4 253.5,662.4 251.6,662.4 249.8,662.4 247.9,662.4 246.1,662.4 244.2,662.4 242.4,662.4 240.5,662.4 238.7,662.4 236.8,662.4 235.0,662.4 233.1,662.4 231.3,662.4 229.4,662.4
227.5,662.4 225.7,662.4 223.8,662.4 222.0,662.4 220.1,662.4 218.3,662.4 216.4,662.4 214.6,662.4 212.7,662.4 210.9,662.4 209.0,662.4 207.2,662.4 205.3,662.4 203.4,662.4 201.6,662.4 199.7,662.4
197.9,662.4 196.0,662.4 194.2,662.4 192.3,662.4 190.5,662.4 188.6,662.4 186.8,662.4 184.9,662.4 183.0,662.4 181.2,662.4 179.3,662.4 177.5,662.4 175.6,662.4 173.8,662.4 '/>
	</g>
</g>
	</g>
	<g id="gnuplot_plot_3" ><title>Point estimate</title>
<g fill="none" color="white" stroke="rgb( 31, 120, 180)" stroke-width="2.00" stroke-linecap="butt" stroke-linejoin="miter">
</g>
<g fill="none" color="black" stroke="currentColor" stroke-width="2.00" stroke-linecap="butt" stroke-linejoin="miter">
	<g transform="translate(1089.0,103.0)" stroke="none" fill="black" font-family="Helvetica" font-size="12.00"  text-anchor="start">
		<text><tspan font-family="Helvetica" >Point estimate</tspan></text>
	</g>
</g>
<g fill="none" color="black" stroke="currentColor" stroke-width="2.00" stroke-linecap="butt" stroke-linejoin="miter">
	<path stroke='rgb( 31, 120, 180)'  d='M1038.5,99.1 L1080.7,99.1 M175.8,662.4 L175.8,139.4  '/></g>
	</g>
<g fill="none" color="black" stroke="currentColor" stroke-width="2.00" stroke-linecap="butt" stroke-linejoin="miter">
</g>
<g fill="none" color="black" stroke="black" stroke-width="1.00" stroke-linecap="butt" stroke-linejoin="miter">
</g>
<g fill="none" color="black" stroke="currentColor" stroke-width="1.00" stroke-linecap="butt" stroke-linejoin="miter">
	<path stroke='black'  d='M88.5,54.1 L88.5,662.4 L1013.6,662.4 L1013.6,54.1 L88.5,54.1 Z  '/></g>
<g fill="none" color="black" stroke="currentColor" stroke-width="1.00" stroke-linecap="butt" stroke-linejoin="miter">
</g>
</g>
</svg>

